Warning: no access to tty (Bad file descriptor).
Thus no job control in this shell.
tput: No value for $TERM and no -T specified
Node: wh21.sciclone.wm.edu
[INFO ] fr.inria.main.AbstractMain.processArguments(AbstractMain.java:295) - command line arguments: [-out  /local/scr/mtufano/Math/74/b/random-global-default/2  -jvm4testexecution  /usr/local/jdk1.7.0_80/bin/  -loglevel  INFO  -maxVarCombination  1000  -maxgen  1000000  -population  1  -maxtime  180  -timezone  America/New_York  -customop  fr.inria.astor.approaches.jgenprog.operators.InsertAfterOp:fr.inria.astor.approaches.jgenprog.operators.InsertBeforeOp:fr.inria.astor.approaches.jgenprog.operators.ReplaceOp  -seed  2  -javacompliancelevel  5  -package  org.apache.commons  -binjavafolder  target/classes/  -bintestfolder  target/test-classes/  -srcjavafolder  src/main/java/  -srctestfolder  src/test/java/  -learningdir  ../../out/learningdir/Math/74/b/  -location  ../../dat/defects4j/Math/74/b/  -failing  org.apache.commons.math.ode.nonstiff.AdamsMoultonIntegratorTest  -dependencies  ../../dat/libs/Math/commons-discovery-0.5.jar  -scope  fr.inria.astor.core.loop.spaces.ingredients.scopes.ctscopes.CtGlobalIngredientScope  -ingredientstrategy  fr.inria.astor.core.loop.spaces.ingredients.ingredientSearch.EfficientIngredientStrategy  -classestoinstrument  org.apache.commons.math.linear.AbstractFieldMatrix:org.apache.commons.math.linear.BlockRealMatrix:org.apache.commons.math.ode.events.EventException:org.apache.commons.math.linear.BigMatrix:org.apache.commons.math.ode.MultistepIntegrator:org.apache.commons.math.ode.sampling.StepHandler:org.apache.commons.math.linear.BlockFieldMatrix:org.apache.commons.math.ode.DerivativeException:org.apache.commons.math.MaxIterationsExceededException:org.apache.commons.math.ode.nonstiff.DormandPrince853StepInterpolator:org.apache.commons.math.ode.nonstiff.AdaptiveStepsizeIntegrator:org.apache.commons.math.ode.events.CombinedEventsManager:org.apache.commons.math.ode.sampling.DummyStepInterpolator:org.apache.commons.math.analysis.UnivariateRealFunction:org.apache.commons.math.ode.nonstiff.AdamsIntegrator:org.apache.commons.math.ode.sampling.AbstractStepInterpolator:org.apache.commons.math.linear.MatrixUtils:org.apache.commons.math.ode.nonstiff.DormandPrince853Integrator:org.apache.commons.math.analysis.solvers.UnivariateRealSolver:org.apache.commons.math.ode.events.EventHandler:org.apache.commons.math.analysis.solvers.BrentSolver:org.apache.commons.math.ode.events.EventState:org.apache.commons.math.linear.SingularMatrixException:org.apache.commons.math.linear.FieldMatrix:org.apache.commons.math.MaxEvaluationsExceededException:org.apache.commons.math.ode.nonstiff.AdamsNordsieckTransformer:org.apache.commons.math.ode.FirstOrderDifferentialEquations:org.apache.commons.math.linear.InvalidMatrixException:org.apache.commons.math.linear.AbstractRealMatrix:org.apache.commons.math.linear.MatrixIndexException:org.apache.commons.math.fraction.FractionConversionException:org.apache.commons.math.linear.Array2DRowFieldMatrix:org.apache.commons.math.linear.RealVector:org.apache.commons.math.linear.RealMatrixPreservingVisitor:org.apache.commons.math.ConvergingAlgorithmImpl:org.apache.commons.math.MathRuntimeException:org.apache.commons.math.analysis.solvers.UnivariateRealSolverImpl:org.apache.commons.math.linear.FieldLUDecompositionImpl:org.apache.commons.math.linear.RealMatrixChangingVisitor:org.apache.commons.math.ode.AbstractIntegrator:org.apache.commons.math.MathException:org.apache.commons.math.FieldElement:org.apache.commons.math.ode.IntegratorException:org.apache.commons.math.ode.FirstOrderIntegrator:org.apache.commons.math.ConvergingAlgorithm:org.apache.commons.math.ode.ODEIntegrator:org.apache.commons.math.linear.FieldMatrixChangingVisitor:org.apache.commons.math.Field:org.apache.commons.math.linear.NonSquareMatrixException:org.apache.commons.math.ode.nonstiff.EmbeddedRungeKuttaIntegrator:org.apache.commons.math.fraction.BigFraction:org.apache.commons.math.ode.sampling.NordsieckStepInterpolator:org.apache.commons.math.linear.FieldLUDecomposition:org.apache.commons.math.linear.DefaultFieldMatrixPreservingVisitor:org.apache.commons.math.ConvergenceException:org.apache.commons.math.ode.nonstiff.RungeKuttaStepInterpolator:org.apache.commons.math.linear.AnyMatrix:org.apache.commons.math.linear.FieldDecompositionSolver:org.apache.commons.math.fraction.BigFractionField:org.apache.commons.math.linear.RealMatrix:org.apache.commons.math.linear.DefaultFieldMatrixChangingVisitor:org.apache.commons.math.ode.nonstiff.AdamsMoultonIntegrator:org.apache.commons.math.FunctionEvaluationException:org.apache.commons.math.ode.sampling.StepInterpolator:org.apache.commons.math.linear.FieldVector:org.apache.commons.math.linear.FieldMatrixPreservingVisitor:org.apache.commons.math.linear.Array2DRowRealMatrix:  -regressiontestcases4fl  org.apache.commons.math.ode.ContinuousOutputModelTest:org.apache.commons.math.ode.nonstiff.AdamsBashforthIntegratorTest:org.apache.commons.math.ode.nonstiff.AdamsMoultonIntegratorTest:org.apache.commons.math.ode.nonstiff.DormandPrince54IntegratorTest:org.apache.commons.math.ode.nonstiff.DormandPrince54StepInterpolatorTest:org.apache.commons.math.ode.nonstiff.DormandPrince853IntegratorTest:org.apache.commons.math.ode.nonstiff.DormandPrince853StepInterpolatorTest:org.apache.commons.math.ode.nonstiff.HighamHall54IntegratorTest:org.apache.commons.math.ode.nonstiff.HighamHall54StepInterpolatorTest:org.apache.commons.math.ode.sampling.NordsieckStepInterpolatorTest:org.apache.commons.math.ode.sampling.StepNormalizerTest:]
[INFO ] fr.inria.astor.core.manipulation.MutationSupporter.buildModel(MutationSupporter.java:76) - building model: /local/scr/mtufano/Math/74/b/random-global-default/2/AstorMain-b//src//default, compliance level: 5
[INFO ] fr.inria.astor.core.manipulation.MutationSupporter.buildModel(MutationSupporter.java:85) - Classpath for building SpoonModel [/sciclone/data20/mtufano/deeprepair/bin/eval/../../dat/libs/Math/commons-discovery-0.5.jar]
[INFO ] fr.inria.astor.core.setup.ProjectRepairFacade.calculateSuspicious(ProjectRepairFacade.java:215) - -Executing Gzoltar classpath: /local/scr/mtufano/Math/74/b/random-global-default/2/AstorMain-b//bin//default from 11 classes with test cases
[INFO ] fr.inria.astor.core.faultlocalization.GZoltarFaultLocalization.searchSuspicious(GZoltarFaultLocalization.java:37) - Gzoltar fault localization: min susp value parameter: 0.1
[INFO ] fr.inria.astor.core.faultlocalization.GZoltarFaultLocalization.searchSuspicious(GZoltarFaultLocalization.java:57) - -gz-Adding classpath: [/local/scr/mtufano/Math/74/b/random-global-default/2/AstorMain-b//bin//default, /sciclone/data20/mtufano/deeprepair/bin/eval/../../dat/libs/Math/commons-discovery-0.5.jar]
[INFO ] fr.inria.astor.core.faultlocalization.GZoltarFaultLocalization.searchSuspicious(GZoltarFaultLocalization.java:76) - Test failt: org.apache.commons.math.ode.nonstiff.AdamsMoultonIntegratorTest#polynomial
[INFO ] fr.inria.astor.core.faultlocalization.GZoltarFaultLocalization.searchSuspicious(GZoltarFaultLocalization.java:81) - Gzoltar Test Result Total:56, fails: 1, GZoltar suspicious 1463
[INFO ] fr.inria.astor.core.faultlocalization.GZoltarFaultLocalization.searchSuspicious(GZoltarFaultLocalization.java:123) - Gzoltar found: 644 with susp > 0.1, we consider: 644
[INFO ] fr.inria.astor.approaches.jgenprog.JGenProg.initPopulation(JGenProg.java:80) - 
---- Initial suspicious size: 642
[INFO ] fr.inria.astor.core.loop.population.ProgramVariantFactory.createProgramInstance(ProgramVariantFactory.java:126) - -any mod point created for suspicious Candidate [className=org.apache.commons.math.ode.nonstiff.AdamsMoultonIntegrator, methodName=org.apache.commons.math.ode.nonstiff.AdamsMoultonIntegrator{integrate(Lorg/apache/commons/math/ode/FirstOrderDifferentialEquations;D[DD[D)D 0.0, lineNumber=299, susp=0.5773502691896258]
[INFO ] fr.inria.astor.core.loop.population.ProgramVariantFactory.createProgramInstance(ProgramVariantFactory.java:126) - -any mod point created for suspicious Candidate [className=org.apache.commons.math.ode.nonstiff.AdamsMoultonIntegrator$Corrector, methodName=org.apache.commons.math.ode.nonstiff.AdamsMoultonIntegrator$Corrector{start(IIIIII)V 0.0, lineNumber=401, susp=0.5]
[INFO ] fr.inria.astor.core.loop.population.ProgramVariantFactory.createProgramInstance(ProgramVariantFactory.java:126) - -any mod point created for suspicious Candidate [className=org.apache.commons.math.ode.nonstiff.AdamsMoultonIntegrator$Corrector, methodName=org.apache.commons.math.ode.nonstiff.AdamsMoultonIntegrator$Corrector{visit(IID)V 0.0, lineNumber=411, susp=0.5]
[INFO ] fr.inria.astor.core.loop.population.ProgramVariantFactory.createProgramInstance(ProgramVariantFactory.java:126) - -any mod point created for suspicious Candidate [className=org.apache.commons.math.ode.nonstiff.AdamsMoultonIntegrator, methodName=org.apache.commons.math.ode.nonstiff.AdamsMoultonIntegrator{integrate(Lorg/apache/commons/math/ode/FirstOrderDifferentialEquations;D[DD[D)D 0.0, lineNumber=307, susp=0.5]
[INFO ] fr.inria.astor.core.loop.population.ProgramVariantFactory.createProgramInstance(ProgramVariantFactory.java:126) - -any mod point created for suspicious Candidate [className=org.apache.commons.math.ode.nonstiff.AdamsMoultonIntegrator, methodName=org.apache.commons.math.ode.nonstiff.AdamsMoultonIntegrator{integrate(Lorg/apache/commons/math/ode/FirstOrderDifferentialEquations;D[DD[D)D 0.0, lineNumber=314, susp=0.5]
[INFO ] fr.inria.astor.core.loop.population.ProgramVariantFactory.createProgramInstance(ProgramVariantFactory.java:126) - -any mod point created for suspicious Candidate [className=org.apache.commons.math.ode.nonstiff.AdamsMoultonIntegrator, methodName=org.apache.commons.math.ode.nonstiff.AdamsMoultonIntegrator{integrate(Lorg/apache/commons/math/ode/FirstOrderDifferentialEquations;D[DD[D)D 0.0, lineNumber=327, susp=0.5]
[INFO ] fr.inria.astor.core.loop.population.ProgramVariantFactory.createProgramInstance(ProgramVariantFactory.java:126) - -any mod point created for suspicious Candidate [className=org.apache.commons.math.ode.nonstiff.AdamsMoultonIntegrator, methodName=org.apache.commons.math.ode.nonstiff.AdamsMoultonIntegrator{integrate(Lorg/apache/commons/math/ode/FirstOrderDifferentialEquations;D[DD[D)D 0.0, lineNumber=354, susp=0.5]
[INFO ] fr.inria.astor.core.loop.population.ProgramVariantFactory.createProgramInstance(ProgramVariantFactory.java:126) - -any mod point created for suspicious Candidate [className=org.apache.commons.math.ode.nonstiff.AdamsMoultonIntegrator, methodName=org.apache.commons.math.ode.nonstiff.AdamsMoultonIntegrator{integrate(Lorg/apache/commons/math/ode/FirstOrderDifferentialEquations;D[DD[D)D 0.0, lineNumber=230, susp=0.4472135954999579]
[INFO ] fr.inria.astor.core.loop.population.ProgramVariantFactory.createProgramInstance(ProgramVariantFactory.java:126) - -any mod point created for suspicious Candidate [className=org.apache.commons.math.linear.MatrixUtils, methodName=org.apache.commons.math.linear.MatrixUtils{checkMultiplicationCompatible(Lorg/apache/commons/math/linear/AnyMatrix;Lorg/apache/commons/math/linear/AnyMatrix;)V 0.0, lineNumber=656, susp=0.31622776601683794]
[INFO ] fr.inria.astor.core.loop.population.ProgramVariantFactory.createProgramInstance(ProgramVariantFactory.java:126) - -any mod point created for suspicious Candidate [className=org.apache.commons.math.ode.nonstiff.AdamsNordsieckTransformer, methodName=org.apache.commons.math.ode.nonstiff.AdamsNordsieckTransformer{updateHighOrderDerivativesPhase2([D[DLorg/apache/commons/math/linear/Array2DRowRealMatrix;)V 0.0, lineNumber=310, susp=0.31622776601683794]
[INFO ] fr.inria.astor.core.loop.population.ProgramVariantFactory.createProgramInstance(ProgramVariantFactory.java:126) - -any mod point created for suspicious Candidate [className=org.apache.commons.math.ode.MultistepIntegrator, methodName=org.apache.commons.math.ode.MultistepIntegrator{start(D[DD)V 0.0, lineNumber=235, susp=0.31622776601683794]
[INFO ] fr.inria.astor.core.loop.population.ProgramVariantFactory.createProgramInstance(ProgramVariantFactory.java:126) - -any mod point created for suspicious Candidate [className=org.apache.commons.math.ode.MultistepIntegrator, methodName=org.apache.commons.math.ode.MultistepIntegrator{access$000(Lorg/apache/commons/math/ode/MultistepIntegrator;)I 0.0, lineNumber=59, susp=0.31622776601683794]
[INFO ] fr.inria.astor.core.loop.population.ProgramVariantFactory.createProgramInstance(ProgramVariantFactory.java:126) - -any mod point created for suspicious Candidate [className=org.apache.commons.math.ode.nonstiff.AdamsIntegrator, methodName=org.apache.commons.math.ode.nonstiff.AdamsIntegrator{updateHighOrderDerivativesPhase2([D[DLorg/apache/commons/math/linear/Array2DRowRealMatrix;)V 0.0, lineNumber=129, susp=0.31622776601683794]
[INFO ] fr.inria.astor.core.loop.population.ProgramVariantFactory.createProgramInstance(ProgramVariantFactory.java:126) - -any mod point created for suspicious Candidate [className=org.apache.commons.math.ode.sampling.NordsieckStepInterpolator, methodName=org.apache.commons.math.ode.sampling.NordsieckStepInterpolator{reinitialize(DD[DLorg/apache/commons/math/linear/Array2DRowRealMatrix;)V 0.0, lineNumber=135, susp=0.31622776601683794]
[INFO ] fr.inria.astor.core.loop.population.ProgramVariantFactory.createProgramInstance(ProgramVariantFactory.java:126) - -any mod point created for suspicious Candidate [className=org.apache.commons.math.ode.sampling.NordsieckStepInterpolator, methodName=org.apache.commons.math.ode.sampling.NordsieckStepInterpolator{rescale(D)V 0.0, lineNumber=161, susp=0.31622776601683794]
[INFO ] fr.inria.astor.core.loop.population.ProgramVariantFactory.createProgramInstance(ProgramVariantFactory.java:126) - -any mod point created for suspicious Candidate [className=org.apache.commons.math.ode.sampling.NordsieckStepInterpolator, methodName=org.apache.commons.math.ode.sampling.NordsieckStepInterpolator{computeInterpolatedStateAndDerivatives(DD)V 0.0, lineNumber=215, susp=0.31622776601683794]
[INFO ] fr.inria.astor.core.loop.population.ProgramVariantFactory.createProgramInstance(ProgramVariantFactory.java:126) - -any mod point created for suspicious Candidate [className=org.apache.commons.math.ode.AbstractIntegrator, methodName=org.apache.commons.math.ode.AbstractIntegrator{clearStepHandlers()V 0.0, lineNumber=98, susp=0.2886751345948129]
[INFO ] fr.inria.astor.core.loop.population.ProgramVariantFactory.createProgramInstance(ProgramVariantFactory.java:126) - -any mod point created for suspicious Candidate [className=org.apache.commons.math.ode.MultistepIntegrator$CountingDifferentialEquations, methodName=org.apache.commons.math.ode.MultistepIntegrator$CountingDifferentialEquations{computeDerivatives(D[D[D)V 0.0, lineNumber=396, susp=0.2886751345948129]
[INFO ] fr.inria.astor.core.loop.population.ProgramVariantFactory.createProgramInstance(ProgramVariantFactory.java:126) - -any mod point created for suspicious Candidate [className=org.apache.commons.math.ode.sampling.NordsieckStepInterpolator, methodName=org.apache.commons.math.ode.sampling.NordsieckStepInterpolator{reinitialize([DZ)V 0.0, lineNumber=110, susp=0.2886751345948129]
[INFO ] fr.inria.astor.core.loop.population.ProgramVariantFactory.createProgramInstance(ProgramVariantFactory.java:126) - -any mod point created for suspicious Candidate [className=org.apache.commons.math.ode.sampling.NordsieckStepInterpolator, methodName=org.apache.commons.math.ode.sampling.NordsieckStepInterpolator{reinitialize([DZ)V 0.0, lineNumber=112, susp=0.2886751345948129]
[INFO ] fr.inria.astor.core.loop.population.ProgramVariantFactory.createProgramInstance(ProgramVariantFactory.java:126) - -any mod point created for suspicious Candidate [className=org.apache.commons.math.ode.MultistepIntegrator$NordsieckInitializer, methodName=org.apache.commons.math.ode.MultistepIntegrator$NordsieckInitializer{reset()V 0.0, lineNumber=361, susp=0.2886751345948129]
[INFO ] fr.inria.astor.core.loop.population.ProgramVariantFactory.createProgramInstance(ProgramVariantFactory.java:126) - -any mod point created for suspicious Candidate [className=org.apache.commons.math.ode.MultistepIntegrator, methodName=org.apache.commons.math.ode.MultistepIntegrator{setMinReduction(D)V 0.0, lineNumber=258, susp=0.2672612419124244]
[INFO ] fr.inria.astor.core.loop.population.ProgramVariantFactory.createProgramInstance(ProgramVariantFactory.java:126) - -any mod point created for suspicious Candidate [className=org.apache.commons.math.ode.MultistepIntegrator, methodName=org.apache.commons.math.ode.MultistepIntegrator{setMaxGrowth(D)V 0.0, lineNumber=272, susp=0.2672612419124244]
[INFO ] fr.inria.astor.core.loop.population.ProgramVariantFactory.createProgramInstance(ProgramVariantFactory.java:126) - -any mod point created for suspicious Candidate [className=org.apache.commons.math.ode.MultistepIntegrator, methodName=org.apache.commons.math.ode.MultistepIntegrator{setSafety(D)V 0.0, lineNumber=286, susp=0.2672612419124244]
[INFO ] fr.inria.astor.core.loop.population.ProgramVariantFactory.createProgramInstance(ProgramVariantFactory.java:126) - -any mod point created for suspicious Candidate [className=org.apache.commons.math.ode.AbstractIntegrator, methodName=org.apache.commons.math.ode.AbstractIntegrator{clearEventHandlers()V 0.0, lineNumber=117, susp=0.2581988897471611]
[INFO ] fr.inria.astor.core.loop.population.ProgramVariantFactory.createProgramInstance(ProgramVariantFactory.java:126) - -any mod point created for suspicious Candidate [className=org.apache.commons.math.ode.events.CombinedEventsManager, methodName=org.apache.commons.math.ode.events.CombinedEventsManager{clearEventsHandlers()V 0.0, lineNumber=95, susp=0.2581988897471611]
[INFO ] fr.inria.astor.core.loop.population.ProgramVariantFactory.createProgramInstance(ProgramVariantFactory.java:126) - -any mod point created for suspicious Candidate [className=org.apache.commons.math.ode.nonstiff.DormandPrince853StepInterpolator, methodName=org.apache.commons.math.ode.nonstiff.DormandPrince853StepInterpolator{computeInterpolatedStateAndDerivatives(DD)V 0.0, lineNumber=385, susp=0.22360679774997896]
[INFO ] fr.inria.astor.core.loop.population.ProgramVariantFactory.createProgramInstance(ProgramVariantFactory.java:126) - -any mod point created for suspicious Candidate [className=org.apache.commons.math.ode.nonstiff.DormandPrince853StepInterpolator, methodName=org.apache.commons.math.ode.nonstiff.DormandPrince853StepInterpolator{doFinalize()V 0.0, lineNumber=429, susp=0.22360679774997896]
[INFO ] fr.inria.astor.core.loop.population.ProgramVariantFactory.createProgramInstance(ProgramVariantFactory.java:126) - -any mod point created for suspicious Candidate [className=org.apache.commons.math.ode.nonstiff.DormandPrince853StepInterpolator, methodName=org.apache.commons.math.ode.nonstiff.DormandPrince853StepInterpolator{reinitialize(Lorg/apache/commons/math/ode/AbstractIntegrator;[D[[DZ)V 0.0, lineNumber=287, susp=0.20851441405707477]
[INFO ] fr.inria.astor.core.loop.population.ProgramVariantFactory.createProgramInstance(ProgramVariantFactory.java:126) - -any mod point created for suspicious Candidate [className=org.apache.commons.math.ode.nonstiff.DormandPrince853StepInterpolator, methodName=org.apache.commons.math.ode.nonstiff.DormandPrince853StepInterpolator{reinitialize(Lorg/apache/commons/math/ode/AbstractIntegrator;[D[[DZ)V 0.0, lineNumber=303, susp=0.20851441405707477]
[INFO ] fr.inria.astor.core.loop.population.ProgramVariantFactory.createProgramInstance(ProgramVariantFactory.java:126) - -any mod point created for suspicious Candidate [className=org.apache.commons.math.ode.nonstiff.DormandPrince853StepInterpolator, methodName=org.apache.commons.math.ode.nonstiff.DormandPrince853StepInterpolator{storeTime(D)V 0.0, lineNumber=308, susp=0.20851441405707477]
[INFO ] fr.inria.astor.core.loop.population.ProgramVariantFactory.createProgramInstance(ProgramVariantFactory.java:126) - -any mod point created for suspicious Candidate [className=org.apache.commons.math.ode.nonstiff.DormandPrince853StepInterpolator, methodName=org.apache.commons.math.ode.nonstiff.DormandPrince853StepInterpolator{storeTime(D)V 0.0, lineNumber=310, susp=0.20851441405707477]
[INFO ] fr.inria.astor.core.loop.population.ProgramVariantFactory.createProgramInstance(ProgramVariantFactory.java:126) - -any mod point created for suspicious Candidate [className=org.apache.commons.math.analysis.solvers.UnivariateRealSolverImpl, methodName=org.apache.commons.math.analysis.solvers.UnivariateRealSolverImpl{setResult(DI)V 0.0, lineNumber=144, susp=0.16012815380508713]
[INFO ] fr.inria.astor.core.loop.population.ProgramVariantFactory.createProgramInstance(ProgramVariantFactory.java:126) - -any mod point created for suspicious Candidate [className=org.apache.commons.math.analysis.solvers.UnivariateRealSolverImpl, methodName=org.apache.commons.math.analysis.solvers.UnivariateRealSolverImpl{clearResult()V 0.0, lineNumber=167, susp=0.15811388300841897]
[INFO ] fr.inria.astor.core.loop.population.ProgramVariantFactory.createProgramInstance(ProgramVariantFactory.java:126) - -any mod point created for suspicious Candidate [className=org.apache.commons.math.analysis.solvers.UnivariateRealSolverImpl, methodName=org.apache.commons.math.analysis.solvers.UnivariateRealSolverImpl{verifyInterval(DD)V 0.0, lineNumber=213, susp=0.15811388300841897]
[INFO ] fr.inria.astor.core.loop.population.ProgramVariantFactory.createProgramInstance(ProgramVariantFactory.java:126) - -any mod point created for suspicious Candidate [className=org.apache.commons.math.ode.events.EventState, methodName=org.apache.commons.math.ode.events.EventState{access$000(Lorg/apache/commons/math/ode/events/EventState;)Lorg/apache/commons/math/ode/events/EventHandler; 0.0, lineNumber=42, susp=0.15811388300841897]
[INFO ] fr.inria.astor.core.loop.population.ProgramVariantFactory.createProgramInstance(ProgramVariantFactory.java:126) - -any mod point created for suspicious Candidate [className=org.apache.commons.math.analysis.solvers.BrentSolver, methodName=org.apache.commons.math.analysis.solvers.BrentSolver{solve(Lorg/apache/commons/math/analysis/UnivariateRealFunction;DDDDDD)D 0.0, lineNumber=308, susp=0.15811388300841897]
[INFO ] fr.inria.astor.core.loop.population.ProgramVariantFactory.createProgramInstance(ProgramVariantFactory.java:126) - -any mod point created for suspicious Candidate [className=org.apache.commons.math.ConvergingAlgorithmImpl, methodName=org.apache.commons.math.ConvergingAlgorithmImpl{setAbsoluteAccuracy(D)V 0.0, lineNumber=79, susp=0.15811388300841897]
[INFO ] fr.inria.astor.core.loop.population.ProgramVariantFactory.createProgramInstance(ProgramVariantFactory.java:126) - -any mod point created for suspicious Candidate [className=org.apache.commons.math.ConvergingAlgorithmImpl, methodName=org.apache.commons.math.ConvergingAlgorithmImpl{setMaximalIterationCount(I)V 0.0, lineNumber=94, susp=0.15811388300841897]
[INFO ] fr.inria.astor.core.loop.population.ProgramVariantFactory.createProgramInstance(ProgramVariantFactory.java:126) - -any mod point created for suspicious Candidate [className=org.apache.commons.math.ode.events.CombinedEventsManager, methodName=org.apache.commons.math.ode.events.CombinedEventsManager{evaluateStep(Lorg/apache/commons/math/ode/sampling/StepInterpolator;)Z 0.0, lineNumber=143, susp=0.15249857033260467]
[INFO ] fr.inria.astor.core.loop.population.ProgramVariantFactory.createProgramInstance(ProgramVariantFactory.java:126) - -any mod point created for suspicious Candidate [className=org.apache.commons.math.ode.events.CombinedEventsManager, methodName=org.apache.commons.math.ode.events.CombinedEventsManager{evaluateStep(Lorg/apache/commons/math/ode/sampling/StepInterpolator;)Z 0.0, lineNumber=168, susp=0.15249857033260467]
[INFO ] fr.inria.astor.core.loop.population.ProgramVariantFactory.createProgramInstance(ProgramVariantFactory.java:126) - -any mod point created for suspicious Candidate [className=org.apache.commons.math.ode.events.CombinedEventsManager, methodName=org.apache.commons.math.ode.events.CombinedEventsManager{stepAccepted(D[D)V 0.0, lineNumber=204, susp=0.15249857033260467]
[INFO ] fr.inria.astor.core.loop.population.ProgramVariantFactory.createProgramInstance(ProgramVariantFactory.java:126) - -any mod point created for suspicious Candidate [className=org.apache.commons.math.ode.events.CombinedEventsManager, methodName=org.apache.commons.math.ode.events.CombinedEventsManager{stepAccepted(D[D)V 0.0, lineNumber=207, susp=0.15249857033260467]
[INFO ] fr.inria.astor.core.loop.population.ProgramVariantFactory.createProgramInstance(ProgramVariantFactory.java:126) - -any mod point created for suspicious Candidate [className=org.apache.commons.math.ode.events.CombinedEventsManager, methodName=org.apache.commons.math.ode.events.CombinedEventsManager{stepAccepted(D[D)V 0.0, lineNumber=208, susp=0.15249857033260467]
[INFO ] fr.inria.astor.core.loop.population.ProgramVariantFactory.createProgramInstance(ProgramVariantFactory.java:126) - -any mod point created for suspicious Candidate [className=org.apache.commons.math.ode.events.CombinedEventsManager, methodName=org.apache.commons.math.ode.events.CombinedEventsManager{stop()Z 0.0, lineNumber=219, susp=0.15249857033260467]
[INFO ] fr.inria.astor.core.loop.population.ProgramVariantFactory.createProgramInstance(ProgramVariantFactory.java:126) - -any mod point created for suspicious Candidate [className=org.apache.commons.math.ode.events.CombinedEventsManager, methodName=org.apache.commons.math.ode.events.CombinedEventsManager{reset(D[D)Z 0.0, lineNumber=240, susp=0.15249857033260467]
[INFO ] fr.inria.astor.core.loop.population.ProgramVariantFactory.createProgramInstance(ProgramVariantFactory.java:126) - -any mod point created for suspicious Candidate [className=org.apache.commons.math.ode.events.EventState, methodName=org.apache.commons.math.ode.events.EventState{reinitializeBegin(D[D)V 0.0, lineNumber=154, susp=0.15249857033260467]
[INFO ] fr.inria.astor.core.loop.population.ProgramVariantFactory.createProgramInstance(ProgramVariantFactory.java:126) - -any mod point created for suspicious Candidate [className=org.apache.commons.math.ode.events.EventState, methodName=org.apache.commons.math.ode.events.EventState{stepAccepted(D[D)V 0.0, lineNumber=308, susp=0.15249857033260467]
[INFO ] fr.inria.astor.core.loop.population.ProgramVariantFactory.createProgramInstance(ProgramVariantFactory.java:126) - -any mod point created for suspicious Candidate [className=org.apache.commons.math.ode.nonstiff.RungeKuttaStepInterpolator, methodName=org.apache.commons.math.ode.nonstiff.RungeKuttaStepInterpolator{reinitialize(Lorg/apache/commons/math/ode/AbstractIntegrator;[D[[DZ)V 0.0, lineNumber=129, susp=0.15075567228888181]
[INFO ] fr.inria.astor.core.loop.population.ProgramVariantFactory.createProgramInstance(ProgramVariantFactory.java:126) - -any mod point created for suspicious Candidate [className=org.apache.commons.math.ode.nonstiff.EmbeddedRungeKuttaIntegrator, methodName=org.apache.commons.math.ode.nonstiff.EmbeddedRungeKuttaIntegrator{integrate(Lorg/apache/commons/math/ode/FirstOrderDifferentialEquations;D[DD[D)D 0.0, lineNumber=216, susp=0.15075567228888181]
[INFO ] fr.inria.astor.core.loop.population.ProgramVariantFactory.createProgramInstance(ProgramVariantFactory.java:126) - -any mod point created for suspicious Candidate [className=org.apache.commons.math.ode.sampling.AbstractStepInterpolator, methodName=org.apache.commons.math.ode.sampling.AbstractStepInterpolator{reinitialize([DZ)V 0.0, lineNumber=184, susp=0.15075567228888181]
[INFO ] fr.inria.astor.core.loop.population.ProgramVariantFactory.createProgramInstance(ProgramVariantFactory.java:126) - -any mod point created for suspicious Candidate [className=org.apache.commons.math.ode.sampling.AbstractStepInterpolator, methodName=org.apache.commons.math.ode.sampling.AbstractStepInterpolator{finalizeStep()V 0.0, lineNumber=345, susp=0.14907119849998599]
[INFO ] fr.inria.astor.core.loop.population.ProgramVariantFactory.createProgramInstance(ProgramVariantFactory.java:126) - -any mod point created for suspicious Candidate [className=org.apache.commons.math.ode.AbstractIntegrator, methodName=org.apache.commons.math.ode.AbstractIntegrator{addStepHandler(Lorg/apache/commons/math/ode/sampling/StepHandler;)V 0.0, lineNumber=88, susp=0.14586499149789456]
[INFO ] fr.inria.astor.core.loop.population.ProgramVariantFactory.createProgramInstance(ProgramVariantFactory.java:126) - -any mod point created for suspicious Candidate [className=org.apache.commons.math.ode.nonstiff.EmbeddedRungeKuttaIntegrator, methodName=org.apache.commons.math.ode.nonstiff.EmbeddedRungeKuttaIntegrator{integrate(Lorg/apache/commons/math/ode/FirstOrderDifferentialEquations;D[DD[D)D 0.0, lineNumber=227, susp=0.14586499149789456]
[INFO ] fr.inria.astor.core.loop.population.ProgramVariantFactory.createProgramInstance(ProgramVariantFactory.java:126) - -any mod point created for suspicious Candidate [className=org.apache.commons.math.ode.AbstractIntegrator, methodName=org.apache.commons.math.ode.AbstractIntegrator{computeDerivatives(D[D[D)V 0.0, lineNumber=183, susp=0.14433756729740646]
[INFO ] fr.inria.astor.core.loop.population.ProgramVariantFactory.createProgramInstance(ProgramVariantFactory.java:126) - -any mod point created for suspicious Candidate [className=org.apache.commons.math.ode.AbstractIntegrator, methodName=org.apache.commons.math.ode.AbstractIntegrator{setEquations(Lorg/apache/commons/math/ode/FirstOrderDifferentialEquations;)V 0.0, lineNumber=168, susp=0.14285714285714285]
[INFO ] fr.inria.astor.core.loop.population.ProgramVariantFactory.createProgramInstance(ProgramVariantFactory.java:126) - -any mod point created for suspicious Candidate [className=org.apache.commons.math.ode.nonstiff.AdaptiveStepsizeIntegrator, methodName=org.apache.commons.math.ode.nonstiff.AdaptiveStepsizeIntegrator{sanityChecks(Lorg/apache/commons/math/ode/FirstOrderDifferentialEquations;D[DD[D)V 0.0, lineNumber=187, susp=0.14285714285714285]
[INFO ] fr.inria.astor.core.loop.population.ProgramVariantFactory.createProgramInstance(ProgramVariantFactory.java:126) - -any mod point created for suspicious Candidate [className=org.apache.commons.math.ode.events.CombinedEventsManager, methodName=org.apache.commons.math.ode.events.CombinedEventsManager{addEventHandler(Lorg/apache/commons/math/ode/events/EventHandler;DDI)V 0.0, lineNumber=73, susp=0.14285714285714285]
[INFO ] fr.inria.astor.core.loop.population.ProgramVariantFactory.createProgramInstance(ProgramVariantFactory.java:126) - -any mod point created for suspicious Candidate [className=org.apache.commons.math.ode.AbstractIntegrator, methodName=org.apache.commons.math.ode.AbstractIntegrator{sanityChecks(Lorg/apache/commons/math/ode/FirstOrderDifferentialEquations;D[DD[D)V 0.0, lineNumber=218, susp=0.1414213562373095]
[INFO ] fr.inria.astor.core.loop.population.ProgramVariantFactory.createProgramInstance(ProgramVariantFactory.java:126) - -any mod point created for suspicious Candidate [className=org.apache.commons.math.ode.sampling.AbstractStepInterpolator, methodName=org.apache.commons.math.ode.sampling.AbstractStepInterpolator{shift()V 0.0, lineNumber=212, susp=0.1414213562373095]
[INFO ] fr.inria.astor.core.loop.population.ProgramVariantFactory.createProgramInstance(ProgramVariantFactory.java:126) - -any mod point created for suspicious Candidate [className=org.apache.commons.math.ode.sampling.AbstractStepInterpolator, methodName=org.apache.commons.math.ode.sampling.AbstractStepInterpolator{storeTime(D)V 0.0, lineNumber=226, susp=0.1414213562373095]
[INFO ] fr.inria.astor.core.loop.population.ProgramVariantFactory.createProgramInstance(ProgramVariantFactory.java:126) - -any mod point created for suspicious Candidate [className=org.apache.commons.math.ode.sampling.AbstractStepInterpolator, methodName=org.apache.commons.math.ode.sampling.AbstractStepInterpolator{setInterpolatedTime(D)V 0.0, lineNumber=247, susp=0.1414213562373095]
[INFO ] fr.inria.astor.core.loop.population.ProgramVariantFactory.createProgramInstance(ProgramVariantFactory.java:126) - -any mod point created for suspicious Candidate [className=org.apache.commons.math.ode.nonstiff.AdaptiveStepsizeIntegrator, methodName=org.apache.commons.math.ode.nonstiff.AdaptiveStepsizeIntegrator{sanityChecks(Lorg/apache/commons/math/ode/FirstOrderDifferentialEquations;D[DD[D)V 0.0, lineNumber=171, susp=0.13483997249264842]
[INFO ] fr.inria.astor.core.loop.population.ProgramVariantFactory.createProgramInstance(ProgramVariantFactory.java:126) - -any mod point created for suspicious Candidate [className=org.apache.commons.math.ode.AbstractIntegrator, methodName=org.apache.commons.math.ode.AbstractIntegrator{setMaxEvaluations(I)V 0.0, lineNumber=144, susp=0.1336306209562122]
[INFO ] fr.inria.astor.core.loop.population.ProgramVariantFactory.createProgramInstance(ProgramVariantFactory.java:126) - -any mod point created for suspicious Candidate [className=org.apache.commons.math.ode.AbstractIntegrator, methodName=org.apache.commons.math.ode.AbstractIntegrator{resetEvaluations()V 0.0, lineNumber=160, susp=0.1336306209562122]
[INFO ] fr.inria.astor.core.loop.population.ProgramVariantFactory.createProgramInstance(ProgramVariantFactory.java:126) - -any mod point created for suspicious Candidate [className=org.apache.commons.math.ode.nonstiff.AdaptiveStepsizeIntegrator, methodName=org.apache.commons.math.ode.nonstiff.AdaptiveStepsizeIntegrator{resetInternalState()V 0.0, lineNumber=317, susp=0.1336306209562122]
[INFO ] fr.inria.astor.core.loop.population.ProgramVariantFactory.createProgramInstance(ProgramVariantFactory.java:126) - -any mod point created for suspicious Candidate [className=org.apache.commons.math.ode.nonstiff.EmbeddedRungeKuttaIntegrator, methodName=org.apache.commons.math.ode.nonstiff.EmbeddedRungeKuttaIntegrator{setSafety(D)V 0.0, lineNumber=188, susp=0.1336306209562122]
[INFO ] fr.inria.astor.core.loop.population.ProgramVariantFactory.createProgramInstance(ProgramVariantFactory.java:126) - -any mod point created for suspicious Candidate [className=org.apache.commons.math.ode.nonstiff.EmbeddedRungeKuttaIntegrator, methodName=org.apache.commons.math.ode.nonstiff.EmbeddedRungeKuttaIntegrator{setMinReduction(D)V 0.0, lineNumber=373, susp=0.1336306209562122]
[INFO ] fr.inria.astor.core.loop.population.ProgramVariantFactory.createProgramInstance(ProgramVariantFactory.java:126) - -any mod point created for suspicious Candidate [className=org.apache.commons.math.ode.nonstiff.EmbeddedRungeKuttaIntegrator, methodName=org.apache.commons.math.ode.nonstiff.EmbeddedRungeKuttaIntegrator{setMaxGrowth(D)V 0.0, lineNumber=387, susp=0.1336306209562122]
[INFO ] fr.inria.astor.core.loop.population.ProgramVariantFactory.createProgramInstance(ProgramVariantFactory.java:130) - Total suspicious from FL: 642,  573
[INFO ] fr.inria.astor.core.loop.population.ProgramVariantFactory.createProgramInstance(ProgramVariantFactory.java:138) - Total ModPoint created: 573
[INFO ] fr.inria.astor.core.loop.population.ProgramVariantFactory.createInitialPopulation(ProgramVariantFactory.java:82) - Creating program variant #1, [Variant id: 1, #gens: 573, #ops: 0, parent:-]
[INFO ] fr.inria.astor.core.setup.ConfigurationProperties.print(ConfigurationProperties.java:63) - ----------------------------
[INFO ] fr.inria.astor.core.setup.ConfigurationProperties.print(ConfigurationProperties.java:64) - ---Configuration properties:---Execution values
[INFO ] fr.inria.astor.core.setup.ConfigurationProperties.print(ConfigurationProperties.java:66) - p:lastJUnitVersion= ./examples/libs/junit-4.11.jar
[INFO ] fr.inria.astor.core.setup.ConfigurationProperties.print(ConfigurationProperties.java:66) - p:alternativecompliancelevel= 4
[INFO ] fr.inria.astor.core.setup.ConfigurationProperties.print(ConfigurationProperties.java:66) - p:ignoredTestCases= 
[INFO ] fr.inria.astor.core.setup.ConfigurationProperties.print(ConfigurationProperties.java:66) - p:workingDirectory= /local/scr/mtufano/Math/74/b/random-global-default/2
[INFO ] fr.inria.astor.core.setup.ConfigurationProperties.print(ConfigurationProperties.java:66) - p:manipulatesuper= false
[INFO ] fr.inria.astor.core.setup.ConfigurationProperties.print(ConfigurationProperties.java:66) - p:validation= process
[INFO ] fr.inria.astor.core.setup.ConfigurationProperties.print(ConfigurationProperties.java:66) - p:jvm4testexecution= /usr/local/jdk1.7.0_80/bin/
[INFO ] fr.inria.astor.core.setup.ConfigurationProperties.print(ConfigurationProperties.java:66) - p:binjavafolder= target/classes/
[INFO ] fr.inria.astor.core.setup.ConfigurationProperties.print(ConfigurationProperties.java:66) - p:evosuiteresultfolder= evosuite
[INFO ] fr.inria.astor.core.setup.ConfigurationProperties.print(ConfigurationProperties.java:66) - p:flthreshold= 0.1
[INFO ] fr.inria.astor.core.setup.ConfigurationProperties.print(ConfigurationProperties.java:66) - p:regressionforfaultlocalization= true
[INFO ] fr.inria.astor.core.setup.ConfigurationProperties.print(ConfigurationProperties.java:66) - p:tmax2= 960000
[INFO ] fr.inria.astor.core.setup.ConfigurationProperties.print(ConfigurationProperties.java:66) - p:tmax1= 120000
[INFO ] fr.inria.astor.core.setup.ConfigurationProperties.print(ConfigurationProperties.java:66) - p:probagenmutation= false
[INFO ] fr.inria.astor.core.setup.ConfigurationProperties.print(ConfigurationProperties.java:66) - p:srctestfolder= src/test/java/
[INFO ] fr.inria.astor.core.setup.ConfigurationProperties.print(ConfigurationProperties.java:66) - p:customop= fr.inria.astor.approaches.jgenprog.operators.InsertAfterOp:fr.inria.astor.approaches.jgenprog.operators.InsertBeforeOp:fr.inria.astor.approaches.jgenprog.operators.ReplaceOp
[INFO ] fr.inria.astor.core.setup.ConfigurationProperties.print(ConfigurationProperties.java:66) - p:forceExecuteRegression= false
[INFO ] fr.inria.astor.core.setup.ConfigurationProperties.print(ConfigurationProperties.java:66) - p:clusteringfilename= clustering.csv
[INFO ] fr.inria.astor.core.setup.ConfigurationProperties.print(ConfigurationProperties.java:66) - p:failing= org.apache.commons.math.ode.nonstiff.AdamsMoultonIntegratorTest
[INFO ] fr.inria.astor.core.setup.ConfigurationProperties.print(ConfigurationProperties.java:66) - p:evo_buggy_class= true
[INFO ] fr.inria.astor.core.setup.ConfigurationProperties.print(ConfigurationProperties.java:66) - p:numberExecutions= 1
[INFO ] fr.inria.astor.core.setup.ConfigurationProperties.print(ConfigurationProperties.java:66) - p:evo_affected_by_op= true
[INFO ] fr.inria.astor.core.setup.ConfigurationProperties.print(ConfigurationProperties.java:66) - p:population= 1
[INFO ] fr.inria.astor.core.setup.ConfigurationProperties.print(ConfigurationProperties.java:66) - p:clonegranularity= types
[INFO ] fr.inria.astor.core.setup.ConfigurationProperties.print(ConfigurationProperties.java:66) - p:regressiontestcases4fl= org.apache.commons.math.ode.ContinuousOutputModelTest:org.apache.commons.math.ode.nonstiff.AdamsBashforthIntegratorTest:org.apache.commons.math.ode.nonstiff.AdamsMoultonIntegratorTest:org.apache.commons.math.ode.nonstiff.DormandPrince54IntegratorTest:org.apache.commons.math.ode.nonstiff.DormandPrince54StepInterpolatorTest:org.apache.commons.math.ode.nonstiff.DormandPrince853IntegratorTest:org.apache.commons.math.ode.nonstiff.DormandPrince853StepInterpolatorTest:org.apache.commons.math.ode.nonstiff.HighamHall54IntegratorTest:org.apache.commons.math.ode.nonstiff.HighamHall54StepInterpolatorTest:org.apache.commons.math.ode.sampling.NordsieckStepInterpolatorTest:org.apache.commons.math.ode.sampling.StepNormalizerTest:
[INFO ] fr.inria.astor.core.setup.ConfigurationProperties.print(ConfigurationProperties.java:66) - p:savesolution= true
[INFO ] fr.inria.astor.core.setup.ConfigurationProperties.print(ConfigurationProperties.java:66) - p:javacompliancelevel= 5
[INFO ] fr.inria.astor.core.setup.ConfigurationProperties.print(ConfigurationProperties.java:66) - p:uniqueoptogen= false
[INFO ] fr.inria.astor.core.setup.ConfigurationProperties.print(ConfigurationProperties.java:66) - p:projectIdentifier= 
[INFO ] fr.inria.astor.core.setup.ConfigurationProperties.print(ConfigurationProperties.java:66) - p:modificationpointnavigation= weight
[INFO ] fr.inria.astor.core.setup.ConfigurationProperties.print(ConfigurationProperties.java:66) - p:stopfirst= false
[INFO ] fr.inria.astor.core.setup.ConfigurationProperties.print(ConfigurationProperties.java:66) - p:multipointmodification= false
[INFO ] fr.inria.astor.core.setup.ConfigurationProperties.print(ConfigurationProperties.java:66) - p:elementsToMutate= 10
[INFO ] fr.inria.astor.core.setup.ConfigurationProperties.print(ConfigurationProperties.java:66) - p:evoDSE= false
[INFO ] fr.inria.astor.core.setup.ConfigurationProperties.print(ConfigurationProperties.java:66) - p:bintestfolder= target/test-classes/
[INFO ] fr.inria.astor.core.setup.ConfigurationProperties.print(ConfigurationProperties.java:66) - p:testbystep= false
[INFO ] fr.inria.astor.core.setup.ConfigurationProperties.print(ConfigurationProperties.java:66) - p:version-location= ./math-version/
[INFO ] fr.inria.astor.core.setup.ConfigurationProperties.print(ConfigurationProperties.java:66) - p:reintroduce= PARENTS
[INFO ] fr.inria.astor.core.setup.ConfigurationProperties.print(ConfigurationProperties.java:66) - p:maxGeneration= 1000000
[INFO ] fr.inria.astor.core.setup.ConfigurationProperties.print(ConfigurationProperties.java:66) - p:maxVarCombination= 1000
[INFO ] fr.inria.astor.core.setup.ConfigurationProperties.print(ConfigurationProperties.java:66) - p:maxtime= 180
[INFO ] fr.inria.astor.core.setup.ConfigurationProperties.print(ConfigurationProperties.java:66) - p:evosuitejar= ./lib/evosuite-master-1.0.4-SNAPSHOT.jar
[INFO ] fr.inria.astor.core.setup.ConfigurationProperties.print(ConfigurationProperties.java:66) - p:commandTrunk= 50000
[INFO ] fr.inria.astor.core.setup.ConfigurationProperties.print(ConfigurationProperties.java:66) - p:faultlocalization= fr.inria.astor.core.faultlocalization.GZoltarFaultLocalization
[INFO ] fr.inria.astor.core.setup.ConfigurationProperties.print(ConfigurationProperties.java:66) - p:maxsuspcandidates= 1000
[INFO ] fr.inria.astor.core.setup.ConfigurationProperties.print(ConfigurationProperties.java:66) - p:mode= statement
[INFO ] fr.inria.astor.core.setup.ConfigurationProperties.print(ConfigurationProperties.java:66) - p:learningdir= ../../out/learningdir/Math/74/b/
[INFO ] fr.inria.astor.core.setup.ConfigurationProperties.print(ConfigurationProperties.java:66) - p:jvm4evosuitetestexecution= /usr/local/jdk1.7.0_80/bin/
[INFO ] fr.inria.astor.core.setup.ConfigurationProperties.print(ConfigurationProperties.java:66) - p:filterfaultlocalization= true
[INFO ] fr.inria.astor.core.setup.ConfigurationProperties.print(ConfigurationProperties.java:66) - p:mutationrate= 1 
[INFO ] fr.inria.astor.core.setup.ConfigurationProperties.print(ConfigurationProperties.java:66) - p:pathToMVNRepository= 
[INFO ] fr.inria.astor.core.setup.ConfigurationProperties.print(ConfigurationProperties.java:66) - p:resourcesfolder= /src/main/resources:/src/test/resources:
[INFO ] fr.inria.astor.core.setup.ConfigurationProperties.print(ConfigurationProperties.java:66) - p:timezone= America/New_York
[INFO ] fr.inria.astor.core.setup.ConfigurationProperties.print(ConfigurationProperties.java:66) - p:classestoinstrument= org.apache.commons.math.linear.AbstractFieldMatrix:org.apache.commons.math.linear.BlockRealMatrix:org.apache.commons.math.ode.events.EventException:org.apache.commons.math.linear.BigMatrix:org.apache.commons.math.ode.MultistepIntegrator:org.apache.commons.math.ode.sampling.StepHandler:org.apache.commons.math.linear.BlockFieldMatrix:org.apache.commons.math.ode.DerivativeException:org.apache.commons.math.MaxIterationsExceededException:org.apache.commons.math.ode.nonstiff.DormandPrince853StepInterpolator:org.apache.commons.math.ode.nonstiff.AdaptiveStepsizeIntegrator:org.apache.commons.math.ode.events.CombinedEventsManager:org.apache.commons.math.ode.sampling.DummyStepInterpolator:org.apache.commons.math.analysis.UnivariateRealFunction:org.apache.commons.math.ode.nonstiff.AdamsIntegrator:org.apache.commons.math.ode.sampling.AbstractStepInterpolator:org.apache.commons.math.linear.MatrixUtils:org.apache.commons.math.ode.nonstiff.DormandPrince853Integrator:org.apache.commons.math.analysis.solvers.UnivariateRealSolver:org.apache.commons.math.ode.events.EventHandler:org.apache.commons.math.analysis.solvers.BrentSolver:org.apache.commons.math.ode.events.EventState:org.apache.commons.math.linear.SingularMatrixException:org.apache.commons.math.linear.FieldMatrix:org.apache.commons.math.MaxEvaluationsExceededException:org.apache.commons.math.ode.nonstiff.AdamsNordsieckTransformer:org.apache.commons.math.ode.FirstOrderDifferentialEquations:org.apache.commons.math.linear.InvalidMatrixException:org.apache.commons.math.linear.AbstractRealMatrix:org.apache.commons.math.linear.MatrixIndexException:org.apache.commons.math.fraction.FractionConversionException:org.apache.commons.math.linear.Array2DRowFieldMatrix:org.apache.commons.math.linear.RealVector:org.apache.commons.math.linear.RealMatrixPreservingVisitor:org.apache.commons.math.ConvergingAlgorithmImpl:org.apache.commons.math.MathRuntimeException:org.apache.commons.math.analysis.solvers.UnivariateRealSolverImpl:org.apache.commons.math.linear.FieldLUDecompositionImpl:org.apache.commons.math.linear.RealMatrixChangingVisitor:org.apache.commons.math.ode.AbstractIntegrator:org.apache.commons.math.MathException:org.apache.commons.math.FieldElement:org.apache.commons.math.ode.IntegratorException:org.apache.commons.math.ode.FirstOrderIntegrator:org.apache.commons.math.ConvergingAlgorithm:org.apache.commons.math.ode.ODEIntegrator:org.apache.commons.math.linear.FieldMatrixChangingVisitor:org.apache.commons.math.Field:org.apache.commons.math.linear.NonSquareMatrixException:org.apache.commons.math.ode.nonstiff.EmbeddedRungeKuttaIntegrator:org.apache.commons.math.fraction.BigFraction:org.apache.commons.math.ode.sampling.NordsieckStepInterpolator:org.apache.commons.math.linear.FieldLUDecomposition:org.apache.commons.math.linear.DefaultFieldMatrixPreservingVisitor:org.apache.commons.math.ConvergenceException:org.apache.commons.math.ode.nonstiff.RungeKuttaStepInterpolator:org.apache.commons.math.linear.AnyMatrix:org.apache.commons.math.linear.FieldDecompositionSolver:org.apache.commons.math.fraction.BigFractionField:org.apache.commons.math.linear.RealMatrix:org.apache.commons.math.linear.DefaultFieldMatrixChangingVisitor:org.apache.commons.math.ode.nonstiff.AdamsMoultonIntegrator:org.apache.commons.math.FunctionEvaluationException:org.apache.commons.math.ode.sampling.StepInterpolator:org.apache.commons.math.linear.FieldVector:org.apache.commons.math.linear.FieldMatrixPreservingVisitor:org.apache.commons.math.linear.Array2DRowRealMatrix:
[INFO ] fr.inria.astor.core.setup.ConfigurationProperties.print(ConfigurationProperties.java:66) - p:evoRunOnBuggyClass= true
[INFO ] fr.inria.astor.core.setup.ConfigurationProperties.print(ConfigurationProperties.java:66) - p:compiler= fr.inria.astor.core.manipulation.bytecode.compiler.SpoonClassCompiler
[INFO ] fr.inria.astor.core.setup.ConfigurationProperties.print(ConfigurationProperties.java:66) - p:dependenciespath= ../../dat/libs/Math/commons-discovery-0.5.jar
[INFO ] fr.inria.astor.core.setup.ConfigurationProperties.print(ConfigurationProperties.java:66) - p:skipfaultlocalization= false
[INFO ] fr.inria.astor.core.setup.ConfigurationProperties.print(ConfigurationProperties.java:66) - p:packageToInstrument= org.apache.commons
[INFO ] fr.inria.astor.core.setup.ConfigurationProperties.print(ConfigurationProperties.java:66) - p:scope= fr.inria.astor.core.loop.spaces.ingredients.scopes.ctscopes.CtGlobalIngredientScope
[INFO ] fr.inria.astor.core.setup.ConfigurationProperties.print(ConfigurationProperties.java:66) - p:transformingredient= false
[INFO ] fr.inria.astor.core.setup.ConfigurationProperties.print(ConfigurationProperties.java:66) - p:fitnessfunction= fr.inria.astor.core.loop.population.TestCaseFitnessFunction
[INFO ] fr.inria.astor.core.setup.ConfigurationProperties.print(ConfigurationProperties.java:66) - p:pvariantfoldername= variant-
[INFO ] fr.inria.astor.core.setup.ConfigurationProperties.print(ConfigurationProperties.java:66) - p:srcjavafolder= src/main/java/
[INFO ] fr.inria.astor.core.setup.ConfigurationProperties.print(ConfigurationProperties.java:66) - p:populationcontroller= fr.inria.astor.core.loop.population.TestCaseBasedFitnessPopulationController
[INFO ] fr.inria.astor.core.setup.ConfigurationProperties.print(ConfigurationProperties.java:66) - p:ignoreflakyinfl= false
[INFO ] fr.inria.astor.core.setup.ConfigurationProperties.print(ConfigurationProperties.java:66) - p:applyCrossover= false
[INFO ] fr.inria.astor.core.setup.ConfigurationProperties.print(ConfigurationProperties.java:66) - p:saveall= false
[INFO ] fr.inria.astor.core.setup.ConfigurationProperties.print(ConfigurationProperties.java:66) - p:seed= 2
[INFO ] fr.inria.astor.core.setup.ConfigurationProperties.print(ConfigurationProperties.java:66) - p:resetoperations= false
[INFO ] fr.inria.astor.core.setup.ConfigurationProperties.print(ConfigurationProperties.java:66) - p:location= ../../dat/defects4j/Math/74/b/
[INFO ] fr.inria.astor.core.setup.ConfigurationProperties.print(ConfigurationProperties.java:66) - p:ingredientstrategy= fr.inria.astor.core.loop.spaces.ingredients.ingredientSearch.EfficientIngredientStrategy
[INFO ] fr.inria.astor.core.setup.ConfigurationProperties.print(ConfigurationProperties.java:66) - p:allpoints= false
[INFO ] fr.inria.astor.core.setup.ConfigurationProperties.print(ConfigurationProperties.java:66) - p:bugId= 280
[INFO ] fr.inria.astor.core.setup.ConfigurationProperties.print(ConfigurationProperties.java:66) - p:evosuitetimeout= 120
[INFO ] fr.inria.astor.core.setup.ConfigurationProperties.print(ConfigurationProperties.java:68) - ----------------------------
[INFO ] fr.inria.astor.core.loop.AstorCoreEngine.startEvolution(AstorCoreEngine.java:119) - 
----Starting Solution Search
[INFO ] fr.inria.astor.core.validation.executors.JUnitExecutorProcess.execute(JUnitExecutorProcess.java:120) - The Process that runs JUnit test cases had problems: process hasn't exited
[INFO ] fr.inria.astor.core.validation.executors.JUnitExecutorProcess.execute(JUnitExecutorProcess.java:120) - The Process that runs JUnit test cases had problems: process hasn't exited
[INFO ] fr.inria.astor.core.validation.executors.JUnitExecutorProcess.execute(JUnitExecutorProcess.java:120) - The Process that runs JUnit test cases had problems: process hasn't exited
[INFO ] fr.inria.astor.core.loop.AstorCoreEngine.processCreatedVariant(AstorCoreEngine.java:404) - -Found Solution, child variant #79
[INFO ] fr.inria.astor.core.validation.executors.JUnitExecutorProcess.execute(JUnitExecutorProcess.java:120) - The Process that runs JUnit test cases had problems: process hasn't exited
[INFO ] fr.inria.astor.core.validation.executors.JUnitExecutorProcess.execute(JUnitExecutorProcess.java:120) - The Process that runs JUnit test cases had problems: process hasn't exited
[INFO ] fr.inria.astor.core.validation.executors.JUnitExecutorProcess.execute(JUnitExecutorProcess.java:120) - The Process that runs JUnit test cases had problems: process hasn't exited
[INFO ] fr.inria.astor.core.validation.executors.JUnitExecutorProcess.execute(JUnitExecutorProcess.java:120) - The Process that runs JUnit test cases had problems: process hasn't exited
[INFO ] fr.inria.astor.core.validation.executors.JUnitExecutorProcess.execute(JUnitExecutorProcess.java:120) - The Process that runs JUnit test cases had problems: process hasn't exited
[INFO ] fr.inria.astor.core.validation.executors.JUnitExecutorProcess.execute(JUnitExecutorProcess.java:120) - The Process that runs JUnit test cases had problems: process hasn't exited
[INFO ] fr.inria.astor.core.validation.executors.JUnitExecutorProcess.execute(JUnitExecutorProcess.java:120) - The Process that runs JUnit test cases had problems: process hasn't exited
[INFO ] fr.inria.astor.core.validation.executors.JUnitExecutorProcess.execute(JUnitExecutorProcess.java:120) - The Process that runs JUnit test cases had problems: process hasn't exited
[INFO ] fr.inria.astor.core.validation.executors.JUnitExecutorProcess.execute(JUnitExecutorProcess.java:120) - The Process that runs JUnit test cases had problems: process hasn't exited
[INFO ] fr.inria.astor.core.validation.executors.JUnitExecutorProcess.execute(JUnitExecutorProcess.java:120) - The Process that runs JUnit test cases had problems: process hasn't exited
[INFO ] fr.inria.astor.core.validation.executors.JUnitExecutorProcess.execute(JUnitExecutorProcess.java:120) - The Process that runs JUnit test cases had problems: process hasn't exited
[INFO ] fr.inria.astor.core.validation.executors.JUnitExecutorProcess.execute(JUnitExecutorProcess.java:120) - The Process that runs JUnit test cases had problems: process hasn't exited
[INFO ] fr.inria.astor.core.loop.AstorCoreEngine.processCreatedVariant(AstorCoreEngine.java:404) - -Found Solution, child variant #379
[INFO ] fr.inria.astor.core.validation.executors.JUnitExecutorProcess.execute(JUnitExecutorProcess.java:120) - The Process that runs JUnit test cases had problems: process hasn't exited
[INFO ] fr.inria.astor.core.validation.executors.JUnitExecutorProcess.execute(JUnitExecutorProcess.java:120) - The Process that runs JUnit test cases had problems: process hasn't exited
[INFO ] fr.inria.astor.core.validation.executors.JUnitExecutorProcess.execute(JUnitExecutorProcess.java:120) - The Process that runs JUnit test cases had problems: process hasn't exited
[INFO ] fr.inria.astor.core.validation.executors.JUnitExecutorProcess.execute(JUnitExecutorProcess.java:120) - The Process that runs JUnit test cases had problems: process hasn't exited
[INFO ] fr.inria.astor.core.validation.executors.JUnitExecutorProcess.execute(JUnitExecutorProcess.java:120) - The Process that runs JUnit test cases had problems: process hasn't exited
[INFO ] fr.inria.astor.core.validation.executors.JUnitExecutorProcess.execute(JUnitExecutorProcess.java:120) - The Process that runs JUnit test cases had problems: process hasn't exited
[INFO ] fr.inria.astor.core.validation.executors.JUnitExecutorProcess.execute(JUnitExecutorProcess.java:120) - The Process that runs JUnit test cases had problems: process hasn't exited
[INFO ] fr.inria.astor.core.validation.executors.JUnitExecutorProcess.execute(JUnitExecutorProcess.java:120) - The Process that runs JUnit test cases had problems: process hasn't exited
[INFO ] fr.inria.astor.core.validation.executors.JUnitExecutorProcess.execute(JUnitExecutorProcess.java:120) - The Process that runs JUnit test cases had problems: process hasn't exited
[INFO ] fr.inria.astor.core.validation.executors.JUnitExecutorProcess.execute(JUnitExecutorProcess.java:120) - The Process that runs JUnit test cases had problems: process hasn't exited
[INFO ] fr.inria.astor.core.validation.executors.JUnitExecutorProcess.execute(JUnitExecutorProcess.java:120) - The Process that runs JUnit test cases had problems: process hasn't exited
[INFO ] fr.inria.astor.core.validation.executors.JUnitExecutorProcess.execute(JUnitExecutorProcess.java:120) - The Process that runs JUnit test cases had problems: process hasn't exited
[INFO ] fr.inria.astor.core.validation.executors.JUnitExecutorProcess.execute(JUnitExecutorProcess.java:120) - The Process that runs JUnit test cases had problems: process hasn't exited
[INFO ] fr.inria.astor.core.validation.executors.JUnitExecutorProcess.execute(JUnitExecutorProcess.java:120) - The Process that runs JUnit test cases had problems: process hasn't exited
[INFO ] fr.inria.astor.core.validation.executors.JUnitExecutorProcess.execute(JUnitExecutorProcess.java:120) - The Process that runs JUnit test cases had problems: process hasn't exited
[INFO ] fr.inria.astor.core.validation.executors.JUnitExecutorProcess.execute(JUnitExecutorProcess.java:120) - The Process that runs JUnit test cases had problems: process hasn't exited
[INFO ] fr.inria.astor.core.validation.executors.JUnitExecutorProcess.execute(JUnitExecutorProcess.java:120) - The Process that runs JUnit test cases had problems: process hasn't exited
[INFO ] fr.inria.astor.core.validation.executors.JUnitExecutorProcess.execute(JUnitExecutorProcess.java:120) - The Process that runs JUnit test cases had problems: process hasn't exited
[INFO ] fr.inria.astor.core.validation.executors.JUnitExecutorProcess.execute(JUnitExecutorProcess.java:120) - The Process that runs JUnit test cases had problems: process hasn't exited
[INFO ] fr.inria.astor.core.validation.executors.JUnitExecutorProcess.execute(JUnitExecutorProcess.java:120) - The Process that runs JUnit test cases had problems: process hasn't exited
[INFO ] fr.inria.astor.core.validation.executors.JUnitExecutorProcess.execute(JUnitExecutorProcess.java:120) - The Process that runs JUnit test cases had problems: process hasn't exited
[INFO ] fr.inria.astor.core.validation.executors.JUnitExecutorProcess.execute(JUnitExecutorProcess.java:120) - The Process that runs JUnit test cases had problems: process hasn't exited
[INFO ] fr.inria.astor.core.validation.executors.JUnitExecutorProcess.execute(JUnitExecutorProcess.java:120) - The Process that runs JUnit test cases had problems: process hasn't exited
[INFO ] fr.inria.astor.core.validation.executors.JUnitExecutorProcess.execute(JUnitExecutorProcess.java:120) - The Process that runs JUnit test cases had problems: process hasn't exited
[INFO ] fr.inria.astor.core.validation.executors.JUnitExecutorProcess.execute(JUnitExecutorProcess.java:120) - The Process that runs JUnit test cases had problems: process hasn't exited
[INFO ] fr.inria.astor.core.validation.executors.JUnitExecutorProcess.execute(JUnitExecutorProcess.java:120) - The Process that runs JUnit test cases had problems: process hasn't exited
[INFO ] fr.inria.astor.core.loop.AstorCoreEngine.belowMaxTime(AstorCoreEngine.java:203) - 
 No more time for operating
[INFO ] fr.inria.astor.core.loop.AstorCoreEngine.startEvolution(AstorCoreEngine.java:143) - Time Repair Loop (s): 10872.101
[INFO ] fr.inria.astor.core.loop.AstorCoreEngine.showResults(AstorCoreEngine.java:165) - 
----SUMMARY_EXECUTION---
[INFO ] fr.inria.astor.core.loop.AstorCoreEngine.showResults(AstorCoreEngine.java:183) - 
Solution details
[INFO ] fr.inria.astor.core.loop.AstorCoreEngine.showResults(AstorCoreEngine.java:184) - 
 --SOLUTIONS DESCRIPTION--

 ----
ProgramVariant 79
 
time(sec)= 549
operation: ReplaceOp
location= org.apache.commons.math.ode.nonstiff.AdamsMoultonIntegrator
line= 287
lineSuspiciousness= 0.5
original statement= interpolatorTmp.shift()
fixed statement= setMaxGrowth(10.0)
generation= 78
ingredientScope= PACKAGE
validation=|true|0|2131|[]|
diffpatch=--- /local/scr/mtufano/Math/74/b/random-global-default/2/AstorMain-b/src/default/org/apache/commons/math/ode/nonstiff/AdamsMoultonIntegrator.java	
+++ /local/scr/mtufano/Math/74/b/random-global-default/2/AstorMain-b/src/variant-79/org/apache/commons/math/ode/nonstiff/AdamsMoultonIntegrator.java	
@@ -63,7 +63,7 @@
 					updateHighOrderDerivativesPhase2(predictedScaled, correctedScaled, nordsieckTmp);
 					interpolatorTmp.reinitialize(stepEnd, stepSize, correctedScaled, nordsieckTmp);
 					interpolatorTmp.storeTime(stepStart);
-					interpolatorTmp.shift();
+					setMaxGrowth(10.0);
 					interpolatorTmp.storeTime(stepEnd);
 					if (manager.evaluateStep(interpolatorTmp)) {
 						final double dt = (manager.getEventTime()) - (stepStart);


 ----
ProgramVariant 379
 
time(sec)= 2843
operation: InsertBeforeOp
location= org.apache.commons.math.ode.nonstiff.AdamsMoultonIntegrator
line= 270
lineSuspiciousness= 0.5
original statement= error = nordsieckTmp.walkInOptimizedOrder(new org.apache.commons.math.ode.nonstiff.AdamsMoultonIntegrator.Corrector(y, predictedScaled, yTmp))
fixed statement= setMaxGrowth(10.0)
generation= 378
ingredientScope= PACKAGE
validation=|true|0|2131|[]|
diffpatch=--- /local/scr/mtufano/Math/74/b/random-global-default/2/AstorMain-b/src/default/org/apache/commons/math/ode/nonstiff/AdamsMoultonIntegrator.java	
+++ /local/scr/mtufano/Math/74/b/random-global-default/2/AstorMain-b/src/variant-379/org/apache/commons/math/ode/nonstiff/AdamsMoultonIntegrator.java	
@@ -53,6 +53,7 @@
 				}
 				final org.apache.commons.math.linear.Array2DRowRealMatrix nordsieckTmp = updateHighOrderDerivativesPhase1(nordsieck);
 				updateHighOrderDerivativesPhase2(scaled, predictedScaled, nordsieckTmp);
+				setMaxGrowth(10.0);
 				error = nordsieckTmp.walkInOptimizedOrder(new org.apache.commons.math.ode.nonstiff.AdamsMoultonIntegrator.Corrector(y, predictedScaled, yTmp));
 				if (error <= 1.0) {
 					computeDerivatives(stepEnd, yTmp, yDot);


[INFO ] fr.inria.astor.approaches.jgenprog.JGenProg.showResults(JGenProg.java:332) - 
successful_ing_attempts (#trials 2, totalAttps 6): [4, 2]
[INFO ] fr.inria.astor.approaches.jgenprog.JGenProg.showResults(JGenProg.java:334) - 
failing_ing_attempts (#trials 1102, totalAttps 8527): [31, 1, 6, 5, 1, 1, 41, 1, 16, 4, 15, 5, 8, 3, 11, 3, 3, 13, 11, 1, 1, 5, 2, 8, 7, 1, 4, 6, 9, 4, 3, 2, 9, 11, 2, 4, 2, 10, 8, 20, 30, 5, 4, 5, 14, 1, 9, 98, 2, 3, 10, 18, 3, 8, 5, 2, 36, 37, 16, 1, 10, 13, 1, 7, 2, 19, 59, 6, 15, 11, 34, 39, 3, 3, 17, 7, 4, 2, 3, 10, 9, 13, 9, 12, 2, 4, 3, 30, 10, 8, 1, 2, 4, 1, 1, 3, 4, 3, 13, 19, 3, 8, 4, 3, 1, 7, 21, 3, 7, 2, 3, 21, 8, 1, 5, 5, 4, 27, 5, 1, 6, 2, 12, 2, 4, 9, 21, 4, 6, 8, 3, 18, 2, 6, 11, 5, 2, 19, 1, 1, 6, 1, 3, 10, 7, 9, 3, 4, 1, 5, 2, 11, 6, 12, 4, 25, 15, 1, 3, 4, 1, 15, 4, 5, 3, 6, 2, 2, 18, 1, 2, 16, 2, 6, 8, 2, 1, 12, 15, 6, 6, 4, 2, 18, 2, 7, 3, 2, 1, 4, 10, 5, 14, 8, 9, 2, 21, 1, 2, 4, 10, 4, 7, 7, 1, 3, 3, 1, 4, 8, 2, 1, 46, 9, 1, 2, 10, 7, 1, 6, 5, 2, 6, 49, 2, 15, 14, 7, 2, 1, 6, 1, 11, 3, 2, 2, 19, 1, 17, 4, 6, 11, 3, 1, 14, 4, 6, 7, 12, 5, 2, 1, 5, 4, 6, 2, 9, 10, 4, 3, 3, 45, 5, 3, 2, 1, 4, 19, 15, 8, 9, 6, 5, 7, 6, 8, 4, 19, 3, 1, 7, 1, 7, 1, 14, 8, 1, 5, 2, 10, 7, 1, 1, 43, 1, 4, 5, 6, 4, 3, 10, 1, 3, 10, 1, 1, 12, 3, 4, 26, 2, 2, 4, 6, 4, 1, 6, 4, 1, 24, 4, 2, 9, 8, 7, 5, 10, 2, 2, 1, 3, 7, 2, 8, 3, 2, 5, 7, 3, 37, 13, 3, 3, 17, 3, 3, 13, 5, 8, 3, 6, 6, 3, 3, 5, 4, 5, 4, 7, 10, 2, 4, 2, 1, 1, 12, 9, 19, 33, 1, 9, 4, 10, 1, 8, 75, 6, 10, 3, 8, 39, 2, 8, 7, 90, 13, 9, 1, 1, 3, 4, 2, 13, 2, 71, 1, 2, 4, 26, 2, 3, 3, 5, 9, 2, 6, 7, 2, 6, 23, 16, 17, 4, 3, 7, 6, 17, 1, 1, 3, 2, 7, 2, 2, 17, 2, 7, 19, 7, 3, 2, 4, 2, 3, 3, 6, 16, 8, 6, 4, 1, 2, 2, 2, 13, 4, 7, 2, 1, 1, 3, 11, 8, 6, 2, 1, 3, 15, 1, 5, 5, 11, 2, 1, 5, 7, 3, 4, 4, 13, 11, 8, 4, 32, 1, 4, 3, 1, 7, 6, 10, 15, 1, 6, 4, 20, 2, 2, 14, 4, 6, 13, 15, 1, 25, 1, 7, 2, 14, 2, 9, 3, 5, 1, 2, 1, 2, 1, 6, 7, 2, 23, 2, 6, 5, 3, 4, 8, 2, 3, 15, 3, 1, 5, 3, 6, 13, 20, 2, 15, 90, 2, 11, 8, 4, 4, 6, 1, 12, 5, 8, 10, 2, 5, 1, 3, 2, 13, 18, 6, 4, 9, 2, 4, 1, 5, 7, 13, 60, 1, 1, 15, 1, 3, 3, 9, 3, 5, 7, 5, 6, 6, 6, 4, 3, 5, 13, 4, 1, 11, 27, 5, 7, 2, 1, 9, 1, 11, 1, 3, 22, 1, 1, 51, 10, 10, 14, 3, 1, 6, 1, 8, 14, 6, 6, 2, 1, 1, 1, 5, 3, 18, 9, 5, 14, 1, 1, 16, 16, 1, 2, 4, 3, 2, 4, 7, 3, 8, 3, 1, 7, 20, 1, 10, 9, 1, 2, 5, 2, 11, 8, 2, 22, 9, 2, 1, 8, 10, 7, 8, 2, 1, 11, 7, 11, 9, 1, 11, 15, 3, 9, 4, 5, 9, 4, 3, 3, 20, 14, 16, 2, 14, 7, 3, 17, 10, 10, 2, 1, 1, 6, 27, 9, 5, 5, 30, 6, 3, 1, 1, 1, 3, 1, 10, 3, 3, 4, 17, 3, 5, 4, 5, 4, 5, 2, 4, 8, 5, 7, 16, 8, 5, 14, 6, 2, 25, 3, 2, 1, 11, 2, 9, 2, 12, 3, 1, 13, 4, 6, 6, 10, 1, 25, 7, 6, 20, 4, 7, 1, 9, 5, 3, 2, 1, 6, 7, 11, 3, 7, 3, 9, 3, 13, 6, 5, 1, 16, 3, 5, 23, 1, 10, 3, 1, 3, 28, 11, 11, 1, 5, 12, 8, 1, 3, 12, 14, 6, 5, 2, 1, 1, 1, 5, 10, 4, 9, 4, 2, 11, 2, 19, 2, 10, 3, 4, 53, 5, 3, 3, 26, 2, 4, 2, 44, 3, 1, 14, 3, 3, 2, 7, 3, 1, 1, 1, 3, 4, 11, 6, 28, 11, 6, 32, 1, 11, 1, 7, 19, 9, 1, 2, 5, 9, 4, 3, 5, 5, 13, 31, 2, 31, 12, 7, 2, 3, 1, 2, 3, 15, 10, 5, 3, 3, 1, 12, 1, 10, 4, 22, 2, 10, 15, 2, 8, 1, 2, 74, 1, 4, 3, 2, 2, 6, 12, 9, 4, 1, 9, 2, 1, 25, 1, 8, 7, 12, 10, 11, 3, 67, 1, 19, 3, 1, 5, 8, 4, 1, 1, 12, 10, 8, 1, 2, 16, 1, 5, 9, 1, 14, 6, 10, 1, 2, 21, 10, 13, 20, 5, 2, 2, 2, 28, 3, 3, 1, 11, 4, 4, 1, 14, 10, 7, 1, 16, 2, 4, 2, 8, 2, 9, 6, 16, 2, 3, 10, 4, 1, 1, 2, 8, 10, 11, 16, 4, 34, 7, 4, 10, 31, 6, 18, 1, 35, 2, 25, 12, 8, 11, 3, 1, 4, 4, 3, 1, 3, 4, 5, 7, 3, 21, 10, 3, 1, 8, 4, 23, 2, 1, 5, 5, 2, 4, 8, 20, 2, 4, 10, 5, 17, 1, 6, 64, 8, 52, 6, 9, 4, 7, 1, 5, 1, 2, 1, 5, 1, 10, 8, 10, 1, 11, 6, 3, 4, 15, 3, 15, 6, 1, 3, 2, 22, 2, 1, 5, 1, 3, 11, 16, 1, 8, 4, 1, 30, 2, 14, 2, 2, 1, 9, 7, 7, 3, 5, 1, 2, 2, 3, 1, 4, 5, 4, 3, 5, 1, 2, 12, 7, 5, 6, 12, 12, 1, 6, 1, 4, 3, 18, 13, 1, 1, 12, 1, 8, 2, 1, 2, 8, 18, 1, 1, 1, 13, 7, 4, 3, 19, 4, 22, 42, 22, 1, 1]
[INFO ] fr.inria.astor.approaches.jgenprog.JGenProg.showResults(JGenProg.java:337) - 
total Patch Attempts (2): [859, 2121]
[INFO ] fr.inria.astor.approaches.jgenprog.JGenProg.showResults(JGenProg.java:339) - 
successful_ing_attempts_by_patch: [(pv:79,at:4), (pv:379,at:2)]
[INFO ] fr.inria.astor.approaches.jgenprog.JGenProg.showResults(JGenProg.java:340) - 
failing_ing_attempts_by_patch: [(pv:2,at:31), (pv:3,at:1), (pv:4,at:6), (pv:5,at:5), (pv:6,at:1), (pv:7,at:1), (pv:8,at:41), (pv:9,at:1), (pv:10,at:16), (pv:11,at:4), (pv:12,at:15), (pv:13,at:5), (pv:14,at:8), (pv:15,at:3), (pv:16,at:11), (pv:17,at:3), (pv:18,at:3), (pv:19,at:13), (pv:20,at:11), (pv:21,at:1), (pv:22,at:1), (pv:23,at:5), (pv:24,at:2), (pv:25,at:8), (pv:26,at:7), (pv:27,at:1), (pv:28,at:4), (pv:29,at:6), (pv:30,at:9), (pv:31,at:4), (pv:32,at:3), (pv:33,at:2), (pv:34,at:9), (pv:35,at:11), (pv:36,at:2), (pv:37,at:4), (pv:38,at:2), (pv:39,at:10), (pv:40,at:8), (pv:41,at:20), (pv:42,at:30), (pv:43,at:5), (pv:44,at:4), (pv:45,at:5), (pv:46,at:14), (pv:47,at:1), (pv:48,at:9), (pv:49,at:98), (pv:50,at:2), (pv:51,at:3), (pv:52,at:10), (pv:53,at:18), (pv:54,at:3), (pv:55,at:8), (pv:56,at:5), (pv:57,at:2), (pv:58,at:36), (pv:59,at:37), (pv:60,at:16), (pv:61,at:1), (pv:62,at:10), (pv:63,at:13), (pv:64,at:1), (pv:65,at:7), (pv:66,at:2), (pv:67,at:19), (pv:68,at:59), (pv:69,at:6), (pv:70,at:15), (pv:71,at:11), (pv:72,at:34), (pv:73,at:39), (pv:74,at:3), (pv:75,at:3), (pv:76,at:17), (pv:77,at:7), (pv:78,at:4), (pv:80,at:2), (pv:81,at:3), (pv:82,at:10), (pv:83,at:9), (pv:84,at:13), (pv:85,at:9), (pv:86,at:12), (pv:87,at:2), (pv:88,at:4), (pv:89,at:3), (pv:90,at:30), (pv:91,at:10), (pv:92,at:8), (pv:93,at:1), (pv:94,at:2), (pv:95,at:4), (pv:96,at:1), (pv:97,at:1), (pv:98,at:3), (pv:99,at:4), (pv:100,at:3), (pv:101,at:13), (pv:102,at:19), (pv:103,at:3), (pv:104,at:8), (pv:105,at:4), (pv:106,at:3), (pv:107,at:1), (pv:108,at:7), (pv:109,at:21), (pv:110,at:3), (pv:111,at:7), (pv:112,at:2), (pv:113,at:3), (pv:114,at:21), (pv:115,at:8), (pv:116,at:1), (pv:117,at:5), (pv:118,at:5), (pv:119,at:4), (pv:120,at:27), (pv:121,at:5), (pv:122,at:1), (pv:123,at:6), (pv:124,at:2), (pv:125,at:12), (pv:126,at:2), (pv:127,at:4), (pv:128,at:9), (pv:129,at:21), (pv:130,at:4), (pv:131,at:6), (pv:132,at:8), (pv:133,at:3), (pv:134,at:18), (pv:135,at:2), (pv:136,at:6), (pv:137,at:11), (pv:138,at:5), (pv:139,at:2), (pv:140,at:19), (pv:141,at:1), (pv:142,at:1), (pv:143,at:6), (pv:144,at:1), (pv:145,at:3), (pv:146,at:10), (pv:147,at:7), (pv:148,at:9), (pv:149,at:3), (pv:150,at:4), (pv:151,at:1), (pv:152,at:5), (pv:153,at:2), (pv:154,at:11), (pv:155,at:6), (pv:156,at:12), (pv:157,at:4), (pv:158,at:25), (pv:159,at:15), (pv:160,at:1), (pv:161,at:3), (pv:162,at:4), (pv:163,at:1), (pv:164,at:15), (pv:165,at:4), (pv:166,at:5), (pv:167,at:3), (pv:168,at:6), (pv:169,at:2), (pv:170,at:2), (pv:171,at:18), (pv:172,at:1), (pv:173,at:2), (pv:174,at:16), (pv:175,at:2), (pv:176,at:6), (pv:177,at:8), (pv:178,at:2), (pv:179,at:1), (pv:180,at:12), (pv:181,at:15), (pv:182,at:6), (pv:183,at:6), (pv:184,at:4), (pv:185,at:2), (pv:186,at:18), (pv:187,at:2), (pv:188,at:7), (pv:189,at:3), (pv:190,at:2), (pv:191,at:1), (pv:192,at:4), (pv:193,at:10), (pv:194,at:5), (pv:195,at:14), (pv:196,at:8), (pv:197,at:9), (pv:198,at:2), (pv:199,at:21), (pv:200,at:1), (pv:201,at:2), (pv:202,at:4), (pv:203,at:10), (pv:204,at:4), (pv:205,at:7), (pv:206,at:7), (pv:207,at:1), (pv:208,at:3), (pv:209,at:3), (pv:210,at:1), (pv:211,at:4), (pv:212,at:8), (pv:213,at:2), (pv:214,at:1), (pv:215,at:46), (pv:216,at:9), (pv:217,at:1), (pv:218,at:2), (pv:219,at:10), (pv:220,at:7), (pv:221,at:1), (pv:222,at:6), (pv:223,at:5), (pv:224,at:2), (pv:225,at:6), (pv:226,at:49), (pv:227,at:2), (pv:228,at:15), (pv:229,at:14), (pv:230,at:7), (pv:231,at:2), (pv:232,at:1), (pv:233,at:6), (pv:234,at:1), (pv:235,at:11), (pv:236,at:3), (pv:237,at:2), (pv:238,at:2), (pv:239,at:19), (pv:240,at:1), (pv:241,at:17), (pv:242,at:4), (pv:243,at:6), (pv:244,at:11), (pv:245,at:3), (pv:246,at:1), (pv:247,at:14), (pv:248,at:4), (pv:249,at:6), (pv:250,at:7), (pv:251,at:12), (pv:252,at:5), (pv:253,at:2), (pv:254,at:1), (pv:255,at:5), (pv:256,at:4), (pv:257,at:6), (pv:258,at:2), (pv:259,at:9), (pv:260,at:10), (pv:261,at:4), (pv:262,at:3), (pv:263,at:3), (pv:264,at:45), (pv:265,at:5), (pv:266,at:3), (pv:267,at:2), (pv:268,at:1), (pv:269,at:4), (pv:270,at:19), (pv:271,at:15), (pv:272,at:8), (pv:273,at:9), (pv:274,at:6), (pv:275,at:5), (pv:276,at:7), (pv:277,at:6), (pv:278,at:8), (pv:279,at:4), (pv:280,at:19), (pv:281,at:3), (pv:282,at:1), (pv:283,at:7), (pv:284,at:1), (pv:285,at:7), (pv:286,at:1), (pv:287,at:14), (pv:288,at:8), (pv:289,at:1), (pv:290,at:5), (pv:291,at:2), (pv:292,at:10), (pv:293,at:7), (pv:294,at:1), (pv:295,at:1), (pv:296,at:43), (pv:297,at:1), (pv:298,at:4), (pv:299,at:5), (pv:300,at:6), (pv:301,at:4), (pv:302,at:3), (pv:303,at:10), (pv:304,at:1), (pv:305,at:3), (pv:306,at:10), (pv:307,at:1), (pv:308,at:1), (pv:309,at:12), (pv:310,at:3), (pv:311,at:4), (pv:312,at:26), (pv:313,at:2), (pv:314,at:2), (pv:315,at:4), (pv:316,at:6), (pv:317,at:4), (pv:318,at:1), (pv:319,at:6), (pv:320,at:4), (pv:321,at:1), (pv:322,at:24), (pv:323,at:4), (pv:324,at:2), (pv:325,at:9), (pv:326,at:8), (pv:327,at:7), (pv:328,at:5), (pv:329,at:10), (pv:330,at:2), (pv:331,at:2), (pv:332,at:1), (pv:333,at:3), (pv:334,at:7), (pv:335,at:2), (pv:336,at:8), (pv:337,at:3), (pv:338,at:2), (pv:339,at:5), (pv:340,at:7), (pv:341,at:3), (pv:342,at:37), (pv:343,at:13), (pv:344,at:3), (pv:345,at:3), (pv:346,at:17), (pv:347,at:3), (pv:348,at:3), (pv:349,at:13), (pv:350,at:5), (pv:351,at:8), (pv:352,at:3), (pv:353,at:6), (pv:354,at:6), (pv:355,at:3), (pv:356,at:3), (pv:357,at:5), (pv:358,at:4), (pv:359,at:5), (pv:360,at:4), (pv:361,at:7), (pv:362,at:10), (pv:363,at:2), (pv:364,at:4), (pv:365,at:2), (pv:366,at:1), (pv:367,at:1), (pv:368,at:12), (pv:369,at:9), (pv:370,at:19), (pv:371,at:33), (pv:372,at:1), (pv:373,at:9), (pv:374,at:4), (pv:375,at:10), (pv:376,at:1), (pv:377,at:8), (pv:378,at:75), (pv:380,at:6), (pv:381,at:10), (pv:382,at:3), (pv:383,at:8), (pv:384,at:39), (pv:385,at:2), (pv:386,at:8), (pv:387,at:7), (pv:388,at:90), (pv:389,at:13), (pv:390,at:9), (pv:391,at:1), (pv:392,at:1), (pv:393,at:3), (pv:394,at:4), (pv:395,at:2), (pv:396,at:13), (pv:397,at:2), (pv:398,at:71), (pv:399,at:1), (pv:400,at:2), (pv:401,at:4), (pv:402,at:26), (pv:403,at:2), (pv:404,at:3), (pv:405,at:3), (pv:406,at:5), (pv:407,at:9), (pv:408,at:2), (pv:409,at:6), (pv:410,at:7), (pv:411,at:2), (pv:412,at:6), (pv:413,at:23), (pv:414,at:16), (pv:415,at:17), (pv:416,at:4), (pv:417,at:3), (pv:418,at:7), (pv:419,at:6), (pv:420,at:17), (pv:421,at:1), (pv:422,at:1), (pv:423,at:3), (pv:424,at:2), (pv:425,at:7), (pv:426,at:2), (pv:427,at:2), (pv:428,at:17), (pv:429,at:2), (pv:430,at:7), (pv:431,at:19), (pv:432,at:7), (pv:433,at:3), (pv:434,at:2), (pv:435,at:4), (pv:436,at:2), (pv:437,at:3), (pv:438,at:3), (pv:439,at:6), (pv:440,at:16), (pv:441,at:8), (pv:442,at:6), (pv:443,at:4), (pv:444,at:1), (pv:445,at:2), (pv:446,at:2), (pv:447,at:2), (pv:448,at:13), (pv:449,at:4), (pv:450,at:7), (pv:451,at:2), (pv:452,at:1), (pv:453,at:1), (pv:454,at:3), (pv:455,at:11), (pv:456,at:8), (pv:457,at:6), (pv:458,at:2), (pv:459,at:1), (pv:460,at:3), (pv:461,at:15), (pv:462,at:1), (pv:463,at:5), (pv:464,at:5), (pv:465,at:11), (pv:466,at:2), (pv:467,at:1), (pv:468,at:5), (pv:469,at:7), (pv:470,at:3), (pv:471,at:4), (pv:472,at:4), (pv:473,at:13), (pv:474,at:11), (pv:475,at:8), (pv:476,at:4), (pv:477,at:32), (pv:478,at:1), (pv:479,at:4), (pv:480,at:3), (pv:481,at:1), (pv:482,at:7), (pv:483,at:6), (pv:484,at:10), (pv:485,at:15), (pv:486,at:1), (pv:487,at:6), (pv:488,at:4), (pv:489,at:20), (pv:490,at:2), (pv:491,at:2), (pv:492,at:14), (pv:493,at:4), (pv:494,at:6), (pv:495,at:13), (pv:496,at:15), (pv:497,at:1), (pv:498,at:25), (pv:499,at:1), (pv:500,at:7), (pv:501,at:2), (pv:502,at:14), (pv:503,at:2), (pv:504,at:9), (pv:505,at:3), (pv:506,at:5), (pv:507,at:1), (pv:508,at:2), (pv:509,at:1), (pv:510,at:2), (pv:511,at:1), (pv:512,at:6), (pv:513,at:7), (pv:514,at:2), (pv:515,at:23), (pv:516,at:2), (pv:517,at:6), (pv:518,at:5), (pv:519,at:3), (pv:520,at:4), (pv:521,at:8), (pv:522,at:2), (pv:523,at:3), (pv:524,at:15), (pv:525,at:3), (pv:526,at:1), (pv:527,at:5), (pv:528,at:3), (pv:529,at:6), (pv:530,at:13), (pv:531,at:20), (pv:532,at:2), (pv:533,at:15), (pv:534,at:90), (pv:535,at:2), (pv:536,at:11), (pv:537,at:8), (pv:538,at:4), (pv:539,at:4), (pv:540,at:6), (pv:541,at:1), (pv:542,at:12), (pv:543,at:5), (pv:544,at:8), (pv:545,at:10), (pv:546,at:2), (pv:547,at:5), (pv:548,at:1), (pv:549,at:3), (pv:550,at:2), (pv:551,at:13), (pv:552,at:18), (pv:553,at:6), (pv:554,at:4), (pv:555,at:9), (pv:556,at:2), (pv:557,at:4), (pv:558,at:1), (pv:559,at:5), (pv:560,at:7), (pv:561,at:13), (pv:562,at:60), (pv:563,at:1), (pv:564,at:1), (pv:565,at:15), (pv:566,at:1), (pv:567,at:3), (pv:568,at:3), (pv:569,at:9), (pv:570,at:3), (pv:571,at:5), (pv:572,at:7), (pv:573,at:5), (pv:574,at:6), (pv:575,at:6), (pv:576,at:6), (pv:577,at:4), (pv:578,at:3), (pv:579,at:5), (pv:580,at:13), (pv:581,at:4), (pv:582,at:1), (pv:583,at:11), (pv:584,at:27), (pv:585,at:5), (pv:586,at:7), (pv:587,at:2), (pv:588,at:1), (pv:589,at:9), (pv:590,at:1), (pv:591,at:11), (pv:592,at:1), (pv:593,at:3), (pv:594,at:22), (pv:595,at:1), (pv:596,at:1), (pv:597,at:51), (pv:598,at:10), (pv:599,at:10), (pv:600,at:14), (pv:601,at:3), (pv:602,at:1), (pv:603,at:6), (pv:604,at:1), (pv:605,at:8), (pv:606,at:14), (pv:607,at:6), (pv:608,at:6), (pv:609,at:2), (pv:610,at:1), (pv:611,at:1), (pv:612,at:1), (pv:613,at:5), (pv:614,at:3), (pv:615,at:18), (pv:616,at:9), (pv:617,at:5), (pv:618,at:14), (pv:619,at:1), (pv:620,at:1), (pv:621,at:16), (pv:622,at:16), (pv:623,at:1), (pv:624,at:2), (pv:625,at:4), (pv:626,at:3), (pv:627,at:2), (pv:628,at:4), (pv:629,at:7), (pv:630,at:3), (pv:631,at:8), (pv:632,at:3), (pv:633,at:1), (pv:634,at:7), (pv:635,at:20), (pv:636,at:1), (pv:637,at:10), (pv:638,at:9), (pv:639,at:1), (pv:640,at:2), (pv:641,at:5), (pv:642,at:2), (pv:643,at:11), (pv:644,at:8), (pv:645,at:2), (pv:646,at:22), (pv:647,at:9), (pv:648,at:2), (pv:649,at:1), (pv:650,at:8), (pv:651,at:10), (pv:652,at:7), (pv:653,at:8), (pv:654,at:2), (pv:655,at:1), (pv:656,at:11), (pv:657,at:7), (pv:658,at:11), (pv:659,at:9), (pv:660,at:1), (pv:661,at:11), (pv:662,at:15), (pv:663,at:3), (pv:664,at:9), (pv:665,at:4), (pv:666,at:5), (pv:667,at:9), (pv:668,at:4), (pv:669,at:3), (pv:670,at:3), (pv:671,at:20), (pv:672,at:14), (pv:673,at:16), (pv:674,at:2), (pv:675,at:14), (pv:676,at:7), (pv:677,at:3), (pv:678,at:17), (pv:679,at:10), (pv:680,at:10), (pv:681,at:2), (pv:682,at:1), (pv:683,at:1), (pv:684,at:6), (pv:685,at:27), (pv:686,at:9), (pv:687,at:5), (pv:688,at:5), (pv:689,at:30), (pv:690,at:6), (pv:691,at:3), (pv:692,at:1), (pv:693,at:1), (pv:694,at:1), (pv:695,at:3), (pv:696,at:1), (pv:697,at:10), (pv:698,at:3), (pv:699,at:3), (pv:700,at:4), (pv:701,at:17), (pv:702,at:3), (pv:703,at:5), (pv:704,at:4), (pv:705,at:5), (pv:706,at:4), (pv:707,at:5), (pv:708,at:2), (pv:709,at:4), (pv:710,at:8), (pv:711,at:5), (pv:712,at:7), (pv:713,at:16), (pv:714,at:8), (pv:715,at:5), (pv:716,at:14), (pv:717,at:6), (pv:718,at:2), (pv:719,at:25), (pv:720,at:3), (pv:721,at:2), (pv:722,at:1), (pv:723,at:11), (pv:724,at:2), (pv:725,at:9), (pv:726,at:2), (pv:727,at:12), (pv:728,at:3), (pv:729,at:1), (pv:730,at:13), (pv:731,at:4), (pv:732,at:6), (pv:733,at:6), (pv:734,at:10), (pv:735,at:1), (pv:736,at:25), (pv:737,at:7), (pv:738,at:6), (pv:739,at:20), (pv:740,at:4), (pv:741,at:7), (pv:742,at:1), (pv:743,at:9), (pv:744,at:5), (pv:745,at:3), (pv:746,at:2), (pv:747,at:1), (pv:748,at:6), (pv:749,at:7), (pv:750,at:11), (pv:751,at:3), (pv:752,at:7), (pv:753,at:3), (pv:754,at:9), (pv:755,at:3), (pv:756,at:13), (pv:757,at:6), (pv:758,at:5), (pv:759,at:1), (pv:760,at:16), (pv:761,at:3), (pv:762,at:5), (pv:763,at:23), (pv:764,at:1), (pv:765,at:10), (pv:766,at:3), (pv:767,at:1), (pv:768,at:3), (pv:769,at:28), (pv:770,at:11), (pv:771,at:11), (pv:772,at:1), (pv:773,at:5), (pv:774,at:12), (pv:775,at:8), (pv:776,at:1), (pv:777,at:3), (pv:778,at:12), (pv:779,at:14), (pv:780,at:6), (pv:781,at:5), (pv:782,at:2), (pv:783,at:1), (pv:784,at:1), (pv:785,at:1), (pv:786,at:5), (pv:787,at:10), (pv:788,at:4), (pv:789,at:9), (pv:790,at:4), (pv:791,at:2), (pv:792,at:11), (pv:793,at:2), (pv:794,at:19), (pv:795,at:2), (pv:796,at:10), (pv:797,at:3), (pv:798,at:4), (pv:799,at:53), (pv:800,at:5), (pv:801,at:3), (pv:802,at:3), (pv:803,at:26), (pv:804,at:2), (pv:805,at:4), (pv:806,at:2), (pv:807,at:44), (pv:808,at:3), (pv:809,at:1), (pv:810,at:14), (pv:811,at:3), (pv:812,at:3), (pv:813,at:2), (pv:814,at:7), (pv:815,at:3), (pv:816,at:1), (pv:817,at:1), (pv:818,at:1), (pv:819,at:3), (pv:820,at:4), (pv:821,at:11), (pv:822,at:6), (pv:823,at:28), (pv:824,at:11), (pv:825,at:6), (pv:826,at:32), (pv:827,at:1), (pv:828,at:11), (pv:829,at:1), (pv:830,at:7), (pv:831,at:19), (pv:832,at:9), (pv:833,at:1), (pv:834,at:2), (pv:835,at:5), (pv:836,at:9), (pv:837,at:4), (pv:838,at:3), (pv:839,at:5), (pv:840,at:5), (pv:841,at:13), (pv:842,at:31), (pv:843,at:2), (pv:844,at:31), (pv:845,at:12), (pv:846,at:7), (pv:847,at:2), (pv:848,at:3), (pv:849,at:1), (pv:850,at:2), (pv:851,at:3), (pv:852,at:15), (pv:853,at:10), (pv:854,at:5), (pv:855,at:3), (pv:856,at:3), (pv:857,at:1), (pv:858,at:12), (pv:859,at:1), (pv:860,at:10), (pv:861,at:4), (pv:862,at:22), (pv:863,at:2), (pv:864,at:10), (pv:865,at:15), (pv:866,at:2), (pv:867,at:8), (pv:868,at:1), (pv:869,at:2), (pv:870,at:74), (pv:871,at:1), (pv:872,at:4), (pv:873,at:3), (pv:874,at:2), (pv:875,at:2), (pv:876,at:6), (pv:877,at:12), (pv:878,at:9), (pv:879,at:4), (pv:880,at:1), (pv:881,at:9), (pv:882,at:2), (pv:883,at:1), (pv:884,at:25), (pv:885,at:1), (pv:886,at:8), (pv:887,at:7), (pv:888,at:12), (pv:889,at:10), (pv:890,at:11), (pv:891,at:3), (pv:892,at:67), (pv:893,at:1), (pv:894,at:19), (pv:895,at:3), (pv:896,at:1), (pv:897,at:5), (pv:898,at:8), (pv:899,at:4), (pv:900,at:1), (pv:901,at:1), (pv:902,at:12), (pv:903,at:10), (pv:904,at:8), (pv:905,at:1), (pv:906,at:2), (pv:907,at:16), (pv:908,at:1), (pv:909,at:5), (pv:910,at:9), (pv:911,at:1), (pv:912,at:14), (pv:913,at:6), (pv:914,at:10), (pv:915,at:1), (pv:916,at:2), (pv:917,at:21), (pv:918,at:10), (pv:919,at:13), (pv:920,at:20), (pv:921,at:5), (pv:922,at:2), (pv:923,at:2), (pv:924,at:2), (pv:925,at:28), (pv:926,at:3), (pv:927,at:3), (pv:928,at:1), (pv:929,at:11), (pv:930,at:4), (pv:931,at:4), (pv:932,at:1), (pv:933,at:14), (pv:934,at:10), (pv:935,at:7), (pv:936,at:1), (pv:937,at:16), (pv:938,at:2), (pv:939,at:4), (pv:940,at:2), (pv:941,at:8), (pv:942,at:2), (pv:943,at:9), (pv:944,at:6), (pv:945,at:16), (pv:946,at:2), (pv:947,at:3), (pv:948,at:10), (pv:949,at:4), (pv:950,at:1), (pv:951,at:1), (pv:952,at:2), (pv:953,at:8), (pv:954,at:10), (pv:955,at:11), (pv:956,at:16), (pv:957,at:4), (pv:958,at:34), (pv:959,at:7), (pv:960,at:4), (pv:961,at:10), (pv:962,at:31), (pv:963,at:6), (pv:964,at:18), (pv:965,at:1), (pv:966,at:35), (pv:967,at:2), (pv:968,at:25), (pv:969,at:12), (pv:970,at:8), (pv:971,at:11), (pv:972,at:3), (pv:973,at:1), (pv:974,at:4), (pv:975,at:4), (pv:976,at:3), (pv:977,at:1), (pv:978,at:3), (pv:979,at:4), (pv:980,at:5), (pv:981,at:7), (pv:982,at:3), (pv:983,at:21), (pv:984,at:10), (pv:985,at:3), (pv:986,at:1), (pv:987,at:8), (pv:988,at:4), (pv:989,at:23), (pv:990,at:2), (pv:991,at:1), (pv:992,at:5), (pv:993,at:5), (pv:994,at:2), (pv:995,at:4), (pv:996,at:8), (pv:997,at:20), (pv:998,at:2), (pv:999,at:4), (pv:1000,at:10), (pv:1001,at:5), (pv:1002,at:17), (pv:1003,at:1), (pv:1004,at:6), (pv:1005,at:64), (pv:1006,at:8), (pv:1007,at:52), (pv:1008,at:6), (pv:1009,at:9), (pv:1010,at:4), (pv:1011,at:7), (pv:1012,at:1), (pv:1013,at:5), (pv:1014,at:1), (pv:1015,at:2), (pv:1016,at:1), (pv:1017,at:5), (pv:1018,at:1), (pv:1019,at:10), (pv:1020,at:8), (pv:1021,at:10), (pv:1022,at:1), (pv:1023,at:11), (pv:1024,at:6), (pv:1025,at:3), (pv:1026,at:4), (pv:1027,at:15), (pv:1028,at:3), (pv:1029,at:15), (pv:1030,at:6), (pv:1031,at:1), (pv:1032,at:3), (pv:1033,at:2), (pv:1034,at:22), (pv:1035,at:2), (pv:1036,at:1), (pv:1037,at:5), (pv:1038,at:1), (pv:1039,at:3), (pv:1040,at:11), (pv:1041,at:16), (pv:1042,at:1), (pv:1043,at:8), (pv:1044,at:4), (pv:1045,at:1), (pv:1046,at:30), (pv:1047,at:2), (pv:1048,at:14), (pv:1049,at:2), (pv:1050,at:2), (pv:1051,at:1), (pv:1052,at:9), (pv:1053,at:7), (pv:1054,at:7), (pv:1055,at:3), (pv:1056,at:5), (pv:1057,at:1), (pv:1058,at:2), (pv:1059,at:2), (pv:1060,at:3), (pv:1061,at:1), (pv:1062,at:4), (pv:1063,at:5), (pv:1064,at:4), (pv:1065,at:3), (pv:1066,at:5), (pv:1067,at:1), (pv:1068,at:2), (pv:1069,at:12), (pv:1070,at:7), (pv:1071,at:5), (pv:1072,at:6), (pv:1073,at:12), (pv:1074,at:12), (pv:1075,at:1), (pv:1076,at:6), (pv:1077,at:1), (pv:1078,at:4), (pv:1079,at:3), (pv:1080,at:18), (pv:1081,at:13), (pv:1082,at:1), (pv:1083,at:1), (pv:1084,at:12), (pv:1085,at:1), (pv:1086,at:8), (pv:1087,at:2), (pv:1088,at:1), (pv:1089,at:2), (pv:1090,at:8), (pv:1091,at:18), (pv:1092,at:1), (pv:1093,at:1), (pv:1094,at:1), (pv:1095,at:13), (pv:1096,at:7), (pv:1097,at:4), (pv:1098,at:3), (pv:1099,at:19), (pv:1100,at:4), (pv:1101,at:22), (pv:1102,at:42), (pv:1103,at:22), (pv:1104,at:1), (pv:1105,at:1)]
[INFO ] fr.inria.astor.approaches.jgenprog.JGenProg.showResults(JGenProg.java:342) - 
pvariants_with_transformed_ingredients: [(pv:2,at:31), (pv:3,at:1), (pv:4,at:6), (pv:5,at:5), (pv:6,at:1), (pv:7,at:1), (pv:8,at:41), (pv:9,at:1), (pv:10,at:16), (pv:11,at:4), (pv:12,at:15), (pv:13,at:5), (pv:14,at:8), (pv:15,at:3), (pv:16,at:11), (pv:17,at:3), (pv:18,at:3), (pv:19,at:13), (pv:20,at:11), (pv:21,at:1), (pv:22,at:1), (pv:23,at:5), (pv:24,at:2), (pv:25,at:8), (pv:26,at:7), (pv:27,at:1), (pv:28,at:4), (pv:29,at:6), (pv:30,at:9), (pv:31,at:4), (pv:32,at:3), (pv:33,at:2), (pv:34,at:9), (pv:35,at:11), (pv:36,at:2), (pv:37,at:4), (pv:38,at:2), (pv:39,at:10), (pv:40,at:8), (pv:41,at:20), (pv:42,at:30), (pv:43,at:5), (pv:44,at:4), (pv:45,at:5), (pv:46,at:14), (pv:47,at:1), (pv:48,at:9), (pv:49,at:98), (pv:50,at:2), (pv:51,at:3), (pv:52,at:10), (pv:53,at:18), (pv:54,at:3), (pv:55,at:8), (pv:56,at:5), (pv:57,at:2), (pv:58,at:36), (pv:59,at:37), (pv:60,at:16), (pv:61,at:1), (pv:62,at:10), (pv:63,at:13), (pv:64,at:1), (pv:65,at:7), (pv:66,at:2), (pv:67,at:19), (pv:68,at:59), (pv:69,at:6), (pv:70,at:15), (pv:71,at:11), (pv:72,at:34), (pv:73,at:39), (pv:74,at:3), (pv:75,at:3), (pv:76,at:17), (pv:77,at:7), (pv:78,at:4), (pv:79,at:4), (pv:80,at:2), (pv:81,at:3), (pv:82,at:10), (pv:83,at:9), (pv:84,at:13), (pv:85,at:9), (pv:86,at:12), (pv:87,at:2), (pv:88,at:4), (pv:89,at:3), (pv:90,at:30), (pv:91,at:10), (pv:92,at:8), (pv:93,at:1), (pv:94,at:2), (pv:95,at:4), (pv:96,at:1), (pv:97,at:1), (pv:98,at:3), (pv:99,at:4), (pv:100,at:3), (pv:101,at:13), (pv:102,at:19), (pv:103,at:3), (pv:104,at:8), (pv:105,at:4), (pv:106,at:3), (pv:107,at:1), (pv:108,at:7), (pv:109,at:21), (pv:110,at:3), (pv:111,at:7), (pv:112,at:2), (pv:113,at:3), (pv:114,at:21), (pv:115,at:8), (pv:116,at:1), (pv:117,at:5), (pv:118,at:5), (pv:119,at:4), (pv:120,at:27), (pv:121,at:5), (pv:122,at:1), (pv:123,at:6), (pv:124,at:2), (pv:125,at:12), (pv:126,at:2), (pv:127,at:4), (pv:128,at:9), (pv:129,at:21), (pv:130,at:4), (pv:131,at:6), (pv:132,at:8), (pv:133,at:3), (pv:134,at:18), (pv:135,at:2), (pv:136,at:6), (pv:137,at:11), (pv:138,at:5), (pv:139,at:2), (pv:140,at:19), (pv:141,at:1), (pv:142,at:1), (pv:143,at:6), (pv:144,at:1), (pv:145,at:3), (pv:146,at:10), (pv:147,at:7), (pv:148,at:9), (pv:149,at:3), (pv:150,at:4), (pv:151,at:1), (pv:152,at:5), (pv:153,at:2), (pv:154,at:11), (pv:155,at:6), (pv:156,at:12), (pv:157,at:4), (pv:158,at:25), (pv:159,at:15), (pv:160,at:1), (pv:161,at:3), (pv:162,at:4), (pv:163,at:1), (pv:164,at:15), (pv:165,at:4), (pv:166,at:5), (pv:167,at:3), (pv:168,at:6), (pv:169,at:2), (pv:170,at:2), (pv:171,at:18), (pv:172,at:1), (pv:173,at:2), (pv:174,at:16), (pv:175,at:2), (pv:176,at:6), (pv:177,at:8), (pv:178,at:2), (pv:179,at:1), (pv:180,at:12), (pv:181,at:15), (pv:182,at:6), (pv:183,at:6), (pv:184,at:4), (pv:185,at:2), (pv:186,at:18), (pv:187,at:2), (pv:188,at:7), (pv:189,at:3), (pv:190,at:2), (pv:191,at:1), (pv:192,at:4), (pv:193,at:10), (pv:194,at:5), (pv:195,at:14), (pv:196,at:8), (pv:197,at:9), (pv:198,at:2), (pv:199,at:21), (pv:200,at:1), (pv:201,at:2), (pv:202,at:4), (pv:203,at:10), (pv:204,at:4), (pv:205,at:7), (pv:206,at:7), (pv:207,at:1), (pv:208,at:3), (pv:209,at:3), (pv:210,at:1), (pv:211,at:4), (pv:212,at:8), (pv:213,at:2), (pv:214,at:1), (pv:215,at:46), (pv:216,at:9), (pv:217,at:1), (pv:218,at:2), (pv:219,at:10), (pv:220,at:7), (pv:221,at:1), (pv:222,at:6), (pv:223,at:5), (pv:224,at:2), (pv:225,at:6), (pv:226,at:49), (pv:227,at:2), (pv:228,at:15), (pv:229,at:14), (pv:230,at:7), (pv:231,at:2), (pv:232,at:1), (pv:233,at:6), (pv:234,at:1), (pv:235,at:11), (pv:236,at:3), (pv:237,at:2), (pv:238,at:2), (pv:239,at:19), (pv:240,at:1), (pv:241,at:17), (pv:242,at:4), (pv:243,at:6), (pv:244,at:11), (pv:245,at:3), (pv:246,at:1), (pv:247,at:14), (pv:248,at:4), (pv:249,at:6), (pv:250,at:7), (pv:251,at:12), (pv:252,at:5), (pv:253,at:2), (pv:254,at:1), (pv:255,at:5), (pv:256,at:4), (pv:257,at:6), (pv:258,at:2), (pv:259,at:9), (pv:260,at:10), (pv:261,at:4), (pv:262,at:3), (pv:263,at:3), (pv:264,at:45), (pv:265,at:5), (pv:266,at:3), (pv:267,at:2), (pv:268,at:1), (pv:269,at:4), (pv:270,at:19), (pv:271,at:15), (pv:272,at:8), (pv:273,at:9), (pv:274,at:6), (pv:275,at:5), (pv:276,at:7), (pv:277,at:6), (pv:278,at:8), (pv:279,at:4), (pv:280,at:19), (pv:281,at:3), (pv:282,at:1), (pv:283,at:7), (pv:284,at:1), (pv:285,at:7), (pv:286,at:1), (pv:287,at:14), (pv:288,at:8), (pv:289,at:1), (pv:290,at:5), (pv:291,at:2), (pv:292,at:10), (pv:293,at:7), (pv:294,at:1), (pv:295,at:1), (pv:296,at:43), (pv:297,at:1), (pv:298,at:4), (pv:299,at:5), (pv:300,at:6), (pv:301,at:4), (pv:302,at:3), (pv:303,at:10), (pv:304,at:1), (pv:305,at:3), (pv:306,at:10), (pv:307,at:1), (pv:308,at:1), (pv:309,at:12), (pv:310,at:3), (pv:311,at:4), (pv:312,at:26), (pv:313,at:2), (pv:314,at:2), (pv:315,at:4), (pv:316,at:6), (pv:317,at:4), (pv:318,at:1), (pv:319,at:6), (pv:320,at:4), (pv:321,at:1), (pv:322,at:24), (pv:323,at:4), (pv:324,at:2), (pv:325,at:9), (pv:326,at:8), (pv:327,at:7), (pv:328,at:5), (pv:329,at:10), (pv:330,at:2), (pv:331,at:2), (pv:332,at:1), (pv:333,at:3), (pv:334,at:7), (pv:335,at:2), (pv:336,at:8), (pv:337,at:3), (pv:338,at:2), (pv:339,at:5), (pv:340,at:7), (pv:341,at:3), (pv:342,at:37), (pv:343,at:13), (pv:344,at:3), (pv:345,at:3), (pv:346,at:17), (pv:347,at:3), (pv:348,at:3), (pv:349,at:13), (pv:350,at:5), (pv:351,at:8), (pv:352,at:3), (pv:353,at:6), (pv:354,at:6), (pv:355,at:3), (pv:356,at:3), (pv:357,at:5), (pv:358,at:4), (pv:359,at:5), (pv:360,at:4), (pv:361,at:7), (pv:362,at:10), (pv:363,at:2), (pv:364,at:4), (pv:365,at:2), (pv:366,at:1), (pv:367,at:1), (pv:368,at:12), (pv:369,at:9), (pv:370,at:19), (pv:371,at:33), (pv:372,at:1), (pv:373,at:9), (pv:374,at:4), (pv:375,at:10), (pv:376,at:1), (pv:377,at:8), (pv:378,at:75), (pv:379,at:2), (pv:380,at:6), (pv:381,at:10), (pv:382,at:3), (pv:383,at:8), (pv:384,at:39), (pv:385,at:2), (pv:386,at:8), (pv:387,at:7), (pv:388,at:90), (pv:389,at:13), (pv:390,at:9), (pv:391,at:1), (pv:392,at:1), (pv:393,at:3), (pv:394,at:4), (pv:395,at:2), (pv:396,at:13), (pv:397,at:2), (pv:398,at:71), (pv:399,at:1), (pv:400,at:2), (pv:401,at:4), (pv:402,at:26), (pv:403,at:2), (pv:404,at:3), (pv:405,at:3), (pv:406,at:5), (pv:407,at:9), (pv:408,at:2), (pv:409,at:6), (pv:410,at:7), (pv:411,at:2), (pv:412,at:6), (pv:413,at:23), (pv:414,at:16), (pv:415,at:17), (pv:416,at:4), (pv:417,at:3), (pv:418,at:7), (pv:419,at:6), (pv:420,at:17), (pv:421,at:1), (pv:422,at:1), (pv:423,at:3), (pv:424,at:2), (pv:425,at:7), (pv:426,at:2), (pv:427,at:2), (pv:428,at:17), (pv:429,at:2), (pv:430,at:7), (pv:431,at:19), (pv:432,at:7), (pv:433,at:3), (pv:434,at:2), (pv:435,at:4), (pv:436,at:2), (pv:437,at:3), (pv:438,at:3), (pv:439,at:6), (pv:440,at:16), (pv:441,at:8), (pv:442,at:6), (pv:443,at:4), (pv:444,at:1), (pv:445,at:2), (pv:446,at:2), (pv:447,at:2), (pv:448,at:13), (pv:449,at:4), (pv:450,at:7), (pv:451,at:2), (pv:452,at:1), (pv:453,at:1), (pv:454,at:3), (pv:455,at:11), (pv:456,at:8), (pv:457,at:6), (pv:458,at:2), (pv:459,at:1), (pv:460,at:3), (pv:461,at:15), (pv:462,at:1), (pv:463,at:5), (pv:464,at:5), (pv:465,at:11), (pv:466,at:2), (pv:467,at:1), (pv:468,at:5), (pv:469,at:7), (pv:470,at:3), (pv:471,at:4), (pv:472,at:4), (pv:473,at:13), (pv:474,at:11), (pv:475,at:8), (pv:476,at:4), (pv:477,at:32), (pv:478,at:1), (pv:479,at:4), (pv:480,at:3), (pv:481,at:1), (pv:482,at:7), (pv:483,at:6), (pv:484,at:10), (pv:485,at:15), (pv:486,at:1), (pv:487,at:6), (pv:488,at:4), (pv:489,at:20), (pv:490,at:2), (pv:491,at:2), (pv:492,at:14), (pv:493,at:4), (pv:494,at:6), (pv:495,at:13), (pv:496,at:15), (pv:497,at:1), (pv:498,at:25), (pv:499,at:1), (pv:500,at:7), (pv:501,at:2), (pv:502,at:14), (pv:503,at:2), (pv:504,at:9), (pv:505,at:3), (pv:506,at:5), (pv:507,at:1), (pv:508,at:2), (pv:509,at:1), (pv:510,at:2), (pv:511,at:1), (pv:512,at:6), (pv:513,at:7), (pv:514,at:2), (pv:515,at:23), (pv:516,at:2), (pv:517,at:6), (pv:518,at:5), (pv:519,at:3), (pv:520,at:4), (pv:521,at:8), (pv:522,at:2), (pv:523,at:3), (pv:524,at:15), (pv:525,at:3), (pv:526,at:1), (pv:527,at:5), (pv:528,at:3), (pv:529,at:6), (pv:530,at:13), (pv:531,at:20), (pv:532,at:2), (pv:533,at:15), (pv:534,at:90), (pv:535,at:2), (pv:536,at:11), (pv:537,at:8), (pv:538,at:4), (pv:539,at:4), (pv:540,at:6), (pv:541,at:1), (pv:542,at:12), (pv:543,at:5), (pv:544,at:8), (pv:545,at:10), (pv:546,at:2), (pv:547,at:5), (pv:548,at:1), (pv:549,at:3), (pv:550,at:2), (pv:551,at:13), (pv:552,at:18), (pv:553,at:6), (pv:554,at:4), (pv:555,at:9), (pv:556,at:2), (pv:557,at:4), (pv:558,at:1), (pv:559,at:5), (pv:560,at:7), (pv:561,at:13), (pv:562,at:60), (pv:563,at:1), (pv:564,at:1), (pv:565,at:15), (pv:566,at:1), (pv:567,at:3), (pv:568,at:3), (pv:569,at:9), (pv:570,at:3), (pv:571,at:5), (pv:572,at:7), (pv:573,at:5), (pv:574,at:6), (pv:575,at:6), (pv:576,at:6), (pv:577,at:4), (pv:578,at:3), (pv:579,at:5), (pv:580,at:13), (pv:581,at:4), (pv:582,at:1), (pv:583,at:11), (pv:584,at:27), (pv:585,at:5), (pv:586,at:7), (pv:587,at:2), (pv:588,at:1), (pv:589,at:9), (pv:590,at:1), (pv:591,at:11), (pv:592,at:1), (pv:593,at:3), (pv:594,at:22), (pv:595,at:1), (pv:596,at:1), (pv:597,at:51), (pv:598,at:10), (pv:599,at:10), (pv:600,at:14), (pv:601,at:3), (pv:602,at:1), (pv:603,at:6), (pv:604,at:1), (pv:605,at:8), (pv:606,at:14), (pv:607,at:6), (pv:608,at:6), (pv:609,at:2), (pv:610,at:1), (pv:611,at:1), (pv:612,at:1), (pv:613,at:5), (pv:614,at:3), (pv:615,at:18), (pv:616,at:9), (pv:617,at:5), (pv:618,at:14), (pv:619,at:1), (pv:620,at:1), (pv:621,at:16), (pv:622,at:16), (pv:623,at:1), (pv:624,at:2), (pv:625,at:4), (pv:626,at:3), (pv:627,at:2), (pv:628,at:4), (pv:629,at:7), (pv:630,at:3), (pv:631,at:8), (pv:632,at:3), (pv:633,at:1), (pv:634,at:7), (pv:635,at:20), (pv:636,at:1), (pv:637,at:10), (pv:638,at:9), (pv:639,at:1), (pv:640,at:2), (pv:641,at:5), (pv:642,at:2), (pv:643,at:11), (pv:644,at:8), (pv:645,at:2), (pv:646,at:22), (pv:647,at:9), (pv:648,at:2), (pv:649,at:1), (pv:650,at:8), (pv:651,at:10), (pv:652,at:7), (pv:653,at:8), (pv:654,at:2), (pv:655,at:1), (pv:656,at:11), (pv:657,at:7), (pv:658,at:11), (pv:659,at:9), (pv:660,at:1), (pv:661,at:11), (pv:662,at:15), (pv:663,at:3), (pv:664,at:9), (pv:665,at:4), (pv:666,at:5), (pv:667,at:9), (pv:668,at:4), (pv:669,at:3), (pv:670,at:3), (pv:671,at:20), (pv:672,at:14), (pv:673,at:16), (pv:674,at:2), (pv:675,at:14), (pv:676,at:7), (pv:677,at:3), (pv:678,at:17), (pv:679,at:10), (pv:680,at:10), (pv:681,at:2), (pv:682,at:1), (pv:683,at:1), (pv:684,at:6), (pv:685,at:27), (pv:686,at:9), (pv:687,at:5), (pv:688,at:5), (pv:689,at:30), (pv:690,at:6), (pv:691,at:3), (pv:692,at:1), (pv:693,at:1), (pv:694,at:1), (pv:695,at:3), (pv:696,at:1), (pv:697,at:10), (pv:698,at:3), (pv:699,at:3), (pv:700,at:4), (pv:701,at:17), (pv:702,at:3), (pv:703,at:5), (pv:704,at:4), (pv:705,at:5), (pv:706,at:4), (pv:707,at:5), (pv:708,at:2), (pv:709,at:4), (pv:710,at:8), (pv:711,at:5), (pv:712,at:7), (pv:713,at:16), (pv:714,at:8), (pv:715,at:5), (pv:716,at:14), (pv:717,at:6), (pv:718,at:2), (pv:719,at:25), (pv:720,at:3), (pv:721,at:2), (pv:722,at:1), (pv:723,at:11), (pv:724,at:2), (pv:725,at:9), (pv:726,at:2), (pv:727,at:12), (pv:728,at:3), (pv:729,at:1), (pv:730,at:13), (pv:731,at:4), (pv:732,at:6), (pv:733,at:6), (pv:734,at:10), (pv:735,at:1), (pv:736,at:25), (pv:737,at:7), (pv:738,at:6), (pv:739,at:20), (pv:740,at:4), (pv:741,at:7), (pv:742,at:1), (pv:743,at:9), (pv:744,at:5), (pv:745,at:3), (pv:746,at:2), (pv:747,at:1), (pv:748,at:6), (pv:749,at:7), (pv:750,at:11), (pv:751,at:3), (pv:752,at:7), (pv:753,at:3), (pv:754,at:9), (pv:755,at:3), (pv:756,at:13), (pv:757,at:6), (pv:758,at:5), (pv:759,at:1), (pv:760,at:16), (pv:761,at:3), (pv:762,at:5), (pv:763,at:23), (pv:764,at:1), (pv:765,at:10), (pv:766,at:3), (pv:767,at:1), (pv:768,at:3), (pv:769,at:28), (pv:770,at:11), (pv:771,at:11), (pv:772,at:1), (pv:773,at:5), (pv:774,at:12), (pv:775,at:8), (pv:776,at:1), (pv:777,at:3), (pv:778,at:12), (pv:779,at:14), (pv:780,at:6), (pv:781,at:5), (pv:782,at:2), (pv:783,at:1), (pv:784,at:1), (pv:785,at:1), (pv:786,at:5), (pv:787,at:10), (pv:788,at:4), (pv:789,at:9), (pv:790,at:4), (pv:791,at:2), (pv:792,at:11), (pv:793,at:2), (pv:794,at:19), (pv:795,at:2), (pv:796,at:10), (pv:797,at:3), (pv:798,at:4), (pv:799,at:53), (pv:800,at:5), (pv:801,at:3), (pv:802,at:3), (pv:803,at:26), (pv:804,at:2), (pv:805,at:4), (pv:806,at:2), (pv:807,at:44), (pv:808,at:3), (pv:809,at:1), (pv:810,at:14), (pv:811,at:3), (pv:812,at:3), (pv:813,at:2), (pv:814,at:7), (pv:815,at:3), (pv:816,at:1), (pv:817,at:1), (pv:818,at:1), (pv:819,at:3), (pv:820,at:4), (pv:821,at:11), (pv:822,at:6), (pv:823,at:28), (pv:824,at:11), (pv:825,at:6), (pv:826,at:32), (pv:827,at:1), (pv:828,at:11), (pv:829,at:1), (pv:830,at:7), (pv:831,at:19), (pv:832,at:9), (pv:833,at:1), (pv:834,at:2), (pv:835,at:5), (pv:836,at:9), (pv:837,at:4), (pv:838,at:3), (pv:839,at:5), (pv:840,at:5), (pv:841,at:13), (pv:842,at:31), (pv:843,at:2), (pv:844,at:31), (pv:845,at:12), (pv:846,at:7), (pv:847,at:2), (pv:848,at:3), (pv:849,at:1), (pv:850,at:2), (pv:851,at:3), (pv:852,at:15), (pv:853,at:10), (pv:854,at:5), (pv:855,at:3), (pv:856,at:3), (pv:857,at:1), (pv:858,at:12), (pv:859,at:1), (pv:860,at:10), (pv:861,at:4), (pv:862,at:22), (pv:863,at:2), (pv:864,at:10), (pv:865,at:15), (pv:866,at:2), (pv:867,at:8), (pv:868,at:1), (pv:869,at:2), (pv:870,at:74), (pv:871,at:1), (pv:872,at:4), (pv:873,at:3), (pv:874,at:2), (pv:875,at:2), (pv:876,at:6), (pv:877,at:12), (pv:878,at:9), (pv:879,at:4), (pv:880,at:1), (pv:881,at:9), (pv:882,at:2), (pv:883,at:1), (pv:884,at:25), (pv:885,at:1), (pv:886,at:8), (pv:887,at:7), (pv:888,at:12), (pv:889,at:10), (pv:890,at:11), (pv:891,at:3), (pv:892,at:67), (pv:893,at:1), (pv:894,at:19), (pv:895,at:3), (pv:896,at:1), (pv:897,at:5), (pv:898,at:8), (pv:899,at:4), (pv:900,at:1), (pv:901,at:1), (pv:902,at:12), (pv:903,at:10), (pv:904,at:8), (pv:905,at:1), (pv:906,at:2), (pv:907,at:16), (pv:908,at:1), (pv:909,at:5), (pv:910,at:9), (pv:911,at:1), (pv:912,at:14), (pv:913,at:6), (pv:914,at:10), (pv:915,at:1), (pv:916,at:2), (pv:917,at:21), (pv:918,at:10), (pv:919,at:13), (pv:920,at:20), (pv:921,at:5), (pv:922,at:2), (pv:923,at:2), (pv:924,at:2), (pv:925,at:28), (pv:926,at:3), (pv:927,at:3), (pv:928,at:1), (pv:929,at:11), (pv:930,at:4), (pv:931,at:4), (pv:932,at:1), (pv:933,at:14), (pv:934,at:10), (pv:935,at:7), (pv:936,at:1), (pv:937,at:16), (pv:938,at:2), (pv:939,at:4), (pv:940,at:2), (pv:941,at:8), (pv:942,at:2), (pv:943,at:9), (pv:944,at:6), (pv:945,at:16), (pv:946,at:2), (pv:947,at:3), (pv:948,at:10), (pv:949,at:4), (pv:950,at:1), (pv:951,at:1), (pv:952,at:2), (pv:953,at:8), (pv:954,at:10), (pv:955,at:11), (pv:956,at:16), (pv:957,at:4), (pv:958,at:34), (pv:959,at:7), (pv:960,at:4), (pv:961,at:10), (pv:962,at:31), (pv:963,at:6), (pv:964,at:18), (pv:965,at:1), (pv:966,at:35), (pv:967,at:2), (pv:968,at:25), (pv:969,at:12), (pv:970,at:8), (pv:971,at:11), (pv:972,at:3), (pv:973,at:1), (pv:974,at:4), (pv:975,at:4), (pv:976,at:3), (pv:977,at:1), (pv:978,at:3), (pv:979,at:4), (pv:980,at:5), (pv:981,at:7), (pv:982,at:3), (pv:983,at:21), (pv:984,at:10), (pv:985,at:3), (pv:986,at:1), (pv:987,at:8), (pv:988,at:4), (pv:989,at:23), (pv:990,at:2), (pv:991,at:1), (pv:992,at:5), (pv:993,at:5), (pv:994,at:2), (pv:995,at:4), (pv:996,at:8), (pv:997,at:20), (pv:998,at:2), (pv:999,at:4), (pv:1000,at:10), (pv:1001,at:5), (pv:1002,at:17), (pv:1003,at:1), (pv:1004,at:6), (pv:1005,at:64), (pv:1006,at:8), (pv:1007,at:52), (pv:1008,at:6), (pv:1009,at:9), (pv:1010,at:4), (pv:1011,at:7), (pv:1012,at:1), (pv:1013,at:5), (pv:1014,at:1), (pv:1015,at:2), (pv:1016,at:1), (pv:1017,at:5), (pv:1018,at:1), (pv:1019,at:10), (pv:1020,at:8), (pv:1021,at:10), (pv:1022,at:1), (pv:1023,at:11), (pv:1024,at:6), (pv:1025,at:3), (pv:1026,at:4), (pv:1027,at:15), (pv:1028,at:3), (pv:1029,at:15), (pv:1030,at:6), (pv:1031,at:1), (pv:1032,at:3), (pv:1033,at:2), (pv:1034,at:22), (pv:1035,at:2), (pv:1036,at:1), (pv:1037,at:5), (pv:1038,at:1), (pv:1039,at:3), (pv:1040,at:11), (pv:1041,at:16), (pv:1042,at:1), (pv:1043,at:8), (pv:1044,at:4), (pv:1045,at:1), (pv:1046,at:30), (pv:1047,at:2), (pv:1048,at:14), (pv:1049,at:2), (pv:1050,at:2), (pv:1051,at:1), (pv:1052,at:9), (pv:1053,at:7), (pv:1054,at:7), (pv:1055,at:3), (pv:1056,at:5), (pv:1057,at:1), (pv:1058,at:2), (pv:1059,at:2), (pv:1060,at:3), (pv:1061,at:1), (pv:1062,at:4), (pv:1063,at:5), (pv:1064,at:4), (pv:1065,at:3), (pv:1066,at:5), (pv:1067,at:1), (pv:1068,at:2), (pv:1069,at:12), (pv:1070,at:7), (pv:1071,at:5), (pv:1072,at:6), (pv:1073,at:12), (pv:1074,at:12), (pv:1075,at:1), (pv:1076,at:6), (pv:1077,at:1), (pv:1078,at:4), (pv:1079,at:3), (pv:1080,at:18), (pv:1081,at:13), (pv:1082,at:1), (pv:1083,at:1), (pv:1084,at:12), (pv:1085,at:1), (pv:1086,at:8), (pv:1087,at:2), (pv:1088,at:1), (pv:1089,at:2), (pv:1090,at:8), (pv:1091,at:18), (pv:1092,at:1), (pv:1093,at:1), (pv:1094,at:1), (pv:1095,at:13), (pv:1096,at:7), (pv:1097,at:4), (pv:1098,at:3), (pv:1099,at:19), (pv:1100,at:4), (pv:1101,at:22), (pv:1102,at:42), (pv:1103,at:22), (pv:1104,at:1), (pv:1105,at:1)]
[INFO ] fr.inria.main.evolution.AstorMain.run(AstorMain.java:163) - Time Total(s): 10917.293
