Warning: no access to tty (Bad file descriptor).
Thus no job control in this shell.
tput: No value for $TERM and no -T specified
Node: wh31.sciclone.wm.edu
2017-04-03 11:44:12,367 INFO main - command line arguments: [-out  /local/scr/mtufano/Math/105/b/similar-package-executables-default/1  -jvm4testexecution  /usr/local/jdk1.7.0_80/bin/  -loglevel  INFO  -maxgen  1000000  -population  1  -maxtime  180  -timezone  America/New_York  -customop  fr.inria.astor.approaches.jgenprog.operators.InsertAfterOp:fr.inria.astor.approaches.jgenprog.operators.InsertBeforeOp:fr.inria.astor.approaches.jgenprog.operators.ReplaceOp  -seed  1  -javacompliancelevel  3  -package  org.apache.commons  -binjavafolder  target/classes/  -bintestfolder  target/test-classes/  -srcjavafolder  src/java/  -srctestfolder  src/test/  -learningdir  ../../out/learningdir/Math/105/b/  -location  ../../dat/defects4j/Math/105/b/  -failing  org.apache.commons.math.stat.regression.SimpleRegressionTest  -dependencies  ../../dat/libs/Math/commons-discovery-0.5.jar  -scope  fr.inria.astor.core.loop.spaces.ingredients.scopes.ctscopes.CtPackageIngredientScope  -ingredientstrategy  fr.inria.astor.core.loop.spaces.ingredients.ingredientSearch.CloneIngredientSearchStrategy  -clonegranularity  spoon.reflect.declaration.CtExecutable  -classestoinstrument  org.apache.commons.math.stat.regression.SimpleRegression:  -regressiontestcases4fl  org.apache.commons.math.stat.regression.SimpleRegressionTest:]
2017-04-03 11:44:13,425 INFO main - building model: /local/scr/mtufano/Math/105/b/similar-package-executables-default/1/AstorMain-b//src//default, compliance level: 3
2017-04-03 11:44:13,442 INFO main - Classpath for building SpoonModel [/sciclone/data20/mtufano/deeprepair/bin/eval/../../dat/libs/Math/commons-discovery-0.5.jar]
2017-04-03 11:44:17,464 INFO main - -Executing Gzoltar classpath: /local/scr/mtufano/Math/105/b/similar-package-executables-default/1/AstorMain-b//bin//default from 1 classes with test cases
2017-04-03 11:44:17,464 INFO fr.inria.astor.core.faultlocalization.GZoltarFaultLocalization - Gzoltar fault localization: min susp value parameter: 0.1
2017-04-03 11:44:18,268 INFO fr.inria.astor.core.faultlocalization.GZoltarFaultLocalization - -gz-Adding classpath: [/local/scr/mtufano/Math/105/b/similar-package-executables-default/1/AstorMain-b//bin//default, /sciclone/data20/mtufano/deeprepair/bin/eval/../../dat/libs/Math/commons-discovery-0.5.jar]
2017-04-03 11:44:19,618 INFO fr.inria.astor.core.faultlocalization.GZoltarFaultLocalization - Test failt: org.apache.commons.math.stat.regression.SimpleRegressionTest#testSSENonNegative
2017-04-03 11:44:19,619 INFO fr.inria.astor.core.faultlocalization.GZoltarFaultLocalization - Gzoltar Test Result Total:9, fails: 1, GZoltar suspicious 254
2017-04-03 11:44:19,621 INFO fr.inria.astor.core.faultlocalization.GZoltarFaultLocalization - Gzoltar found: 15 with susp > 0.1, we consider: 15
2017-04-03 11:44:19,621 INFO main - 
---- Initial suspicious size: 15
2017-04-03 11:44:19,763 INFO main - -any mod point created for suspicious Candidate [className=org.apache.commons.math.stat.regression.SimpleRegression, methodName=org.apache.commons.math.stat.regression.SimpleRegression{addData(DD)V 0.0, lineNumber=121, susp=0.3333333333333333]
2017-04-03 11:44:19,765 INFO main - Total suspicious from FL: 15,  14
2017-04-03 11:44:19,765 INFO main - Total ModPoint created: 14
2017-04-03 11:44:19,765 INFO main - Creating program variant #1, [Variant id: 1, #gens: 14, #ops: 0, parent:-]
2017-04-03 11:44:24,313 INFO fr.inria.astor.core.setup.ConfigurationProperties - ----------------------------
2017-04-03 11:44:24,313 INFO fr.inria.astor.core.setup.ConfigurationProperties - ---Configuration properties:---Execution values
2017-04-03 11:44:24,313 INFO fr.inria.astor.core.setup.ConfigurationProperties - p:lastJUnitVersion= ./examples/libs/junit-4.11.jar
2017-04-03 11:44:24,313 INFO fr.inria.astor.core.setup.ConfigurationProperties - p:alternativecompliancelevel= 4
2017-04-03 11:44:24,313 INFO fr.inria.astor.core.setup.ConfigurationProperties - p:ignoredTestCases= 
2017-04-03 11:44:24,313 INFO fr.inria.astor.core.setup.ConfigurationProperties - p:workingDirectory= /local/scr/mtufano/Math/105/b/similar-package-executables-default/1
2017-04-03 11:44:24,313 INFO fr.inria.astor.core.setup.ConfigurationProperties - p:manipulatesuper= false
2017-04-03 11:44:24,314 INFO fr.inria.astor.core.setup.ConfigurationProperties - p:validation= process
2017-04-03 11:44:24,314 INFO fr.inria.astor.core.setup.ConfigurationProperties - p:jvm4testexecution= /usr/local/jdk1.7.0_80/bin/
2017-04-03 11:44:24,314 INFO fr.inria.astor.core.setup.ConfigurationProperties - p:binjavafolder= target/classes/
2017-04-03 11:44:24,314 INFO fr.inria.astor.core.setup.ConfigurationProperties - p:evosuiteresultfolder= evosuite
2017-04-03 11:44:24,314 INFO fr.inria.astor.core.setup.ConfigurationProperties - p:flthreshold= 0.1
2017-04-03 11:44:24,315 INFO fr.inria.astor.core.setup.ConfigurationProperties - p:regressionforfaultlocalization= true
2017-04-03 11:44:24,315 INFO fr.inria.astor.core.setup.ConfigurationProperties - p:tmax2= 960000
2017-04-03 11:44:24,315 INFO fr.inria.astor.core.setup.ConfigurationProperties - p:tmax1= 120000
2017-04-03 11:44:24,315 INFO fr.inria.astor.core.setup.ConfigurationProperties - p:probagenmutation= false
2017-04-03 11:44:24,315 INFO fr.inria.astor.core.setup.ConfigurationProperties - p:srctestfolder= src/test/
2017-04-03 11:44:24,315 INFO fr.inria.astor.core.setup.ConfigurationProperties - p:customop= fr.inria.astor.approaches.jgenprog.operators.InsertAfterOp:fr.inria.astor.approaches.jgenprog.operators.InsertBeforeOp:fr.inria.astor.approaches.jgenprog.operators.ReplaceOp
2017-04-03 11:44:24,315 INFO fr.inria.astor.core.setup.ConfigurationProperties - p:forceExecuteRegression= false
2017-04-03 11:44:24,315 INFO fr.inria.astor.core.setup.ConfigurationProperties - p:clusteringfilename= clustering.csv
2017-04-03 11:44:24,315 INFO fr.inria.astor.core.setup.ConfigurationProperties - p:failing= org.apache.commons.math.stat.regression.SimpleRegressionTest
2017-04-03 11:44:24,315 INFO fr.inria.astor.core.setup.ConfigurationProperties - p:evo_buggy_class= true
2017-04-03 11:44:24,315 INFO fr.inria.astor.core.setup.ConfigurationProperties - p:numberExecutions= 1
2017-04-03 11:44:24,315 INFO fr.inria.astor.core.setup.ConfigurationProperties - p:evo_affected_by_op= true
2017-04-03 11:44:24,315 INFO fr.inria.astor.core.setup.ConfigurationProperties - p:population= 1
2017-04-03 11:44:24,315 INFO fr.inria.astor.core.setup.ConfigurationProperties - p:clonegranularity= spoon.reflect.declaration.CtExecutable
2017-04-03 11:44:24,315 INFO fr.inria.astor.core.setup.ConfigurationProperties - p:regressiontestcases4fl= org.apache.commons.math.stat.regression.SimpleRegressionTest:
2017-04-03 11:44:24,316 INFO fr.inria.astor.core.setup.ConfigurationProperties - p:savesolution= true
2017-04-03 11:44:24,316 INFO fr.inria.astor.core.setup.ConfigurationProperties - p:javacompliancelevel= 3
2017-04-03 11:44:24,316 INFO fr.inria.astor.core.setup.ConfigurationProperties - p:uniqueoptogen= false
2017-04-03 11:44:24,316 INFO fr.inria.astor.core.setup.ConfigurationProperties - p:projectIdentifier= 
2017-04-03 11:44:24,316 INFO fr.inria.astor.core.setup.ConfigurationProperties - p:modificationpointnavigation= weight
2017-04-03 11:44:24,316 INFO fr.inria.astor.core.setup.ConfigurationProperties - p:stopfirst= false
2017-04-03 11:44:24,316 INFO fr.inria.astor.core.setup.ConfigurationProperties - p:multipointmodification= false
2017-04-03 11:44:24,316 INFO fr.inria.astor.core.setup.ConfigurationProperties - p:elementsToMutate= 10
2017-04-03 11:44:24,316 INFO fr.inria.astor.core.setup.ConfigurationProperties - p:evoDSE= false
2017-04-03 11:44:24,316 INFO fr.inria.astor.core.setup.ConfigurationProperties - p:bintestfolder= target/test-classes/
2017-04-03 11:44:24,316 INFO fr.inria.astor.core.setup.ConfigurationProperties - p:testbystep= false
2017-04-03 11:44:24,316 INFO fr.inria.astor.core.setup.ConfigurationProperties - p:version-location= ./math-version/
2017-04-03 11:44:24,316 INFO fr.inria.astor.core.setup.ConfigurationProperties - p:reintroduce= parents
2017-04-03 11:44:24,316 INFO fr.inria.astor.core.setup.ConfigurationProperties - p:maxGeneration= 1000000
2017-04-03 11:44:24,316 INFO fr.inria.astor.core.setup.ConfigurationProperties - p:maxtime= 180
2017-04-03 11:44:24,316 INFO fr.inria.astor.core.setup.ConfigurationProperties - p:evosuitejar= ./lib/evosuite-master-1.0.4-SNAPSHOT.jar
2017-04-03 11:44:24,316 INFO fr.inria.astor.core.setup.ConfigurationProperties - p:commandTrunk= 50000
2017-04-03 11:44:24,316 INFO fr.inria.astor.core.setup.ConfigurationProperties - p:faultlocalization= fr.inria.astor.core.faultlocalization.GZoltarFaultLocalization
2017-04-03 11:44:24,317 INFO fr.inria.astor.core.setup.ConfigurationProperties - p:maxsuspcandidates= 1000
2017-04-03 11:44:24,317 INFO fr.inria.astor.core.setup.ConfigurationProperties - p:mode= statement
2017-04-03 11:44:24,317 INFO fr.inria.astor.core.setup.ConfigurationProperties - p:learningdir= ../../out/learningdir/Math/105/b/
2017-04-03 11:44:24,317 INFO fr.inria.astor.core.setup.ConfigurationProperties - p:jvm4evosuitetestexecution= /usr/local/jdk1.7.0_80/bin/
2017-04-03 11:44:24,317 INFO fr.inria.astor.core.setup.ConfigurationProperties - p:filterfaultlocalization= true
2017-04-03 11:44:24,317 INFO fr.inria.astor.core.setup.ConfigurationProperties - p:mutationrate= 1 
2017-04-03 11:44:24,317 INFO fr.inria.astor.core.setup.ConfigurationProperties - p:pathToMVNRepository= 
2017-04-03 11:44:24,317 INFO fr.inria.astor.core.setup.ConfigurationProperties - p:resourcesfolder= /src/main/resources:/src/test/resources:
2017-04-03 11:44:24,317 INFO fr.inria.astor.core.setup.ConfigurationProperties - p:timezone= America/New_York
2017-04-03 11:44:24,317 INFO fr.inria.astor.core.setup.ConfigurationProperties - p:classestoinstrument= org.apache.commons.math.stat.regression.SimpleRegression:
2017-04-03 11:44:24,317 INFO fr.inria.astor.core.setup.ConfigurationProperties - p:evoRunOnBuggyClass= true
2017-04-03 11:44:24,317 INFO fr.inria.astor.core.setup.ConfigurationProperties - p:compiler= fr.inria.astor.core.manipulation.bytecode.compiler.SpoonClassCompiler
2017-04-03 11:44:24,317 INFO fr.inria.astor.core.setup.ConfigurationProperties - p:dependenciespath= ../../dat/libs/Math/commons-discovery-0.5.jar
2017-04-03 11:44:24,317 INFO fr.inria.astor.core.setup.ConfigurationProperties - p:skipfaultlocalization= false
2017-04-03 11:44:24,317 INFO fr.inria.astor.core.setup.ConfigurationProperties - p:packageToInstrument= org.apache.commons
2017-04-03 11:44:24,317 INFO fr.inria.astor.core.setup.ConfigurationProperties - p:scope= fr.inria.astor.core.loop.spaces.ingredients.scopes.ctscopes.CtPackageIngredientScope
2017-04-03 11:44:24,318 INFO fr.inria.astor.core.setup.ConfigurationProperties - p:transformingredient= false
2017-04-03 11:44:24,318 INFO fr.inria.astor.core.setup.ConfigurationProperties - p:fitnessfunction= fr.inria.astor.core.loop.population.TestCaseFitnessFunction
2017-04-03 11:44:24,319 INFO fr.inria.astor.core.setup.ConfigurationProperties - p:pvariantfoldername= variant-
2017-04-03 11:44:24,319 INFO fr.inria.astor.core.setup.ConfigurationProperties - p:srcjavafolder= src/java/
2017-04-03 11:44:24,319 INFO fr.inria.astor.core.setup.ConfigurationProperties - p:populationcontroller= fr.inria.astor.core.loop.population.TestCaseBasedFitnessPopulationController
2017-04-03 11:44:24,319 INFO fr.inria.astor.core.setup.ConfigurationProperties - p:ignoreflakyinfl= false
2017-04-03 11:44:24,319 INFO fr.inria.astor.core.setup.ConfigurationProperties - p:applyCrossover= false
2017-04-03 11:44:24,319 INFO fr.inria.astor.core.setup.ConfigurationProperties - p:saveall= false
2017-04-03 11:44:24,319 INFO fr.inria.astor.core.setup.ConfigurationProperties - p:seed= 1
2017-04-03 11:44:24,319 INFO fr.inria.astor.core.setup.ConfigurationProperties - p:resetoperations= false
2017-04-03 11:44:24,319 INFO fr.inria.astor.core.setup.ConfigurationProperties - p:location= ../../dat/defects4j/Math/105/b/
2017-04-03 11:44:24,319 INFO fr.inria.astor.core.setup.ConfigurationProperties - p:ingredientstrategy= fr.inria.astor.core.loop.spaces.ingredients.ingredientSearch.CloneIngredientSearchStrategy
2017-04-03 11:44:24,319 INFO fr.inria.astor.core.setup.ConfigurationProperties - p:allpoints= false
2017-04-03 11:44:24,319 INFO fr.inria.astor.core.setup.ConfigurationProperties - p:bugId= 280
2017-04-03 11:44:24,319 INFO fr.inria.astor.core.setup.ConfigurationProperties - p:evosuitetimeout= 120
2017-04-03 11:44:24,319 INFO fr.inria.astor.core.setup.ConfigurationProperties - ----------------------------
2017-04-03 11:44:24,319 INFO main - 
----Starting Solution Search
0-->2org.apache.commons.math.stat.regression.SimpleRegression#double getSignificance()
1-->2org.apache.commons.math.stat.regression.SimpleRegression#double getTotalSumSquares()
2-->2org.apache.commons.math.stat.regression.SimpleRegression#org.apache.commons.math.stat.regression.SimpleRegression()
3-->2org.apache.commons.math.stat.regression.SimpleRegression#double getRegressionSumSquares()
4-->2org.apache.commons.math.stat.regression.SimpleRegression#double getMeanSquareError()
5-->2org.apache.commons.math.stat.regression.SimpleRegression#org.apache.commons.math.distribution.TDistribution getTDistribution()
6-->2org.apache.commons.math.stat.regression.SimpleRegression#double getR()
7-->2org.apache.commons.math.stat.regression.SimpleRegression#double getInterceptStdErr()
8-->2org.apache.commons.math.stat.regression.SimpleRegression#double getSlope()
9-->2org.apache.commons.math.stat.regression.SimpleRegression#double getSlopeConfidenceInterval(double)
10-->2org.apache.commons.math.stat.regression.SimpleRegression#double getRegressionSumSquares(double)
11-->2org.apache.commons.math.stat.regression.SimpleRegression#void addData(double,double)
12-->2org.apache.commons.math.stat.regression.SimpleRegression#double getSlopeConfidenceInterval()
13-->2org.apache.commons.math.stat.regression.SimpleRegression#double getIntercept(double)
14-->2org.apache.commons.math.stat.regression.SimpleRegression#double getIntercept()
15-->2org.apache.commons.math.stat.regression.SimpleRegression#void clear()
16-->2org.apache.commons.math.stat.regression.SimpleRegression#double getSumSquaredErrors()
17-->2org.apache.commons.math.stat.regression.SimpleRegression#double getSlopeStdErr()
18-->2org.apache.commons.math.stat.regression.SimpleRegression#void addData(double[][])
19-->2org.apache.commons.math.stat.regression.SimpleRegression#double predict(double)
20-->2org.apache.commons.math.stat.regression.SimpleRegression#long getN()
21-->2org.apache.commons.math.stat.regression.SimpleRegression#double getRSquare()
2017-04-03 14:45:24,375 INFO main - 
 No more time for operating
2017-04-03 14:45:24,375 INFO main - Time Repair Loop (s): 10860.055
2017-04-03 14:45:24,375 INFO main - 
----SUMMARY_EXECUTION---
2017-04-03 14:45:24,379 INFO main - 
successful_ing_attempts (#trials 0, totalAttps 0): []
2017-04-03 14:45:24,380 INFO main - 
failing_ing_attempts (#trials 1021, totalAttps 1454): [1, 1, 1, 1, 1, 1, 1, 1, 1, 1, 6, 1, 1, 1, 1, 1, 1, 1, 1, 1, 1, 1, 1, 2, 1, 1, 1, 1, 6, 6, 2, 1, 2, 1, 1, 1, 1, 1, 1, 1, 1, 1, 1, 1, 1, 1, 1, 1, 1, 1, 1, 1, 1, 1, 1, 1, 1, 1, 1, 1, 1, 1, 1, 1, 1, 1, 1, 1, 6, 1, 1, 1, 1, 6, 1, 1, 1, 1, 1, 1, 1, 1, 1, 1, 1, 1, 1, 1, 1, 1, 1, 1, 1, 1, 1, 1, 1, 1, 1, 1, 6, 1, 1, 1, 1, 1, 1, 1, 2, 1, 1, 1, 1, 1, 6, 1, 6, 1, 1, 1, 1, 1, 1, 1, 1, 1, 6, 1, 6, 1, 1, 1, 1, 1, 1, 6, 1, 1, 1, 1, 1, 1, 6, 1, 1, 1, 1, 1, 1, 1, 1, 1, 1, 1, 1, 1, 2, 1, 1, 1, 6, 1, 1, 1, 1, 1, 1, 1, 1, 1, 1, 1, 1, 1, 1, 1, 1, 1, 1, 1, 1, 1, 6, 1, 1, 1, 1, 1, 1, 1, 1, 1, 1, 1, 1, 1, 1, 1, 1, 1, 1, 2, 1, 1, 1, 1, 1, 2, 1, 1, 1, 1, 1, 1, 1, 1, 2, 1, 1, 1, 1, 4, 1, 1, 1, 1, 2, 6, 1, 1, 1, 1, 1, 2, 1, 1, 6, 1, 1, 1, 1, 1, 1, 1, 1, 1, 1, 1, 1, 1, 1, 1, 1, 1, 1, 1, 1, 1, 1, 1, 1, 1, 1, 1, 1, 13, 3, 1, 1, 4, 4, 1, 3, 1, 1, 1, 1, 13, 1, 1, 1, 1, 1, 1, 1, 4, 1, 1, 1, 1, 2, 1, 1, 4, 4, 1, 1, 1, 1, 1, 1, 1, 1, 1, 1, 1, 4, 1, 1, 4, 1, 1, 1, 1, 1, 1, 1, 1, 1, 1, 1, 4, 1, 1, 4, 1, 1, 1, 1, 1, 1, 1, 1, 1, 1, 1, 1, 1, 4, 1, 1, 1, 4, 1, 1, 1, 1, 1, 1, 1, 1, 1, 3, 1, 4, 1, 1, 1, 1, 1, 1, 1, 1, 2, 1, 1, 1, 1, 2, 1, 1, 1, 1, 1, 1, 1, 1, 4, 1, 1, 1, 1, 1, 4, 1, 1, 2, 1, 1, 1, 1, 1, 1, 1, 4, 1, 1, 1, 1, 1, 1, 1, 1, 4, 1, 1, 1, 1, 1, 1, 1, 1, 2, 1, 1, 1, 1, 1, 1, 1, 4, 1, 1, 1, 1, 1, 1, 1, 4, 1, 1, 1, 1, 1, 1, 1, 1, 2, 1, 1, 1, 1, 1, 1, 1, 1, 1, 1, 1, 1, 3, 1, 1, 1, 1, 1, 1, 4, 1, 1, 1, 1, 1, 1, 1, 1, 1, 1, 4, 1, 1, 1, 3, 1, 1, 1, 1, 1, 1, 1, 1, 1, 1, 1, 4, 1, 1, 1, 1, 1, 1, 1, 1, 1, 1, 1, 1, 1, 1, 1, 1, 1, 1, 1, 1, 1, 1, 1, 1, 2, 1, 1, 1, 1, 1, 1, 1, 1, 1, 1, 1, 1, 1, 1, 1, 1, 1, 1, 1, 1, 1, 1, 1, 4, 1, 1, 1, 1, 1, 1, 1, 1, 1, 1, 1, 1, 1, 1, 1, 1, 1, 1, 1, 1, 1, 1, 1, 1, 1, 1, 1, 1, 1, 1, 1, 1, 1, 1, 4, 1, 1, 1, 1, 1, 1, 1, 1, 4, 1, 1, 1, 1, 1, 1, 1, 1, 1, 1, 1, 1, 1, 1, 1, 1, 1, 1, 1, 1, 1, 1, 1, 4, 1, 1, 1, 1, 1, 1, 1, 1, 1, 1, 1, 1, 1, 1, 1, 1, 1, 1, 1, 1, 1, 1, 1, 1, 1, 1, 1, 1, 1, 1, 1, 1, 1, 1, 1, 1, 1, 1, 1, 4, 1, 1, 1, 1, 1, 1, 1, 1, 1, 1, 1, 1, 1, 1, 1, 1, 1, 1, 1, 1, 1, 1, 1, 1, 1, 1, 1, 1, 1, 1, 1, 1, 1, 1, 3, 1, 1, 1, 1, 1, 1, 1, 1, 1, 1, 3, 1, 1, 1, 1, 3, 1, 3, 1, 1, 1, 1, 1, 1, 1, 1, 1, 1, 1, 1, 1, 3, 1, 1, 4, 1, 1, 3, 3, 3, 1, 1, 1, 1, 1, 1, 1, 1, 1, 1, 1, 1, 1, 1, 1, 1, 1, 1, 1, 3, 1, 3, 1, 1, 1, 1, 1, 4, 1, 1, 1, 1, 1, 4, 1, 1, 3, 1, 1, 1, 3, 1, 1, 1, 1, 4, 3, 3, 1, 2, 1, 1, 1, 3, 1, 3, 3, 2, 1, 1, 4, 1, 1, 1, 1, 3, 1, 1, 1, 1, 1, 1, 1, 3, 4, 1, 1, 1, 1, 3, 1, 1, 3, 3, 1, 4, 1, 1, 1, 1, 1, 1, 1, 1, 2, 1, 1, 2, 1, 2, 4, 1, 3, 3, 3, 1, 1, 1, 1, 1, 1, 1, 4, 1, 3, 1, 2, 4, 1, 1, 3, 4, 1, 1, 1, 3, 1, 4, 1, 4, 1, 4, 1, 1, 1, 2, 2, 1, 1, 1, 3, 1, 1, 2, 1, 1, 1, 1, 1, 1, 1, 1, 1, 1, 1, 3, 1, 1, 1, 1, 4, 3, 1, 2, 1, 4, 1, 2, 1, 3, 1, 3, 1, 1, 1, 1, 3, 1, 2, 1, 1, 1, 1, 1, 2, 4, 1, 2, 1, 1, 1, 4, 1, 3, 1, 1, 1, 3, 1, 1, 4, 1, 1, 1, 1, 1, 1, 1, 1, 1, 1, 1, 1, 3, 1, 1, 3, 1, 1, 1, 3, 1, 3, 1, 2, 3, 1, 3, 4, 4, 4, 1, 2, 1, 1, 1, 1, 1, 4, 3, 1, 1, 3, 3, 3, 1, 3, 2, 1, 1, 2, 4, 1, 1, 1, 1, 1, 2, 3, 2, 1, 1, 2, 1, 1, 1, 1, 1, 4, 1, 1, 3, 3, 3, 4, 1, 1, 2, 1, 3, 4, 2, 4, 1, 1, 2, 2, 1, 1, 1, 1, 1, 1, 1, 1, 1, 1, 1, 3, 3, 4, 1, 2, 1]
2017-04-03 14:45:24,380 INFO main - 
total Patch Attempts (0): []
2017-04-03 14:45:24,381 INFO main - 
successful_ing_attempts_by_patch: []
2017-04-03 14:45:24,381 INFO main - 
failing_ing_attempts_by_patch: [(pv:2,at:1), (pv:3,at:1), (pv:4,at:1), (pv:5,at:1), (pv:6,at:1), (pv:7,at:1), (pv:8,at:1), (pv:9,at:1), (pv:10,at:1), (pv:11,at:1), (pv:12,at:6), (pv:13,at:1), (pv:14,at:1), (pv:15,at:1), (pv:16,at:1), (pv:17,at:1), (pv:18,at:1), (pv:19,at:1), (pv:20,at:1), (pv:21,at:1), (pv:22,at:1), (pv:23,at:1), (pv:24,at:1), (pv:25,at:2), (pv:26,at:1), (pv:27,at:1), (pv:28,at:1), (pv:29,at:1), (pv:30,at:6), (pv:31,at:6), (pv:32,at:2), (pv:33,at:1), (pv:34,at:2), (pv:35,at:1), (pv:36,at:1), (pv:37,at:1), (pv:38,at:1), (pv:39,at:1), (pv:40,at:1), (pv:41,at:1), (pv:42,at:1), (pv:43,at:1), (pv:44,at:1), (pv:45,at:1), (pv:46,at:1), (pv:47,at:1), (pv:48,at:1), (pv:49,at:1), (pv:50,at:1), (pv:51,at:1), (pv:52,at:1), (pv:53,at:1), (pv:54,at:1), (pv:55,at:1), (pv:56,at:1), (pv:57,at:1), (pv:58,at:1), (pv:59,at:1), (pv:60,at:1), (pv:61,at:1), (pv:62,at:1), (pv:63,at:1), (pv:64,at:1), (pv:65,at:1), (pv:66,at:1), (pv:67,at:1), (pv:68,at:1), (pv:69,at:1), (pv:70,at:6), (pv:71,at:1), (pv:72,at:1), (pv:73,at:1), (pv:74,at:1), (pv:75,at:6), (pv:76,at:1), (pv:77,at:1), (pv:78,at:1), (pv:79,at:1), (pv:80,at:1), (pv:81,at:1), (pv:82,at:1), (pv:83,at:1), (pv:84,at:1), (pv:85,at:1), (pv:86,at:1), (pv:87,at:1), (pv:88,at:1), (pv:89,at:1), (pv:90,at:1), (pv:91,at:1), (pv:92,at:1), (pv:93,at:1), (pv:94,at:1), (pv:95,at:1), (pv:96,at:1), (pv:97,at:1), (pv:98,at:1), (pv:99,at:1), (pv:100,at:1), (pv:101,at:1), (pv:102,at:6), (pv:103,at:1), (pv:104,at:1), (pv:105,at:1), (pv:106,at:1), (pv:107,at:1), (pv:108,at:1), (pv:109,at:1), (pv:110,at:2), (pv:111,at:1), (pv:112,at:1), (pv:113,at:1), (pv:114,at:1), (pv:115,at:1), (pv:116,at:6), (pv:117,at:1), (pv:118,at:6), (pv:119,at:1), (pv:120,at:1), (pv:121,at:1), (pv:122,at:1), (pv:123,at:1), (pv:124,at:1), (pv:125,at:1), (pv:126,at:1), (pv:127,at:1), (pv:128,at:6), (pv:129,at:1), (pv:130,at:6), (pv:131,at:1), (pv:132,at:1), (pv:133,at:1), (pv:134,at:1), (pv:135,at:1), (pv:136,at:1), (pv:137,at:6), (pv:138,at:1), (pv:139,at:1), (pv:140,at:1), (pv:141,at:1), (pv:142,at:1), (pv:143,at:1), (pv:144,at:6), (pv:145,at:1), (pv:146,at:1), (pv:147,at:1), (pv:148,at:1), (pv:149,at:1), (pv:150,at:1), (pv:151,at:1), (pv:152,at:1), (pv:153,at:1), (pv:154,at:1), (pv:155,at:1), (pv:156,at:1), (pv:157,at:1), (pv:158,at:2), (pv:159,at:1), (pv:160,at:1), (pv:161,at:1), (pv:162,at:6), (pv:163,at:1), (pv:164,at:1), (pv:165,at:1), (pv:166,at:1), (pv:167,at:1), (pv:168,at:1), (pv:169,at:1), (pv:170,at:1), (pv:171,at:1), (pv:172,at:1), (pv:173,at:1), (pv:174,at:1), (pv:175,at:1), (pv:176,at:1), (pv:177,at:1), (pv:178,at:1), (pv:179,at:1), (pv:180,at:1), (pv:181,at:1), (pv:182,at:1), (pv:183,at:1), (pv:184,at:6), (pv:185,at:1), (pv:186,at:1), (pv:187,at:1), (pv:188,at:1), (pv:189,at:1), (pv:190,at:1), (pv:191,at:1), (pv:192,at:1), (pv:193,at:1), (pv:194,at:1), (pv:195,at:1), (pv:196,at:1), (pv:197,at:1), (pv:198,at:1), (pv:199,at:1), (pv:200,at:1), (pv:201,at:1), (pv:202,at:1), (pv:203,at:2), (pv:204,at:1), (pv:205,at:1), (pv:206,at:1), (pv:207,at:1), (pv:208,at:1), (pv:209,at:2), (pv:210,at:1), (pv:211,at:1), (pv:212,at:1), (pv:213,at:1), (pv:214,at:1), (pv:215,at:1), (pv:216,at:1), (pv:217,at:1), (pv:218,at:2), (pv:219,at:1), (pv:220,at:1), (pv:221,at:1), (pv:222,at:1), (pv:223,at:4), (pv:224,at:1), (pv:225,at:1), (pv:226,at:1), (pv:227,at:1), (pv:228,at:2), (pv:229,at:6), (pv:230,at:1), (pv:231,at:1), (pv:232,at:1), (pv:233,at:1), (pv:234,at:1), (pv:235,at:2), (pv:236,at:1), (pv:237,at:1), (pv:238,at:6), (pv:239,at:1), (pv:240,at:1), (pv:241,at:1), (pv:242,at:1), (pv:243,at:1), (pv:244,at:1), (pv:245,at:1), (pv:246,at:1), (pv:247,at:1), (pv:248,at:1), (pv:249,at:1), (pv:250,at:1), (pv:251,at:1), (pv:252,at:1), (pv:253,at:1), (pv:254,at:1), (pv:255,at:1), (pv:256,at:1), (pv:257,at:1), (pv:258,at:1), (pv:259,at:1), (pv:260,at:1), (pv:261,at:1), (pv:262,at:1), (pv:263,at:1), (pv:264,at:1), (pv:265,at:1), (pv:266,at:1), (pv:267,at:13), (pv:268,at:3), (pv:269,at:1), (pv:270,at:1), (pv:271,at:4), (pv:272,at:4), (pv:273,at:1), (pv:274,at:3), (pv:275,at:1), (pv:276,at:1), (pv:277,at:1), (pv:278,at:1), (pv:279,at:13), (pv:280,at:1), (pv:281,at:1), (pv:282,at:1), (pv:283,at:1), (pv:284,at:1), (pv:285,at:1), (pv:286,at:1), (pv:287,at:4), (pv:288,at:1), (pv:289,at:1), (pv:290,at:1), (pv:291,at:1), (pv:292,at:2), (pv:293,at:1), (pv:294,at:1), (pv:295,at:4), (pv:296,at:4), (pv:297,at:1), (pv:298,at:1), (pv:299,at:1), (pv:300,at:1), (pv:301,at:1), (pv:302,at:1), (pv:303,at:1), (pv:304,at:1), (pv:305,at:1), (pv:306,at:1), (pv:307,at:1), (pv:308,at:4), (pv:309,at:1), (pv:310,at:1), (pv:311,at:4), (pv:312,at:1), (pv:313,at:1), (pv:314,at:1), (pv:315,at:1), (pv:316,at:1), (pv:317,at:1), (pv:318,at:1), (pv:319,at:1), (pv:320,at:1), (pv:321,at:1), (pv:322,at:1), (pv:323,at:4), (pv:324,at:1), (pv:325,at:1), (pv:326,at:4), (pv:327,at:1), (pv:328,at:1), (pv:329,at:1), (pv:330,at:1), (pv:331,at:1), (pv:332,at:1), (pv:333,at:1), (pv:334,at:1), (pv:335,at:1), (pv:336,at:1), (pv:337,at:1), (pv:338,at:1), (pv:339,at:1), (pv:340,at:4), (pv:341,at:1), (pv:342,at:1), (pv:343,at:1), (pv:344,at:4), (pv:345,at:1), (pv:346,at:1), (pv:347,at:1), (pv:348,at:1), (pv:349,at:1), (pv:350,at:1), (pv:351,at:1), (pv:352,at:1), (pv:353,at:1), (pv:354,at:3), (pv:355,at:1), (pv:356,at:4), (pv:357,at:1), (pv:358,at:1), (pv:359,at:1), (pv:360,at:1), (pv:361,at:1), (pv:362,at:1), (pv:363,at:1), (pv:364,at:1), (pv:365,at:2), (pv:366,at:1), (pv:367,at:1), (pv:368,at:1), (pv:369,at:1), (pv:370,at:2), (pv:371,at:1), (pv:372,at:1), (pv:373,at:1), (pv:374,at:1), (pv:375,at:1), (pv:376,at:1), (pv:377,at:1), (pv:378,at:1), (pv:379,at:4), (pv:380,at:1), (pv:381,at:1), (pv:382,at:1), (pv:383,at:1), (pv:384,at:1), (pv:385,at:4), (pv:386,at:1), (pv:387,at:1), (pv:388,at:2), (pv:389,at:1), (pv:390,at:1), (pv:391,at:1), (pv:392,at:1), (pv:393,at:1), (pv:394,at:1), (pv:395,at:1), (pv:396,at:4), (pv:397,at:1), (pv:398,at:1), (pv:399,at:1), (pv:400,at:1), (pv:401,at:1), (pv:402,at:1), (pv:403,at:1), (pv:404,at:1), (pv:405,at:4), (pv:406,at:1), (pv:407,at:1), (pv:408,at:1), (pv:409,at:1), (pv:410,at:1), (pv:411,at:1), (pv:412,at:1), (pv:413,at:1), (pv:414,at:2), (pv:415,at:1), (pv:416,at:1), (pv:417,at:1), (pv:418,at:1), (pv:419,at:1), (pv:420,at:1), (pv:421,at:1), (pv:422,at:4), (pv:423,at:1), (pv:424,at:1), (pv:425,at:1), (pv:426,at:1), (pv:427,at:1), (pv:428,at:1), (pv:429,at:1), (pv:430,at:4), (pv:431,at:1), (pv:432,at:1), (pv:433,at:1), (pv:434,at:1), (pv:435,at:1), (pv:436,at:1), (pv:437,at:1), (pv:438,at:1), (pv:439,at:2), (pv:440,at:1), (pv:441,at:1), (pv:442,at:1), (pv:443,at:1), (pv:444,at:1), (pv:445,at:1), (pv:446,at:1), (pv:447,at:1), (pv:448,at:1), (pv:449,at:1), (pv:450,at:1), (pv:451,at:1), (pv:452,at:3), (pv:453,at:1), (pv:454,at:1), (pv:455,at:1), (pv:456,at:1), (pv:457,at:1), (pv:458,at:1), (pv:459,at:4), (pv:460,at:1), (pv:461,at:1), (pv:462,at:1), (pv:463,at:1), (pv:464,at:1), (pv:465,at:1), (pv:466,at:1), (pv:467,at:1), (pv:468,at:1), (pv:469,at:1), (pv:470,at:4), (pv:471,at:1), (pv:472,at:1), (pv:473,at:1), (pv:474,at:3), (pv:475,at:1), (pv:476,at:1), (pv:477,at:1), (pv:478,at:1), (pv:479,at:1), (pv:480,at:1), (pv:481,at:1), (pv:482,at:1), (pv:483,at:1), (pv:484,at:1), (pv:485,at:1), (pv:486,at:4), (pv:487,at:1), (pv:488,at:1), (pv:489,at:1), (pv:490,at:1), (pv:491,at:1), (pv:492,at:1), (pv:493,at:1), (pv:494,at:1), (pv:495,at:1), (pv:496,at:1), (pv:497,at:1), (pv:498,at:1), (pv:499,at:1), (pv:500,at:1), (pv:501,at:1), (pv:502,at:1), (pv:503,at:1), (pv:504,at:1), (pv:505,at:1), (pv:506,at:1), (pv:507,at:1), (pv:508,at:1), (pv:509,at:1), (pv:510,at:1), (pv:511,at:2), (pv:512,at:1), (pv:513,at:1), (pv:514,at:1), (pv:515,at:1), (pv:516,at:1), (pv:517,at:1), (pv:518,at:1), (pv:519,at:1), (pv:520,at:1), (pv:521,at:1), (pv:522,at:1), (pv:523,at:1), (pv:524,at:1), (pv:525,at:1), (pv:526,at:1), (pv:527,at:1), (pv:528,at:1), (pv:529,at:1), (pv:530,at:1), (pv:531,at:1), (pv:532,at:1), (pv:533,at:1), (pv:534,at:1), (pv:535,at:4), (pv:536,at:1), (pv:537,at:1), (pv:538,at:1), (pv:539,at:1), (pv:540,at:1), (pv:541,at:1), (pv:542,at:1), (pv:543,at:1), (pv:544,at:1), (pv:545,at:1), (pv:546,at:1), (pv:547,at:1), (pv:548,at:1), (pv:549,at:1), (pv:550,at:1), (pv:551,at:1), (pv:552,at:1), (pv:553,at:1), (pv:554,at:1), (pv:555,at:1), (pv:556,at:1), (pv:557,at:1), (pv:558,at:1), (pv:559,at:1), (pv:560,at:1), (pv:561,at:1), (pv:562,at:1), (pv:563,at:1), (pv:564,at:1), (pv:565,at:1), (pv:566,at:1), (pv:567,at:1), (pv:568,at:1), (pv:569,at:1), (pv:570,at:4), (pv:571,at:1), (pv:572,at:1), (pv:573,at:1), (pv:574,at:1), (pv:575,at:1), (pv:576,at:1), (pv:577,at:1), (pv:578,at:1), (pv:579,at:4), (pv:580,at:1), (pv:581,at:1), (pv:582,at:1), (pv:583,at:1), (pv:584,at:1), (pv:585,at:1), (pv:586,at:1), (pv:587,at:1), (pv:588,at:1), (pv:589,at:1), (pv:590,at:1), (pv:591,at:1), (pv:592,at:1), (pv:593,at:1), (pv:594,at:1), (pv:595,at:1), (pv:596,at:1), (pv:597,at:1), (pv:598,at:1), (pv:599,at:1), (pv:600,at:1), (pv:601,at:1), (pv:602,at:1), (pv:603,at:4), (pv:604,at:1), (pv:605,at:1), (pv:606,at:1), (pv:607,at:1), (pv:608,at:1), (pv:609,at:1), (pv:610,at:1), (pv:611,at:1), (pv:612,at:1), (pv:613,at:1), (pv:614,at:1), (pv:615,at:1), (pv:616,at:1), (pv:617,at:1), (pv:618,at:1), (pv:619,at:1), (pv:620,at:1), (pv:621,at:1), (pv:622,at:1), (pv:623,at:1), (pv:624,at:1), (pv:625,at:1), (pv:626,at:1), (pv:627,at:1), (pv:628,at:1), (pv:629,at:1), (pv:630,at:1), (pv:631,at:1), (pv:632,at:1), (pv:633,at:1), (pv:634,at:1), (pv:635,at:1), (pv:636,at:1), (pv:637,at:1), (pv:638,at:1), (pv:639,at:1), (pv:640,at:1), (pv:641,at:1), (pv:642,at:1), (pv:643,at:4), (pv:644,at:1), (pv:645,at:1), (pv:646,at:1), (pv:647,at:1), (pv:648,at:1), (pv:649,at:1), (pv:650,at:1), (pv:651,at:1), (pv:652,at:1), (pv:653,at:1), (pv:654,at:1), (pv:655,at:1), (pv:656,at:1), (pv:657,at:1), (pv:658,at:1), (pv:659,at:1), (pv:660,at:1), (pv:661,at:1), (pv:662,at:1), (pv:663,at:1), (pv:664,at:1), (pv:665,at:1), (pv:666,at:1), (pv:667,at:1), (pv:668,at:1), (pv:669,at:1), (pv:670,at:1), (pv:671,at:1), (pv:672,at:1), (pv:673,at:1), (pv:674,at:1), (pv:675,at:1), (pv:676,at:1), (pv:677,at:1), (pv:678,at:3), (pv:679,at:1), (pv:680,at:1), (pv:681,at:1), (pv:682,at:1), (pv:683,at:1), (pv:684,at:1), (pv:685,at:1), (pv:686,at:1), (pv:687,at:1), (pv:688,at:1), (pv:689,at:3), (pv:690,at:1), (pv:691,at:1), (pv:692,at:1), (pv:693,at:1), (pv:694,at:3), (pv:695,at:1), (pv:696,at:3), (pv:697,at:1), (pv:698,at:1), (pv:699,at:1), (pv:700,at:1), (pv:701,at:1), (pv:702,at:1), (pv:703,at:1), (pv:704,at:1), (pv:705,at:1), (pv:706,at:1), (pv:707,at:1), (pv:708,at:1), (pv:709,at:1), (pv:710,at:3), (pv:711,at:1), (pv:712,at:1), (pv:713,at:4), (pv:714,at:1), (pv:715,at:1), (pv:716,at:3), (pv:717,at:3), (pv:718,at:3), (pv:719,at:1), (pv:720,at:1), (pv:721,at:1), (pv:722,at:1), (pv:723,at:1), (pv:724,at:1), (pv:725,at:1), (pv:726,at:1), (pv:727,at:1), (pv:728,at:1), (pv:729,at:1), (pv:730,at:1), (pv:731,at:1), (pv:732,at:1), (pv:733,at:1), (pv:734,at:1), (pv:735,at:1), (pv:736,at:1), (pv:737,at:1), (pv:738,at:3), (pv:739,at:1), (pv:740,at:3), (pv:741,at:1), (pv:742,at:1), (pv:743,at:1), (pv:744,at:1), (pv:745,at:1), (pv:746,at:4), (pv:747,at:1), (pv:748,at:1), (pv:749,at:1), (pv:750,at:1), (pv:751,at:1), (pv:752,at:4), (pv:753,at:1), (pv:754,at:1), (pv:755,at:3), (pv:756,at:1), (pv:757,at:1), (pv:758,at:1), (pv:759,at:3), (pv:760,at:1), (pv:761,at:1), (pv:762,at:1), (pv:763,at:1), (pv:764,at:4), (pv:765,at:3), (pv:766,at:3), (pv:767,at:1), (pv:768,at:2), (pv:769,at:1), (pv:770,at:1), (pv:771,at:1), (pv:772,at:3), (pv:773,at:1), (pv:774,at:3), (pv:775,at:3), (pv:776,at:2), (pv:777,at:1), (pv:778,at:1), (pv:779,at:4), (pv:780,at:1), (pv:781,at:1), (pv:782,at:1), (pv:783,at:1), (pv:784,at:3), (pv:785,at:1), (pv:786,at:1), (pv:787,at:1), (pv:788,at:1), (pv:789,at:1), (pv:790,at:1), (pv:791,at:1), (pv:792,at:3), (pv:793,at:4), (pv:794,at:1), (pv:795,at:1), (pv:796,at:1), (pv:797,at:1), (pv:798,at:3), (pv:799,at:1), (pv:800,at:1), (pv:801,at:3), (pv:802,at:3), (pv:803,at:1), (pv:804,at:4), (pv:805,at:1), (pv:806,at:1), (pv:807,at:1), (pv:808,at:1), (pv:809,at:1), (pv:810,at:1), (pv:811,at:1), (pv:812,at:1), (pv:813,at:2), (pv:814,at:1), (pv:815,at:1), (pv:816,at:2), (pv:817,at:1), (pv:818,at:2), (pv:819,at:4), (pv:820,at:1), (pv:821,at:3), (pv:822,at:3), (pv:823,at:3), (pv:824,at:1), (pv:825,at:1), (pv:826,at:1), (pv:827,at:1), (pv:828,at:1), (pv:829,at:1), (pv:830,at:1), (pv:831,at:4), (pv:832,at:1), (pv:833,at:3), (pv:834,at:1), (pv:835,at:2), (pv:836,at:4), (pv:837,at:1), (pv:838,at:1), (pv:839,at:3), (pv:840,at:4), (pv:841,at:1), (pv:842,at:1), (pv:843,at:1), (pv:844,at:3), (pv:845,at:1), (pv:846,at:4), (pv:847,at:1), (pv:848,at:4), (pv:849,at:1), (pv:850,at:4), (pv:851,at:1), (pv:852,at:1), (pv:853,at:1), (pv:854,at:2), (pv:855,at:2), (pv:856,at:1), (pv:857,at:1), (pv:858,at:1), (pv:859,at:3), (pv:860,at:1), (pv:861,at:1), (pv:862,at:2), (pv:863,at:1), (pv:864,at:1), (pv:865,at:1), (pv:866,at:1), (pv:867,at:1), (pv:868,at:1), (pv:869,at:1), (pv:870,at:1), (pv:871,at:1), (pv:872,at:1), (pv:873,at:1), (pv:874,at:3), (pv:875,at:1), (pv:876,at:1), (pv:877,at:1), (pv:878,at:1), (pv:879,at:4), (pv:880,at:3), (pv:881,at:1), (pv:882,at:2), (pv:883,at:1), (pv:884,at:4), (pv:885,at:1), (pv:886,at:2), (pv:887,at:1), (pv:888,at:3), (pv:889,at:1), (pv:890,at:3), (pv:891,at:1), (pv:892,at:1), (pv:893,at:1), (pv:894,at:1), (pv:895,at:3), (pv:896,at:1), (pv:897,at:2), (pv:898,at:1), (pv:899,at:1), (pv:900,at:1), (pv:901,at:1), (pv:902,at:1), (pv:903,at:2), (pv:904,at:4), (pv:905,at:1), (pv:906,at:2), (pv:907,at:1), (pv:908,at:1), (pv:909,at:1), (pv:910,at:4), (pv:911,at:1), (pv:912,at:3), (pv:913,at:1), (pv:914,at:1), (pv:915,at:1), (pv:916,at:3), (pv:917,at:1), (pv:918,at:1), (pv:919,at:4), (pv:920,at:1), (pv:921,at:1), (pv:922,at:1), (pv:923,at:1), (pv:924,at:1), (pv:925,at:1), (pv:926,at:1), (pv:927,at:1), (pv:928,at:1), (pv:929,at:1), (pv:930,at:1), (pv:931,at:1), (pv:932,at:3), (pv:933,at:1), (pv:934,at:1), (pv:935,at:3), (pv:936,at:1), (pv:937,at:1), (pv:938,at:1), (pv:939,at:3), (pv:940,at:1), (pv:941,at:3), (pv:942,at:1), (pv:943,at:2), (pv:944,at:3), (pv:945,at:1), (pv:946,at:3), (pv:947,at:4), (pv:948,at:4), (pv:949,at:4), (pv:950,at:1), (pv:951,at:2), (pv:952,at:1), (pv:953,at:1), (pv:954,at:1), (pv:955,at:1), (pv:956,at:1), (pv:957,at:4), (pv:958,at:3), (pv:959,at:1), (pv:960,at:1), (pv:961,at:3), (pv:962,at:3), (pv:963,at:3), (pv:964,at:1), (pv:965,at:3), (pv:966,at:2), (pv:967,at:1), (pv:968,at:1), (pv:969,at:2), (pv:970,at:4), (pv:971,at:1), (pv:972,at:1), (pv:973,at:1), (pv:974,at:1), (pv:975,at:1), (pv:976,at:2), (pv:977,at:3), (pv:978,at:2), (pv:979,at:1), (pv:980,at:1), (pv:981,at:2), (pv:982,at:1), (pv:983,at:1), (pv:984,at:1), (pv:985,at:1), (pv:986,at:1), (pv:987,at:4), (pv:988,at:1), (pv:989,at:1), (pv:990,at:3), (pv:991,at:3), (pv:992,at:3), (pv:993,at:4), (pv:994,at:1), (pv:995,at:1), (pv:996,at:2), (pv:997,at:1), (pv:998,at:3), (pv:999,at:4), (pv:1000,at:2), (pv:1001,at:4), (pv:1002,at:1), (pv:1003,at:1), (pv:1004,at:2), (pv:1005,at:2), (pv:1006,at:1), (pv:1007,at:1), (pv:1008,at:1), (pv:1009,at:1), (pv:1010,at:1), (pv:1012,at:1), (pv:1014,at:1), (pv:1015,at:1), (pv:1018,at:1), (pv:1019,at:1), (pv:1021,at:1), (pv:1023,at:3), (pv:1026,at:3), (pv:1027,at:4), (pv:1028,at:1), (pv:1030,at:2), (pv:1031,at:1)]
2017-04-03 14:45:24,382 INFO main - 
pvariants_with_transformed_ingredients: [(pv:2,at:1), (pv:3,at:1), (pv:4,at:1), (pv:5,at:1), (pv:6,at:1), (pv:7,at:1), (pv:8,at:1), (pv:9,at:1), (pv:10,at:1), (pv:11,at:1), (pv:12,at:6), (pv:13,at:1), (pv:14,at:1), (pv:15,at:1), (pv:16,at:1), (pv:17,at:1), (pv:18,at:1), (pv:19,at:1), (pv:20,at:1), (pv:21,at:1), (pv:22,at:1), (pv:23,at:1), (pv:24,at:1), (pv:25,at:2), (pv:26,at:1), (pv:27,at:1), (pv:28,at:1), (pv:29,at:1), (pv:30,at:6), (pv:31,at:6), (pv:32,at:2), (pv:33,at:1), (pv:34,at:2), (pv:35,at:1), (pv:36,at:1), (pv:37,at:1), (pv:38,at:1), (pv:39,at:1), (pv:40,at:1), (pv:41,at:1), (pv:42,at:1), (pv:43,at:1), (pv:44,at:1), (pv:45,at:1), (pv:46,at:1), (pv:47,at:1), (pv:48,at:1), (pv:49,at:1), (pv:50,at:1), (pv:51,at:1), (pv:52,at:1), (pv:53,at:1), (pv:54,at:1), (pv:55,at:1), (pv:56,at:1), (pv:57,at:1), (pv:58,at:1), (pv:59,at:1), (pv:60,at:1), (pv:61,at:1), (pv:62,at:1), (pv:63,at:1), (pv:64,at:1), (pv:65,at:1), (pv:66,at:1), (pv:67,at:1), (pv:68,at:1), (pv:69,at:1), (pv:70,at:6), (pv:71,at:1), (pv:72,at:1), (pv:73,at:1), (pv:74,at:1), (pv:75,at:6), (pv:76,at:1), (pv:77,at:1), (pv:78,at:1), (pv:79,at:1), (pv:80,at:1), (pv:81,at:1), (pv:82,at:1), (pv:83,at:1), (pv:84,at:1), (pv:85,at:1), (pv:86,at:1), (pv:87,at:1), (pv:88,at:1), (pv:89,at:1), (pv:90,at:1), (pv:91,at:1), (pv:92,at:1), (pv:93,at:1), (pv:94,at:1), (pv:95,at:1), (pv:96,at:1), (pv:97,at:1), (pv:98,at:1), (pv:99,at:1), (pv:100,at:1), (pv:101,at:1), (pv:102,at:6), (pv:103,at:1), (pv:104,at:1), (pv:105,at:1), (pv:106,at:1), (pv:107,at:1), (pv:108,at:1), (pv:109,at:1), (pv:110,at:2), (pv:111,at:1), (pv:112,at:1), (pv:113,at:1), (pv:114,at:1), (pv:115,at:1), (pv:116,at:6), (pv:117,at:1), (pv:118,at:6), (pv:119,at:1), (pv:120,at:1), (pv:121,at:1), (pv:122,at:1), (pv:123,at:1), (pv:124,at:1), (pv:125,at:1), (pv:126,at:1), (pv:127,at:1), (pv:128,at:6), (pv:129,at:1), (pv:130,at:6), (pv:131,at:1), (pv:132,at:1), (pv:133,at:1), (pv:134,at:1), (pv:135,at:1), (pv:136,at:1), (pv:137,at:6), (pv:138,at:1), (pv:139,at:1), (pv:140,at:1), (pv:141,at:1), (pv:142,at:1), (pv:143,at:1), (pv:144,at:6), (pv:145,at:1), (pv:146,at:1), (pv:147,at:1), (pv:148,at:1), (pv:149,at:1), (pv:150,at:1), (pv:151,at:1), (pv:152,at:1), (pv:153,at:1), (pv:154,at:1), (pv:155,at:1), (pv:156,at:1), (pv:157,at:1), (pv:158,at:2), (pv:159,at:1), (pv:160,at:1), (pv:161,at:1), (pv:162,at:6), (pv:163,at:1), (pv:164,at:1), (pv:165,at:1), (pv:166,at:1), (pv:167,at:1), (pv:168,at:1), (pv:169,at:1), (pv:170,at:1), (pv:171,at:1), (pv:172,at:1), (pv:173,at:1), (pv:174,at:1), (pv:175,at:1), (pv:176,at:1), (pv:177,at:1), (pv:178,at:1), (pv:179,at:1), (pv:180,at:1), (pv:181,at:1), (pv:182,at:1), (pv:183,at:1), (pv:184,at:6), (pv:185,at:1), (pv:186,at:1), (pv:187,at:1), (pv:188,at:1), (pv:189,at:1), (pv:190,at:1), (pv:191,at:1), (pv:192,at:1), (pv:193,at:1), (pv:194,at:1), (pv:195,at:1), (pv:196,at:1), (pv:197,at:1), (pv:198,at:1), (pv:199,at:1), (pv:200,at:1), (pv:201,at:1), (pv:202,at:1), (pv:203,at:2), (pv:204,at:1), (pv:205,at:1), (pv:206,at:1), (pv:207,at:1), (pv:208,at:1), (pv:209,at:2), (pv:210,at:1), (pv:211,at:1), (pv:212,at:1), (pv:213,at:1), (pv:214,at:1), (pv:215,at:1), (pv:216,at:1), (pv:217,at:1), (pv:218,at:2), (pv:219,at:1), (pv:220,at:1), (pv:221,at:1), (pv:222,at:1), (pv:223,at:4), (pv:224,at:1), (pv:225,at:1), (pv:226,at:1), (pv:227,at:1), (pv:228,at:2), (pv:229,at:6), (pv:230,at:1), (pv:231,at:1), (pv:232,at:1), (pv:233,at:1), (pv:234,at:1), (pv:235,at:2), (pv:236,at:1), (pv:237,at:1), (pv:238,at:6), (pv:239,at:1), (pv:240,at:1), (pv:241,at:1), (pv:242,at:1), (pv:243,at:1), (pv:244,at:1), (pv:245,at:1), (pv:246,at:1), (pv:247,at:1), (pv:248,at:1), (pv:249,at:1), (pv:250,at:1), (pv:251,at:1), (pv:252,at:1), (pv:253,at:1), (pv:254,at:1), (pv:255,at:1), (pv:256,at:1), (pv:257,at:1), (pv:258,at:1), (pv:259,at:1), (pv:260,at:1), (pv:261,at:1), (pv:262,at:1), (pv:263,at:1), (pv:264,at:1), (pv:265,at:1), (pv:266,at:1), (pv:267,at:13), (pv:268,at:3), (pv:269,at:1), (pv:270,at:1), (pv:271,at:4), (pv:272,at:4), (pv:273,at:1), (pv:274,at:3), (pv:275,at:1), (pv:276,at:1), (pv:277,at:1), (pv:278,at:1), (pv:279,at:13), (pv:280,at:1), (pv:281,at:1), (pv:282,at:1), (pv:283,at:1), (pv:284,at:1), (pv:285,at:1), (pv:286,at:1), (pv:287,at:4), (pv:288,at:1), (pv:289,at:1), (pv:290,at:1), (pv:291,at:1), (pv:292,at:2), (pv:293,at:1), (pv:294,at:1), (pv:295,at:4), (pv:296,at:4), (pv:297,at:1), (pv:298,at:1), (pv:299,at:1), (pv:300,at:1), (pv:301,at:1), (pv:302,at:1), (pv:303,at:1), (pv:304,at:1), (pv:305,at:1), (pv:306,at:1), (pv:307,at:1), (pv:308,at:4), (pv:309,at:1), (pv:310,at:1), (pv:311,at:4), (pv:312,at:1), (pv:313,at:1), (pv:314,at:1), (pv:315,at:1), (pv:316,at:1), (pv:317,at:1), (pv:318,at:1), (pv:319,at:1), (pv:320,at:1), (pv:321,at:1), (pv:322,at:1), (pv:323,at:4), (pv:324,at:1), (pv:325,at:1), (pv:326,at:4), (pv:327,at:1), (pv:328,at:1), (pv:329,at:1), (pv:330,at:1), (pv:331,at:1), (pv:332,at:1), (pv:333,at:1), (pv:334,at:1), (pv:335,at:1), (pv:336,at:1), (pv:337,at:1), (pv:338,at:1), (pv:339,at:1), (pv:340,at:4), (pv:341,at:1), (pv:342,at:1), (pv:343,at:1), (pv:344,at:4), (pv:345,at:1), (pv:346,at:1), (pv:347,at:1), (pv:348,at:1), (pv:349,at:1), (pv:350,at:1), (pv:351,at:1), (pv:352,at:1), (pv:353,at:1), (pv:354,at:3), (pv:355,at:1), (pv:356,at:4), (pv:357,at:1), (pv:358,at:1), (pv:359,at:1), (pv:360,at:1), (pv:361,at:1), (pv:362,at:1), (pv:363,at:1), (pv:364,at:1), (pv:365,at:2), (pv:366,at:1), (pv:367,at:1), (pv:368,at:1), (pv:369,at:1), (pv:370,at:2), (pv:371,at:1), (pv:372,at:1), (pv:373,at:1), (pv:374,at:1), (pv:375,at:1), (pv:376,at:1), (pv:377,at:1), (pv:378,at:1), (pv:379,at:4), (pv:380,at:1), (pv:381,at:1), (pv:382,at:1), (pv:383,at:1), (pv:384,at:1), (pv:385,at:4), (pv:386,at:1), (pv:387,at:1), (pv:388,at:2), (pv:389,at:1), (pv:390,at:1), (pv:391,at:1), (pv:392,at:1), (pv:393,at:1), (pv:394,at:1), (pv:395,at:1), (pv:396,at:4), (pv:397,at:1), (pv:398,at:1), (pv:399,at:1), (pv:400,at:1), (pv:401,at:1), (pv:402,at:1), (pv:403,at:1), (pv:404,at:1), (pv:405,at:4), (pv:406,at:1), (pv:407,at:1), (pv:408,at:1), (pv:409,at:1), (pv:410,at:1), (pv:411,at:1), (pv:412,at:1), (pv:413,at:1), (pv:414,at:2), (pv:415,at:1), (pv:416,at:1), (pv:417,at:1), (pv:418,at:1), (pv:419,at:1), (pv:420,at:1), (pv:421,at:1), (pv:422,at:4), (pv:423,at:1), (pv:424,at:1), (pv:425,at:1), (pv:426,at:1), (pv:427,at:1), (pv:428,at:1), (pv:429,at:1), (pv:430,at:4), (pv:431,at:1), (pv:432,at:1), (pv:433,at:1), (pv:434,at:1), (pv:435,at:1), (pv:436,at:1), (pv:437,at:1), (pv:438,at:1), (pv:439,at:2), (pv:440,at:1), (pv:441,at:1), (pv:442,at:1), (pv:443,at:1), (pv:444,at:1), (pv:445,at:1), (pv:446,at:1), (pv:447,at:1), (pv:448,at:1), (pv:449,at:1), (pv:450,at:1), (pv:451,at:1), (pv:452,at:3), (pv:453,at:1), (pv:454,at:1), (pv:455,at:1), (pv:456,at:1), (pv:457,at:1), (pv:458,at:1), (pv:459,at:4), (pv:460,at:1), (pv:461,at:1), (pv:462,at:1), (pv:463,at:1), (pv:464,at:1), (pv:465,at:1), (pv:466,at:1), (pv:467,at:1), (pv:468,at:1), (pv:469,at:1), (pv:470,at:4), (pv:471,at:1), (pv:472,at:1), (pv:473,at:1), (pv:474,at:3), (pv:475,at:1), (pv:476,at:1), (pv:477,at:1), (pv:478,at:1), (pv:479,at:1), (pv:480,at:1), (pv:481,at:1), (pv:482,at:1), (pv:483,at:1), (pv:484,at:1), (pv:485,at:1), (pv:486,at:4), (pv:487,at:1), (pv:488,at:1), (pv:489,at:1), (pv:490,at:1), (pv:491,at:1), (pv:492,at:1), (pv:493,at:1), (pv:494,at:1), (pv:495,at:1), (pv:496,at:1), (pv:497,at:1), (pv:498,at:1), (pv:499,at:1), (pv:500,at:1), (pv:501,at:1), (pv:502,at:1), (pv:503,at:1), (pv:504,at:1), (pv:505,at:1), (pv:506,at:1), (pv:507,at:1), (pv:508,at:1), (pv:509,at:1), (pv:510,at:1), (pv:511,at:2), (pv:512,at:1), (pv:513,at:1), (pv:514,at:1), (pv:515,at:1), (pv:516,at:1), (pv:517,at:1), (pv:518,at:1), (pv:519,at:1), (pv:520,at:1), (pv:521,at:1), (pv:522,at:1), (pv:523,at:1), (pv:524,at:1), (pv:525,at:1), (pv:526,at:1), (pv:527,at:1), (pv:528,at:1), (pv:529,at:1), (pv:530,at:1), (pv:531,at:1), (pv:532,at:1), (pv:533,at:1), (pv:534,at:1), (pv:535,at:4), (pv:536,at:1), (pv:537,at:1), (pv:538,at:1), (pv:539,at:1), (pv:540,at:1), (pv:541,at:1), (pv:542,at:1), (pv:543,at:1), (pv:544,at:1), (pv:545,at:1), (pv:546,at:1), (pv:547,at:1), (pv:548,at:1), (pv:549,at:1), (pv:550,at:1), (pv:551,at:1), (pv:552,at:1), (pv:553,at:1), (pv:554,at:1), (pv:555,at:1), (pv:556,at:1), (pv:557,at:1), (pv:558,at:1), (pv:559,at:1), (pv:560,at:1), (pv:561,at:1), (pv:562,at:1), (pv:563,at:1), (pv:564,at:1), (pv:565,at:1), (pv:566,at:1), (pv:567,at:1), (pv:568,at:1), (pv:569,at:1), (pv:570,at:4), (pv:571,at:1), (pv:572,at:1), (pv:573,at:1), (pv:574,at:1), (pv:575,at:1), (pv:576,at:1), (pv:577,at:1), (pv:578,at:1), (pv:579,at:4), (pv:580,at:1), (pv:581,at:1), (pv:582,at:1), (pv:583,at:1), (pv:584,at:1), (pv:585,at:1), (pv:586,at:1), (pv:587,at:1), (pv:588,at:1), (pv:589,at:1), (pv:590,at:1), (pv:591,at:1), (pv:592,at:1), (pv:593,at:1), (pv:594,at:1), (pv:595,at:1), (pv:596,at:1), (pv:597,at:1), (pv:598,at:1), (pv:599,at:1), (pv:600,at:1), (pv:601,at:1), (pv:602,at:1), (pv:603,at:4), (pv:604,at:1), (pv:605,at:1), (pv:606,at:1), (pv:607,at:1), (pv:608,at:1), (pv:609,at:1), (pv:610,at:1), (pv:611,at:1), (pv:612,at:1), (pv:613,at:1), (pv:614,at:1), (pv:615,at:1), (pv:616,at:1), (pv:617,at:1), (pv:618,at:1), (pv:619,at:1), (pv:620,at:1), (pv:621,at:1), (pv:622,at:1), (pv:623,at:1), (pv:624,at:1), (pv:625,at:1), (pv:626,at:1), (pv:627,at:1), (pv:628,at:1), (pv:629,at:1), (pv:630,at:1), (pv:631,at:1), (pv:632,at:1), (pv:633,at:1), (pv:634,at:1), (pv:635,at:1), (pv:636,at:1), (pv:637,at:1), (pv:638,at:1), (pv:639,at:1), (pv:640,at:1), (pv:641,at:1), (pv:642,at:1), (pv:643,at:4), (pv:644,at:1), (pv:645,at:1), (pv:646,at:1), (pv:647,at:1), (pv:648,at:1), (pv:649,at:1), (pv:650,at:1), (pv:651,at:1), (pv:652,at:1), (pv:653,at:1), (pv:654,at:1), (pv:655,at:1), (pv:656,at:1), (pv:657,at:1), (pv:658,at:1), (pv:659,at:1), (pv:660,at:1), (pv:661,at:1), (pv:662,at:1), (pv:663,at:1), (pv:664,at:1), (pv:665,at:1), (pv:666,at:1), (pv:667,at:1), (pv:668,at:1), (pv:669,at:1), (pv:670,at:1), (pv:671,at:1), (pv:672,at:1), (pv:673,at:1), (pv:674,at:1), (pv:675,at:1), (pv:676,at:1), (pv:677,at:1), (pv:678,at:3), (pv:679,at:1), (pv:680,at:1), (pv:681,at:1), (pv:682,at:1), (pv:683,at:1), (pv:684,at:1), (pv:685,at:1), (pv:686,at:1), (pv:687,at:1), (pv:688,at:1), (pv:689,at:3), (pv:690,at:1), (pv:691,at:1), (pv:692,at:1), (pv:693,at:1), (pv:694,at:3), (pv:695,at:1), (pv:696,at:3), (pv:697,at:1), (pv:698,at:1), (pv:699,at:1), (pv:700,at:1), (pv:701,at:1), (pv:702,at:1), (pv:703,at:1), (pv:704,at:1), (pv:705,at:1), (pv:706,at:1), (pv:707,at:1), (pv:708,at:1), (pv:709,at:1), (pv:710,at:3), (pv:711,at:1), (pv:712,at:1), (pv:713,at:4), (pv:714,at:1), (pv:715,at:1), (pv:716,at:3), (pv:717,at:3), (pv:718,at:3), (pv:719,at:1), (pv:720,at:1), (pv:721,at:1), (pv:722,at:1), (pv:723,at:1), (pv:724,at:1), (pv:725,at:1), (pv:726,at:1), (pv:727,at:1), (pv:728,at:1), (pv:729,at:1), (pv:730,at:1), (pv:731,at:1), (pv:732,at:1), (pv:733,at:1), (pv:734,at:1), (pv:735,at:1), (pv:736,at:1), (pv:737,at:1), (pv:738,at:3), (pv:739,at:1), (pv:740,at:3), (pv:741,at:1), (pv:742,at:1), (pv:743,at:1), (pv:744,at:1), (pv:745,at:1), (pv:746,at:4), (pv:747,at:1), (pv:748,at:1), (pv:749,at:1), (pv:750,at:1), (pv:751,at:1), (pv:752,at:4), (pv:753,at:1), (pv:754,at:1), (pv:755,at:3), (pv:756,at:1), (pv:757,at:1), (pv:758,at:1), (pv:759,at:3), (pv:760,at:1), (pv:761,at:1), (pv:762,at:1), (pv:763,at:1), (pv:764,at:4), (pv:765,at:3), (pv:766,at:3), (pv:767,at:1), (pv:768,at:2), (pv:769,at:1), (pv:770,at:1), (pv:771,at:1), (pv:772,at:3), (pv:773,at:1), (pv:774,at:3), (pv:775,at:3), (pv:776,at:2), (pv:777,at:1), (pv:778,at:1), (pv:779,at:4), (pv:780,at:1), (pv:781,at:1), (pv:782,at:1), (pv:783,at:1), (pv:784,at:3), (pv:785,at:1), (pv:786,at:1), (pv:787,at:1), (pv:788,at:1), (pv:789,at:1), (pv:790,at:1), (pv:791,at:1), (pv:792,at:3), (pv:793,at:4), (pv:794,at:1), (pv:795,at:1), (pv:796,at:1), (pv:797,at:1), (pv:798,at:3), (pv:799,at:1), (pv:800,at:1), (pv:801,at:3), (pv:802,at:3), (pv:803,at:1), (pv:804,at:4), (pv:805,at:1), (pv:806,at:1), (pv:807,at:1), (pv:808,at:1), (pv:809,at:1), (pv:810,at:1), (pv:811,at:1), (pv:812,at:1), (pv:813,at:2), (pv:814,at:1), (pv:815,at:1), (pv:816,at:2), (pv:817,at:1), (pv:818,at:2), (pv:819,at:4), (pv:820,at:1), (pv:821,at:3), (pv:822,at:3), (pv:823,at:3), (pv:824,at:1), (pv:825,at:1), (pv:826,at:1), (pv:827,at:1), (pv:828,at:1), (pv:829,at:1), (pv:830,at:1), (pv:831,at:4), (pv:832,at:1), (pv:833,at:3), (pv:834,at:1), (pv:835,at:2), (pv:836,at:4), (pv:837,at:1), (pv:838,at:1), (pv:839,at:3), (pv:840,at:4), (pv:841,at:1), (pv:842,at:1), (pv:843,at:1), (pv:844,at:3), (pv:845,at:1), (pv:846,at:4), (pv:847,at:1), (pv:848,at:4), (pv:849,at:1), (pv:850,at:4), (pv:851,at:1), (pv:852,at:1), (pv:853,at:1), (pv:854,at:2), (pv:855,at:2), (pv:856,at:1), (pv:857,at:1), (pv:858,at:1), (pv:859,at:3), (pv:860,at:1), (pv:861,at:1), (pv:862,at:2), (pv:863,at:1), (pv:864,at:1), (pv:865,at:1), (pv:866,at:1), (pv:867,at:1), (pv:868,at:1), (pv:869,at:1), (pv:870,at:1), (pv:871,at:1), (pv:872,at:1), (pv:873,at:1), (pv:874,at:3), (pv:875,at:1), (pv:876,at:1), (pv:877,at:1), (pv:878,at:1), (pv:879,at:4), (pv:880,at:3), (pv:881,at:1), (pv:882,at:2), (pv:883,at:1), (pv:884,at:4), (pv:885,at:1), (pv:886,at:2), (pv:887,at:1), (pv:888,at:3), (pv:889,at:1), (pv:890,at:3), (pv:891,at:1), (pv:892,at:1), (pv:893,at:1), (pv:894,at:1), (pv:895,at:3), (pv:896,at:1), (pv:897,at:2), (pv:898,at:1), (pv:899,at:1), (pv:900,at:1), (pv:901,at:1), (pv:902,at:1), (pv:903,at:2), (pv:904,at:4), (pv:905,at:1), (pv:906,at:2), (pv:907,at:1), (pv:908,at:1), (pv:909,at:1), (pv:910,at:4), (pv:911,at:1), (pv:912,at:3), (pv:913,at:1), (pv:914,at:1), (pv:915,at:1), (pv:916,at:3), (pv:917,at:1), (pv:918,at:1), (pv:919,at:4), (pv:920,at:1), (pv:921,at:1), (pv:922,at:1), (pv:923,at:1), (pv:924,at:1), (pv:925,at:1), (pv:926,at:1), (pv:927,at:1), (pv:928,at:1), (pv:929,at:1), (pv:930,at:1), (pv:931,at:1), (pv:932,at:3), (pv:933,at:1), (pv:934,at:1), (pv:935,at:3), (pv:936,at:1), (pv:937,at:1), (pv:938,at:1), (pv:939,at:3), (pv:940,at:1), (pv:941,at:3), (pv:942,at:1), (pv:943,at:2), (pv:944,at:3), (pv:945,at:1), (pv:946,at:3), (pv:947,at:4), (pv:948,at:4), (pv:949,at:4), (pv:950,at:1), (pv:951,at:2), (pv:952,at:1), (pv:953,at:1), (pv:954,at:1), (pv:955,at:1), (pv:956,at:1), (pv:957,at:4), (pv:958,at:3), (pv:959,at:1), (pv:960,at:1), (pv:961,at:3), (pv:962,at:3), (pv:963,at:3), (pv:964,at:1), (pv:965,at:3), (pv:966,at:2), (pv:967,at:1), (pv:968,at:1), (pv:969,at:2), (pv:970,at:4), (pv:971,at:1), (pv:972,at:1), (pv:973,at:1), (pv:974,at:1), (pv:975,at:1), (pv:976,at:2), (pv:977,at:3), (pv:978,at:2), (pv:979,at:1), (pv:980,at:1), (pv:981,at:2), (pv:982,at:1), (pv:983,at:1), (pv:984,at:1), (pv:985,at:1), (pv:986,at:1), (pv:987,at:4), (pv:988,at:1), (pv:989,at:1), (pv:990,at:3), (pv:991,at:3), (pv:992,at:3), (pv:993,at:4), (pv:994,at:1), (pv:995,at:1), (pv:996,at:2), (pv:997,at:1), (pv:998,at:3), (pv:999,at:4), (pv:1000,at:2), (pv:1001,at:4), (pv:1002,at:1), (pv:1003,at:1), (pv:1004,at:2), (pv:1005,at:2), (pv:1006,at:1), (pv:1007,at:1), (pv:1008,at:1), (pv:1009,at:1), (pv:1010,at:1), (pv:1012,at:1), (pv:1014,at:1), (pv:1015,at:1), (pv:1018,at:1), (pv:1019,at:1), (pv:1021,at:1), (pv:1023,at:3), (pv:1026,at:3), (pv:1027,at:4), (pv:1028,at:1), (pv:1030,at:2), (pv:1031,at:1)]
2017-04-03 14:45:24,382 INFO fr.inria.main.evolution.AstorMain - Time Total(s): 10872.008
