Warning: no access to tty (Bad file descriptor).
Thus no job control in this shell.
tput: No value for $TERM and no -T specified
Node: hu09.sciclone.wm.edu
[INFO ] fr.inria.main.AbstractMain.processArguments(AbstractMain.java:295) - command line arguments: [-out  /local/scr/mtufano/Lang/61/b/similar-local-types-embeddings/3  -jvm4testexecution  /usr/local/jdk1.7.0_80/bin/  -loglevel  INFO  -maxVarCombination  1000  -maxgen  1000000  -population  1  -maxtime  180  -timezone  America/New_York  -customop  fr.inria.astor.approaches.jgenprog.operators.InsertAfterOp:fr.inria.astor.approaches.jgenprog.operators.InsertBeforeOp:fr.inria.astor.approaches.jgenprog.operators.ReplaceOp  -seed  3  -javacompliancelevel  3  -package  org.apache.commons  -binjavafolder  target/classes/  -bintestfolder  target/tests/  -srcjavafolder  src/java/  -srctestfolder  src/test/  -learningdir  ../../out/learningdir/Lang/61/b/  -location  ../../dat/defects4j/Lang/61/b/  -failing  org.apache.commons.lang.text.StrBuilderTest  -dependencies  ../../dat/libs/Lang/cglib.jar:../../dat/libs/Lang/commons-io.jar:../../dat/libs/Lang/asm.jar:../../dat/libs/Lang/easymock.jar  -classestoinstrument  org.apache.commons.lang.text.StrMatcher:org.apache.commons.lang.text.StrBuilder:org.apache.commons.lang.text.StrTokenizer  -regressiontestcases4fl  org.apache.commons.lang.text.StrBuilderAppendInsertTest:org.apache.commons.lang.text.StrBuilderTest:org.apache.commons.lang.text.StrSubstitutorTest:org.apache.commons.lang.text.StrTokenizerTest  -scope  fr.inria.astor.core.loop.spaces.ingredients.scopes.ctscopes.CtClassIngredientSpace  -ingredientstrategy  fr.inria.astor.core.loop.spaces.ingredients.ingredientSearch.CloneIngredientSearchStrategy  -clonegranularity  spoon.reflect.declaration.CtType  -transformingredient]
[INFO ] fr.inria.astor.core.manipulation.MutationSupporter.buildModel(MutationSupporter.java:76) - building model: /local/scr/mtufano/Lang/61/b/similar-local-types-embeddings/3/AstorMain-b//src//default, compliance level: 3
[INFO ] fr.inria.astor.core.manipulation.MutationSupporter.buildModel(MutationSupporter.java:85) - Classpath for building SpoonModel [/sciclone/data20/mtufano/deeprepair/bin/eval/../../dat/libs/Lang/cglib.jar, /sciclone/data20/mtufano/deeprepair/bin/eval/../../dat/libs/Lang/commons-io.jar, /sciclone/data20/mtufano/deeprepair/bin/eval/../../dat/libs/Lang/asm.jar, /sciclone/data20/mtufano/deeprepair/bin/eval/../../dat/libs/Lang/easymock.jar]
[INFO ] fr.inria.astor.core.setup.ProjectRepairFacade.calculateSuspicious(ProjectRepairFacade.java:215) - -Executing Gzoltar classpath: /local/scr/mtufano/Lang/61/b/similar-local-types-embeddings/3/AstorMain-b//bin//default from 4 classes with test cases
[INFO ] fr.inria.astor.core.faultlocalization.GZoltarFaultLocalization.searchSuspicious(GZoltarFaultLocalization.java:37) - Gzoltar fault localization: min susp value parameter: 0.1
[INFO ] fr.inria.astor.core.faultlocalization.GZoltarFaultLocalization.searchSuspicious(GZoltarFaultLocalization.java:57) - -gz-Adding classpath: [/local/scr/mtufano/Lang/61/b/similar-local-types-embeddings/3/AstorMain-b//bin//default, /sciclone/data20/mtufano/deeprepair/bin/eval/../../dat/libs/Lang/cglib.jar, /sciclone/data20/mtufano/deeprepair/bin/eval/../../dat/libs/Lang/asm.jar, /sciclone/data20/mtufano/deeprepair/bin/eval/../../dat/libs/Lang/easymock.jar, /sciclone/data20/mtufano/deeprepair/bin/eval/../../dat/libs/Lang/commons-io.jar]
[INFO ] fr.inria.astor.core.faultlocalization.GZoltarFaultLocalization.searchSuspicious(GZoltarFaultLocalization.java:76) - Test failt: org.apache.commons.lang.text.StrBuilderTest#testIndexOfLang294
[INFO ] fr.inria.astor.core.faultlocalization.GZoltarFaultLocalization.searchSuspicious(GZoltarFaultLocalization.java:76) - Test failt: org.apache.commons.lang.text.StrBuilderTest#testLang294
[INFO ] fr.inria.astor.core.faultlocalization.GZoltarFaultLocalization.searchSuspicious(GZoltarFaultLocalization.java:81) - Gzoltar Test Result Total:184, fails: 2, GZoltar suspicious 1128
[INFO ] fr.inria.astor.core.faultlocalization.GZoltarFaultLocalization.searchSuspicious(GZoltarFaultLocalization.java:123) - Gzoltar found: 40 with susp > 0.1, we consider: 40
[INFO ] fr.inria.astor.approaches.jgenprog.JGenProg.initPopulation(JGenProg.java:80) - 
---- Initial suspicious size: 40
[INFO ] fr.inria.astor.core.loop.population.ProgramVariantFactory.createProgramInstance(ProgramVariantFactory.java:126) - -any mod point created for suspicious Candidate [className=org.apache.commons.lang.text.StrBuilder, methodName=org.apache.commons.lang.text.StrBuilder{deleteImpl(III)V 0.0, lineNumber=1116, susp=0.3651483716701107]
[INFO ] fr.inria.astor.core.loop.population.ProgramVariantFactory.createProgramInstance(ProgramVariantFactory.java:130) - Total suspicious from FL: 40,  39
[INFO ] fr.inria.astor.core.loop.population.ProgramVariantFactory.createProgramInstance(ProgramVariantFactory.java:138) - Total ModPoint created: 39
[INFO ] fr.inria.astor.core.loop.population.ProgramVariantFactory.createInitialPopulation(ProgramVariantFactory.java:82) - Creating program variant #1, [Variant id: 1, #gens: 39, #ops: 0, parent:-]
[INFO ] fr.inria.astor.core.setup.ConfigurationProperties.print(ConfigurationProperties.java:63) - ----------------------------
[INFO ] fr.inria.astor.core.setup.ConfigurationProperties.print(ConfigurationProperties.java:64) - ---Configuration properties:---Execution values
[INFO ] fr.inria.astor.core.setup.ConfigurationProperties.print(ConfigurationProperties.java:66) - p:lastJUnitVersion= ./examples/libs/junit-4.11.jar
[INFO ] fr.inria.astor.core.setup.ConfigurationProperties.print(ConfigurationProperties.java:66) - p:alternativecompliancelevel= 4
[INFO ] fr.inria.astor.core.setup.ConfigurationProperties.print(ConfigurationProperties.java:66) - p:ignoredTestCases= 
[INFO ] fr.inria.astor.core.setup.ConfigurationProperties.print(ConfigurationProperties.java:66) - p:workingDirectory= /local/scr/mtufano/Lang/61/b/similar-local-types-embeddings/3
[INFO ] fr.inria.astor.core.setup.ConfigurationProperties.print(ConfigurationProperties.java:66) - p:manipulatesuper= false
[INFO ] fr.inria.astor.core.setup.ConfigurationProperties.print(ConfigurationProperties.java:66) - p:validation= process
[INFO ] fr.inria.astor.core.setup.ConfigurationProperties.print(ConfigurationProperties.java:66) - p:jvm4testexecution= /usr/local/jdk1.7.0_80/bin/
[INFO ] fr.inria.astor.core.setup.ConfigurationProperties.print(ConfigurationProperties.java:66) - p:binjavafolder= target/classes/
[INFO ] fr.inria.astor.core.setup.ConfigurationProperties.print(ConfigurationProperties.java:66) - p:evosuiteresultfolder= evosuite
[INFO ] fr.inria.astor.core.setup.ConfigurationProperties.print(ConfigurationProperties.java:66) - p:flthreshold= 0.1
[INFO ] fr.inria.astor.core.setup.ConfigurationProperties.print(ConfigurationProperties.java:66) - p:regressionforfaultlocalization= true
[INFO ] fr.inria.astor.core.setup.ConfigurationProperties.print(ConfigurationProperties.java:66) - p:tmax2= 960000
[INFO ] fr.inria.astor.core.setup.ConfigurationProperties.print(ConfigurationProperties.java:66) - p:tmax1= 120000
[INFO ] fr.inria.astor.core.setup.ConfigurationProperties.print(ConfigurationProperties.java:66) - p:probagenmutation= false
[INFO ] fr.inria.astor.core.setup.ConfigurationProperties.print(ConfigurationProperties.java:66) - p:srctestfolder= src/test/
[INFO ] fr.inria.astor.core.setup.ConfigurationProperties.print(ConfigurationProperties.java:66) - p:customop= fr.inria.astor.approaches.jgenprog.operators.InsertAfterOp:fr.inria.astor.approaches.jgenprog.operators.InsertBeforeOp:fr.inria.astor.approaches.jgenprog.operators.ReplaceOp
[INFO ] fr.inria.astor.core.setup.ConfigurationProperties.print(ConfigurationProperties.java:66) - p:forceExecuteRegression= false
[INFO ] fr.inria.astor.core.setup.ConfigurationProperties.print(ConfigurationProperties.java:66) - p:clusteringfilename= clustering.csv
[INFO ] fr.inria.astor.core.setup.ConfigurationProperties.print(ConfigurationProperties.java:66) - p:failing= org.apache.commons.lang.text.StrBuilderTest
[INFO ] fr.inria.astor.core.setup.ConfigurationProperties.print(ConfigurationProperties.java:66) - p:evo_buggy_class= true
[INFO ] fr.inria.astor.core.setup.ConfigurationProperties.print(ConfigurationProperties.java:66) - p:numberExecutions= 1
[INFO ] fr.inria.astor.core.setup.ConfigurationProperties.print(ConfigurationProperties.java:66) - p:evo_affected_by_op= true
[INFO ] fr.inria.astor.core.setup.ConfigurationProperties.print(ConfigurationProperties.java:66) - p:population= 1
[INFO ] fr.inria.astor.core.setup.ConfigurationProperties.print(ConfigurationProperties.java:66) - p:clonegranularity= spoon.reflect.declaration.CtType
[INFO ] fr.inria.astor.core.setup.ConfigurationProperties.print(ConfigurationProperties.java:66) - p:regressiontestcases4fl= org.apache.commons.lang.text.StrBuilderAppendInsertTest:org.apache.commons.lang.text.StrBuilderTest:org.apache.commons.lang.text.StrSubstitutorTest:org.apache.commons.lang.text.StrTokenizerTest
[INFO ] fr.inria.astor.core.setup.ConfigurationProperties.print(ConfigurationProperties.java:66) - p:savesolution= true
[INFO ] fr.inria.astor.core.setup.ConfigurationProperties.print(ConfigurationProperties.java:66) - p:javacompliancelevel= 3
[INFO ] fr.inria.astor.core.setup.ConfigurationProperties.print(ConfigurationProperties.java:66) - p:uniqueoptogen= false
[INFO ] fr.inria.astor.core.setup.ConfigurationProperties.print(ConfigurationProperties.java:66) - p:projectIdentifier= 
[INFO ] fr.inria.astor.core.setup.ConfigurationProperties.print(ConfigurationProperties.java:66) - p:modificationpointnavigation= weight
[INFO ] fr.inria.astor.core.setup.ConfigurationProperties.print(ConfigurationProperties.java:66) - p:stopfirst= false
[INFO ] fr.inria.astor.core.setup.ConfigurationProperties.print(ConfigurationProperties.java:66) - p:multipointmodification= false
[INFO ] fr.inria.astor.core.setup.ConfigurationProperties.print(ConfigurationProperties.java:66) - p:elementsToMutate= 10
[INFO ] fr.inria.astor.core.setup.ConfigurationProperties.print(ConfigurationProperties.java:66) - p:evoDSE= false
[INFO ] fr.inria.astor.core.setup.ConfigurationProperties.print(ConfigurationProperties.java:66) - p:bintestfolder= target/tests/
[INFO ] fr.inria.astor.core.setup.ConfigurationProperties.print(ConfigurationProperties.java:66) - p:testbystep= false
[INFO ] fr.inria.astor.core.setup.ConfigurationProperties.print(ConfigurationProperties.java:66) - p:version-location= ./math-version/
[INFO ] fr.inria.astor.core.setup.ConfigurationProperties.print(ConfigurationProperties.java:66) - p:reintroduce= PARENTS
[INFO ] fr.inria.astor.core.setup.ConfigurationProperties.print(ConfigurationProperties.java:66) - p:maxGeneration= 1000000
[INFO ] fr.inria.astor.core.setup.ConfigurationProperties.print(ConfigurationProperties.java:66) - p:maxVarCombination= 1000
[INFO ] fr.inria.astor.core.setup.ConfigurationProperties.print(ConfigurationProperties.java:66) - p:maxtime= 180
[INFO ] fr.inria.astor.core.setup.ConfigurationProperties.print(ConfigurationProperties.java:66) - p:evosuitejar= ./lib/evosuite-master-1.0.4-SNAPSHOT.jar
[INFO ] fr.inria.astor.core.setup.ConfigurationProperties.print(ConfigurationProperties.java:66) - p:commandTrunk= 50000
[INFO ] fr.inria.astor.core.setup.ConfigurationProperties.print(ConfigurationProperties.java:66) - p:faultlocalization= fr.inria.astor.core.faultlocalization.GZoltarFaultLocalization
[INFO ] fr.inria.astor.core.setup.ConfigurationProperties.print(ConfigurationProperties.java:66) - p:maxsuspcandidates= 1000
[INFO ] fr.inria.astor.core.setup.ConfigurationProperties.print(ConfigurationProperties.java:66) - p:mode= statement
[INFO ] fr.inria.astor.core.setup.ConfigurationProperties.print(ConfigurationProperties.java:66) - p:learningdir= ../../out/learningdir/Lang/61/b/
[INFO ] fr.inria.astor.core.setup.ConfigurationProperties.print(ConfigurationProperties.java:66) - p:jvm4evosuitetestexecution= /usr/local/jdk1.7.0_80/bin/
[INFO ] fr.inria.astor.core.setup.ConfigurationProperties.print(ConfigurationProperties.java:66) - p:filterfaultlocalization= true
[INFO ] fr.inria.astor.core.setup.ConfigurationProperties.print(ConfigurationProperties.java:66) - p:mutationrate= 1 
[INFO ] fr.inria.astor.core.setup.ConfigurationProperties.print(ConfigurationProperties.java:66) - p:pathToMVNRepository= 
[INFO ] fr.inria.astor.core.setup.ConfigurationProperties.print(ConfigurationProperties.java:66) - p:resourcesfolder= /src/main/resources:/src/test/resources:
[INFO ] fr.inria.astor.core.setup.ConfigurationProperties.print(ConfigurationProperties.java:66) - p:timezone= America/New_York
[INFO ] fr.inria.astor.core.setup.ConfigurationProperties.print(ConfigurationProperties.java:66) - p:classestoinstrument= org.apache.commons.lang.text.StrMatcher:org.apache.commons.lang.text.StrBuilder:org.apache.commons.lang.text.StrTokenizer
[INFO ] fr.inria.astor.core.setup.ConfigurationProperties.print(ConfigurationProperties.java:66) - p:evoRunOnBuggyClass= true
[INFO ] fr.inria.astor.core.setup.ConfigurationProperties.print(ConfigurationProperties.java:66) - p:compiler= fr.inria.astor.core.manipulation.bytecode.compiler.SpoonClassCompiler
[INFO ] fr.inria.astor.core.setup.ConfigurationProperties.print(ConfigurationProperties.java:66) - p:dependenciespath= ../../dat/libs/Lang/cglib.jar:../../dat/libs/Lang/commons-io.jar:../../dat/libs/Lang/asm.jar:../../dat/libs/Lang/easymock.jar
[INFO ] fr.inria.astor.core.setup.ConfigurationProperties.print(ConfigurationProperties.java:66) - p:skipfaultlocalization= false
[INFO ] fr.inria.astor.core.setup.ConfigurationProperties.print(ConfigurationProperties.java:66) - p:packageToInstrument= org.apache.commons
[INFO ] fr.inria.astor.core.setup.ConfigurationProperties.print(ConfigurationProperties.java:66) - p:scope= fr.inria.astor.core.loop.spaces.ingredients.scopes.ctscopes.CtClassIngredientSpace
[INFO ] fr.inria.astor.core.setup.ConfigurationProperties.print(ConfigurationProperties.java:66) - p:transformingredient= true
[INFO ] fr.inria.astor.core.setup.ConfigurationProperties.print(ConfigurationProperties.java:66) - p:fitnessfunction= fr.inria.astor.core.loop.population.TestCaseFitnessFunction
[INFO ] fr.inria.astor.core.setup.ConfigurationProperties.print(ConfigurationProperties.java:66) - p:pvariantfoldername= variant-
[INFO ] fr.inria.astor.core.setup.ConfigurationProperties.print(ConfigurationProperties.java:66) - p:srcjavafolder= src/java/
[INFO ] fr.inria.astor.core.setup.ConfigurationProperties.print(ConfigurationProperties.java:66) - p:populationcontroller= fr.inria.astor.core.loop.population.TestCaseBasedFitnessPopulationController
[INFO ] fr.inria.astor.core.setup.ConfigurationProperties.print(ConfigurationProperties.java:66) - p:ignoreflakyinfl= false
[INFO ] fr.inria.astor.core.setup.ConfigurationProperties.print(ConfigurationProperties.java:66) - p:applyCrossover= false
[INFO ] fr.inria.astor.core.setup.ConfigurationProperties.print(ConfigurationProperties.java:66) - p:saveall= false
[INFO ] fr.inria.astor.core.setup.ConfigurationProperties.print(ConfigurationProperties.java:66) - p:seed= 3
[INFO ] fr.inria.astor.core.setup.ConfigurationProperties.print(ConfigurationProperties.java:66) - p:resetoperations= false
[INFO ] fr.inria.astor.core.setup.ConfigurationProperties.print(ConfigurationProperties.java:66) - p:location= ../../dat/defects4j/Lang/61/b/
[INFO ] fr.inria.astor.core.setup.ConfigurationProperties.print(ConfigurationProperties.java:66) - p:ingredientstrategy= fr.inria.astor.core.loop.spaces.ingredients.ingredientSearch.CloneIngredientSearchStrategy
[INFO ] fr.inria.astor.core.setup.ConfigurationProperties.print(ConfigurationProperties.java:66) - p:allpoints= false
[INFO ] fr.inria.astor.core.setup.ConfigurationProperties.print(ConfigurationProperties.java:66) - p:bugId= 280
[INFO ] fr.inria.astor.core.setup.ConfigurationProperties.print(ConfigurationProperties.java:66) - p:evosuitetimeout= 120
[INFO ] fr.inria.astor.core.setup.ConfigurationProperties.print(ConfigurationProperties.java:68) - ----------------------------
[INFO ] fr.inria.astor.core.loop.AstorCoreEngine.startEvolution(AstorCoreEngine.java:119) - 
----Starting Solution Search
0-->2org.apache.commons.lang.text.StrBuilder
[INFO ] fr.inria.astor.core.validation.executors.JUnitExecutorProcess.execute(JUnitExecutorProcess.java:120) - The Process that runs JUnit test cases had problems: process hasn't exited
[INFO ] fr.inria.astor.core.validation.executors.JUnitExecutorProcess.execute(JUnitExecutorProcess.java:120) - The Process that runs JUnit test cases had problems: process hasn't exited
[INFO ] fr.inria.astor.core.validation.executors.JUnitExecutorProcess.execute(JUnitExecutorProcess.java:120) - The Process that runs JUnit test cases had problems: process hasn't exited
[INFO ] fr.inria.astor.core.validation.executors.JUnitExecutorProcess.execute(JUnitExecutorProcess.java:120) - The Process that runs JUnit test cases had problems: process hasn't exited
[INFO ] fr.inria.astor.core.validation.executors.JUnitExecutorProcess.execute(JUnitExecutorProcess.java:120) - The Process that runs JUnit test cases had problems: process hasn't exited
[INFO ] fr.inria.astor.core.validation.executors.JUnitExecutorProcess.execute(JUnitExecutorProcess.java:120) - The Process that runs JUnit test cases had problems: process hasn't exited
[INFO ] fr.inria.astor.core.validation.executors.JUnitExecutorProcess.execute(JUnitExecutorProcess.java:120) - The Process that runs JUnit test cases had problems: process hasn't exited
[INFO ] fr.inria.astor.core.validation.executors.JUnitExecutorProcess.execute(JUnitExecutorProcess.java:120) - The Process that runs JUnit test cases had problems: process hasn't exited
[INFO ] fr.inria.astor.core.validation.executors.JUnitExecutorProcess.execute(JUnitExecutorProcess.java:120) - The Process that runs JUnit test cases had problems: process hasn't exited
[INFO ] fr.inria.astor.core.validation.executors.JUnitExecutorProcess.execute(JUnitExecutorProcess.java:120) - The Process that runs JUnit test cases had problems: process hasn't exited
[INFO ] fr.inria.astor.core.validation.executors.JUnitExecutorProcess.execute(JUnitExecutorProcess.java:120) - The Process that runs JUnit test cases had problems: process hasn't exited
[INFO ] fr.inria.astor.core.validation.executors.JUnitExecutorProcess.execute(JUnitExecutorProcess.java:120) - The Process that runs JUnit test cases had problems: process hasn't exited
[INFO ] fr.inria.astor.core.validation.executors.JUnitExecutorProcess.execute(JUnitExecutorProcess.java:120) - The Process that runs JUnit test cases had problems: process hasn't exited
[INFO ] fr.inria.astor.core.validation.executors.JUnitExecutorProcess.execute(JUnitExecutorProcess.java:120) - The Process that runs JUnit test cases had problems: process hasn't exited
[INFO ] fr.inria.astor.core.validation.executors.JUnitExecutorProcess.execute(JUnitExecutorProcess.java:120) - The Process that runs JUnit test cases had problems: process hasn't exited
[INFO ] fr.inria.astor.core.validation.executors.JUnitExecutorProcess.execute(JUnitExecutorProcess.java:120) - The Process that runs JUnit test cases had problems: process hasn't exited
[INFO ] fr.inria.astor.core.validation.executors.JUnitExecutorProcess.execute(JUnitExecutorProcess.java:120) - The Process that runs JUnit test cases had problems: process hasn't exited
[INFO ] fr.inria.astor.core.validation.executors.JUnitExecutorProcess.execute(JUnitExecutorProcess.java:120) - The Process that runs JUnit test cases had problems: process hasn't exited
[INFO ] fr.inria.astor.core.validation.executors.JUnitExecutorProcess.execute(JUnitExecutorProcess.java:120) - The Process that runs JUnit test cases had problems: process hasn't exited
[INFO ] fr.inria.astor.core.validation.executors.JUnitExecutorProcess.execute(JUnitExecutorProcess.java:120) - The Process that runs JUnit test cases had problems: process hasn't exited
[INFO ] fr.inria.astor.core.validation.executors.JUnitExecutorProcess.execute(JUnitExecutorProcess.java:120) - The Process that runs JUnit test cases had problems: process hasn't exited
[INFO ] fr.inria.astor.core.validation.executors.JUnitExecutorProcess.execute(JUnitExecutorProcess.java:120) - The Process that runs JUnit test cases had problems: process hasn't exited
[INFO ] fr.inria.astor.core.validation.executors.JUnitExecutorProcess.execute(JUnitExecutorProcess.java:120) - The Process that runs JUnit test cases had problems: process hasn't exited
[INFO ] fr.inria.astor.core.validation.executors.JUnitExecutorProcess.execute(JUnitExecutorProcess.java:120) - The Process that runs JUnit test cases had problems: process hasn't exited
[INFO ] fr.inria.astor.core.validation.executors.JUnitExecutorProcess.execute(JUnitExecutorProcess.java:120) - The Process that runs JUnit test cases had problems: process hasn't exited
[INFO ] fr.inria.astor.core.validation.executors.JUnitExecutorProcess.execute(JUnitExecutorProcess.java:120) - The Process that runs JUnit test cases had problems: process hasn't exited
[INFO ] fr.inria.astor.core.validation.executors.JUnitExecutorProcess.execute(JUnitExecutorProcess.java:120) - The Process that runs JUnit test cases had problems: process hasn't exited
[INFO ] fr.inria.astor.core.validation.executors.JUnitExecutorProcess.execute(JUnitExecutorProcess.java:120) - The Process that runs JUnit test cases had problems: process hasn't exited
[INFO ] fr.inria.astor.core.validation.executors.JUnitExecutorProcess.execute(JUnitExecutorProcess.java:120) - The Process that runs JUnit test cases had problems: process hasn't exited
[INFO ] fr.inria.astor.core.validation.executors.JUnitExecutorProcess.execute(JUnitExecutorProcess.java:120) - The Process that runs JUnit test cases had problems: process hasn't exited
[INFO ] fr.inria.astor.core.validation.executors.JUnitExecutorProcess.execute(JUnitExecutorProcess.java:120) - The Process that runs JUnit test cases had problems: process hasn't exited
[INFO ] fr.inria.astor.core.validation.executors.JUnitExecutorProcess.execute(JUnitExecutorProcess.java:120) - The Process that runs JUnit test cases had problems: process hasn't exited
[INFO ] fr.inria.astor.core.validation.executors.JUnitExecutorProcess.execute(JUnitExecutorProcess.java:120) - The Process that runs JUnit test cases had problems: process hasn't exited
[INFO ] fr.inria.astor.core.validation.executors.JUnitExecutorProcess.execute(JUnitExecutorProcess.java:120) - The Process that runs JUnit test cases had problems: process hasn't exited
[INFO ] fr.inria.astor.core.validation.executors.JUnitExecutorProcess.execute(JUnitExecutorProcess.java:120) - The Process that runs JUnit test cases had problems: process hasn't exited
[INFO ] fr.inria.astor.core.validation.executors.JUnitExecutorProcess.execute(JUnitExecutorProcess.java:120) - The Process that runs JUnit test cases had problems: process hasn't exited
[INFO ] fr.inria.astor.core.validation.executors.JUnitExecutorProcess.execute(JUnitExecutorProcess.java:120) - The Process that runs JUnit test cases had problems: process hasn't exited
[INFO ] fr.inria.astor.core.validation.executors.JUnitExecutorProcess.execute(JUnitExecutorProcess.java:120) - The Process that runs JUnit test cases had problems: process hasn't exited
[INFO ] fr.inria.astor.core.validation.executors.JUnitExecutorProcess.execute(JUnitExecutorProcess.java:120) - The Process that runs JUnit test cases had problems: process hasn't exited
[INFO ] fr.inria.astor.core.validation.executors.JUnitExecutorProcess.execute(JUnitExecutorProcess.java:120) - The Process that runs JUnit test cases had problems: process hasn't exited
[INFO ] fr.inria.astor.core.validation.executors.JUnitExecutorProcess.execute(JUnitExecutorProcess.java:120) - The Process that runs JUnit test cases had problems: process hasn't exited
[INFO ] fr.inria.astor.core.validation.executors.JUnitExecutorProcess.execute(JUnitExecutorProcess.java:120) - The Process that runs JUnit test cases had problems: process hasn't exited
[INFO ] fr.inria.astor.core.validation.executors.JUnitExecutorProcess.execute(JUnitExecutorProcess.java:120) - The Process that runs JUnit test cases had problems: process hasn't exited
[INFO ] fr.inria.astor.core.validation.executors.JUnitExecutorProcess.execute(JUnitExecutorProcess.java:120) - The Process that runs JUnit test cases had problems: process hasn't exited
[INFO ] fr.inria.astor.core.validation.executors.JUnitExecutorProcess.execute(JUnitExecutorProcess.java:120) - The Process that runs JUnit test cases had problems: process hasn't exited
[INFO ] fr.inria.astor.core.validation.executors.JUnitExecutorProcess.execute(JUnitExecutorProcess.java:120) - The Process that runs JUnit test cases had problems: process hasn't exited
[INFO ] fr.inria.astor.core.validation.executors.JUnitExecutorProcess.execute(JUnitExecutorProcess.java:120) - The Process that runs JUnit test cases had problems: process hasn't exited
[INFO ] fr.inria.astor.core.validation.executors.JUnitExecutorProcess.execute(JUnitExecutorProcess.java:120) - The Process that runs JUnit test cases had problems: process hasn't exited
[INFO ] fr.inria.astor.core.validation.executors.JUnitExecutorProcess.execute(JUnitExecutorProcess.java:120) - The Process that runs JUnit test cases had problems: process hasn't exited
[INFO ] fr.inria.astor.core.validation.executors.JUnitExecutorProcess.execute(JUnitExecutorProcess.java:120) - The Process that runs JUnit test cases had problems: process hasn't exited
[INFO ] fr.inria.astor.core.validation.executors.JUnitExecutorProcess.execute(JUnitExecutorProcess.java:120) - The Process that runs JUnit test cases had problems: process hasn't exited
[INFO ] fr.inria.astor.core.loop.AstorCoreEngine.belowMaxTime(AstorCoreEngine.java:203) - 
 No more time for operating
[INFO ] fr.inria.astor.core.loop.AstorCoreEngine.startEvolution(AstorCoreEngine.java:143) - Time Repair Loop (s): 10975.412
[INFO ] fr.inria.astor.core.loop.AstorCoreEngine.showResults(AstorCoreEngine.java:165) - 
----SUMMARY_EXECUTION---
[INFO ] fr.inria.astor.approaches.jgenprog.JGenProg.showResults(JGenProg.java:332) - 
successful_ing_attempts (#trials 0, totalAttps 0): []
[INFO ] fr.inria.astor.approaches.jgenprog.JGenProg.showResults(JGenProg.java:334) - 
failing_ing_attempts (#trials 838, totalAttps 1513): [1, 1, 1, 1, 1, 2, 1, 2, 1, 1, 1, 1, 1, 1, 1, 1, 4, 1, 3, 1, 1, 1, 1, 2, 1, 1, 1, 4, 4, 1, 1, 1, 1, 1, 1, 1, 1, 4, 3, 1, 1, 1, 1, 1, 1, 4, 2, 1, 4, 1, 4, 1, 1, 1, 1, 1, 1, 1, 1, 2, 1, 1, 4, 1, 2, 1, 1, 1, 4, 1, 4, 4, 4, 1, 2, 1, 1, 1, 4, 1, 2, 1, 1, 4, 1, 1, 1, 4, 4, 4, 1, 1, 4, 1, 4, 8, 2, 2, 4, 1, 2, 1, 1, 2, 4, 1, 4, 4, 1, 1, 4, 4, 1, 1, 1, 1, 1, 4, 2, 1, 1, 4, 4, 1, 4, 1, 1, 1, 2, 1, 1, 1, 4, 1, 1, 1, 4, 1, 1, 1, 1, 4, 1, 1, 1, 4, 1, 1, 1, 4, 1, 1, 1, 1, 1, 1, 1, 1, 1, 2, 1, 1, 1, 1, 1, 1, 4, 1, 1, 4, 4, 5, 1, 1, 8, 4, 1, 1, 1, 1, 1, 1, 3, 4, 1, 1, 1, 1, 1, 1, 1, 1, 1, 6, 1, 1, 1, 4, 1, 4, 1, 4, 1, 1, 1, 1, 1, 4, 1, 1, 2, 1, 5, 1, 1, 1, 1, 1, 4, 1, 1, 1, 8, 1, 1, 4, 3, 1, 2, 1, 4, 1, 2, 1, 1, 8, 1, 1, 1, 1, 1, 4, 1, 1, 4, 1, 1, 1, 1, 4, 1, 1, 1, 3, 1, 1, 1, 4, 4, 1, 8, 4, 1, 1, 1, 4, 1, 1, 2, 1, 1, 4, 1, 1, 3, 4, 1, 1, 1, 1, 1, 1, 1, 1, 1, 1, 1, 1, 1, 1, 1, 4, 4, 1, 1, 1, 1, 1, 1, 1, 1, 1, 1, 8, 1, 1, 1, 1, 1, 1, 1, 1, 1, 1, 1, 4, 1, 1, 1, 1, 1, 1, 1, 1, 2, 1, 2, 1, 4, 1, 1, 1, 1, 2, 1, 1, 1, 4, 1, 1, 1, 5, 4, 1, 1, 1, 1, 1, 1, 1, 1, 3, 1, 1, 1, 1, 1, 1, 1, 4, 1, 1, 1, 1, 1, 1, 1, 1, 1, 1, 1, 1, 1, 1, 1, 1, 1, 1, 1, 1, 1, 1, 5, 1, 1, 1, 1, 2, 1, 4, 1, 1, 1, 1, 1, 4, 1, 4, 1, 1, 1, 1, 4, 5, 1, 1, 2, 1, 1, 1, 1, 1, 1, 1, 4, 1, 1, 4, 1, 1, 8, 1, 1, 3, 1, 3, 1, 1, 4, 4, 1, 1, 1, 1, 4, 1, 1, 1, 3, 4, 1, 1, 1, 1, 1, 1, 1, 1, 1, 1, 1, 1, 2, 4, 1, 1, 1, 1, 1, 1, 1, 1, 1, 1, 1, 1, 1, 4, 4, 1, 2, 2, 1, 1, 1, 1, 1, 1, 1, 1, 4, 1, 4, 1, 1, 4, 1, 1, 1, 1, 1, 1, 1, 1, 2, 1, 2, 8, 1, 1, 1, 6, 1, 1, 8, 4, 3, 1, 1, 1, 1, 1, 1, 1, 1, 1, 1, 1, 1, 1, 1, 1, 4, 1, 1, 1, 1, 1, 1, 1, 1, 4, 2, 1, 1, 2, 1, 6, 1, 1, 1, 2, 1, 1, 4, 1, 1, 1, 1, 4, 1, 1, 4, 1, 1, 1, 2, 1, 1, 4, 1, 1, 1, 1, 2, 1, 1, 1, 1, 16, 1, 1, 1, 1, 1, 1, 1, 2, 1, 1, 1, 5, 1, 1, 1, 1, 1, 1, 1, 1, 1, 1, 8, 1, 1, 3, 1, 1, 1, 5, 4, 8, 1, 5, 1, 1, 5, 1, 1, 1, 1, 1, 1, 1, 1, 1, 1, 1, 1, 1, 1, 4, 1, 1, 1, 5, 1, 6, 1, 5, 8, 1, 1, 1, 1, 13, 1, 1, 1, 1, 1, 1, 1, 1, 1, 1, 1, 1, 1, 1, 4, 1, 1, 1, 1, 1, 1, 1, 1, 1, 5, 1, 1, 1, 1, 1, 1, 1, 1, 1, 1, 1, 1, 1, 2, 4, 6, 1, 8, 1, 1, 1, 1, 1, 6, 1, 1, 1, 1, 1, 1, 1, 5, 1, 1, 1, 1, 1, 1, 1, 2, 1, 1, 1, 6, 1, 1, 4, 5, 1, 1, 1, 1, 1, 1, 1, 1, 1, 1, 2, 1, 1, 5, 1, 1, 1, 2, 1, 5, 1, 1, 1, 1, 1, 1, 1, 2, 1, 1, 1, 1, 1, 1, 1, 1, 1, 1, 1, 1, 1, 1, 1, 1, 1, 1, 4, 1, 7, 1, 1, 1, 1, 1, 5, 1, 1, 1, 1, 1, 1, 1, 1, 16, 1, 1, 1, 6, 1, 2, 1, 4, 1, 1, 1, 1, 6, 1, 1, 26, 1, 1, 1, 2, 1, 1, 1, 1, 1, 1, 1, 1, 1, 6, 1, 1, 1, 1, 1, 1, 1, 2, 1, 10, 4, 1, 1, 1, 1, 1, 1, 1, 2, 1, 26, 2, 2, 1, 1, 4, 1, 1, 1, 1, 1, 5, 1, 4, 1]
[INFO ] fr.inria.astor.approaches.jgenprog.JGenProg.showResults(JGenProg.java:337) - 
total Patch Attempts (0): []
[INFO ] fr.inria.astor.approaches.jgenprog.JGenProg.showResults(JGenProg.java:339) - 
successful_ing_attempts_by_patch: []
[INFO ] fr.inria.astor.approaches.jgenprog.JGenProg.showResults(JGenProg.java:340) - 
failing_ing_attempts_by_patch: [(pv:2,at:1), (pv:3,at:1), (pv:4,at:1), (pv:5,at:1), (pv:6,at:1), (pv:7,at:2), (pv:8,at:1), (pv:9,at:2), (pv:10,at:1), (pv:11,at:1), (pv:12,at:1), (pv:13,at:1), (pv:14,at:1), (pv:15,at:1), (pv:16,at:1), (pv:17,at:1), (pv:18,at:4), (pv:19,at:1), (pv:20,at:3), (pv:21,at:1), (pv:22,at:1), (pv:23,at:1), (pv:24,at:1), (pv:25,at:2), (pv:26,at:1), (pv:27,at:1), (pv:28,at:1), (pv:29,at:4), (pv:30,at:4), (pv:31,at:1), (pv:32,at:1), (pv:33,at:1), (pv:34,at:1), (pv:35,at:1), (pv:36,at:1), (pv:37,at:1), (pv:38,at:1), (pv:39,at:4), (pv:40,at:3), (pv:41,at:1), (pv:42,at:1), (pv:43,at:1), (pv:44,at:1), (pv:45,at:1), (pv:46,at:1), (pv:47,at:4), (pv:48,at:2), (pv:49,at:1), (pv:50,at:4), (pv:51,at:1), (pv:52,at:4), (pv:53,at:1), (pv:54,at:1), (pv:55,at:1), (pv:56,at:1), (pv:57,at:1), (pv:58,at:1), (pv:59,at:1), (pv:60,at:1), (pv:61,at:2), (pv:62,at:1), (pv:63,at:1), (pv:64,at:4), (pv:65,at:1), (pv:66,at:2), (pv:67,at:1), (pv:68,at:1), (pv:69,at:1), (pv:70,at:4), (pv:71,at:1), (pv:72,at:4), (pv:73,at:4), (pv:74,at:4), (pv:75,at:1), (pv:76,at:2), (pv:77,at:1), (pv:78,at:1), (pv:79,at:1), (pv:80,at:4), (pv:81,at:1), (pv:82,at:2), (pv:83,at:1), (pv:84,at:1), (pv:85,at:4), (pv:86,at:1), (pv:87,at:1), (pv:88,at:1), (pv:89,at:4), (pv:90,at:4), (pv:91,at:4), (pv:92,at:1), (pv:93,at:1), (pv:94,at:4), (pv:95,at:1), (pv:96,at:4), (pv:97,at:8), (pv:98,at:2), (pv:99,at:2), (pv:100,at:4), (pv:101,at:1), (pv:102,at:2), (pv:103,at:1), (pv:104,at:1), (pv:105,at:2), (pv:106,at:4), (pv:107,at:1), (pv:108,at:4), (pv:109,at:4), (pv:110,at:1), (pv:111,at:1), (pv:112,at:4), (pv:113,at:4), (pv:114,at:1), (pv:115,at:1), (pv:116,at:1), (pv:117,at:1), (pv:118,at:1), (pv:119,at:4), (pv:120,at:2), (pv:121,at:1), (pv:122,at:1), (pv:123,at:4), (pv:124,at:4), (pv:125,at:1), (pv:126,at:4), (pv:127,at:1), (pv:128,at:1), (pv:129,at:1), (pv:130,at:2), (pv:131,at:1), (pv:132,at:1), (pv:133,at:1), (pv:134,at:4), (pv:135,at:1), (pv:136,at:1), (pv:137,at:1), (pv:138,at:4), (pv:139,at:1), (pv:140,at:1), (pv:141,at:1), (pv:142,at:1), (pv:143,at:4), (pv:144,at:1), (pv:145,at:1), (pv:146,at:1), (pv:147,at:4), (pv:148,at:1), (pv:149,at:1), (pv:150,at:1), (pv:151,at:4), (pv:152,at:1), (pv:153,at:1), (pv:154,at:1), (pv:155,at:1), (pv:156,at:1), (pv:157,at:1), (pv:158,at:1), (pv:159,at:1), (pv:160,at:1), (pv:161,at:2), (pv:162,at:1), (pv:163,at:1), (pv:164,at:1), (pv:165,at:1), (pv:166,at:1), (pv:167,at:1), (pv:168,at:4), (pv:169,at:1), (pv:170,at:1), (pv:171,at:4), (pv:172,at:4), (pv:173,at:5), (pv:174,at:1), (pv:175,at:1), (pv:176,at:8), (pv:177,at:4), (pv:178,at:1), (pv:179,at:1), (pv:180,at:1), (pv:181,at:1), (pv:182,at:1), (pv:183,at:1), (pv:184,at:3), (pv:185,at:4), (pv:186,at:1), (pv:187,at:1), (pv:188,at:1), (pv:189,at:1), (pv:190,at:1), (pv:191,at:1), (pv:192,at:1), (pv:193,at:1), (pv:194,at:1), (pv:195,at:6), (pv:196,at:1), (pv:197,at:1), (pv:198,at:1), (pv:199,at:4), (pv:200,at:1), (pv:201,at:4), (pv:202,at:1), (pv:203,at:4), (pv:204,at:1), (pv:205,at:1), (pv:206,at:1), (pv:207,at:1), (pv:208,at:1), (pv:209,at:4), (pv:210,at:1), (pv:211,at:1), (pv:212,at:2), (pv:213,at:1), (pv:214,at:5), (pv:215,at:1), (pv:216,at:1), (pv:217,at:1), (pv:218,at:1), (pv:219,at:1), (pv:220,at:4), (pv:221,at:1), (pv:222,at:1), (pv:223,at:1), (pv:224,at:8), (pv:225,at:1), (pv:226,at:1), (pv:227,at:4), (pv:228,at:3), (pv:229,at:1), (pv:230,at:2), (pv:231,at:1), (pv:232,at:4), (pv:233,at:1), (pv:234,at:2), (pv:235,at:1), (pv:236,at:1), (pv:237,at:8), (pv:238,at:1), (pv:239,at:1), (pv:240,at:1), (pv:241,at:1), (pv:242,at:1), (pv:243,at:4), (pv:244,at:1), (pv:245,at:1), (pv:246,at:4), (pv:247,at:1), (pv:248,at:1), (pv:249,at:1), (pv:250,at:1), (pv:251,at:4), (pv:252,at:1), (pv:253,at:1), (pv:254,at:1), (pv:255,at:3), (pv:256,at:1), (pv:257,at:1), (pv:258,at:1), (pv:259,at:4), (pv:260,at:4), (pv:261,at:1), (pv:262,at:8), (pv:263,at:4), (pv:264,at:1), (pv:265,at:1), (pv:266,at:1), (pv:267,at:4), (pv:268,at:1), (pv:269,at:1), (pv:270,at:2), (pv:271,at:1), (pv:272,at:1), (pv:273,at:4), (pv:274,at:1), (pv:275,at:1), (pv:276,at:3), (pv:277,at:4), (pv:278,at:1), (pv:279,at:1), (pv:280,at:1), (pv:281,at:1), (pv:282,at:1), (pv:283,at:1), (pv:284,at:1), (pv:285,at:1), (pv:286,at:1), (pv:287,at:1), (pv:288,at:1), (pv:289,at:1), (pv:290,at:1), (pv:291,at:1), (pv:292,at:1), (pv:293,at:4), (pv:294,at:4), (pv:295,at:1), (pv:296,at:1), (pv:297,at:1), (pv:298,at:1), (pv:299,at:1), (pv:300,at:1), (pv:301,at:1), (pv:302,at:1), (pv:303,at:1), (pv:304,at:1), (pv:305,at:8), (pv:306,at:1), (pv:307,at:1), (pv:308,at:1), (pv:309,at:1), (pv:310,at:1), (pv:311,at:1), (pv:312,at:1), (pv:313,at:1), (pv:314,at:1), (pv:315,at:1), (pv:316,at:1), (pv:317,at:4), (pv:318,at:1), (pv:319,at:1), (pv:320,at:1), (pv:321,at:1), (pv:322,at:1), (pv:323,at:1), (pv:324,at:1), (pv:325,at:1), (pv:326,at:2), (pv:327,at:1), (pv:328,at:2), (pv:329,at:1), (pv:330,at:4), (pv:331,at:1), (pv:332,at:1), (pv:333,at:1), (pv:334,at:1), (pv:335,at:2), (pv:336,at:1), (pv:337,at:1), (pv:338,at:1), (pv:339,at:4), (pv:340,at:1), (pv:341,at:1), (pv:342,at:1), (pv:343,at:5), (pv:344,at:4), (pv:345,at:1), (pv:346,at:1), (pv:347,at:1), (pv:348,at:1), (pv:349,at:1), (pv:350,at:1), (pv:351,at:1), (pv:352,at:1), (pv:353,at:3), (pv:354,at:1), (pv:355,at:1), (pv:356,at:1), (pv:357,at:1), (pv:358,at:1), (pv:359,at:1), (pv:360,at:1), (pv:361,at:4), (pv:362,at:1), (pv:363,at:1), (pv:364,at:1), (pv:365,at:1), (pv:366,at:1), (pv:367,at:1), (pv:368,at:1), (pv:369,at:1), (pv:370,at:1), (pv:371,at:1), (pv:372,at:1), (pv:373,at:1), (pv:374,at:1), (pv:375,at:1), (pv:376,at:1), (pv:377,at:1), (pv:378,at:1), (pv:379,at:1), (pv:380,at:1), (pv:381,at:1), (pv:382,at:1), (pv:383,at:1), (pv:384,at:5), (pv:385,at:1), (pv:386,at:1), (pv:387,at:1), (pv:388,at:1), (pv:389,at:2), (pv:390,at:1), (pv:391,at:4), (pv:392,at:1), (pv:393,at:1), (pv:394,at:1), (pv:395,at:1), (pv:396,at:1), (pv:397,at:4), (pv:398,at:1), (pv:399,at:4), (pv:400,at:1), (pv:401,at:1), (pv:402,at:1), (pv:403,at:1), (pv:404,at:4), (pv:405,at:5), (pv:406,at:1), (pv:407,at:1), (pv:408,at:2), (pv:409,at:1), (pv:410,at:1), (pv:411,at:1), (pv:412,at:1), (pv:413,at:1), (pv:414,at:1), (pv:415,at:1), (pv:416,at:4), (pv:417,at:1), (pv:418,at:1), (pv:419,at:4), (pv:420,at:1), (pv:421,at:1), (pv:422,at:8), (pv:423,at:1), (pv:424,at:1), (pv:425,at:3), (pv:426,at:1), (pv:427,at:3), (pv:428,at:1), (pv:429,at:1), (pv:430,at:4), (pv:431,at:4), (pv:432,at:1), (pv:433,at:1), (pv:434,at:1), (pv:435,at:1), (pv:436,at:4), (pv:437,at:1), (pv:438,at:1), (pv:439,at:1), (pv:440,at:3), (pv:441,at:4), (pv:442,at:1), (pv:443,at:1), (pv:444,at:1), (pv:445,at:1), (pv:446,at:1), (pv:447,at:1), (pv:448,at:1), (pv:449,at:1), (pv:450,at:1), (pv:451,at:1), (pv:452,at:1), (pv:453,at:1), (pv:454,at:2), (pv:455,at:4), (pv:456,at:1), (pv:457,at:1), (pv:458,at:1), (pv:459,at:1), (pv:460,at:1), (pv:461,at:1), (pv:462,at:1), (pv:463,at:1), (pv:464,at:1), (pv:465,at:1), (pv:466,at:1), (pv:467,at:1), (pv:468,at:1), (pv:469,at:4), (pv:470,at:4), (pv:471,at:1), (pv:472,at:2), (pv:473,at:2), (pv:474,at:1), (pv:475,at:1), (pv:476,at:1), (pv:477,at:1), (pv:478,at:1), (pv:479,at:1), (pv:480,at:1), (pv:481,at:1), (pv:482,at:4), (pv:483,at:1), (pv:484,at:4), (pv:485,at:1), (pv:486,at:1), (pv:487,at:4), (pv:488,at:1), (pv:489,at:1), (pv:490,at:1), (pv:491,at:1), (pv:492,at:1), (pv:493,at:1), (pv:494,at:1), (pv:495,at:1), (pv:496,at:2), (pv:497,at:1), (pv:498,at:2), (pv:499,at:8), (pv:500,at:1), (pv:501,at:1), (pv:502,at:1), (pv:503,at:6), (pv:504,at:1), (pv:505,at:1), (pv:506,at:8), (pv:507,at:4), (pv:508,at:3), (pv:509,at:1), (pv:510,at:1), (pv:511,at:1), (pv:512,at:1), (pv:513,at:1), (pv:514,at:1), (pv:515,at:1), (pv:516,at:1), (pv:517,at:1), (pv:518,at:1), (pv:519,at:1), (pv:520,at:1), (pv:521,at:1), (pv:522,at:1), (pv:523,at:1), (pv:524,at:4), (pv:525,at:1), (pv:526,at:1), (pv:527,at:1), (pv:528,at:1), (pv:529,at:1), (pv:530,at:1), (pv:531,at:1), (pv:532,at:1), (pv:533,at:4), (pv:534,at:2), (pv:535,at:1), (pv:536,at:1), (pv:537,at:2), (pv:538,at:1), (pv:539,at:6), (pv:540,at:1), (pv:541,at:1), (pv:542,at:1), (pv:543,at:2), (pv:544,at:1), (pv:545,at:1), (pv:546,at:4), (pv:547,at:1), (pv:548,at:1), (pv:549,at:1), (pv:550,at:1), (pv:551,at:4), (pv:552,at:1), (pv:553,at:1), (pv:554,at:4), (pv:555,at:1), (pv:556,at:1), (pv:557,at:1), (pv:558,at:2), (pv:559,at:1), (pv:560,at:1), (pv:561,at:4), (pv:562,at:1), (pv:563,at:1), (pv:564,at:1), (pv:565,at:1), (pv:566,at:2), (pv:567,at:1), (pv:568,at:1), (pv:569,at:1), (pv:570,at:1), (pv:571,at:16), (pv:572,at:1), (pv:573,at:1), (pv:574,at:1), (pv:575,at:1), (pv:576,at:1), (pv:577,at:1), (pv:578,at:1), (pv:579,at:2), (pv:580,at:1), (pv:581,at:1), (pv:582,at:1), (pv:583,at:5), (pv:584,at:1), (pv:585,at:1), (pv:586,at:1), (pv:587,at:1), (pv:588,at:1), (pv:589,at:1), (pv:590,at:1), (pv:591,at:1), (pv:592,at:1), (pv:593,at:1), (pv:594,at:8), (pv:595,at:1), (pv:596,at:1), (pv:597,at:3), (pv:598,at:1), (pv:599,at:1), (pv:600,at:1), (pv:601,at:5), (pv:602,at:4), (pv:603,at:8), (pv:604,at:1), (pv:605,at:5), (pv:606,at:1), (pv:607,at:1), (pv:608,at:5), (pv:609,at:1), (pv:610,at:1), (pv:611,at:1), (pv:612,at:1), (pv:613,at:1), (pv:614,at:1), (pv:615,at:1), (pv:616,at:1), (pv:617,at:1), (pv:618,at:1), (pv:619,at:1), (pv:620,at:1), (pv:621,at:1), (pv:622,at:1), (pv:623,at:4), (pv:624,at:1), (pv:625,at:1), (pv:626,at:1), (pv:627,at:5), (pv:628,at:1), (pv:629,at:6), (pv:630,at:1), (pv:631,at:5), (pv:632,at:8), (pv:633,at:1), (pv:634,at:1), (pv:635,at:1), (pv:636,at:1), (pv:637,at:13), (pv:638,at:1), (pv:639,at:1), (pv:640,at:1), (pv:641,at:1), (pv:642,at:1), (pv:643,at:1), (pv:644,at:1), (pv:645,at:1), (pv:646,at:1), (pv:647,at:1), (pv:648,at:1), (pv:649,at:1), (pv:650,at:1), (pv:651,at:1), (pv:652,at:4), (pv:653,at:1), (pv:654,at:1), (pv:655,at:1), (pv:656,at:1), (pv:657,at:1), (pv:658,at:1), (pv:659,at:1), (pv:660,at:1), (pv:661,at:1), (pv:662,at:5), (pv:663,at:1), (pv:664,at:1), (pv:665,at:1), (pv:666,at:1), (pv:667,at:1), (pv:668,at:1), (pv:669,at:1), (pv:670,at:1), (pv:671,at:1), (pv:672,at:1), (pv:673,at:1), (pv:674,at:1), (pv:675,at:1), (pv:676,at:2), (pv:677,at:4), (pv:678,at:6), (pv:679,at:1), (pv:680,at:8), (pv:681,at:1), (pv:682,at:1), (pv:683,at:1), (pv:684,at:1), (pv:685,at:1), (pv:686,at:6), (pv:687,at:1), (pv:688,at:1), (pv:689,at:1), (pv:690,at:1), (pv:691,at:1), (pv:692,at:1), (pv:693,at:1), (pv:694,at:5), (pv:695,at:1), (pv:696,at:1), (pv:697,at:1), (pv:698,at:1), (pv:699,at:1), (pv:700,at:1), (pv:701,at:1), (pv:702,at:2), (pv:703,at:1), (pv:704,at:1), (pv:705,at:1), (pv:706,at:6), (pv:707,at:1), (pv:708,at:1), (pv:709,at:4), (pv:710,at:5), (pv:711,at:1), (pv:712,at:1), (pv:713,at:1), (pv:714,at:1), (pv:715,at:1), (pv:716,at:1), (pv:717,at:1), (pv:718,at:1), (pv:719,at:1), (pv:720,at:1), (pv:721,at:2), (pv:722,at:1), (pv:723,at:1), (pv:724,at:5), (pv:725,at:1), (pv:726,at:1), (pv:727,at:1), (pv:728,at:2), (pv:729,at:1), (pv:730,at:5), (pv:731,at:1), (pv:732,at:1), (pv:733,at:1), (pv:734,at:1), (pv:735,at:1), (pv:736,at:1), (pv:737,at:1), (pv:738,at:2), (pv:739,at:1), (pv:740,at:1), (pv:741,at:1), (pv:742,at:1), (pv:743,at:1), (pv:744,at:1), (pv:745,at:1), (pv:746,at:1), (pv:747,at:1), (pv:748,at:1), (pv:749,at:1), (pv:750,at:1), (pv:751,at:1), (pv:752,at:1), (pv:753,at:1), (pv:754,at:1), (pv:755,at:1), (pv:756,at:1), (pv:757,at:4), (pv:758,at:1), (pv:759,at:7), (pv:760,at:1), (pv:761,at:1), (pv:762,at:1), (pv:763,at:1), (pv:764,at:1), (pv:765,at:5), (pv:766,at:1), (pv:767,at:1), (pv:768,at:1), (pv:769,at:1), (pv:770,at:1), (pv:771,at:1), (pv:772,at:1), (pv:773,at:1), (pv:774,at:16), (pv:775,at:1), (pv:776,at:1), (pv:777,at:1), (pv:778,at:6), (pv:779,at:1), (pv:780,at:2), (pv:781,at:1), (pv:782,at:4), (pv:783,at:1), (pv:784,at:1), (pv:785,at:1), (pv:786,at:1), (pv:787,at:6), (pv:788,at:1), (pv:789,at:1), (pv:790,at:26), (pv:791,at:1), (pv:792,at:1), (pv:793,at:1), (pv:794,at:2), (pv:795,at:1), (pv:796,at:1), (pv:797,at:1), (pv:798,at:1), (pv:799,at:1), (pv:800,at:1), (pv:801,at:1), (pv:802,at:1), (pv:803,at:1), (pv:804,at:6), (pv:805,at:1), (pv:806,at:1), (pv:807,at:1), (pv:808,at:1), (pv:809,at:1), (pv:810,at:1), (pv:811,at:1), (pv:812,at:2), (pv:813,at:1), (pv:814,at:10), (pv:815,at:4), (pv:816,at:1), (pv:817,at:1), (pv:818,at:1), (pv:819,at:1), (pv:820,at:1), (pv:821,at:1), (pv:822,at:1), (pv:823,at:2), (pv:824,at:1), (pv:825,at:26), (pv:826,at:2), (pv:827,at:2), (pv:828,at:1), (pv:829,at:1), (pv:830,at:4), (pv:831,at:1), (pv:832,at:1), (pv:833,at:1), (pv:834,at:1), (pv:835,at:1), (pv:836,at:5), (pv:837,at:1), (pv:838,at:4), (pv:839,at:1)]
[INFO ] fr.inria.astor.approaches.jgenprog.JGenProg.showResults(JGenProg.java:342) - 
pvariants_with_transformed_ingredients: [(pv:2,at:1), (pv:3,at:1), (pv:4,at:1), (pv:5,at:1), (pv:6,at:1), (pv:7,at:2), (pv:8,at:1), (pv:9,at:2), (pv:10,at:1), (pv:11,at:1), (pv:12,at:1), (pv:13,at:1), (pv:14,at:1), (pv:15,at:1), (pv:16,at:1), (pv:17,at:1), (pv:18,at:4), (pv:19,at:1), (pv:20,at:3), (pv:21,at:1), (pv:22,at:1), (pv:23,at:1), (pv:24,at:1), (pv:25,at:2), (pv:26,at:1), (pv:27,at:1), (pv:28,at:1), (pv:29,at:4), (pv:30,at:4), (pv:31,at:1), (pv:32,at:1), (pv:33,at:1), (pv:34,at:1), (pv:35,at:1), (pv:36,at:1), (pv:37,at:1), (pv:38,at:1), (pv:39,at:4), (pv:40,at:3), (pv:41,at:1), (pv:42,at:1), (pv:43,at:1), (pv:44,at:1), (pv:45,at:1), (pv:46,at:1), (pv:47,at:4), (pv:48,at:2), (pv:49,at:1), (pv:50,at:4), (pv:51,at:1), (pv:52,at:4), (pv:53,at:1), (pv:54,at:1), (pv:55,at:1), (pv:56,at:1), (pv:57,at:1), (pv:58,at:1), (pv:59,at:1), (pv:60,at:1), (pv:61,at:2), (pv:62,at:1), (pv:63,at:1), (pv:64,at:4), (pv:65,at:1), (pv:66,at:2), (pv:67,at:1), (pv:68,at:1), (pv:69,at:1), (pv:70,at:4), (pv:71,at:1), (pv:72,at:4), (pv:73,at:4), (pv:74,at:4), (pv:75,at:1), (pv:76,at:2), (pv:77,at:1), (pv:78,at:1), (pv:79,at:1), (pv:80,at:4), (pv:81,at:1), (pv:82,at:2), (pv:83,at:1), (pv:84,at:1), (pv:85,at:4), (pv:86,at:1), (pv:87,at:1), (pv:88,at:1), (pv:89,at:4), (pv:90,at:4), (pv:91,at:4), (pv:92,at:1), (pv:93,at:1), (pv:94,at:4), (pv:95,at:1), (pv:96,at:4), (pv:97,at:8), (pv:98,at:2), (pv:99,at:2), (pv:100,at:4), (pv:101,at:1), (pv:102,at:2), (pv:103,at:1), (pv:104,at:1), (pv:105,at:2), (pv:106,at:4), (pv:107,at:1), (pv:108,at:4), (pv:109,at:4), (pv:110,at:1), (pv:111,at:1), (pv:112,at:4), (pv:113,at:4), (pv:114,at:1), (pv:115,at:1), (pv:116,at:1), (pv:117,at:1), (pv:118,at:1), (pv:119,at:4), (pv:120,at:2), (pv:121,at:1), (pv:122,at:1), (pv:123,at:4), (pv:124,at:4), (pv:125,at:1), (pv:126,at:4), (pv:127,at:1), (pv:128,at:1), (pv:129,at:1), (pv:130,at:2), (pv:131,at:1), (pv:132,at:1), (pv:133,at:1), (pv:134,at:4), (pv:135,at:1), (pv:136,at:1), (pv:137,at:1), (pv:138,at:4), (pv:139,at:1), (pv:140,at:1), (pv:141,at:1), (pv:142,at:1), (pv:143,at:4), (pv:144,at:1), (pv:145,at:1), (pv:146,at:1), (pv:147,at:4), (pv:148,at:1), (pv:149,at:1), (pv:150,at:1), (pv:151,at:4), (pv:152,at:1), (pv:153,at:1), (pv:154,at:1), (pv:155,at:1), (pv:156,at:1), (pv:157,at:1), (pv:158,at:1), (pv:159,at:1), (pv:160,at:1), (pv:161,at:2), (pv:162,at:1), (pv:163,at:1), (pv:164,at:1), (pv:165,at:1), (pv:166,at:1), (pv:167,at:1), (pv:168,at:4), (pv:169,at:1), (pv:170,at:1), (pv:171,at:4), (pv:172,at:4), (pv:173,at:5), (pv:174,at:1), (pv:175,at:1), (pv:176,at:8), (pv:177,at:4), (pv:178,at:1), (pv:179,at:1), (pv:180,at:1), (pv:181,at:1), (pv:182,at:1), (pv:183,at:1), (pv:184,at:3), (pv:185,at:4), (pv:186,at:1), (pv:187,at:1), (pv:188,at:1), (pv:189,at:1), (pv:190,at:1), (pv:191,at:1), (pv:192,at:1), (pv:193,at:1), (pv:194,at:1), (pv:195,at:6), (pv:196,at:1), (pv:197,at:1), (pv:198,at:1), (pv:199,at:4), (pv:200,at:1), (pv:201,at:4), (pv:202,at:1), (pv:203,at:4), (pv:204,at:1), (pv:205,at:1), (pv:206,at:1), (pv:207,at:1), (pv:208,at:1), (pv:209,at:4), (pv:210,at:1), (pv:211,at:1), (pv:212,at:2), (pv:213,at:1), (pv:214,at:5), (pv:215,at:1), (pv:216,at:1), (pv:217,at:1), (pv:218,at:1), (pv:219,at:1), (pv:220,at:4), (pv:221,at:1), (pv:222,at:1), (pv:223,at:1), (pv:224,at:8), (pv:225,at:1), (pv:226,at:1), (pv:227,at:4), (pv:228,at:3), (pv:229,at:1), (pv:230,at:2), (pv:231,at:1), (pv:232,at:4), (pv:233,at:1), (pv:234,at:2), (pv:235,at:1), (pv:236,at:1), (pv:237,at:8), (pv:238,at:1), (pv:239,at:1), (pv:240,at:1), (pv:241,at:1), (pv:242,at:1), (pv:243,at:4), (pv:244,at:1), (pv:245,at:1), (pv:246,at:4), (pv:247,at:1), (pv:248,at:1), (pv:249,at:1), (pv:250,at:1), (pv:251,at:4), (pv:252,at:1), (pv:253,at:1), (pv:254,at:1), (pv:255,at:3), (pv:256,at:1), (pv:257,at:1), (pv:258,at:1), (pv:259,at:4), (pv:260,at:4), (pv:261,at:1), (pv:262,at:8), (pv:263,at:4), (pv:264,at:1), (pv:265,at:1), (pv:266,at:1), (pv:267,at:4), (pv:268,at:1), (pv:269,at:1), (pv:270,at:2), (pv:271,at:1), (pv:272,at:1), (pv:273,at:4), (pv:274,at:1), (pv:275,at:1), (pv:276,at:3), (pv:277,at:4), (pv:278,at:1), (pv:279,at:1), (pv:280,at:1), (pv:281,at:1), (pv:282,at:1), (pv:283,at:1), (pv:284,at:1), (pv:285,at:1), (pv:286,at:1), (pv:287,at:1), (pv:288,at:1), (pv:289,at:1), (pv:290,at:1), (pv:291,at:1), (pv:292,at:1), (pv:293,at:4), (pv:294,at:4), (pv:295,at:1), (pv:296,at:1), (pv:297,at:1), (pv:298,at:1), (pv:299,at:1), (pv:300,at:1), (pv:301,at:1), (pv:302,at:1), (pv:303,at:1), (pv:304,at:1), (pv:305,at:8), (pv:306,at:1), (pv:307,at:1), (pv:308,at:1), (pv:309,at:1), (pv:310,at:1), (pv:311,at:1), (pv:312,at:1), (pv:313,at:1), (pv:314,at:1), (pv:315,at:1), (pv:316,at:1), (pv:317,at:4), (pv:318,at:1), (pv:319,at:1), (pv:320,at:1), (pv:321,at:1), (pv:322,at:1), (pv:323,at:1), (pv:324,at:1), (pv:325,at:1), (pv:326,at:2), (pv:327,at:1), (pv:328,at:2), (pv:329,at:1), (pv:330,at:4), (pv:331,at:1), (pv:332,at:1), (pv:333,at:1), (pv:334,at:1), (pv:335,at:2), (pv:336,at:1), (pv:337,at:1), (pv:338,at:1), (pv:339,at:4), (pv:340,at:1), (pv:341,at:1), (pv:342,at:1), (pv:343,at:5), (pv:344,at:4), (pv:345,at:1), (pv:346,at:1), (pv:347,at:1), (pv:348,at:1), (pv:349,at:1), (pv:350,at:1), (pv:351,at:1), (pv:352,at:1), (pv:353,at:3), (pv:354,at:1), (pv:355,at:1), (pv:356,at:1), (pv:357,at:1), (pv:358,at:1), (pv:359,at:1), (pv:360,at:1), (pv:361,at:4), (pv:362,at:1), (pv:363,at:1), (pv:364,at:1), (pv:365,at:1), (pv:366,at:1), (pv:367,at:1), (pv:368,at:1), (pv:369,at:1), (pv:370,at:1), (pv:371,at:1), (pv:372,at:1), (pv:373,at:1), (pv:374,at:1), (pv:375,at:1), (pv:376,at:1), (pv:377,at:1), (pv:378,at:1), (pv:379,at:1), (pv:380,at:1), (pv:381,at:1), (pv:382,at:1), (pv:383,at:1), (pv:384,at:5), (pv:385,at:1), (pv:386,at:1), (pv:387,at:1), (pv:388,at:1), (pv:389,at:2), (pv:390,at:1), (pv:391,at:4), (pv:392,at:1), (pv:393,at:1), (pv:394,at:1), (pv:395,at:1), (pv:396,at:1), (pv:397,at:4), (pv:398,at:1), (pv:399,at:4), (pv:400,at:1), (pv:401,at:1), (pv:402,at:1), (pv:403,at:1), (pv:404,at:4), (pv:405,at:5), (pv:406,at:1), (pv:407,at:1), (pv:408,at:2), (pv:409,at:1), (pv:410,at:1), (pv:411,at:1), (pv:412,at:1), (pv:413,at:1), (pv:414,at:1), (pv:415,at:1), (pv:416,at:4), (pv:417,at:1), (pv:418,at:1), (pv:419,at:4), (pv:420,at:1), (pv:421,at:1), (pv:422,at:8), (pv:423,at:1), (pv:424,at:1), (pv:425,at:3), (pv:426,at:1), (pv:427,at:3), (pv:428,at:1), (pv:429,at:1), (pv:430,at:4), (pv:431,at:4), (pv:432,at:1), (pv:433,at:1), (pv:434,at:1), (pv:435,at:1), (pv:436,at:4), (pv:437,at:1), (pv:438,at:1), (pv:439,at:1), (pv:440,at:3), (pv:441,at:4), (pv:442,at:1), (pv:443,at:1), (pv:444,at:1), (pv:445,at:1), (pv:446,at:1), (pv:447,at:1), (pv:448,at:1), (pv:449,at:1), (pv:450,at:1), (pv:451,at:1), (pv:452,at:1), (pv:453,at:1), (pv:454,at:2), (pv:455,at:4), (pv:456,at:1), (pv:457,at:1), (pv:458,at:1), (pv:459,at:1), (pv:460,at:1), (pv:461,at:1), (pv:462,at:1), (pv:463,at:1), (pv:464,at:1), (pv:465,at:1), (pv:466,at:1), (pv:467,at:1), (pv:468,at:1), (pv:469,at:4), (pv:470,at:4), (pv:471,at:1), (pv:472,at:2), (pv:473,at:2), (pv:474,at:1), (pv:475,at:1), (pv:476,at:1), (pv:477,at:1), (pv:478,at:1), (pv:479,at:1), (pv:480,at:1), (pv:481,at:1), (pv:482,at:4), (pv:483,at:1), (pv:484,at:4), (pv:485,at:1), (pv:486,at:1), (pv:487,at:4), (pv:488,at:1), (pv:489,at:1), (pv:490,at:1), (pv:491,at:1), (pv:492,at:1), (pv:493,at:1), (pv:494,at:1), (pv:495,at:1), (pv:496,at:2), (pv:497,at:1), (pv:498,at:2), (pv:499,at:8), (pv:500,at:1), (pv:501,at:1), (pv:502,at:1), (pv:503,at:6), (pv:504,at:1), (pv:505,at:1), (pv:506,at:8), (pv:507,at:4), (pv:508,at:3), (pv:509,at:1), (pv:510,at:1), (pv:511,at:1), (pv:512,at:1), (pv:513,at:1), (pv:514,at:1), (pv:515,at:1), (pv:516,at:1), (pv:517,at:1), (pv:518,at:1), (pv:519,at:1), (pv:520,at:1), (pv:521,at:1), (pv:522,at:1), (pv:523,at:1), (pv:524,at:4), (pv:525,at:1), (pv:526,at:1), (pv:527,at:1), (pv:528,at:1), (pv:529,at:1), (pv:530,at:1), (pv:531,at:1), (pv:532,at:1), (pv:533,at:4), (pv:534,at:2), (pv:535,at:1), (pv:536,at:1), (pv:537,at:2), (pv:538,at:1), (pv:539,at:6), (pv:540,at:1), (pv:541,at:1), (pv:542,at:1), (pv:543,at:2), (pv:544,at:1), (pv:545,at:1), (pv:546,at:4), (pv:547,at:1), (pv:548,at:1), (pv:549,at:1), (pv:550,at:1), (pv:551,at:4), (pv:552,at:1), (pv:553,at:1), (pv:554,at:4), (pv:555,at:1), (pv:556,at:1), (pv:557,at:1), (pv:558,at:2), (pv:559,at:1), (pv:560,at:1), (pv:561,at:4), (pv:562,at:1), (pv:563,at:1), (pv:564,at:1), (pv:565,at:1), (pv:566,at:2), (pv:567,at:1), (pv:568,at:1), (pv:569,at:1), (pv:570,at:1), (pv:571,at:16), (pv:572,at:1), (pv:573,at:1), (pv:574,at:1), (pv:575,at:1), (pv:576,at:1), (pv:577,at:1), (pv:578,at:1), (pv:579,at:2), (pv:580,at:1), (pv:581,at:1), (pv:582,at:1), (pv:583,at:5), (pv:584,at:1), (pv:585,at:1), (pv:586,at:1), (pv:587,at:1), (pv:588,at:1), (pv:589,at:1), (pv:590,at:1), (pv:591,at:1), (pv:592,at:1), (pv:593,at:1), (pv:594,at:8), (pv:595,at:1), (pv:596,at:1), (pv:597,at:3), (pv:598,at:1), (pv:599,at:1), (pv:600,at:1), (pv:601,at:5), (pv:602,at:4), (pv:603,at:8), (pv:604,at:1), (pv:605,at:5), (pv:606,at:1), (pv:607,at:1), (pv:608,at:5), (pv:609,at:1), (pv:610,at:1), (pv:611,at:1), (pv:612,at:1), (pv:613,at:1), (pv:614,at:1), (pv:615,at:1), (pv:616,at:1), (pv:617,at:1), (pv:618,at:1), (pv:619,at:1), (pv:620,at:1), (pv:621,at:1), (pv:622,at:1), (pv:623,at:4), (pv:624,at:1), (pv:625,at:1), (pv:626,at:1), (pv:627,at:5), (pv:628,at:1), (pv:629,at:6), (pv:630,at:1), (pv:631,at:5), (pv:632,at:8), (pv:633,at:1), (pv:634,at:1), (pv:635,at:1), (pv:636,at:1), (pv:637,at:13), (pv:638,at:1), (pv:639,at:1), (pv:640,at:1), (pv:641,at:1), (pv:642,at:1), (pv:643,at:1), (pv:644,at:1), (pv:645,at:1), (pv:646,at:1), (pv:647,at:1), (pv:648,at:1), (pv:649,at:1), (pv:650,at:1), (pv:651,at:1), (pv:652,at:4), (pv:653,at:1), (pv:654,at:1), (pv:655,at:1), (pv:656,at:1), (pv:657,at:1), (pv:658,at:1), (pv:659,at:1), (pv:660,at:1), (pv:661,at:1), (pv:662,at:5), (pv:663,at:1), (pv:664,at:1), (pv:665,at:1), (pv:666,at:1), (pv:667,at:1), (pv:668,at:1), (pv:669,at:1), (pv:670,at:1), (pv:671,at:1), (pv:672,at:1), (pv:673,at:1), (pv:674,at:1), (pv:675,at:1), (pv:676,at:2), (pv:677,at:4), (pv:678,at:6), (pv:679,at:1), (pv:680,at:8), (pv:681,at:1), (pv:682,at:1), (pv:683,at:1), (pv:684,at:1), (pv:685,at:1), (pv:686,at:6), (pv:687,at:1), (pv:688,at:1), (pv:689,at:1), (pv:690,at:1), (pv:691,at:1), (pv:692,at:1), (pv:693,at:1), (pv:694,at:5), (pv:695,at:1), (pv:696,at:1), (pv:697,at:1), (pv:698,at:1), (pv:699,at:1), (pv:700,at:1), (pv:701,at:1), (pv:702,at:2), (pv:703,at:1), (pv:704,at:1), (pv:705,at:1), (pv:706,at:6), (pv:707,at:1), (pv:708,at:1), (pv:709,at:4), (pv:710,at:5), (pv:711,at:1), (pv:712,at:1), (pv:713,at:1), (pv:714,at:1), (pv:715,at:1), (pv:716,at:1), (pv:717,at:1), (pv:718,at:1), (pv:719,at:1), (pv:720,at:1), (pv:721,at:2), (pv:722,at:1), (pv:723,at:1), (pv:724,at:5), (pv:725,at:1), (pv:726,at:1), (pv:727,at:1), (pv:728,at:2), (pv:729,at:1), (pv:730,at:5), (pv:731,at:1), (pv:732,at:1), (pv:733,at:1), (pv:734,at:1), (pv:735,at:1), (pv:736,at:1), (pv:737,at:1), (pv:738,at:2), (pv:739,at:1), (pv:740,at:1), (pv:741,at:1), (pv:742,at:1), (pv:743,at:1), (pv:744,at:1), (pv:745,at:1), (pv:746,at:1), (pv:747,at:1), (pv:748,at:1), (pv:749,at:1), (pv:750,at:1), (pv:751,at:1), (pv:752,at:1), (pv:753,at:1), (pv:754,at:1), (pv:755,at:1), (pv:756,at:1), (pv:757,at:4), (pv:758,at:1), (pv:759,at:7), (pv:760,at:1), (pv:761,at:1), (pv:762,at:1), (pv:763,at:1), (pv:764,at:1), (pv:765,at:5), (pv:766,at:1), (pv:767,at:1), (pv:768,at:1), (pv:769,at:1), (pv:770,at:1), (pv:771,at:1), (pv:772,at:1), (pv:773,at:1), (pv:774,at:16), (pv:775,at:1), (pv:776,at:1), (pv:777,at:1), (pv:778,at:6), (pv:779,at:1), (pv:780,at:2), (pv:781,at:1), (pv:782,at:4), (pv:783,at:1), (pv:784,at:1), (pv:785,at:1), (pv:786,at:1), (pv:787,at:6), (pv:788,at:1), (pv:789,at:1), (pv:790,at:26), (pv:791,at:1), (pv:792,at:1), (pv:793,at:1), (pv:794,at:2), (pv:795,at:1), (pv:796,at:1), (pv:797,at:1), (pv:798,at:1), (pv:799,at:1), (pv:800,at:1), (pv:801,at:1), (pv:802,at:1), (pv:803,at:1), (pv:804,at:6), (pv:805,at:1), (pv:806,at:1), (pv:807,at:1), (pv:808,at:1), (pv:809,at:1), (pv:810,at:1), (pv:811,at:1), (pv:812,at:2), (pv:813,at:1), (pv:814,at:10), (pv:815,at:4), (pv:816,at:1), (pv:817,at:1), (pv:818,at:1), (pv:819,at:1), (pv:820,at:1), (pv:821,at:1), (pv:822,at:1), (pv:823,at:2), (pv:824,at:1), (pv:825,at:26), (pv:826,at:2), (pv:827,at:2), (pv:828,at:1), (pv:829,at:1), (pv:830,at:4), (pv:831,at:1), (pv:832,at:1), (pv:833,at:1), (pv:834,at:1), (pv:835,at:1), (pv:836,at:5), (pv:837,at:1), (pv:838,at:4), (pv:839,at:1)]
[INFO ] fr.inria.main.evolution.AstorMain.run(AstorMain.java:163) - Time Total(s): 10998.618
