Warning: no access to tty (Bad file descriptor).
Thus no job control in this shell.
tput: No value for $TERM and no -T specified
Node: wh25.sciclone.wm.edu
[INFO ] fr.inria.main.AbstractMain.processArguments(AbstractMain.java:295) - command line arguments: [-out  /local/scr/mtufano/Closure/111/b/similar-global-types-default/2  -jvm4testexecution  /usr/local/jdk1.7.0_80/bin/  -loglevel  INFO  -maxVarCombination  1000  -maxgen  1000000  -population  1  -maxtime  180  -timezone  America/New_York  -customop  fr.inria.astor.approaches.jgenprog.operators.InsertAfterOp:fr.inria.astor.approaches.jgenprog.operators.InsertBeforeOp:fr.inria.astor.approaches.jgenprog.operators.ReplaceOp  -seed  2  -javacompliancelevel  6  -package  com.google  -binjavafolder  build/classes/  -bintestfolder  build/test/  -srcjavafolder  src/  -srctestfolder  test  -learningdir  ../../out/learningdir/Closure/111/b/  -location  ../../dat/defects4j/Closure/111/b/  -failing  com.google.javascript.jscomp.ClosureReverseAbstractInterpreterTest  -dependencies  ../../dat/defects4j/Closure/111/b/lib/ant-launcher.jar:../../dat/defects4j/Closure/111/b/lib/caja-r4314.jar:../../dat/defects4j/Closure/111/b/lib/json.jar:../../dat/defects4j/Closure/111/b/lib/jsr305.jar:../../dat/defects4j/Closure/111/b/lib/args4j.jar:../../dat/defects4j/Closure/111/b/lib/ant.jar:../../dat/defects4j/Closure/111/b/lib/jarjar.jar:../../dat/defects4j/Closure/111/b/lib/junit.jar:../../dat/defects4j/Closure/111/b/lib/guava.jar:../../dat/defects4j/Closure/111/b/lib/protobuf-java.jar:../../dat/defects4j/Closure/111/b/build/lib/rhino.jar:../../dat/defects4j/Closure/111/b/build/lib/rhino1_7R5pre/js.jar:../../dat/defects4j/Closure/111/b/build/classes:../../dat/defects4j/Closure/111/b/build/test  -scope  fr.inria.astor.core.loop.spaces.ingredients.scopes.ctscopes.CtGlobalIngredientScope  -ingredientstrategy  fr.inria.astor.core.loop.spaces.ingredients.ingredientSearch.CloneIngredientSearchStrategy  -clonegranularity  spoon.reflect.declaration.CtType  -classestoinstrument  com.google.javascript.jscomp.LightweightMessageFormatter:com.google.javascript.jscomp.ComposeWarningsGuard:com.google.javascript.jscomp.ConstCheck:com.google.javascript.jscomp.LinkedFlowScope:com.google.javascript.rhino.jstype.NumberType:com.google.javascript.jscomp.PassConfig:com.google.javascript.rhino.jstype.PrototypeObjectType:com.google.javascript.jscomp.NodeTraversal:com.google.javascript.jscomp.HotSwapCompilerPass:com.google.javascript.jscomp.parsing.Config:com.google.javascript.rhino.jstype.TemplateTypeMap:com.google.javascript.jscomp.DiagnosticType:com.google.javascript.jscomp.SourceAst:com.google.javascript.rhino.jstype.FunctionType:com.google.javascript.jscomp.CheckUnreachableCode:com.google.javascript.jscomp.CleanupPasses:com.google.javascript.jscomp.ScopeCreator:com.google.javascript.jscomp.graph.LatticeElement:com.google.javascript.jscomp.CheckEventfulObjectDisposal:com.google.javascript.jscomp.VariableReferenceCheck:com.google.javascript.rhino.jstype.ModificationVisitor:com.google.javascript.jscomp.RenamingMap:com.google.javascript.jscomp.type.FlowScope:com.google.javascript.jscomp.graph.GraphvizGraph:com.google.javascript.jscomp.graph.LinkedDirectedGraph:com.google.javascript.jscomp.AbstractMessageFormatter:com.google.javascript.jscomp.Region:com.google.javascript.jscomp.CheckLevel:com.google.javascript.rhino.InputId:com.google.javascript.jscomp.parsing.ParserRunner:com.google.javascript.jscomp.DefaultPassConfig:com.google.javascript.jscomp.deps.SortedDependencies:com.google.javascript.rhino.jstype.NoType:com.google.javascript.jscomp.DependencyOptions:com.google.javascript.jscomp.AbstractCompiler:com.google.javascript.rhino.jstype.UnionTypeBuilder:com.google.javascript.rhino.jstype.AllType:com.google.javascript.rhino.jstype.ValueType:com.google.javascript.jscomp.DiagnosticGroup:com.google.javascript.rhino.jstype.SimpleSlot:com.google.javascript.jscomp.TypeValidator:com.google.javascript.jscomp.AnonymousFunctionNamingPolicy:com.google.javascript.rhino.jstype.NamedType:com.google.javascript.rhino.jstype.StaticSlot:com.google.javascript.rhino.jstype.RelationshipVisitor:com.google.javascript.jscomp.CodingConvention:com.google.javascript.jscomp.PropertyRenamingPolicy:com.google.javascript.jscomp.PassFactory:com.google.javascript.rhino.jstype.InstanceObjectType:com.google.javascript.jscomp.Compiler:com.google.javascript.rhino.jstype.FunctionBuilder:com.google.javascript.jscomp.VarCheck:com.google.javascript.jscomp.DiagnosticGroupWarningsGuard:com.google.javascript.jscomp.CodingConventions:com.google.javascript.rhino.jstype.StaticReference:com.google.javascript.jscomp.ReferenceCollectingCallback:com.google.javascript.rhino.jstype.EquivalenceMethod:com.google.javascript.jscomp.LoggerErrorManager:com.google.javascript.jscomp.JsAst:com.google.javascript.jscomp.TypedScopeCreator:com.google.javascript.jscomp.parsing.Annotation:com.google.javascript.rhino.jstype.NullType:com.google.javascript.jscomp.RecentChange:com.google.javascript.rhino.jstype.ProxyObjectType:com.google.javascript.jscomp.PrepareAst:com.google.javascript.jscomp.SourceExcerptProvider:com.google.javascript.jscomp.type.SemanticReverseAbstractInterpreter:com.google.javascript.jscomp.type.ChainableReverseAbstractInterpreter:com.google.javascript.rhino.jstype.Visitor:com.google.javascript.jscomp.DiagnosticGroups:com.google.javascript.jscomp.ErrorHandler:com.google.javascript.jscomp.GoogleCodingConvention:com.google.javascript.jscomp.CheckSideEffects:com.google.javascript.rhino.jstype.UnionType:com.google.javascript.jscomp.CheckRegExp:com.google.javascript.jscomp.graph.AdjacencyGraph:com.google.javascript.jscomp.graph.Graph:com.google.javascript.jscomp.CodeChangeHandler:com.google.javascript.jscomp.CompilerInput:com.google.javascript.jscomp.VariableRenamingPolicy:com.google.javascript.rhino.jstype.StringType:com.google.javascript.jscomp.CheckMissingReturn:com.google.javascript.jscomp.TypeCheck:com.google.javascript.rhino.Node:com.google.javascript.jscomp.ProcessTweaks:com.google.javascript.jscomp.type.ReverseAbstractInterpreter:com.google.javascript.jscomp.Scope:com.google.javascript.jscomp.JsMessageVisitor:com.google.javascript.rhino.jstype.TemplateType:com.google.javascript.jscomp.SourceFile:com.google.javascript.jscomp.StrictModeCheck:com.google.javascript.jscomp.parsing.TypeSafeDispatcher:com.google.javascript.rhino.jstype.JSTypeRegistry:com.google.javascript.rhino.SimpleErrorReporter:com.google.javascript.jscomp.ErrorFormat:com.google.javascript.jscomp.type.ClosureReverseAbstractInterpreter:com.google.javascript.jscomp.NodeUtil:com.google.javascript.jscomp.graph.DiGraph:com.google.javascript.jscomp.CheckGlobalThis:com.google.javascript.rhino.jstype.ObjectType:com.google.javascript.jscomp.CheckSuspiciousCode:com.google.javascript.jscomp.CheckProvides:com.google.javascript.jscomp.deps.DependencyInfo:com.google.javascript.jscomp.FunctionTypeBuilder:com.google.javascript.jscomp.CompilerOptions:com.google.javascript.rhino.jstype.RecordTypeBuilder:com.google.javascript.rhino.jstype.JSType:com.google.javascript.rhino.jstype.TemplatizedType:com.google.javascript.jscomp.ControlFlowGraph:com.google.javascript.rhino.jstype.PropertyMap:com.google.javascript.jscomp.SuppressDocWarningsGuard:com.google.javascript.rhino.jstype.NamespaceType:com.google.javascript.jscomp.ProcessDefines:com.google.javascript.rhino.jstype.CanCastToVisitor:com.google.javascript.rhino.ErrorReporter:com.google.javascript.rhino.jstype.JSTypeNative:com.google.javascript.jscomp.CheckGlobalNames:com.google.javascript.rhino.jstype.StaticScope:com.google.javascript.rhino.JSTypeExpression:com.google.javascript.jscomp.ClosureCodingConvention:com.google.javascript.rhino.jstype.StaticSourceFile:com.google.javascript.jscomp.DisambiguateProperties:com.google.javascript.jscomp.CheckAccessControls:com.google.javascript.jscomp.CheckDebuggerStatement:com.google.javascript.jscomp.JSModuleGraph:com.google.javascript.rhino.jstype.NoResolvedType:com.google.javascript.jscomp.ControlStructureCheck:com.google.javascript.rhino.jstype.StaticSymbolTable:com.google.javascript.jscomp.ReplaceIdGenerators:com.google.javascript.rhino.jstype.TemplateTypeMapReplacer:com.google.javascript.jscomp.CheckRequiresForConstructors:com.google.javascript.jscomp.MessageFormatter:com.google.javascript.rhino.jstype.VoidType:com.google.javascript.jscomp.RhinoErrorReporter:com.google.javascript.rhino.jstype.UnknownType:com.google.javascript.jscomp.SyntacticScopeCreator:com.google.javascript.jscomp.CompilerPass:com.google.javascript.rhino.jstype.EnumElementType:com.google.javascript.rhino.jstype.ErrorFunctionType:com.google.javascript.rhino.jstype.NoObjectType:com.google.javascript.rhino.jstype.ArrowType:com.google.javascript.jscomp.BasicErrorManager:com.google.javascript.jscomp.SourceMap:com.google.javascript.rhino.jstype.FunctionParamBuilder:com.google.javascript.rhino.jstype.BooleanType:com.google.javascript.jscomp.parsing.IRFactory:com.google.javascript.jscomp.WarningsGuard:com.google.javascript.jscomp.ErrorManager:com.google.javascript.rhino.jstype.Property:  -regressiontestcases4fl  com.google.javascript.jscomp.ClosureReverseAbstractInterpreterTest:com.google.javascript.jscomp.CommandLineRunnerTest:com.google.javascript.jscomp.IntegrationTest:com.google.javascript.jscomp.LooseTypeCheckTest:com.google.javascript.jscomp.SymbolTableTest:com.google.javascript.jscomp.TypeCheckTest:com.google.javascript.jscomp.TypeInferenceTest:]
[INFO ] fr.inria.astor.core.manipulation.MutationSupporter.buildModel(MutationSupporter.java:76) - building model: /local/scr/mtufano/Closure/111/b/similar-global-types-default/2/AstorMain-b//src//default, compliance level: 6
[INFO ] fr.inria.astor.core.manipulation.MutationSupporter.buildModel(MutationSupporter.java:85) - Classpath for building SpoonModel [/sciclone/data20/mtufano/deeprepair/bin/eval/../../dat/defects4j/Closure/111/b/lib/ant-launcher.jar, /sciclone/data20/mtufano/deeprepair/bin/eval/../../dat/defects4j/Closure/111/b/lib/caja-r4314.jar, /sciclone/data20/mtufano/deeprepair/bin/eval/../../dat/defects4j/Closure/111/b/lib/json.jar, /sciclone/data20/mtufano/deeprepair/bin/eval/../../dat/defects4j/Closure/111/b/lib/jsr305.jar, /sciclone/data20/mtufano/deeprepair/bin/eval/../../dat/defects4j/Closure/111/b/lib/args4j.jar, /sciclone/data20/mtufano/deeprepair/bin/eval/../../dat/defects4j/Closure/111/b/lib/ant.jar, /sciclone/data20/mtufano/deeprepair/bin/eval/../../dat/defects4j/Closure/111/b/lib/jarjar.jar, /sciclone/data20/mtufano/deeprepair/bin/eval/../../dat/defects4j/Closure/111/b/lib/junit.jar, /sciclone/data20/mtufano/deeprepair/bin/eval/../../dat/defects4j/Closure/111/b/lib/guava.jar, /sciclone/data20/mtufano/deeprepair/bin/eval/../../dat/defects4j/Closure/111/b/lib/protobuf-java.jar, /sciclone/data20/mtufano/deeprepair/bin/eval/../../dat/defects4j/Closure/111/b/build/lib/rhino.jar, /sciclone/data20/mtufano/deeprepair/bin/eval/../../dat/defects4j/Closure/111/b/build/lib/rhino1_7R5pre/js.jar, /sciclone/data20/mtufano/deeprepair/bin/eval/../../dat/defects4j/Closure/111/b/build/classes/, /sciclone/data20/mtufano/deeprepair/bin/eval/../../dat/defects4j/Closure/111/b/build/test/]
[INFO ] fr.inria.astor.core.setup.ProjectRepairFacade.calculateSuspicious(ProjectRepairFacade.java:215) - -Executing Gzoltar classpath: /local/scr/mtufano/Closure/111/b/similar-global-types-default/2/AstorMain-b//bin//default from 7 classes with test cases
[INFO ] fr.inria.astor.core.faultlocalization.GZoltarFaultLocalization.searchSuspicious(GZoltarFaultLocalization.java:37) - Gzoltar fault localization: min susp value parameter: 0.1
[INFO ] fr.inria.astor.core.faultlocalization.GZoltarFaultLocalization.searchSuspicious(GZoltarFaultLocalization.java:57) - -gz-Adding classpath: [/sciclone/data20/mtufano/deeprepair/bin/eval/../../dat/defects4j/Closure/111/b/lib/args4j.jar, /sciclone/data20/mtufano/deeprepair/bin/eval/../../dat/defects4j/Closure/111/b/build/classes/, /sciclone/data20/mtufano/deeprepair/bin/eval/../../dat/defects4j/Closure/111/b/lib/ant.jar, /local/scr/mtufano/Closure/111/b/similar-global-types-default/2/AstorMain-b//bin//default, /sciclone/data20/mtufano/deeprepair/bin/eval/../../dat/defects4j/Closure/111/b/lib/ant-launcher.jar, /sciclone/data20/mtufano/deeprepair/bin/eval/../../dat/defects4j/Closure/111/b/build/test/, /sciclone/data20/mtufano/deeprepair/bin/eval/../../dat/defects4j/Closure/111/b/lib/junit.jar, /sciclone/data20/mtufano/deeprepair/bin/eval/../../dat/defects4j/Closure/111/b/lib/jsr305.jar, /sciclone/data20/mtufano/deeprepair/bin/eval/../../dat/defects4j/Closure/111/b/lib/protobuf-java.jar, /sciclone/data20/mtufano/deeprepair/bin/eval/../../dat/defects4j/Closure/111/b/build/lib/rhino.jar, /sciclone/data20/mtufano/deeprepair/bin/eval/../../dat/defects4j/Closure/111/b/lib/json.jar, /sciclone/data20/mtufano/deeprepair/bin/eval/../../dat/defects4j/Closure/111/b/lib/caja-r4314.jar, /sciclone/data20/mtufano/deeprepair/bin/eval/../../dat/defects4j/Closure/111/b/lib/guava.jar, /sciclone/data20/mtufano/deeprepair/bin/eval/../../dat/defects4j/Closure/111/b/lib/jarjar.jar, /sciclone/data20/mtufano/deeprepair/bin/eval/../../dat/defects4j/Closure/111/b/build/lib/rhino1_7R5pre/js.jar]
[INFO ] fr.inria.astor.core.faultlocalization.GZoltarFaultLocalization.searchSuspicious(GZoltarFaultLocalization.java:76) - Test failt: com.google.javascript.jscomp.ClosureReverseAbstractInterpreterTest#testGoogIsArray2
[INFO ] fr.inria.astor.core.faultlocalization.GZoltarFaultLocalization.searchSuspicious(GZoltarFaultLocalization.java:81) - Gzoltar Test Result Total:2498, fails: 1, GZoltar suspicious 28092
[INFO ] fr.inria.astor.core.faultlocalization.GZoltarFaultLocalization.searchSuspicious(GZoltarFaultLocalization.java:123) - Gzoltar found: 28 with susp > 0.1, we consider: 28
[INFO ] fr.inria.astor.approaches.jgenprog.JGenProg.initPopulation(JGenProg.java:80) - 
---- Initial suspicious size: 28
[INFO ] fr.inria.astor.core.loop.population.ProgramVariantFactory.createProgramInstance(ProgramVariantFactory.java:126) - -any mod point created for suspicious Candidate [className=com.google.javascript.jscomp.type.ChainableReverseAbstractInterpreter$RestrictByTypeOfResultVisitor, methodName=com.google.javascript.jscomp.type.ChainableReverseAbstractInterpreter$RestrictByTypeOfResultVisitor{caseAllType()Ljava/lang/Object; 0.0, lineNumber=363, susp=0.4082482904638631]
[INFO ] fr.inria.astor.core.loop.population.ProgramVariantFactory.createProgramInstance(ProgramVariantFactory.java:126) - -any mod point created for suspicious Candidate [className=com.google.javascript.jscomp.type.ClosureReverseAbstractInterpreter, methodName=com.google.javascript.jscomp.type.ClosureReverseAbstractInterpreter{access$400(Lcom/google/javascript/jscomp/type/ClosureReverseAbstractInterpreter;)Lcom/google/javascript/rhino/jstype/Visitor; 0.0, lineNumber=44, susp=0.35355339059327373]
[INFO ] fr.inria.astor.core.loop.population.ProgramVariantFactory.createProgramInstance(ProgramVariantFactory.java:126) - -any mod point created for suspicious Candidate [className=com.google.javascript.jscomp.type.ClosureReverseAbstractInterpreter$6, methodName=com.google.javascript.jscomp.type.ClosureReverseAbstractInterpreter$6{apply(Ljava/lang/Object;)Ljava/lang/Object; 0.0, lineNumber=189, susp=0.3333333333333333]
[INFO ] fr.inria.astor.core.loop.population.ProgramVariantFactory.createProgramInstance(ProgramVariantFactory.java:126) - -any mod point created for suspicious Candidate [className=com.google.javascript.jscomp.type.ClosureReverseAbstractInterpreter$TypeRestriction, methodName=com.google.javascript.jscomp.type.ClosureReverseAbstractInterpreter$TypeRestriction{access$000(Lcom/google/javascript/jscomp/type/ClosureReverseAbstractInterpreter$TypeRestriction;)Lcom/google/javascript/rhino/jstype/JSType; 0.0, lineNumber=257, susp=0.1203858530857692]
[INFO ] fr.inria.astor.core.loop.population.ProgramVariantFactory.createProgramInstance(ProgramVariantFactory.java:126) - -any mod point created for suspicious Candidate [className=com.google.javascript.jscomp.type.ClosureReverseAbstractInterpreter$TypeRestriction, methodName=com.google.javascript.jscomp.type.ClosureReverseAbstractInterpreter$TypeRestriction{access$100(Lcom/google/javascript/jscomp/type/ClosureReverseAbstractInterpreter$TypeRestriction;)Z 0.0, lineNumber=257, susp=0.1203858530857692]
[INFO ] fr.inria.astor.core.loop.population.ProgramVariantFactory.createProgramInstance(ProgramVariantFactory.java:130) - Total suspicious from FL: 28,  23
[INFO ] fr.inria.astor.core.loop.population.ProgramVariantFactory.createProgramInstance(ProgramVariantFactory.java:138) - Total ModPoint created: 23
[INFO ] fr.inria.astor.core.loop.population.ProgramVariantFactory.createInitialPopulation(ProgramVariantFactory.java:82) - Creating program variant #1, [Variant id: 1, #gens: 23, #ops: 0, parent:-]
[INFO ] fr.inria.astor.core.validation.executors.JUnitExecutorProcess.execute(JUnitExecutorProcess.java:120) - The Process that runs JUnit test cases had problems: process hasn't exited
[INFO ] fr.inria.astor.core.setup.ConfigurationProperties.print(ConfigurationProperties.java:63) - ----------------------------
[INFO ] fr.inria.astor.core.setup.ConfigurationProperties.print(ConfigurationProperties.java:64) - ---Configuration properties:---Execution values
[INFO ] fr.inria.astor.core.setup.ConfigurationProperties.print(ConfigurationProperties.java:66) - p:lastJUnitVersion= ./examples/libs/junit-4.11.jar
[INFO ] fr.inria.astor.core.setup.ConfigurationProperties.print(ConfigurationProperties.java:66) - p:alternativecompliancelevel= 4
[INFO ] fr.inria.astor.core.setup.ConfigurationProperties.print(ConfigurationProperties.java:66) - p:ignoredTestCases= 
[INFO ] fr.inria.astor.core.setup.ConfigurationProperties.print(ConfigurationProperties.java:66) - p:workingDirectory= /local/scr/mtufano/Closure/111/b/similar-global-types-default/2
[INFO ] fr.inria.astor.core.setup.ConfigurationProperties.print(ConfigurationProperties.java:66) - p:manipulatesuper= false
[INFO ] fr.inria.astor.core.setup.ConfigurationProperties.print(ConfigurationProperties.java:66) - p:validation= process
[INFO ] fr.inria.astor.core.setup.ConfigurationProperties.print(ConfigurationProperties.java:66) - p:jvm4testexecution= /usr/local/jdk1.7.0_80/bin/
[INFO ] fr.inria.astor.core.setup.ConfigurationProperties.print(ConfigurationProperties.java:66) - p:binjavafolder= build/classes/
[INFO ] fr.inria.astor.core.setup.ConfigurationProperties.print(ConfigurationProperties.java:66) - p:evosuiteresultfolder= evosuite
[INFO ] fr.inria.astor.core.setup.ConfigurationProperties.print(ConfigurationProperties.java:66) - p:flthreshold= 0.1
[INFO ] fr.inria.astor.core.setup.ConfigurationProperties.print(ConfigurationProperties.java:66) - p:regressionforfaultlocalization= true
[INFO ] fr.inria.astor.core.setup.ConfigurationProperties.print(ConfigurationProperties.java:66) - p:tmax2= 960000
[INFO ] fr.inria.astor.core.setup.ConfigurationProperties.print(ConfigurationProperties.java:66) - p:tmax1= 120000
[INFO ] fr.inria.astor.core.setup.ConfigurationProperties.print(ConfigurationProperties.java:66) - p:probagenmutation= false
[INFO ] fr.inria.astor.core.setup.ConfigurationProperties.print(ConfigurationProperties.java:66) - p:srctestfolder= test
[INFO ] fr.inria.astor.core.setup.ConfigurationProperties.print(ConfigurationProperties.java:66) - p:customop= fr.inria.astor.approaches.jgenprog.operators.InsertAfterOp:fr.inria.astor.approaches.jgenprog.operators.InsertBeforeOp:fr.inria.astor.approaches.jgenprog.operators.ReplaceOp
[INFO ] fr.inria.astor.core.setup.ConfigurationProperties.print(ConfigurationProperties.java:66) - p:forceExecuteRegression= false
[INFO ] fr.inria.astor.core.setup.ConfigurationProperties.print(ConfigurationProperties.java:66) - p:clusteringfilename= clustering.csv
[INFO ] fr.inria.astor.core.setup.ConfigurationProperties.print(ConfigurationProperties.java:66) - p:failing= com.google.javascript.jscomp.ClosureReverseAbstractInterpreterTest
[INFO ] fr.inria.astor.core.setup.ConfigurationProperties.print(ConfigurationProperties.java:66) - p:evo_buggy_class= true
[INFO ] fr.inria.astor.core.setup.ConfigurationProperties.print(ConfigurationProperties.java:66) - p:numberExecutions= 1
[INFO ] fr.inria.astor.core.setup.ConfigurationProperties.print(ConfigurationProperties.java:66) - p:evo_affected_by_op= true
[INFO ] fr.inria.astor.core.setup.ConfigurationProperties.print(ConfigurationProperties.java:66) - p:population= 1
[INFO ] fr.inria.astor.core.setup.ConfigurationProperties.print(ConfigurationProperties.java:66) - p:clonegranularity= spoon.reflect.declaration.CtType
[INFO ] fr.inria.astor.core.setup.ConfigurationProperties.print(ConfigurationProperties.java:66) - p:regressiontestcases4fl= com.google.javascript.jscomp.ClosureReverseAbstractInterpreterTest:com.google.javascript.jscomp.CommandLineRunnerTest:com.google.javascript.jscomp.IntegrationTest:com.google.javascript.jscomp.LooseTypeCheckTest:com.google.javascript.jscomp.SymbolTableTest:com.google.javascript.jscomp.TypeCheckTest:com.google.javascript.jscomp.TypeInferenceTest:
[INFO ] fr.inria.astor.core.setup.ConfigurationProperties.print(ConfigurationProperties.java:66) - p:savesolution= true
[INFO ] fr.inria.astor.core.setup.ConfigurationProperties.print(ConfigurationProperties.java:66) - p:javacompliancelevel= 6
[INFO ] fr.inria.astor.core.setup.ConfigurationProperties.print(ConfigurationProperties.java:66) - p:uniqueoptogen= false
[INFO ] fr.inria.astor.core.setup.ConfigurationProperties.print(ConfigurationProperties.java:66) - p:projectIdentifier= 
[INFO ] fr.inria.astor.core.setup.ConfigurationProperties.print(ConfigurationProperties.java:66) - p:modificationpointnavigation= weight
[INFO ] fr.inria.astor.core.setup.ConfigurationProperties.print(ConfigurationProperties.java:66) - p:stopfirst= false
[INFO ] fr.inria.astor.core.setup.ConfigurationProperties.print(ConfigurationProperties.java:66) - p:multipointmodification= false
[INFO ] fr.inria.astor.core.setup.ConfigurationProperties.print(ConfigurationProperties.java:66) - p:elementsToMutate= 10
[INFO ] fr.inria.astor.core.setup.ConfigurationProperties.print(ConfigurationProperties.java:66) - p:evoDSE= false
[INFO ] fr.inria.astor.core.setup.ConfigurationProperties.print(ConfigurationProperties.java:66) - p:bintestfolder= build/test/
[INFO ] fr.inria.astor.core.setup.ConfigurationProperties.print(ConfigurationProperties.java:66) - p:testbystep= false
[INFO ] fr.inria.astor.core.setup.ConfigurationProperties.print(ConfigurationProperties.java:66) - p:version-location= ./math-version/
[INFO ] fr.inria.astor.core.setup.ConfigurationProperties.print(ConfigurationProperties.java:66) - p:reintroduce= PARENTS
[INFO ] fr.inria.astor.core.setup.ConfigurationProperties.print(ConfigurationProperties.java:66) - p:maxGeneration= 1000000
[INFO ] fr.inria.astor.core.setup.ConfigurationProperties.print(ConfigurationProperties.java:66) - p:maxVarCombination= 1000
[INFO ] fr.inria.astor.core.setup.ConfigurationProperties.print(ConfigurationProperties.java:66) - p:maxtime= 180
[INFO ] fr.inria.astor.core.setup.ConfigurationProperties.print(ConfigurationProperties.java:66) - p:evosuitejar= ./lib/evosuite-master-1.0.4-SNAPSHOT.jar
[INFO ] fr.inria.astor.core.setup.ConfigurationProperties.print(ConfigurationProperties.java:66) - p:commandTrunk= 50000
[INFO ] fr.inria.astor.core.setup.ConfigurationProperties.print(ConfigurationProperties.java:66) - p:faultlocalization= fr.inria.astor.core.faultlocalization.GZoltarFaultLocalization
[INFO ] fr.inria.astor.core.setup.ConfigurationProperties.print(ConfigurationProperties.java:66) - p:maxsuspcandidates= 1000
[INFO ] fr.inria.astor.core.setup.ConfigurationProperties.print(ConfigurationProperties.java:66) - p:mode= statement
[INFO ] fr.inria.astor.core.setup.ConfigurationProperties.print(ConfigurationProperties.java:66) - p:learningdir= ../../out/learningdir/Closure/111/b/
[INFO ] fr.inria.astor.core.setup.ConfigurationProperties.print(ConfigurationProperties.java:66) - p:jvm4evosuitetestexecution= /usr/local/jdk1.7.0_80/bin/
[INFO ] fr.inria.astor.core.setup.ConfigurationProperties.print(ConfigurationProperties.java:66) - p:filterfaultlocalization= true
[INFO ] fr.inria.astor.core.setup.ConfigurationProperties.print(ConfigurationProperties.java:66) - p:mutationrate= 1 
[INFO ] fr.inria.astor.core.setup.ConfigurationProperties.print(ConfigurationProperties.java:66) - p:pathToMVNRepository= 
[INFO ] fr.inria.astor.core.setup.ConfigurationProperties.print(ConfigurationProperties.java:66) - p:resourcesfolder= /src/main/resources:/src/test/resources:
[INFO ] fr.inria.astor.core.setup.ConfigurationProperties.print(ConfigurationProperties.java:66) - p:timezone= America/New_York
[INFO ] fr.inria.astor.core.setup.ConfigurationProperties.print(ConfigurationProperties.java:66) - p:classestoinstrument= com.google.javascript.jscomp.LightweightMessageFormatter:com.google.javascript.jscomp.ComposeWarningsGuard:com.google.javascript.jscomp.ConstCheck:com.google.javascript.jscomp.LinkedFlowScope:com.google.javascript.rhino.jstype.NumberType:com.google.javascript.jscomp.PassConfig:com.google.javascript.rhino.jstype.PrototypeObjectType:com.google.javascript.jscomp.NodeTraversal:com.google.javascript.jscomp.HotSwapCompilerPass:com.google.javascript.jscomp.parsing.Config:com.google.javascript.rhino.jstype.TemplateTypeMap:com.google.javascript.jscomp.DiagnosticType:com.google.javascript.jscomp.SourceAst:com.google.javascript.rhino.jstype.FunctionType:com.google.javascript.jscomp.CheckUnreachableCode:com.google.javascript.jscomp.CleanupPasses:com.google.javascript.jscomp.ScopeCreator:com.google.javascript.jscomp.graph.LatticeElement:com.google.javascript.jscomp.CheckEventfulObjectDisposal:com.google.javascript.jscomp.VariableReferenceCheck:com.google.javascript.rhino.jstype.ModificationVisitor:com.google.javascript.jscomp.RenamingMap:com.google.javascript.jscomp.type.FlowScope:com.google.javascript.jscomp.graph.GraphvizGraph:com.google.javascript.jscomp.graph.LinkedDirectedGraph:com.google.javascript.jscomp.AbstractMessageFormatter:com.google.javascript.jscomp.Region:com.google.javascript.jscomp.CheckLevel:com.google.javascript.rhino.InputId:com.google.javascript.jscomp.parsing.ParserRunner:com.google.javascript.jscomp.DefaultPassConfig:com.google.javascript.jscomp.deps.SortedDependencies:com.google.javascript.rhino.jstype.NoType:com.google.javascript.jscomp.DependencyOptions:com.google.javascript.jscomp.AbstractCompiler:com.google.javascript.rhino.jstype.UnionTypeBuilder:com.google.javascript.rhino.jstype.AllType:com.google.javascript.rhino.jstype.ValueType:com.google.javascript.jscomp.DiagnosticGroup:com.google.javascript.rhino.jstype.SimpleSlot:com.google.javascript.jscomp.TypeValidator:com.google.javascript.jscomp.AnonymousFunctionNamingPolicy:com.google.javascript.rhino.jstype.NamedType:com.google.javascript.rhino.jstype.StaticSlot:com.google.javascript.rhino.jstype.RelationshipVisitor:com.google.javascript.jscomp.CodingConvention:com.google.javascript.jscomp.PropertyRenamingPolicy:com.google.javascript.jscomp.PassFactory:com.google.javascript.rhino.jstype.InstanceObjectType:com.google.javascript.jscomp.Compiler:com.google.javascript.rhino.jstype.FunctionBuilder:com.google.javascript.jscomp.VarCheck:com.google.javascript.jscomp.DiagnosticGroupWarningsGuard:com.google.javascript.jscomp.CodingConventions:com.google.javascript.rhino.jstype.StaticReference:com.google.javascript.jscomp.ReferenceCollectingCallback:com.google.javascript.rhino.jstype.EquivalenceMethod:com.google.javascript.jscomp.LoggerErrorManager:com.google.javascript.jscomp.JsAst:com.google.javascript.jscomp.TypedScopeCreator:com.google.javascript.jscomp.parsing.Annotation:com.google.javascript.rhino.jstype.NullType:com.google.javascript.jscomp.RecentChange:com.google.javascript.rhino.jstype.ProxyObjectType:com.google.javascript.jscomp.PrepareAst:com.google.javascript.jscomp.SourceExcerptProvider:com.google.javascript.jscomp.type.SemanticReverseAbstractInterpreter:com.google.javascript.jscomp.type.ChainableReverseAbstractInterpreter:com.google.javascript.rhino.jstype.Visitor:com.google.javascript.jscomp.DiagnosticGroups:com.google.javascript.jscomp.ErrorHandler:com.google.javascript.jscomp.GoogleCodingConvention:com.google.javascript.jscomp.CheckSideEffects:com.google.javascript.rhino.jstype.UnionType:com.google.javascript.jscomp.CheckRegExp:com.google.javascript.jscomp.graph.AdjacencyGraph:com.google.javascript.jscomp.graph.Graph:com.google.javascript.jscomp.CodeChangeHandler:com.google.javascript.jscomp.CompilerInput:com.google.javascript.jscomp.VariableRenamingPolicy:com.google.javascript.rhino.jstype.StringType:com.google.javascript.jscomp.CheckMissingReturn:com.google.javascript.jscomp.TypeCheck:com.google.javascript.rhino.Node:com.google.javascript.jscomp.ProcessTweaks:com.google.javascript.jscomp.type.ReverseAbstractInterpreter:com.google.javascript.jscomp.Scope:com.google.javascript.jscomp.JsMessageVisitor:com.google.javascript.rhino.jstype.TemplateType:com.google.javascript.jscomp.SourceFile:com.google.javascript.jscomp.StrictModeCheck:com.google.javascript.jscomp.parsing.TypeSafeDispatcher:com.google.javascript.rhino.jstype.JSTypeRegistry:com.google.javascript.rhino.SimpleErrorReporter:com.google.javascript.jscomp.ErrorFormat:com.google.javascript.jscomp.type.ClosureReverseAbstractInterpreter:com.google.javascript.jscomp.NodeUtil:com.google.javascript.jscomp.graph.DiGraph:com.google.javascript.jscomp.CheckGlobalThis:com.google.javascript.rhino.jstype.ObjectType:com.google.javascript.jscomp.CheckSuspiciousCode:com.google.javascript.jscomp.CheckProvides:com.google.javascript.jscomp.deps.DependencyInfo:com.google.javascript.jscomp.FunctionTypeBuilder:com.google.javascript.jscomp.CompilerOptions:com.google.javascript.rhino.jstype.RecordTypeBuilder:com.google.javascript.rhino.jstype.JSType:com.google.javascript.rhino.jstype.TemplatizedType:com.google.javascript.jscomp.ControlFlowGraph:com.google.javascript.rhino.jstype.PropertyMap:com.google.javascript.jscomp.SuppressDocWarningsGuard:com.google.javascript.rhino.jstype.NamespaceType:com.google.javascript.jscomp.ProcessDefines:com.google.javascript.rhino.jstype.CanCastToVisitor:com.google.javascript.rhino.ErrorReporter:com.google.javascript.rhino.jstype.JSTypeNative:com.google.javascript.jscomp.CheckGlobalNames:com.google.javascript.rhino.jstype.StaticScope:com.google.javascript.rhino.JSTypeExpression:com.google.javascript.jscomp.ClosureCodingConvention:com.google.javascript.rhino.jstype.StaticSourceFile:com.google.javascript.jscomp.DisambiguateProperties:com.google.javascript.jscomp.CheckAccessControls:com.google.javascript.jscomp.CheckDebuggerStatement:com.google.javascript.jscomp.JSModuleGraph:com.google.javascript.rhino.jstype.NoResolvedType:com.google.javascript.jscomp.ControlStructureCheck:com.google.javascript.rhino.jstype.StaticSymbolTable:com.google.javascript.jscomp.ReplaceIdGenerators:com.google.javascript.rhino.jstype.TemplateTypeMapReplacer:com.google.javascript.jscomp.CheckRequiresForConstructors:com.google.javascript.jscomp.MessageFormatter:com.google.javascript.rhino.jstype.VoidType:com.google.javascript.jscomp.RhinoErrorReporter:com.google.javascript.rhino.jstype.UnknownType:com.google.javascript.jscomp.SyntacticScopeCreator:com.google.javascript.jscomp.CompilerPass:com.google.javascript.rhino.jstype.EnumElementType:com.google.javascript.rhino.jstype.ErrorFunctionType:com.google.javascript.rhino.jstype.NoObjectType:com.google.javascript.rhino.jstype.ArrowType:com.google.javascript.jscomp.BasicErrorManager:com.google.javascript.jscomp.SourceMap:com.google.javascript.rhino.jstype.FunctionParamBuilder:com.google.javascript.rhino.jstype.BooleanType:com.google.javascript.jscomp.parsing.IRFactory:com.google.javascript.jscomp.WarningsGuard:com.google.javascript.jscomp.ErrorManager:com.google.javascript.rhino.jstype.Property:
[INFO ] fr.inria.astor.core.setup.ConfigurationProperties.print(ConfigurationProperties.java:66) - p:evoRunOnBuggyClass= true
[INFO ] fr.inria.astor.core.setup.ConfigurationProperties.print(ConfigurationProperties.java:66) - p:compiler= fr.inria.astor.core.manipulation.bytecode.compiler.SpoonClassCompiler
[INFO ] fr.inria.astor.core.setup.ConfigurationProperties.print(ConfigurationProperties.java:66) - p:dependenciespath= ../../dat/defects4j/Closure/111/b/lib/ant-launcher.jar:../../dat/defects4j/Closure/111/b/lib/caja-r4314.jar:../../dat/defects4j/Closure/111/b/lib/json.jar:../../dat/defects4j/Closure/111/b/lib/jsr305.jar:../../dat/defects4j/Closure/111/b/lib/args4j.jar:../../dat/defects4j/Closure/111/b/lib/ant.jar:../../dat/defects4j/Closure/111/b/lib/jarjar.jar:../../dat/defects4j/Closure/111/b/lib/junit.jar:../../dat/defects4j/Closure/111/b/lib/guava.jar:../../dat/defects4j/Closure/111/b/lib/protobuf-java.jar:../../dat/defects4j/Closure/111/b/build/lib/rhino.jar:../../dat/defects4j/Closure/111/b/build/lib/rhino1_7R5pre/js.jar:../../dat/defects4j/Closure/111/b/build/classes:../../dat/defects4j/Closure/111/b/build/test
[INFO ] fr.inria.astor.core.setup.ConfigurationProperties.print(ConfigurationProperties.java:66) - p:skipfaultlocalization= false
[INFO ] fr.inria.astor.core.setup.ConfigurationProperties.print(ConfigurationProperties.java:66) - p:packageToInstrument= com.google
[INFO ] fr.inria.astor.core.setup.ConfigurationProperties.print(ConfigurationProperties.java:66) - p:scope= fr.inria.astor.core.loop.spaces.ingredients.scopes.ctscopes.CtGlobalIngredientScope
[INFO ] fr.inria.astor.core.setup.ConfigurationProperties.print(ConfigurationProperties.java:66) - p:transformingredient= false
[INFO ] fr.inria.astor.core.setup.ConfigurationProperties.print(ConfigurationProperties.java:66) - p:fitnessfunction= fr.inria.astor.core.loop.population.TestCaseFitnessFunction
[INFO ] fr.inria.astor.core.setup.ConfigurationProperties.print(ConfigurationProperties.java:66) - p:pvariantfoldername= variant-
[INFO ] fr.inria.astor.core.setup.ConfigurationProperties.print(ConfigurationProperties.java:66) - p:srcjavafolder= src/
[INFO ] fr.inria.astor.core.setup.ConfigurationProperties.print(ConfigurationProperties.java:66) - p:populationcontroller= fr.inria.astor.core.loop.population.TestCaseBasedFitnessPopulationController
[INFO ] fr.inria.astor.core.setup.ConfigurationProperties.print(ConfigurationProperties.java:66) - p:ignoreflakyinfl= false
[INFO ] fr.inria.astor.core.setup.ConfigurationProperties.print(ConfigurationProperties.java:66) - p:applyCrossover= false
[INFO ] fr.inria.astor.core.setup.ConfigurationProperties.print(ConfigurationProperties.java:66) - p:saveall= false
[INFO ] fr.inria.astor.core.setup.ConfigurationProperties.print(ConfigurationProperties.java:66) - p:seed= 2
[INFO ] fr.inria.astor.core.setup.ConfigurationProperties.print(ConfigurationProperties.java:66) - p:resetoperations= false
[INFO ] fr.inria.astor.core.setup.ConfigurationProperties.print(ConfigurationProperties.java:66) - p:location= ../../dat/defects4j/Closure/111/b/
[INFO ] fr.inria.astor.core.setup.ConfigurationProperties.print(ConfigurationProperties.java:66) - p:ingredientstrategy= fr.inria.astor.core.loop.spaces.ingredients.ingredientSearch.CloneIngredientSearchStrategy
[INFO ] fr.inria.astor.core.setup.ConfigurationProperties.print(ConfigurationProperties.java:66) - p:allpoints= false
[INFO ] fr.inria.astor.core.setup.ConfigurationProperties.print(ConfigurationProperties.java:66) - p:bugId= 280
[INFO ] fr.inria.astor.core.setup.ConfigurationProperties.print(ConfigurationProperties.java:66) - p:evosuitetimeout= 120
[INFO ] fr.inria.astor.core.setup.ConfigurationProperties.print(ConfigurationProperties.java:68) - ----------------------------
[INFO ] fr.inria.astor.core.loop.AstorCoreEngine.startEvolution(AstorCoreEngine.java:119) - 
----Starting Solution Search
0-->2com.google.javascript.rhino.jstype.TemplateTypeMapReplacer
1-->2com.google.javascript.jscomp.CoalesceVariableNames
2-->2com.google.javascript.jscomp.InlineCostEstimator
3-->2com.google.javascript.jscomp.WhitelistWarningsGuard
4-->2com.google.javascript.jscomp.CheckRequiresForConstructors
5-->2com.google.javascript.jscomp.OptimizeCalls
6-->2com.google.javascript.jscomp.CheckSideEffects
7-->2com.google.javascript.jscomp.SimpleDefinitionFinder
8-->2com.google.javascript.jscomp.graph.Graph
9-->2com.google.javascript.rhino.jstype.StaticScope
10-->2com.google.javascript.rhino.jstype.InstanceObjectType
11-->2com.google.javascript.jscomp.graph.Annotatable
12-->2com.google.javascript.jscomp.parsing.JsDocToken
13-->2com.google.javascript.jscomp.jsonml.TagType
14-->2com.google.javascript.rhino.jstype.SimpleReference
15-->2com.google.javascript.jscomp.JSModule
16-->2com.google.javascript.rhino.jstype.ObjectType
17-->2com.google.javascript.jscomp.AliasKeywords
18-->2com.google.javascript.jscomp.GoogleJsMessageIdGenerator
19-->2com.google.javascript.rhino.jstype.RecordType
20-->2com.google.javascript.jscomp.JvmMetrics
21-->2com.google.javascript.jscomp.Tracer
22-->2com.google.javascript.jscomp.PeepholeSimplifyRegExp
23-->2com.google.javascript.jscomp.ExpandJqueryAliases
24-->2com.google.javascript.jscomp.HotSwapCompilerPass
25-->2com.google.javascript.jscomp.OptimizeParameters
26-->2com.google.javascript.jscomp.FileInstrumentationData
27-->2com.google.javascript.rhino.jstype.TemplateTypeMap
28-->2com.google.javascript.jscomp.CodingConvention
29-->2com.google.javascript.jscomp.type.ChainableReverseAbstractInterpreter
30-->2com.google.javascript.jscomp.MemoizedScopeCreator
31-->2com.google.javascript.jscomp.CheckEventfulObjectDisposal
32-->2com.google.javascript.jscomp.CheckDebuggerStatement
33-->2com.google.javascript.jscomp.CheckAccessControls
34-->2com.google.javascript.jscomp.ReplaceIdGenerators
35-->2com.google.javascript.jscomp.CleanupPasses
36-->2com.google.javascript.jscomp.NameReferenceGraphConstruction
37-->2com.google.javascript.rhino.jstype.ProxyObjectType
38-->2com.google.javascript.jscomp.AnonymousFunctionNamingPolicy
39-->2com.google.debugging.sourcemap.SourceMapGenerator
40-->2com.google.javascript.rhino.InputId
41-->2com.google.javascript.jscomp.RemoveUnusedNames
42-->2com.google.javascript.jscomp.deps.SortedDependencies
43-->2com.google.javascript.rhino.ErrorReporter
44-->2com.google.javascript.rhino.Token
45-->2com.google.javascript.rhino.jstype.ValueType
46-->2com.google.javascript.jscomp.ObjectPropertyStringPostprocess
47-->2com.google.javascript.jscomp.ErrorPass
48-->2com.google.javascript.jscomp.VerboseMessageFormatter
49-->2com.google.javascript.rhino.jstype.BooleanType
50-->2com.google.javascript.jscomp.CssRenamingMap
51-->2com.google.javascript.jscomp.CombinedCompilerPass
52-->2com.google.javascript.jscomp.CollapseVariableDeclarations
53-->2com.google.javascript.jscomp.SuppressDocWarningsGuard
54-->2com.google.javascript.jscomp.type.SemanticReverseAbstractInterpreter
55-->2com.google.javascript.jscomp.jsonml.JsonMLAst
56-->2com.google.debugging.sourcemap.SourceMappingReversable
57-->2com.google.javascript.jscomp.MessageFormatter
58-->2com.google.javascript.jscomp.DotFormatter
59-->2com.google.javascript.rhino.JSDocInfo
60-->2com.google.javascript.jscomp.parsing.Config
61-->2com.google.javascript.jscomp.fuzzing.Driver
62-->2com.google.javascript.jscomp.webservice.common.Protocol
63-->2com.google.javascript.jscomp.ErrorHandler
64-->2com.google.javascript.jscomp.GoogleCodingConvention
65-->2com.google.debugging.sourcemap.Util
66-->2com.google.javascript.jscomp.Denormalize
67-->2com.google.javascript.jscomp.AliasExternals
68-->2com.google.javascript.jscomp.StrictModeCheck
69-->2com.google.javascript.jscomp.graph.GraphReachability
70-->2com.google.javascript.jscomp.Result
71-->2com.google.javascript.jscomp.SimpleRegion
72-->2com.google.javascript.jscomp.RemoveUnusedClassProperties
73-->2com.google.javascript.rhino.jstype.EnumElementType
74-->2com.google.javascript.jscomp.CompilerPass
75-->2com.google.javascript.jscomp.CollapseProperties
76-->2com.google.javascript.jscomp.VariableRenamingPolicy
77-->2com.google.javascript.jscomp.RemoveTryCatch
78-->2com.google.javascript.jscomp.CheckLevelLegacy
79-->2com.google.javascript.jscomp.CodeChangeHandler
80-->2com.google.javascript.jscomp.FunctionTypeBuilder
81-->2com.google.javascript.rhino.jstype.SimpleSourceFile
82-->2com.google.javascript.jscomp.RecentChange
83-->2com.google.javascript.rhino.jstype.EnumType
84-->2com.google.javascript.jscomp.DataFlowAnalysis
85-->2com.google.javascript.jscomp.regex.CharRanges
86-->2com.google.javascript.jscomp.InstrumentMemoryAllocPass
87-->2com.google.javascript.jscomp.InlineObjectLiterals
88-->2com.google.javascript.jscomp.RescopeGlobalSymbols
89-->2com.google.javascript.jscomp.jsonml.Validator
90-->2com.google.javascript.jscomp.JSSourceFile
91-->2com.google.javascript.jscomp.CodingConventions
92-->2com.google.javascript.rhino.jstype.StaticReference
93-->2com.google.javascript.jscomp.InlineVariables
94-->2com.google.javascript.jscomp.DisambiguatePrivateProperties
95-->2com.google.javascript.jscomp.PreprocessorSymbolTable
96-->2com.google.javascript.jscomp.FindExportableNodes
97-->2com.google.javascript.jscomp.VariableVisibilityAnalysis
98-->2com.google.javascript.jscomp.parsing.JsDocTokenStream
99-->2com.google.javascript.jscomp.GlobalVarReferenceMap
100-->2com.google.javascript.jscomp.graph.LinkedDirectedGraph
101-->2com.google.javascript.jscomp.CrossModuleCodeMotion
102-->2com.google.javascript.jscomp.TypeValidator
103-->2com.google.javascript.jscomp.graph.UndiGraph
104-->2com.google.javascript.rhino.jstype.NoResolvedType
105-->2com.google.javascript.jscomp.ExpressionDecomposer
106-->2com.google.javascript.jscomp.SimpleFunctionAliasAnalysis
107-->2com.google.javascript.jscomp.ClosureCodeRemoval
108-->2com.google.javascript.jscomp.CustomPassExecutionTime
109-->2com.google.javascript.jscomp.SyntacticScopeCreator
110-->2com.google.javascript.jscomp.GroupVariableDeclarations
111-->2com.google.javascript.jscomp.webservice.common.ErrorCode
112-->2com.google.javascript.jscomp.graph.GraphColoring
113-->2com.google.javascript.jscomp.FunctionNames
114-->2com.google.javascript.jscomp.NameAnonymousFunctionsMapped
115-->2com.google.javascript.jscomp.JsMessageExtractor
116-->2com.google.debugging.sourcemap.SourceMapping
117-->2com.google.javascript.rhino.jstype.NoType
118-->2com.google.javascript.jscomp.graph.SubGraph
119-->2com.google.javascript.jscomp.fuzzing.Fuzzer
120-->2com.google.javascript.rhino.TokenStream
121-->2com.google.javascript.rhino.jstype.FunctionParamBuilder
122-->2com.google.javascript.jscomp.PeepholeCollectPropertyAssignments
123-->2com.google.javascript.jscomp.ClosureOptimizePrimitives
124-->2com.google.javascript.jscomp.StatementFusion
125-->2com.google.javascript.jscomp.RecordFunctionInformation
126-->2com.google.javascript.jscomp.NodeNameExtractor
127-->2com.google.javascript.jscomp.NameReferenceGraphReport
128-->2com.google.javascript.jscomp.deps.JsFileLineParser
129-->2com.google.javascript.jscomp.InferJSDocInfo
130-->2com.google.javascript.jscomp.ant.AntErrorManager
131-->2com.google.javascript.jscomp.graph.GraphPruner
132-->2com.google.javascript.jscomp.PeepholeOptimizationsPass
133-->2com.google.javascript.jscomp.jsonml.Writer
134-->2com.google.javascript.jscomp.NodeUtil
135-->2com.google.javascript.jscomp.JsMessageVisitor
136-->2com.google.javascript.jscomp.deps.SimpleDependencyInfo
137-->2com.google.javascript.jscomp.AbstractCommandLineRunner
138-->2com.google.javascript.jscomp.RenamePrototypes
139-->2com.google.javascript.jscomp.PassConfig
140-->2com.google.javascript.jscomp.testing.TestErrorReporter
141-->2com.google.javascript.jscomp.NameGenerator
142-->2com.google.javascript.jscomp.OptimizeReturns
143-->2com.google.javascript.jscomp.DefinitionsRemover
144-->2com.google.javascript.jscomp.PeepholeMinimizeConditions
145-->2com.google.javascript.jscomp.ReferenceCollectingCallback
146-->2com.google.javascript.rhino.jstype.NullType
147-->2com.google.javascript.jscomp.LightweightMessageFormatter
148-->2com.google.javascript.jscomp.CoverageInstrumentationCallback
149-->2com.google.javascript.rhino.jstype.NoObjectType
150-->2com.google.javascript.jscomp.DiagnosticType
151-->2com.google.javascript.jscomp.PrepareAst
152-->2com.google.javascript.jscomp.ExportTestFunctions
153-->2com.google.javascript.jscomp.CompilerInput
154-->2com.google.javascript.jscomp.AbstractCompiler
155-->2com.google.javascript.jscomp.ProcessClosurePrimitives
156-->2com.google.javascript.jscomp.ExploitAssigns
157-->2com.google.javascript.jscomp.deps.JsFileParser
158-->2com.google.javascript.rhino.jstype.Property
159-->2com.google.javascript.jscomp.ExtractPrototypeMemberDeclarations
160-->2com.google.javascript.jscomp.CrossModuleMethodMotion
161-->2com.google.javascript.jscomp.DiagnosticGroup
162-->2com.google.javascript.jscomp.ant.CompileTask
163-->2com.google.javascript.rhino.jstype.RecordTypeBuilder
164-->2com.google.javascript.jscomp.type.ClosureReverseAbstractInterpreter
165-->2com.google.debugging.sourcemap.SourceMapParseException
166-->2com.google.debugging.sourcemap.SourceMapConsumerFactory
167-->2com.google.javascript.jscomp.TransformAMDToCJSModule
168-->2com.google.javascript.jscomp.FlowSensitiveInlineVariables
169-->2com.google.javascript.jscomp.SpecializationAwareCompilerPass
170-->2com.google.javascript.jscomp.IgnoreCajaProperties
171-->2com.google.javascript.jscomp.ErrorManager
172-->2com.google.javascript.jscomp.RenameVars
173-->2com.google.javascript.rhino.jstype.StaticSlot
174-->2com.google.javascript.jscomp.CheckLevel
175-->2com.google.javascript.rhino.testing.BaseJSTypeTestCase
176-->2com.google.javascript.jscomp.InvocationsCallback
177-->2com.google.javascript.jscomp.deps.DepsGenerator
178-->2com.google.javascript.jscomp.InlineSimpleMethods
179-->2com.google.javascript.jscomp.Region
180-->2com.google.javascript.rhino.IR
181-->2com.google.javascript.rhino.jstype.BooleanLiteralSet
182-->2com.google.javascript.jscomp.NodeIterators
183-->2com.google.javascript.jscomp.DefaultPassConfig
184-->2com.google.javascript.jscomp.Normalize
185-->2com.google.javascript.jscomp.RenameProperties
186-->2com.google.javascript.jscomp.NameAnonymousFunctions
187-->2com.google.javascript.jscomp.GenerateExports
188-->2com.google.javascript.jscomp.DefinitionProvider
189-->2com.google.javascript.rhino.JSDocInfoBuilder
190-->2com.google.javascript.jscomp.FieldCleanupPass
191-->2com.google.javascript.jscomp.DependencyOptions
192-->2com.google.javascript.jscomp.JsMessage
193-->2com.google.javascript.jscomp.RenamingMap
194-->2com.google.javascript.jscomp.CheckPathsBetweenNodes
195-->2com.google.javascript.jscomp.StrictWarningsGuard
196-->2com.google.javascript.jscomp.SanityCheck
197-->2com.google.javascript.jscomp.ReplaceMessages
198-->2com.google.javascript.jscomp.MustBeReachingVariableDef
199-->2com.google.javascript.rhino.testing.AbstractStaticScope
200-->2com.google.javascript.rhino.jstype.JSTypeNative
201-->2com.google.javascript.jscomp.graph.UnionFind
202-->2com.google.javascript.rhino.jstype.AllType
203-->2com.google.javascript.jscomp.FunctionInjector
204-->2com.google.javascript.rhino.JSTypeExpression
205-->2com.google.javascript.jscomp.PrintStreamErrorManager
206-->2com.google.javascript.jscomp.RenameVars2
207-->2com.google.javascript.jscomp.WarningLevel
208-->2com.google.javascript.jscomp.jsonml.NodeUtil
209-->2com.google.javascript.jscomp.MakeDeclaredNamesUnique
210-->2com.google.javascript.jscomp.regex.RegExpTree
211-->2com.google.javascript.jscomp.type.ReverseAbstractInterpreter
212-->2com.google.javascript.rhino.jstype.PrototypeObjectType
213-->2com.google.javascript.rhino.jstype.ArrowType
214-->2com.google.javascript.rhino.SimpleErrorReporter
215-->2com.google.javascript.jscomp.deps.JsFunctionParser
216-->2com.google.javascript.rhino.jstype.EquivalenceMethod
217-->2com.google.javascript.jscomp.type.FlowScope
218-->2com.google.javascript.jscomp.graph.GraphNode
219-->2com.google.javascript.rhino.jstype.NumberType
220-->2com.google.javascript.jscomp.CodeConsumer
221-->2com.google.javascript.jscomp.jsonml.JsonMLError
222-->2com.google.javascript.jscomp.parsing.JsDocInfoParser
223-->2com.google.javascript.jscomp.BitField
224-->2com.google.javascript.jscomp.PassFactory
225-->2com.google.debugging.sourcemap.SourceMapSection
226-->2com.google.javascript.jscomp.deps.DepsFileParser
227-->2com.google.javascript.jscomp.TypeInferencePass
228-->2com.google.javascript.jscomp.ControlFlowGraph
229-->2com.google.javascript.jscomp.graph.GraphvizGraph
230-->2com.google.javascript.jscomp.InlineFunctions
231-->2com.google.javascript.rhino.jstype.ModificationVisitor
232-->2com.google.javascript.jscomp.MinimizedCondition
233-->2com.google.javascript.rhino.testing.TestErrorReporter
234-->2com.google.javascript.jscomp.GlobalNamespace
235-->2com.google.javascript.jscomp.ClosureCodingConvention
236-->2com.google.javascript.jscomp.ControlStructureCheck
237-->2com.google.javascript.jscomp.VariableReferenceCheck
238-->2com.google.javascript.jscomp.WarningsGuard
239-->2com.google.javascript.jscomp.FunctionArgumentInjector
240-->2com.google.javascript.jscomp.MarkNoSideEffectCalls
241-->2com.google.javascript.jscomp.SourceMap
242-->2com.google.javascript.jscomp.parsing.TypeSafeDispatcher
243-->2com.google.javascript.jscomp.CompilerOptions
244-->2com.google.debugging.sourcemap.SourceMapSupplier
245-->2com.google.javascript.rhino.jstype.TemplateType
246-->2com.google.javascript.rhino.jstype.NamedType
247-->2com.google.javascript.jscomp.ShadowVariables
248-->2com.google.javascript.jscomp.StripCode
249-->2com.google.javascript.jscomp.CheckProvides
250-->2com.google.javascript.jscomp.LiveVariablesAnalysis
251-->2com.google.javascript.jscomp.InlineProperties
252-->2com.google.javascript.jscomp.ReplaceCssNames
253-->2com.google.javascript.jscomp.RhinoErrorReporter
254-->2com.google.javascript.rhino.jstype.UnknownType
255-->2com.google.debugging.sourcemap.Base64VLQ
256-->2com.google.javascript.rhino.jstype.PropertyMap
257-->2com.google.javascript.jscomp.ShadowVariables2
258-->2com.google.javascript.jscomp.CheckGlobalNames
259-->2com.google.javascript.rhino.jstype.StaticSourceFile
260-->2com.google.javascript.jscomp.EmptyMessageBundle
261-->2com.google.javascript.jscomp.AnalyzeNameReferences
262-->2com.google.javascript.jscomp.TypeInference
263-->2com.google.javascript.jscomp.CheckRegExp
264-->2com.google.javascript.jscomp.testing.SimpleSourceExcerptProvider
265-->2com.google.javascript.jscomp.CheckGlobalThis
266-->2com.google.javascript.jscomp.UnreachableCodeElimination
267-->2com.google.javascript.jscomp.DiagnosticGroupWarningsGuard
268-->2com.google.javascript.jscomp.jsonml.ErrorLevel
269-->2com.google.javascript.jscomp.jsonml.SecureCompiler
270-->2com.google.javascript.jscomp.LineNumberCheck
271-->2com.google.javascript.jscomp.BasicErrorManager
272-->2com.google.javascript.jscomp.PerformanceTracker
273-->2com.google.javascript.jscomp.ProcessDefines
274-->2com.google.javascript.jscomp.DeadAssignmentsElimination
275-->2com.google.javascript.jscomp.TypedCodeGenerator
276-->2com.google.javascript.jscomp.ScopedAliases
277-->2com.google.javascript.jscomp.PeepholeFoldConstants
278-->2com.google.javascript.jscomp.ShowByPathWarningsGuard
279-->2com.google.javascript.jscomp.RenameLabels
280-->2com.google.javascript.jscomp.CallGraph
281-->2com.google.javascript.jscomp.ForbiddenChange
282-->2com.google.javascript.jscomp.Scope
283-->2com.google.javascript.jscomp.AliasStrings
284-->2com.google.javascript.jscomp.SourceInformationAnnotator
285-->2com.google.javascript.jscomp.PeepholeReplaceKnownMethods
286-->2com.google.javascript.jscomp.AbstractPeepholeOptimization
287-->2com.google.javascript.jscomp.jsonml.JsonMLException
288-->2com.google.debugging.sourcemap.SourceMapConsumerV2
289-->2com.google.debugging.sourcemap.SourceMapConsumerV3
290-->2com.google.debugging.sourcemap.SourceMapGeneratorFactory
291-->2com.google.debugging.sourcemap.SourceMapConsumerV1
292-->2com.google.javascript.rhino.jstype.NamespaceType
293-->2com.google.javascript.rhino.testing.MapBasedScope
294-->2com.google.javascript.jscomp.parsing.Annotation
295-->2com.google.javascript.jscomp.AbstractMessageFormatter
296-->2com.google.javascript.jscomp.CreateSyntheticBlocks
297-->2com.google.javascript.jscomp.DefinitionSite
298-->2com.google.javascript.jscomp.ProcessTweaks
299-->2com.google.javascript.jscomp.parsing.IRFactory
300-->2com.google.javascript.jscomp.NameAnalyzer
301-->2com.google.javascript.jscomp.AnonymousFunctionNamingCallback
302-->2com.google.javascript.jscomp.jsonml.Reader
303-->2com.google.javascript.jscomp.JoinOp
304-->2com.google.javascript.jscomp.Strings
305-->2com.google.javascript.jscomp.FunctionToBlockMutator
306-->2com.google.javascript.jscomp.jsonml.TagAttr
307-->2com.google.javascript.jscomp.UseSite
308-->2com.google.javascript.jscomp.webservice.common.AbstractWebServiceException
309-->2com.google.javascript.rhino.jstype.TemplatizedType
310-->2com.google.javascript.jscomp.OptimizeArgumentsArray
311-->2com.google.debugging.sourcemap.SourceMapFormat
312-->2com.google.javascript.jscomp.graph.FixedPointGraphTraversal
313-->2com.google.javascript.jscomp.deps.PathUtil
314-->2com.google.javascript.jscomp.PeepholeRemoveDeadCode
315-->2com.google.javascript.jscomp.AngularPass
316-->2com.google.javascript.jscomp.ReorderConstantExpression
317-->2com.google.javascript.jscomp.LinkedFlowScope
318-->2com.google.javascript.jscomp.GatherCharacterEncodingBias
319-->2com.google.javascript.jscomp.fuzzing.StringGenerator
320-->2com.google.javascript.jscomp.graph.LinkedUndirectedGraph
321-->2com.google.debugging.sourcemap.SourceMapGeneratorV2
322-->2com.google.debugging.sourcemap.SourceMapGeneratorV1
323-->2com.google.debugging.sourcemap.SourceMapGeneratorV3
324-->2com.google.javascript.jscomp.MinimizeExitPoints
325-->2com.google.javascript.jscomp.MethodCompilerPass
326-->2com.google.javascript.jscomp.SourceAst
327-->2com.google.javascript.jscomp.MessageBundle
328-->2com.google.javascript.jscomp.CheckUnreachableCode
329-->2com.google.javascript.jscomp.ByPathWarningsGuard
330-->2com.google.javascript.jscomp.SourceExcerptProvider
331-->2com.google.javascript.jscomp.FunctionRewriter
332-->2com.google.javascript.rhino.SourcePosition
333-->2com.google.javascript.rhino.Node
334-->2com.google.javascript.jscomp.RemoveUnusedVars
335-->2com.google.javascript.jscomp.LoggerErrorManager
336-->2com.google.javascript.jscomp.NodeTraversal
337-->2com.google.javascript.jscomp.ExternExportsPass
338-->2com.google.javascript.jscomp.ComposeWarningsGuard
339-->2com.google.javascript.jscomp.CompilationLevel
340-->2com.google.javascript.jscomp.VariableMap
341-->2com.google.javascript.jscomp.jsonml.JsonMLUtil
342-->2com.google.javascript.jscomp.JsAst
343-->2com.google.javascript.jscomp.parsing.NullErrorReporter
344-->2com.google.javascript.jscomp.ErrorFormat
345-->2com.google.javascript.jscomp.AstParallelizer
346-->2com.google.javascript.jscomp.JsMessageDefinition
347-->2com.google.javascript.jscomp.NameReferenceGraph
348-->2com.google.javascript.jscomp.ConcreteType
349-->2com.google.javascript.jscomp.CheckMissingGetCssName
350-->2com.google.javascript.jscomp.JqueryCodingConvention
351-->2com.google.javascript.jscomp.MoveFunctionDeclarations
352-->2com.google.javascript.jscomp.PeepholeSubstituteAlternateSyntax
353-->2com.google.javascript.jscomp.TightenTypes
354-->2com.google.javascript.rhino.jstype.VoidType
355-->2com.google.javascript.jscomp.regex.CaseCanonicalize
356-->2com.google.javascript.rhino.jstype.JSType
357-->2com.google.javascript.jscomp.ConvertToDottedProperties
358-->2com.google.javascript.jscomp.PhaseOptimizer
359-->2com.google.javascript.jscomp.SyntheticAst
360-->2com.google.javascript.jscomp.DiagnosticGroups
361-->2com.google.javascript.jscomp.AstValidator
362-->2com.google.javascript.rhino.jstype.UnionTypeBuilder
363-->2com.google.javascript.rhino.jstype.RelationshipVisitor
364-->2com.google.javascript.jscomp.ScopeCreator
365-->2com.google.javascript.jscomp.CommandLineRunner
366-->2com.google.javascript.jscomp.ant.Warning
367-->2com.google.debugging.sourcemap.FilePosition
368-->2com.google.javascript.jscomp.graph.AdjacencyGraph
369-->2com.google.javascript.jscomp.SourceFile
370-->2com.google.debugging.sourcemap.Base64
371-->2com.google.javascript.jscomp.AnalyzePrototypeProperties
372-->2com.google.javascript.jscomp.PropertyRenamingPolicy
373-->2com.google.javascript.jscomp.ChainCalls
374-->2com.google.javascript.rhino.jstype.FunctionBuilder
375-->2com.google.javascript.jscomp.MaybeReachingVariableUse
376-->2com.google.javascript.jscomp.CoverageUtil
377-->2com.google.javascript.jscomp.SpecializeModule
378-->2com.google.javascript.rhino.jstype.ErrorFunctionType
379-->2com.google.javascript.rhino.jstype.FunctionType
380-->2com.google.javascript.jscomp.Compiler
381-->2com.google.javascript.rhino.jstype.CanCastToVisitor
382-->2com.google.javascript.jscomp.TypedScopeCreator
383-->2com.google.javascript.jscomp.ClosureRewriteClass
384-->2com.google.javascript.rhino.jstype.TernaryValue
385-->2com.google.javascript.jscomp.JSError
386-->2com.google.javascript.jscomp.ReplaceMessagesForChrome
387-->2com.google.javascript.jscomp.DevirtualizePrototypeMethods
388-->2com.google.javascript.jscomp.PureFunctionIdentifier
389-->2com.google.javascript.jscomp.PeepholeFoldWithTypes
390-->2com.google.javascript.jscomp.CheckMissingReturn
391-->2com.google.javascript.rhino.jstype.UnionType
392-->2com.google.javascript.jscomp.ControlFlowAnalysis
393-->2com.google.javascript.jscomp.graph.LatticeElement
394-->2com.google.javascript.jscomp.jsonml.JsonML
395-->2com.google.javascript.jscomp.CodeGenerator
396-->2com.google.javascript.jscomp.JSModuleGraph
397-->2com.google.javascript.jscomp.GatherRawExports
398-->2com.google.javascript.rhino.jstype.SimpleSlot
399-->2com.google.javascript.jscomp.ObjectPropertyStringPreprocess
400-->2com.google.javascript.jscomp.graph.Annotation
401-->2com.google.javascript.jscomp.AmbiguateProperties
402-->2com.google.javascript.jscomp.ProcessCommonJSModules
403-->2com.google.javascript.rhino.testing.Asserts
404-->2com.google.javascript.jscomp.XtbMessageBundle
405-->2com.google.javascript.jscomp.AstChangeProxy
406-->2com.google.javascript.jscomp.DisambiguateProperties
407-->2com.google.javascript.jscomp.VarCheck
408-->2com.google.javascript.jscomp.SideEffectsAnalysis
409-->2com.google.javascript.jscomp.ReplaceStrings
410-->2com.google.javascript.rhino.jstype.StringType
411-->2com.google.javascript.jscomp.InstrumentFunctions
412-->2com.google.javascript.rhino.jstype.StaticSymbolTable
413-->2com.google.javascript.rhino.jstype.JSTypeRegistry
414-->2com.google.javascript.jscomp.graph.DiGraph
415-->2com.google.javascript.jscomp.GatherSideEffectSubexpressionsCallback
416-->2com.google.javascript.jscomp.graph.StandardUnionFind
417-->2com.google.debugging.sourcemap.SourceMapConsumer
418-->2com.google.javascript.jscomp.CoverageInstrumentationPass
419-->2com.google.javascript.jscomp.CheckSuspiciousCode
420-->2com.google.javascript.jscomp.parsing.ParserRunner
421-->2com.google.javascript.jscomp.ConstCheck
422-->2com.google.debugging.sourcemap.SourceMapLineDecoder
423-->2com.google.javascript.rhino.jstype.Visitor
424-->2com.google.javascript.jscomp.TypeCheck
425-->2com.google.javascript.jscomp.SymbolTable
426-->2com.google.javascript.jscomp.deps.DependencyInfo
427-->2com.google.javascript.jscomp.CollapseAnonymousFunctions
428-->2com.google.javascript.jscomp.RemoveUnusedPrototypeProperties
429-->2com.google.javascript.jscomp.RuntimeTypeCheck
430-->2com.google.javascript.jscomp.CodePrinter
[INFO ] fr.inria.astor.core.validation.executors.JUnitExecutorProcess.execute(JUnitExecutorProcess.java:120) - The Process that runs JUnit test cases had problems: process hasn't exited
[INFO ] fr.inria.astor.core.loop.AstorCoreEngine.belowMaxTime(AstorCoreEngine.java:203) - 
 No more time for operating
[INFO ] fr.inria.astor.core.loop.AstorCoreEngine.startEvolution(AstorCoreEngine.java:143) - Time Repair Loop (s): 10866.176
[INFO ] fr.inria.astor.core.loop.AstorCoreEngine.showResults(AstorCoreEngine.java:165) - 
----SUMMARY_EXECUTION---
[INFO ] fr.inria.astor.approaches.jgenprog.JGenProg.showResults(JGenProg.java:332) - 
successful_ing_attempts (#trials 0, totalAttps 0): []
[INFO ] fr.inria.astor.approaches.jgenprog.JGenProg.showResults(JGenProg.java:334) - 
failing_ing_attempts (#trials 783, totalAttps 13078): [8, 4, 8, 8, 1, 1, 7, 6, 8, 17, 8, 3, 1, 50, 57, 8, 4, 22, 1, 1, 6, 1, 1, 7, 68, 3, 8, 1, 38, 57, 1, 1, 1, 3, 1, 8, 1, 1, 1, 8, 68, 34, 8, 51, 17, 8, 50, 8, 56, 7, 25, 50, 22, 4, 8, 1, 1, 51, 4, 1, 1, 8, 18, 19, 2, 4, 10, 10, 2, 1, 10, 25, 8, 14, 1, 1, 322, 34, 2, 10, 14, 4, 2, 8, 31, 1, 19, 1, 22, 4, 5, 1, 1, 103, 14, 2, 4, 8, 7, 1, 1, 55, 1, 50, 1, 44, 2, 1, 1, 2, 10, 1, 3, 1, 1, 8, 68, 9, 5, 8, 14, 1, 14, 3, 22, 1, 10, 5, 8, 22, 55, 1, 2, 8, 4, 22, 8, 22, 22, 17, 2, 22, 8, 6, 12, 15, 14, 4, 8, 1, 19, 10, 1, 16, 14, 3, 22, 8, 2, 2, 2, 14, 1, 5, 8, 15, 10, 15, 1, 4, 22, 1, 8, 1, 8, 1, 3, 1, 8, 68, 1, 14, 68, 12, 14, 8, 50, 34, 14, 4, 3, 34, 23, 19, 5, 19, 3, 1, 5, 1, 1, 1, 14, 2, 15, 22, 3, 1, 2, 5, 1, 1, 1, 14, 34, 5, 19, 5, 8, 23, 8, 8, 4, 10, 3, 1, 1, 1, 1, 23, 8, 5, 2, 34, 13, 1, 12, 5, 28, 7, 8, 4, 1, 2, 1, 34, 22, 22, 5, 14, 22, 1, 1, 14, 1, 1, 1, 4, 2, 1, 1, 1, 14, 1, 1, 1, 4, 2, 8, 14, 14, 3, 1, 1, 3, 50, 1, 1, 1, 1, 1, 1, 2, 6, 2, 14, 3, 1, 1, 19, 14, 1, 1, 8, 1, 4, 1, 31, 1, 24, 34, 1, 1, 1, 1, 22, 1, 5, 1, 3, 2, 1, 1, 2, 1, 1, 1, 15, 37, 14, 1, 7, 5, 1, 1, 5, 1, 3, 19, 1, 11, 8, 2, 1, 12, 6, 2, 5, 23, 4, 16, 1, 4, 18, 19, 22, 14, 5, 1, 2, 1, 1, 95, 10, 32, 7, 1, 1, 2, 2, 3, 22, 2, 3, 34, 2, 1, 4, 1, 15, 1, 1, 8, 3, 5, 3, 1, 1, 1, 10, 8, 7, 19, 1, 11, 12, 1, 3, 2, 1, 19, 3, 1, 3, 1, 3, 15, 9, 1, 1, 3, 15, 1, 1, 1, 1, 7, 1, 1, 3, 23, 5, 43, 1, 10, 1, 1, 23, 1, 15, 23, 1, 5, 3, 2, 1, 10, 1, 28, 14, 2, 1, 1, 1, 1, 8, 3, 34, 1, 2, 2, 14, 1, 1, 1, 5, 10, 5, 5, 45, 16, 13, 8, 10, 145, 23, 1, 20, 1, 83, 9, 1, 1, 2, 10, 1, 7, 21, 1, 10, 1, 1, 38, 1, 1, 1, 1, 14, 5, 9, 91, 1, 10, 1, 2, 1, 1, 1, 1, 11, 1, 1, 8, 1, 1, 1, 6, 1, 34, 19, 14, 14, 1, 22, 12, 2, 6, 3, 51, 1, 37, 2, 1, 1, 8, 3, 1, 3, 24, 7, 31, 1, 1, 5, 5, 4, 2, 6, 2, 9, 55, 1, 450, 7, 15, 1, 1, 2, 95, 1, 14, 3, 21, 1, 1, 10, 1, 19, 10, 18, 14, 5, 1, 10, 3, 4, 5, 2, 3, 9, 1, 1, 5, 1, 7, 22, 1, 17, 197, 182, 1, 3, 9, 2, 2, 1, 1, 1, 2, 2, 1, 4, 4, 32, 8, 1, 1, 12, 28, 2, 10, 1, 1, 5, 1, 1, 2, 7, 1, 1, 13, 6, 1, 5, 54, 28, 1, 5, 3, 23, 38, 10, 1, 9, 5, 1, 7, 6, 2, 1, 7, 2, 3, 3, 4, 16, 1, 4, 14, 22, 2, 1, 1, 1, 14, 1, 1, 1, 1, 11, 1, 2, 1, 343, 3, 2, 1, 349, 19, 3, 1, 3, 39, 14, 45, 5, 1, 17, 1, 31, 27, 1, 1, 5, 2, 2, 1, 1, 1, 3, 1, 1, 14, 1, 28, 1, 1, 14, 19, 1, 10, 14, 1, 1, 28, 5, 2, 15, 4, 6, 37, 14, 8, 23, 1, 1, 31, 2, 10, 1, 1, 5, 10, 2, 10, 1, 1, 1, 2, 7, 37, 3, 5, 1, 10, 2, 16, 38, 9, 1, 23, 1, 1, 2, 3, 1, 1, 10, 14, 10, 8, 2, 2124, 5, 106, 3, 6, 20, 6, 13, 3, 95, 1, 3, 1, 6, 5, 14, 19, 1240, 5, 1, 1, 1, 10, 43, 14, 2, 13, 2, 18, 19, 18, 5, 3, 1, 21, 10, 19, 1, 1, 22, 15, 20, 37, 47, 1, 5, 95, 21, 13, 10, 1]
[INFO ] fr.inria.astor.approaches.jgenprog.JGenProg.showResults(JGenProg.java:337) - 
total Patch Attempts (0): []
[INFO ] fr.inria.astor.approaches.jgenprog.JGenProg.showResults(JGenProg.java:339) - 
successful_ing_attempts_by_patch: []
[INFO ] fr.inria.astor.approaches.jgenprog.JGenProg.showResults(JGenProg.java:340) - 
failing_ing_attempts_by_patch: [(pv:2,at:8), (pv:3,at:4), (pv:4,at:8), (pv:5,at:8), (pv:6,at:1), (pv:7,at:1), (pv:8,at:7), (pv:9,at:6), (pv:10,at:8), (pv:11,at:17), (pv:12,at:8), (pv:13,at:3), (pv:14,at:1), (pv:15,at:50), (pv:16,at:57), (pv:17,at:8), (pv:18,at:4), (pv:19,at:22), (pv:20,at:1), (pv:21,at:1), (pv:22,at:6), (pv:23,at:1), (pv:24,at:1), (pv:25,at:7), (pv:26,at:68), (pv:27,at:3), (pv:28,at:8), (pv:29,at:1), (pv:30,at:38), (pv:31,at:57), (pv:32,at:1), (pv:33,at:1), (pv:34,at:1), (pv:35,at:3), (pv:36,at:1), (pv:37,at:8), (pv:38,at:1), (pv:39,at:1), (pv:40,at:1), (pv:41,at:8), (pv:42,at:68), (pv:43,at:34), (pv:44,at:8), (pv:45,at:51), (pv:46,at:17), (pv:47,at:8), (pv:48,at:50), (pv:49,at:8), (pv:50,at:56), (pv:51,at:7), (pv:52,at:25), (pv:53,at:50), (pv:54,at:22), (pv:55,at:4), (pv:56,at:8), (pv:57,at:1), (pv:58,at:1), (pv:59,at:51), (pv:60,at:4), (pv:61,at:1), (pv:62,at:1), (pv:63,at:8), (pv:64,at:18), (pv:65,at:19), (pv:66,at:2), (pv:67,at:4), (pv:68,at:10), (pv:69,at:10), (pv:70,at:2), (pv:71,at:1), (pv:72,at:10), (pv:73,at:25), (pv:74,at:8), (pv:75,at:14), (pv:76,at:1), (pv:77,at:1), (pv:78,at:322), (pv:79,at:34), (pv:80,at:2), (pv:81,at:10), (pv:82,at:14), (pv:83,at:4), (pv:84,at:2), (pv:85,at:8), (pv:86,at:31), (pv:87,at:1), (pv:88,at:19), (pv:89,at:1), (pv:90,at:22), (pv:91,at:4), (pv:92,at:5), (pv:93,at:1), (pv:94,at:1), (pv:95,at:103), (pv:96,at:14), (pv:97,at:2), (pv:98,at:4), (pv:99,at:8), (pv:100,at:7), (pv:101,at:1), (pv:102,at:1), (pv:103,at:55), (pv:104,at:1), (pv:105,at:50), (pv:106,at:1), (pv:107,at:44), (pv:108,at:2), (pv:109,at:1), (pv:110,at:1), (pv:111,at:2), (pv:112,at:10), (pv:113,at:1), (pv:114,at:3), (pv:115,at:1), (pv:116,at:1), (pv:117,at:8), (pv:118,at:68), (pv:119,at:9), (pv:120,at:5), (pv:121,at:8), (pv:122,at:14), (pv:123,at:1), (pv:124,at:14), (pv:125,at:3), (pv:126,at:22), (pv:127,at:1), (pv:128,at:10), (pv:129,at:5), (pv:130,at:8), (pv:131,at:22), (pv:132,at:55), (pv:133,at:1), (pv:134,at:2), (pv:135,at:8), (pv:136,at:4), (pv:137,at:22), (pv:138,at:8), (pv:139,at:22), (pv:140,at:22), (pv:141,at:17), (pv:142,at:2), (pv:143,at:22), (pv:144,at:8), (pv:145,at:6), (pv:146,at:12), (pv:147,at:15), (pv:148,at:14), (pv:149,at:4), (pv:150,at:8), (pv:151,at:1), (pv:152,at:19), (pv:153,at:10), (pv:154,at:1), (pv:155,at:16), (pv:156,at:14), (pv:157,at:3), (pv:158,at:22), (pv:159,at:8), (pv:160,at:2), (pv:161,at:2), (pv:162,at:2), (pv:163,at:14), (pv:164,at:1), (pv:165,at:5), (pv:166,at:8), (pv:167,at:15), (pv:168,at:10), (pv:169,at:15), (pv:170,at:1), (pv:171,at:4), (pv:172,at:22), (pv:173,at:1), (pv:174,at:8), (pv:175,at:1), (pv:176,at:8), (pv:177,at:1), (pv:178,at:3), (pv:179,at:1), (pv:180,at:8), (pv:181,at:68), (pv:182,at:1), (pv:183,at:14), (pv:184,at:68), (pv:185,at:12), (pv:186,at:14), (pv:187,at:8), (pv:188,at:50), (pv:189,at:34), (pv:190,at:14), (pv:191,at:4), (pv:192,at:3), (pv:193,at:34), (pv:194,at:23), (pv:195,at:19), (pv:196,at:5), (pv:197,at:19), (pv:198,at:3), (pv:199,at:1), (pv:200,at:5), (pv:201,at:1), (pv:202,at:1), (pv:203,at:1), (pv:204,at:14), (pv:205,at:2), (pv:206,at:15), (pv:207,at:22), (pv:208,at:3), (pv:209,at:1), (pv:210,at:2), (pv:211,at:5), (pv:212,at:1), (pv:213,at:1), (pv:214,at:1), (pv:215,at:14), (pv:216,at:34), (pv:217,at:5), (pv:218,at:19), (pv:219,at:5), (pv:220,at:8), (pv:221,at:23), (pv:222,at:8), (pv:223,at:8), (pv:224,at:4), (pv:225,at:10), (pv:226,at:3), (pv:227,at:1), (pv:228,at:1), (pv:229,at:1), (pv:230,at:1), (pv:231,at:23), (pv:232,at:8), (pv:233,at:5), (pv:234,at:2), (pv:235,at:34), (pv:236,at:13), (pv:237,at:1), (pv:238,at:12), (pv:239,at:5), (pv:240,at:28), (pv:241,at:7), (pv:242,at:8), (pv:243,at:4), (pv:244,at:1), (pv:245,at:2), (pv:246,at:1), (pv:247,at:34), (pv:248,at:22), (pv:249,at:22), (pv:250,at:5), (pv:251,at:14), (pv:252,at:22), (pv:253,at:1), (pv:254,at:1), (pv:255,at:14), (pv:256,at:1), (pv:257,at:1), (pv:258,at:1), (pv:259,at:4), (pv:260,at:2), (pv:261,at:1), (pv:262,at:1), (pv:263,at:1), (pv:264,at:14), (pv:265,at:1), (pv:266,at:1), (pv:267,at:1), (pv:268,at:4), (pv:269,at:2), (pv:270,at:8), (pv:271,at:14), (pv:272,at:14), (pv:273,at:3), (pv:274,at:1), (pv:275,at:1), (pv:276,at:3), (pv:277,at:50), (pv:278,at:1), (pv:279,at:1), (pv:280,at:1), (pv:281,at:1), (pv:282,at:1), (pv:283,at:1), (pv:284,at:2), (pv:285,at:6), (pv:286,at:2), (pv:287,at:14), (pv:288,at:3), (pv:289,at:1), (pv:290,at:1), (pv:291,at:19), (pv:292,at:14), (pv:293,at:1), (pv:294,at:1), (pv:295,at:8), (pv:296,at:1), (pv:297,at:4), (pv:298,at:1), (pv:299,at:31), (pv:300,at:1), (pv:301,at:24), (pv:302,at:34), (pv:303,at:1), (pv:304,at:1), (pv:305,at:1), (pv:306,at:1), (pv:307,at:22), (pv:308,at:1), (pv:309,at:5), (pv:310,at:1), (pv:311,at:3), (pv:312,at:2), (pv:313,at:1), (pv:314,at:1), (pv:315,at:2), (pv:316,at:1), (pv:317,at:1), (pv:318,at:1), (pv:319,at:15), (pv:320,at:37), (pv:321,at:14), (pv:322,at:1), (pv:323,at:7), (pv:324,at:5), (pv:325,at:1), (pv:326,at:1), (pv:327,at:5), (pv:328,at:1), (pv:329,at:3), (pv:330,at:19), (pv:331,at:1), (pv:332,at:11), (pv:333,at:8), (pv:334,at:2), (pv:335,at:1), (pv:336,at:12), (pv:337,at:6), (pv:338,at:2), (pv:339,at:5), (pv:340,at:23), (pv:341,at:4), (pv:342,at:16), (pv:343,at:1), (pv:344,at:4), (pv:345,at:18), (pv:346,at:19), (pv:347,at:22), (pv:348,at:14), (pv:349,at:5), (pv:350,at:1), (pv:351,at:2), (pv:352,at:1), (pv:353,at:1), (pv:354,at:95), (pv:355,at:10), (pv:356,at:32), (pv:357,at:7), (pv:358,at:1), (pv:359,at:1), (pv:360,at:2), (pv:361,at:2), (pv:362,at:3), (pv:363,at:22), (pv:364,at:2), (pv:365,at:3), (pv:366,at:34), (pv:367,at:2), (pv:368,at:1), (pv:369,at:4), (pv:370,at:1), (pv:371,at:15), (pv:372,at:1), (pv:373,at:1), (pv:374,at:8), (pv:375,at:3), (pv:376,at:5), (pv:377,at:3), (pv:378,at:1), (pv:379,at:1), (pv:380,at:1), (pv:381,at:10), (pv:382,at:8), (pv:383,at:7), (pv:384,at:19), (pv:385,at:1), (pv:386,at:11), (pv:387,at:12), (pv:388,at:1), (pv:389,at:3), (pv:390,at:2), (pv:391,at:1), (pv:392,at:19), (pv:393,at:3), (pv:394,at:1), (pv:395,at:3), (pv:396,at:1), (pv:397,at:3), (pv:398,at:15), (pv:399,at:9), (pv:400,at:1), (pv:401,at:1), (pv:402,at:3), (pv:403,at:15), (pv:404,at:1), (pv:405,at:1), (pv:406,at:1), (pv:407,at:1), (pv:408,at:7), (pv:409,at:1), (pv:410,at:1), (pv:411,at:3), (pv:412,at:23), (pv:413,at:5), (pv:414,at:43), (pv:415,at:1), (pv:416,at:10), (pv:417,at:1), (pv:418,at:1), (pv:419,at:23), (pv:420,at:1), (pv:421,at:15), (pv:422,at:23), (pv:423,at:1), (pv:424,at:5), (pv:425,at:3), (pv:426,at:2), (pv:427,at:1), (pv:428,at:10), (pv:429,at:1), (pv:430,at:28), (pv:431,at:14), (pv:432,at:2), (pv:433,at:1), (pv:434,at:1), (pv:435,at:1), (pv:436,at:1), (pv:437,at:8), (pv:438,at:3), (pv:439,at:34), (pv:440,at:1), (pv:441,at:2), (pv:442,at:2), (pv:443,at:14), (pv:444,at:1), (pv:445,at:1), (pv:446,at:1), (pv:447,at:5), (pv:448,at:10), (pv:449,at:5), (pv:450,at:5), (pv:451,at:45), (pv:452,at:16), (pv:453,at:13), (pv:454,at:8), (pv:455,at:10), (pv:456,at:145), (pv:457,at:23), (pv:458,at:1), (pv:459,at:20), (pv:460,at:1), (pv:461,at:83), (pv:462,at:9), (pv:463,at:1), (pv:464,at:1), (pv:465,at:2), (pv:466,at:10), (pv:467,at:1), (pv:468,at:7), (pv:469,at:21), (pv:470,at:1), (pv:471,at:10), (pv:472,at:1), (pv:473,at:1), (pv:474,at:38), (pv:475,at:1), (pv:476,at:1), (pv:477,at:1), (pv:478,at:1), (pv:479,at:14), (pv:480,at:5), (pv:481,at:9), (pv:482,at:91), (pv:483,at:1), (pv:484,at:10), (pv:485,at:1), (pv:486,at:2), (pv:487,at:1), (pv:488,at:1), (pv:489,at:1), (pv:490,at:1), (pv:491,at:11), (pv:492,at:1), (pv:493,at:1), (pv:494,at:8), (pv:495,at:1), (pv:496,at:1), (pv:497,at:1), (pv:498,at:6), (pv:499,at:1), (pv:500,at:34), (pv:501,at:19), (pv:502,at:14), (pv:503,at:14), (pv:504,at:1), (pv:505,at:22), (pv:506,at:12), (pv:507,at:2), (pv:508,at:6), (pv:509,at:3), (pv:510,at:51), (pv:511,at:1), (pv:512,at:37), (pv:513,at:2), (pv:514,at:1), (pv:515,at:1), (pv:516,at:8), (pv:517,at:3), (pv:518,at:1), (pv:519,at:3), (pv:520,at:24), (pv:521,at:7), (pv:522,at:31), (pv:523,at:1), (pv:524,at:1), (pv:525,at:5), (pv:526,at:5), (pv:527,at:4), (pv:528,at:2), (pv:529,at:6), (pv:530,at:2), (pv:531,at:9), (pv:532,at:55), (pv:533,at:1), (pv:534,at:450), (pv:535,at:7), (pv:536,at:15), (pv:537,at:1), (pv:538,at:1), (pv:539,at:2), (pv:540,at:95), (pv:541,at:1), (pv:542,at:14), (pv:543,at:3), (pv:544,at:21), (pv:545,at:1), (pv:546,at:1), (pv:547,at:10), (pv:548,at:1), (pv:549,at:19), (pv:550,at:10), (pv:551,at:18), (pv:552,at:14), (pv:553,at:5), (pv:554,at:1), (pv:555,at:10), (pv:556,at:3), (pv:557,at:4), (pv:558,at:5), (pv:559,at:2), (pv:560,at:3), (pv:561,at:9), (pv:562,at:1), (pv:563,at:1), (pv:564,at:5), (pv:565,at:1), (pv:566,at:7), (pv:567,at:22), (pv:568,at:1), (pv:569,at:17), (pv:570,at:197), (pv:571,at:182), (pv:572,at:1), (pv:573,at:3), (pv:574,at:9), (pv:575,at:2), (pv:576,at:2), (pv:577,at:1), (pv:578,at:1), (pv:579,at:1), (pv:580,at:2), (pv:581,at:2), (pv:582,at:1), (pv:583,at:4), (pv:584,at:4), (pv:585,at:32), (pv:586,at:8), (pv:587,at:1), (pv:588,at:1), (pv:589,at:12), (pv:590,at:28), (pv:591,at:2), (pv:592,at:10), (pv:593,at:1), (pv:594,at:1), (pv:595,at:5), (pv:596,at:1), (pv:597,at:1), (pv:598,at:2), (pv:599,at:7), (pv:600,at:1), (pv:601,at:1), (pv:602,at:13), (pv:603,at:6), (pv:604,at:1), (pv:605,at:5), (pv:606,at:54), (pv:607,at:28), (pv:608,at:1), (pv:609,at:5), (pv:610,at:3), (pv:611,at:23), (pv:612,at:38), (pv:613,at:10), (pv:614,at:1), (pv:615,at:9), (pv:616,at:5), (pv:617,at:1), (pv:618,at:7), (pv:619,at:6), (pv:620,at:2), (pv:621,at:1), (pv:622,at:7), (pv:623,at:2), (pv:624,at:3), (pv:625,at:3), (pv:626,at:4), (pv:627,at:16), (pv:628,at:1), (pv:629,at:4), (pv:630,at:14), (pv:631,at:22), (pv:632,at:2), (pv:633,at:1), (pv:634,at:1), (pv:635,at:1), (pv:636,at:14), (pv:637,at:1), (pv:638,at:1), (pv:639,at:1), (pv:640,at:1), (pv:641,at:11), (pv:642,at:1), (pv:643,at:2), (pv:644,at:1), (pv:645,at:343), (pv:646,at:3), (pv:647,at:2), (pv:648,at:1), (pv:649,at:349), (pv:650,at:19), (pv:651,at:3), (pv:652,at:1), (pv:653,at:3), (pv:654,at:39), (pv:655,at:14), (pv:656,at:45), (pv:657,at:5), (pv:658,at:1), (pv:659,at:17), (pv:660,at:1), (pv:661,at:31), (pv:662,at:27), (pv:663,at:1), (pv:664,at:1), (pv:665,at:5), (pv:666,at:2), (pv:667,at:2), (pv:668,at:1), (pv:669,at:1), (pv:670,at:1), (pv:671,at:3), (pv:672,at:1), (pv:673,at:1), (pv:674,at:14), (pv:675,at:1), (pv:676,at:28), (pv:677,at:1), (pv:678,at:1), (pv:679,at:14), (pv:680,at:19), (pv:681,at:1), (pv:682,at:10), (pv:683,at:14), (pv:684,at:1), (pv:685,at:1), (pv:686,at:28), (pv:687,at:5), (pv:688,at:2), (pv:689,at:15), (pv:690,at:4), (pv:691,at:6), (pv:692,at:37), (pv:693,at:14), (pv:694,at:8), (pv:695,at:23), (pv:696,at:1), (pv:697,at:1), (pv:698,at:31), (pv:699,at:2), (pv:700,at:10), (pv:701,at:1), (pv:702,at:1), (pv:703,at:5), (pv:704,at:10), (pv:705,at:2), (pv:706,at:10), (pv:707,at:1), (pv:708,at:1), (pv:709,at:1), (pv:710,at:2), (pv:711,at:7), (pv:712,at:37), (pv:713,at:3), (pv:714,at:5), (pv:715,at:1), (pv:716,at:10), (pv:717,at:2), (pv:718,at:16), (pv:719,at:38), (pv:720,at:9), (pv:721,at:1), (pv:722,at:23), (pv:723,at:1), (pv:724,at:1), (pv:725,at:2), (pv:726,at:3), (pv:727,at:1), (pv:728,at:1), (pv:729,at:10), (pv:730,at:14), (pv:731,at:10), (pv:732,at:8), (pv:733,at:2), (pv:734,at:2124), (pv:735,at:5), (pv:736,at:106), (pv:737,at:3), (pv:738,at:6), (pv:739,at:20), (pv:740,at:6), (pv:741,at:13), (pv:742,at:3), (pv:743,at:95), (pv:744,at:1), (pv:745,at:3), (pv:746,at:1), (pv:747,at:6), (pv:748,at:5), (pv:749,at:14), (pv:750,at:19), (pv:751,at:1240), (pv:752,at:5), (pv:753,at:1), (pv:754,at:1), (pv:755,at:1), (pv:756,at:10), (pv:757,at:43), (pv:758,at:14), (pv:759,at:2), (pv:760,at:13), (pv:761,at:2), (pv:762,at:18), (pv:763,at:19), (pv:764,at:18), (pv:765,at:5), (pv:766,at:3), (pv:767,at:1), (pv:768,at:21), (pv:769,at:10), (pv:770,at:19), (pv:771,at:1), (pv:772,at:1), (pv:773,at:22), (pv:774,at:15), (pv:775,at:20), (pv:776,at:37), (pv:777,at:47), (pv:778,at:1), (pv:779,at:5), (pv:780,at:95), (pv:781,at:21), (pv:782,at:13), (pv:783,at:10), (pv:784,at:1)]
[INFO ] fr.inria.astor.approaches.jgenprog.JGenProg.showResults(JGenProg.java:342) - 
pvariants_with_transformed_ingredients: [(pv:2,at:8), (pv:3,at:4), (pv:4,at:8), (pv:5,at:8), (pv:6,at:1), (pv:7,at:1), (pv:8,at:7), (pv:9,at:6), (pv:10,at:8), (pv:11,at:17), (pv:12,at:8), (pv:13,at:3), (pv:14,at:1), (pv:15,at:50), (pv:16,at:57), (pv:17,at:8), (pv:18,at:4), (pv:19,at:22), (pv:20,at:1), (pv:21,at:1), (pv:22,at:6), (pv:23,at:1), (pv:24,at:1), (pv:25,at:7), (pv:26,at:68), (pv:27,at:3), (pv:28,at:8), (pv:29,at:1), (pv:30,at:38), (pv:31,at:57), (pv:32,at:1), (pv:33,at:1), (pv:34,at:1), (pv:35,at:3), (pv:36,at:1), (pv:37,at:8), (pv:38,at:1), (pv:39,at:1), (pv:40,at:1), (pv:41,at:8), (pv:42,at:68), (pv:43,at:34), (pv:44,at:8), (pv:45,at:51), (pv:46,at:17), (pv:47,at:8), (pv:48,at:50), (pv:49,at:8), (pv:50,at:56), (pv:51,at:7), (pv:52,at:25), (pv:53,at:50), (pv:54,at:22), (pv:55,at:4), (pv:56,at:8), (pv:57,at:1), (pv:58,at:1), (pv:59,at:51), (pv:60,at:4), (pv:61,at:1), (pv:62,at:1), (pv:63,at:8), (pv:64,at:18), (pv:65,at:19), (pv:66,at:2), (pv:67,at:4), (pv:68,at:10), (pv:69,at:10), (pv:70,at:2), (pv:71,at:1), (pv:72,at:10), (pv:73,at:25), (pv:74,at:8), (pv:75,at:14), (pv:76,at:1), (pv:77,at:1), (pv:78,at:322), (pv:79,at:34), (pv:80,at:2), (pv:81,at:10), (pv:82,at:14), (pv:83,at:4), (pv:84,at:2), (pv:85,at:8), (pv:86,at:31), (pv:87,at:1), (pv:88,at:19), (pv:89,at:1), (pv:90,at:22), (pv:91,at:4), (pv:92,at:5), (pv:93,at:1), (pv:94,at:1), (pv:95,at:103), (pv:96,at:14), (pv:97,at:2), (pv:98,at:4), (pv:99,at:8), (pv:100,at:7), (pv:101,at:1), (pv:102,at:1), (pv:103,at:55), (pv:104,at:1), (pv:105,at:50), (pv:106,at:1), (pv:107,at:44), (pv:108,at:2), (pv:109,at:1), (pv:110,at:1), (pv:111,at:2), (pv:112,at:10), (pv:113,at:1), (pv:114,at:3), (pv:115,at:1), (pv:116,at:1), (pv:117,at:8), (pv:118,at:68), (pv:119,at:9), (pv:120,at:5), (pv:121,at:8), (pv:122,at:14), (pv:123,at:1), (pv:124,at:14), (pv:125,at:3), (pv:126,at:22), (pv:127,at:1), (pv:128,at:10), (pv:129,at:5), (pv:130,at:8), (pv:131,at:22), (pv:132,at:55), (pv:133,at:1), (pv:134,at:2), (pv:135,at:8), (pv:136,at:4), (pv:137,at:22), (pv:138,at:8), (pv:139,at:22), (pv:140,at:22), (pv:141,at:17), (pv:142,at:2), (pv:143,at:22), (pv:144,at:8), (pv:145,at:6), (pv:146,at:12), (pv:147,at:15), (pv:148,at:14), (pv:149,at:4), (pv:150,at:8), (pv:151,at:1), (pv:152,at:19), (pv:153,at:10), (pv:154,at:1), (pv:155,at:16), (pv:156,at:14), (pv:157,at:3), (pv:158,at:22), (pv:159,at:8), (pv:160,at:2), (pv:161,at:2), (pv:162,at:2), (pv:163,at:14), (pv:164,at:1), (pv:165,at:5), (pv:166,at:8), (pv:167,at:15), (pv:168,at:10), (pv:169,at:15), (pv:170,at:1), (pv:171,at:4), (pv:172,at:22), (pv:173,at:1), (pv:174,at:8), (pv:175,at:1), (pv:176,at:8), (pv:177,at:1), (pv:178,at:3), (pv:179,at:1), (pv:180,at:8), (pv:181,at:68), (pv:182,at:1), (pv:183,at:14), (pv:184,at:68), (pv:185,at:12), (pv:186,at:14), (pv:187,at:8), (pv:188,at:50), (pv:189,at:34), (pv:190,at:14), (pv:191,at:4), (pv:192,at:3), (pv:193,at:34), (pv:194,at:23), (pv:195,at:19), (pv:196,at:5), (pv:197,at:19), (pv:198,at:3), (pv:199,at:1), (pv:200,at:5), (pv:201,at:1), (pv:202,at:1), (pv:203,at:1), (pv:204,at:14), (pv:205,at:2), (pv:206,at:15), (pv:207,at:22), (pv:208,at:3), (pv:209,at:1), (pv:210,at:2), (pv:211,at:5), (pv:212,at:1), (pv:213,at:1), (pv:214,at:1), (pv:215,at:14), (pv:216,at:34), (pv:217,at:5), (pv:218,at:19), (pv:219,at:5), (pv:220,at:8), (pv:221,at:23), (pv:222,at:8), (pv:223,at:8), (pv:224,at:4), (pv:225,at:10), (pv:226,at:3), (pv:227,at:1), (pv:228,at:1), (pv:229,at:1), (pv:230,at:1), (pv:231,at:23), (pv:232,at:8), (pv:233,at:5), (pv:234,at:2), (pv:235,at:34), (pv:236,at:13), (pv:237,at:1), (pv:238,at:12), (pv:239,at:5), (pv:240,at:28), (pv:241,at:7), (pv:242,at:8), (pv:243,at:4), (pv:244,at:1), (pv:245,at:2), (pv:246,at:1), (pv:247,at:34), (pv:248,at:22), (pv:249,at:22), (pv:250,at:5), (pv:251,at:14), (pv:252,at:22), (pv:253,at:1), (pv:254,at:1), (pv:255,at:14), (pv:256,at:1), (pv:257,at:1), (pv:258,at:1), (pv:259,at:4), (pv:260,at:2), (pv:261,at:1), (pv:262,at:1), (pv:263,at:1), (pv:264,at:14), (pv:265,at:1), (pv:266,at:1), (pv:267,at:1), (pv:268,at:4), (pv:269,at:2), (pv:270,at:8), (pv:271,at:14), (pv:272,at:14), (pv:273,at:3), (pv:274,at:1), (pv:275,at:1), (pv:276,at:3), (pv:277,at:50), (pv:278,at:1), (pv:279,at:1), (pv:280,at:1), (pv:281,at:1), (pv:282,at:1), (pv:283,at:1), (pv:284,at:2), (pv:285,at:6), (pv:286,at:2), (pv:287,at:14), (pv:288,at:3), (pv:289,at:1), (pv:290,at:1), (pv:291,at:19), (pv:292,at:14), (pv:293,at:1), (pv:294,at:1), (pv:295,at:8), (pv:296,at:1), (pv:297,at:4), (pv:298,at:1), (pv:299,at:31), (pv:300,at:1), (pv:301,at:24), (pv:302,at:34), (pv:303,at:1), (pv:304,at:1), (pv:305,at:1), (pv:306,at:1), (pv:307,at:22), (pv:308,at:1), (pv:309,at:5), (pv:310,at:1), (pv:311,at:3), (pv:312,at:2), (pv:313,at:1), (pv:314,at:1), (pv:315,at:2), (pv:316,at:1), (pv:317,at:1), (pv:318,at:1), (pv:319,at:15), (pv:320,at:37), (pv:321,at:14), (pv:322,at:1), (pv:323,at:7), (pv:324,at:5), (pv:325,at:1), (pv:326,at:1), (pv:327,at:5), (pv:328,at:1), (pv:329,at:3), (pv:330,at:19), (pv:331,at:1), (pv:332,at:11), (pv:333,at:8), (pv:334,at:2), (pv:335,at:1), (pv:336,at:12), (pv:337,at:6), (pv:338,at:2), (pv:339,at:5), (pv:340,at:23), (pv:341,at:4), (pv:342,at:16), (pv:343,at:1), (pv:344,at:4), (pv:345,at:18), (pv:346,at:19), (pv:347,at:22), (pv:348,at:14), (pv:349,at:5), (pv:350,at:1), (pv:351,at:2), (pv:352,at:1), (pv:353,at:1), (pv:354,at:95), (pv:355,at:10), (pv:356,at:32), (pv:357,at:7), (pv:358,at:1), (pv:359,at:1), (pv:360,at:2), (pv:361,at:2), (pv:362,at:3), (pv:363,at:22), (pv:364,at:2), (pv:365,at:3), (pv:366,at:34), (pv:367,at:2), (pv:368,at:1), (pv:369,at:4), (pv:370,at:1), (pv:371,at:15), (pv:372,at:1), (pv:373,at:1), (pv:374,at:8), (pv:375,at:3), (pv:376,at:5), (pv:377,at:3), (pv:378,at:1), (pv:379,at:1), (pv:380,at:1), (pv:381,at:10), (pv:382,at:8), (pv:383,at:7), (pv:384,at:19), (pv:385,at:1), (pv:386,at:11), (pv:387,at:12), (pv:388,at:1), (pv:389,at:3), (pv:390,at:2), (pv:391,at:1), (pv:392,at:19), (pv:393,at:3), (pv:394,at:1), (pv:395,at:3), (pv:396,at:1), (pv:397,at:3), (pv:398,at:15), (pv:399,at:9), (pv:400,at:1), (pv:401,at:1), (pv:402,at:3), (pv:403,at:15), (pv:404,at:1), (pv:405,at:1), (pv:406,at:1), (pv:407,at:1), (pv:408,at:7), (pv:409,at:1), (pv:410,at:1), (pv:411,at:3), (pv:412,at:23), (pv:413,at:5), (pv:414,at:43), (pv:415,at:1), (pv:416,at:10), (pv:417,at:1), (pv:418,at:1), (pv:419,at:23), (pv:420,at:1), (pv:421,at:15), (pv:422,at:23), (pv:423,at:1), (pv:424,at:5), (pv:425,at:3), (pv:426,at:2), (pv:427,at:1), (pv:428,at:10), (pv:429,at:1), (pv:430,at:28), (pv:431,at:14), (pv:432,at:2), (pv:433,at:1), (pv:434,at:1), (pv:435,at:1), (pv:436,at:1), (pv:437,at:8), (pv:438,at:3), (pv:439,at:34), (pv:440,at:1), (pv:441,at:2), (pv:442,at:2), (pv:443,at:14), (pv:444,at:1), (pv:445,at:1), (pv:446,at:1), (pv:447,at:5), (pv:448,at:10), (pv:449,at:5), (pv:450,at:5), (pv:451,at:45), (pv:452,at:16), (pv:453,at:13), (pv:454,at:8), (pv:455,at:10), (pv:456,at:145), (pv:457,at:23), (pv:458,at:1), (pv:459,at:20), (pv:460,at:1), (pv:461,at:83), (pv:462,at:9), (pv:463,at:1), (pv:464,at:1), (pv:465,at:2), (pv:466,at:10), (pv:467,at:1), (pv:468,at:7), (pv:469,at:21), (pv:470,at:1), (pv:471,at:10), (pv:472,at:1), (pv:473,at:1), (pv:474,at:38), (pv:475,at:1), (pv:476,at:1), (pv:477,at:1), (pv:478,at:1), (pv:479,at:14), (pv:480,at:5), (pv:481,at:9), (pv:482,at:91), (pv:483,at:1), (pv:484,at:10), (pv:485,at:1), (pv:486,at:2), (pv:487,at:1), (pv:488,at:1), (pv:489,at:1), (pv:490,at:1), (pv:491,at:11), (pv:492,at:1), (pv:493,at:1), (pv:494,at:8), (pv:495,at:1), (pv:496,at:1), (pv:497,at:1), (pv:498,at:6), (pv:499,at:1), (pv:500,at:34), (pv:501,at:19), (pv:502,at:14), (pv:503,at:14), (pv:504,at:1), (pv:505,at:22), (pv:506,at:12), (pv:507,at:2), (pv:508,at:6), (pv:509,at:3), (pv:510,at:51), (pv:511,at:1), (pv:512,at:37), (pv:513,at:2), (pv:514,at:1), (pv:515,at:1), (pv:516,at:8), (pv:517,at:3), (pv:518,at:1), (pv:519,at:3), (pv:520,at:24), (pv:521,at:7), (pv:522,at:31), (pv:523,at:1), (pv:524,at:1), (pv:525,at:5), (pv:526,at:5), (pv:527,at:4), (pv:528,at:2), (pv:529,at:6), (pv:530,at:2), (pv:531,at:9), (pv:532,at:55), (pv:533,at:1), (pv:534,at:450), (pv:535,at:7), (pv:536,at:15), (pv:537,at:1), (pv:538,at:1), (pv:539,at:2), (pv:540,at:95), (pv:541,at:1), (pv:542,at:14), (pv:543,at:3), (pv:544,at:21), (pv:545,at:1), (pv:546,at:1), (pv:547,at:10), (pv:548,at:1), (pv:549,at:19), (pv:550,at:10), (pv:551,at:18), (pv:552,at:14), (pv:553,at:5), (pv:554,at:1), (pv:555,at:10), (pv:556,at:3), (pv:557,at:4), (pv:558,at:5), (pv:559,at:2), (pv:560,at:3), (pv:561,at:9), (pv:562,at:1), (pv:563,at:1), (pv:564,at:5), (pv:565,at:1), (pv:566,at:7), (pv:567,at:22), (pv:568,at:1), (pv:569,at:17), (pv:570,at:197), (pv:571,at:182), (pv:572,at:1), (pv:573,at:3), (pv:574,at:9), (pv:575,at:2), (pv:576,at:2), (pv:577,at:1), (pv:578,at:1), (pv:579,at:1), (pv:580,at:2), (pv:581,at:2), (pv:582,at:1), (pv:583,at:4), (pv:584,at:4), (pv:585,at:32), (pv:586,at:8), (pv:587,at:1), (pv:588,at:1), (pv:589,at:12), (pv:590,at:28), (pv:591,at:2), (pv:592,at:10), (pv:593,at:1), (pv:594,at:1), (pv:595,at:5), (pv:596,at:1), (pv:597,at:1), (pv:598,at:2), (pv:599,at:7), (pv:600,at:1), (pv:601,at:1), (pv:602,at:13), (pv:603,at:6), (pv:604,at:1), (pv:605,at:5), (pv:606,at:54), (pv:607,at:28), (pv:608,at:1), (pv:609,at:5), (pv:610,at:3), (pv:611,at:23), (pv:612,at:38), (pv:613,at:10), (pv:614,at:1), (pv:615,at:9), (pv:616,at:5), (pv:617,at:1), (pv:618,at:7), (pv:619,at:6), (pv:620,at:2), (pv:621,at:1), (pv:622,at:7), (pv:623,at:2), (pv:624,at:3), (pv:625,at:3), (pv:626,at:4), (pv:627,at:16), (pv:628,at:1), (pv:629,at:4), (pv:630,at:14), (pv:631,at:22), (pv:632,at:2), (pv:633,at:1), (pv:634,at:1), (pv:635,at:1), (pv:636,at:14), (pv:637,at:1), (pv:638,at:1), (pv:639,at:1), (pv:640,at:1), (pv:641,at:11), (pv:642,at:1), (pv:643,at:2), (pv:644,at:1), (pv:645,at:343), (pv:646,at:3), (pv:647,at:2), (pv:648,at:1), (pv:649,at:349), (pv:650,at:19), (pv:651,at:3), (pv:652,at:1), (pv:653,at:3), (pv:654,at:39), (pv:655,at:14), (pv:656,at:45), (pv:657,at:5), (pv:658,at:1), (pv:659,at:17), (pv:660,at:1), (pv:661,at:31), (pv:662,at:27), (pv:663,at:1), (pv:664,at:1), (pv:665,at:5), (pv:666,at:2), (pv:667,at:2), (pv:668,at:1), (pv:669,at:1), (pv:670,at:1), (pv:671,at:3), (pv:672,at:1), (pv:673,at:1), (pv:674,at:14), (pv:675,at:1), (pv:676,at:28), (pv:677,at:1), (pv:678,at:1), (pv:679,at:14), (pv:680,at:19), (pv:681,at:1), (pv:682,at:10), (pv:683,at:14), (pv:684,at:1), (pv:685,at:1), (pv:686,at:28), (pv:687,at:5), (pv:688,at:2), (pv:689,at:15), (pv:690,at:4), (pv:691,at:6), (pv:692,at:37), (pv:693,at:14), (pv:694,at:8), (pv:695,at:23), (pv:696,at:1), (pv:697,at:1), (pv:698,at:31), (pv:699,at:2), (pv:700,at:10), (pv:701,at:1), (pv:702,at:1), (pv:703,at:5), (pv:704,at:10), (pv:705,at:2), (pv:706,at:10), (pv:707,at:1), (pv:708,at:1), (pv:709,at:1), (pv:710,at:2), (pv:711,at:7), (pv:712,at:37), (pv:713,at:3), (pv:714,at:5), (pv:715,at:1), (pv:716,at:10), (pv:717,at:2), (pv:718,at:16), (pv:719,at:38), (pv:720,at:9), (pv:721,at:1), (pv:722,at:23), (pv:723,at:1), (pv:724,at:1), (pv:725,at:2), (pv:726,at:3), (pv:727,at:1), (pv:728,at:1), (pv:729,at:10), (pv:730,at:14), (pv:731,at:10), (pv:732,at:8), (pv:733,at:2), (pv:734,at:2124), (pv:735,at:5), (pv:736,at:106), (pv:737,at:3), (pv:738,at:6), (pv:739,at:20), (pv:740,at:6), (pv:741,at:13), (pv:742,at:3), (pv:743,at:95), (pv:744,at:1), (pv:745,at:3), (pv:746,at:1), (pv:747,at:6), (pv:748,at:5), (pv:749,at:14), (pv:750,at:19), (pv:751,at:1240), (pv:752,at:5), (pv:753,at:1), (pv:754,at:1), (pv:755,at:1), (pv:756,at:10), (pv:757,at:43), (pv:758,at:14), (pv:759,at:2), (pv:760,at:13), (pv:761,at:2), (pv:762,at:18), (pv:763,at:19), (pv:764,at:18), (pv:765,at:5), (pv:766,at:3), (pv:767,at:1), (pv:768,at:21), (pv:769,at:10), (pv:770,at:19), (pv:771,at:1), (pv:772,at:1), (pv:773,at:22), (pv:774,at:15), (pv:775,at:20), (pv:776,at:37), (pv:777,at:47), (pv:778,at:1), (pv:779,at:5), (pv:780,at:95), (pv:781,at:21), (pv:782,at:13), (pv:783,at:10), (pv:784,at:1)]
[INFO ] fr.inria.main.evolution.AstorMain.run(AstorMain.java:163) - Time Total(s): 11910.082
