Warning: no access to tty (Bad file descriptor).
Thus no job control in this shell.
tput: No value for $TERM and no -T specified
Node: wh01.sciclone.wm.edu
2017-04-01 22:49:10,202 INFO main - command line arguments: [-out  /local/scr/mtufano/Math/55/b/random-global-embeddings/1  -jvm4testexecution  /usr/local/jdk1.7.0_80/bin/  -loglevel  INFO  -maxgen  1000000  -population  1  -maxtime  180  -timezone  America/New_York  -customop  fr.inria.astor.approaches.jgenprog.operators.InsertAfterOp:fr.inria.astor.approaches.jgenprog.operators.InsertBeforeOp:fr.inria.astor.approaches.jgenprog.operators.ReplaceOp  -seed  1  -javacompliancelevel  5  -package  org.apache.commons  -binjavafolder  target/classes/  -bintestfolder  target/test-classes/  -srcjavafolder  src/main/java/  -srctestfolder  src/test/java/  -learningdir  ../../out/learningdir/Math/55/b/  -location  ../../dat/defects4j/Math/55/b/  -failing  org.apache.commons.math.geometry.Vector3DTest  -dependencies  ../../dat/libs/Math/commons-discovery-0.5.jar  -scope  fr.inria.astor.core.loop.spaces.ingredients.scopes.ctscopes.CtGlobalIngredientScope  -ingredientstrategy  fr.inria.astor.core.loop.spaces.ingredients.ingredientSearch.EfficientIngredientStrategy  -transformingredient  -classestoinstrument  org.apache.commons.math.exception.MathArithmeticException:org.apache.commons.math.exception.MathThrowable:org.apache.commons.math.exception.util.Localizable:org.apache.commons.math.geometry.Vector3D:org.apache.commons.math.util.CompositeFormat:org.apache.commons.math.exception.MathRuntimeException:org.apache.commons.math.exception.MathParseException:org.apache.commons.math.util.FastMath:org.apache.commons.math.geometry.Vector3DFormat:  -regressiontestcases4fl  org.apache.commons.math.geometry.FrenchVector3DFormatTest:org.apache.commons.math.geometry.RotationOrderTest:org.apache.commons.math.geometry.RotationTest:org.apache.commons.math.geometry.Vector3DFormatTest:org.apache.commons.math.geometry.Vector3DTest:]
2017-04-01 22:49:17,009 INFO main - building model: /local/scr/mtufano/Math/55/b/random-global-embeddings/1/AstorMain-b//src//default, compliance level: 5
2017-04-01 22:49:17,074 INFO main - Classpath for building SpoonModel [/sciclone/data20/mtufano/deeprepair/bin/eval/../../dat/libs/Math/commons-discovery-0.5.jar]
2017-04-01 22:49:52,061 INFO main - -Executing Gzoltar classpath: /local/scr/mtufano/Math/55/b/random-global-embeddings/1/AstorMain-b//bin//default from 5 classes with test cases
2017-04-01 22:49:52,061 INFO fr.inria.astor.core.faultlocalization.GZoltarFaultLocalization - Gzoltar fault localization: min susp value parameter: 0.1
2017-04-01 22:49:52,793 INFO fr.inria.astor.core.faultlocalization.GZoltarFaultLocalization - -gz-Adding classpath: [/local/scr/mtufano/Math/55/b/random-global-embeddings/1/AstorMain-b//bin//default, /sciclone/data20/mtufano/deeprepair/bin/eval/../../dat/libs/Math/commons-discovery-0.5.jar]
2017-04-01 22:49:54,864 INFO fr.inria.astor.core.faultlocalization.GZoltarFaultLocalization - Test failt: org.apache.commons.math.geometry.Vector3DTest#testCrossProductCancellation
2017-04-01 22:49:54,875 INFO fr.inria.astor.core.faultlocalization.GZoltarFaultLocalization - Gzoltar Test Result Total:88, fails: 1, GZoltar suspicious 1068
2017-04-01 22:49:54,879 INFO fr.inria.astor.core.faultlocalization.GZoltarFaultLocalization - Gzoltar found: 4 with susp > 0.1, we consider: 4
2017-04-01 22:49:54,879 INFO main - 
---- Initial suspicious size: 4
2017-04-01 22:49:54,971 INFO main - Total suspicious from FL: 4,  4
2017-04-01 22:49:54,972 INFO main - Total ModPoint created: 4
2017-04-01 22:49:54,972 INFO main - Creating program variant #1, [Variant id: 1, #gens: 4, #ops: 0, parent:-]
2017-04-01 22:51:28,200 INFO fr.inria.astor.core.setup.ConfigurationProperties - ----------------------------
2017-04-01 22:51:28,200 INFO fr.inria.astor.core.setup.ConfigurationProperties - ---Configuration properties:---Execution values
2017-04-01 22:51:28,201 INFO fr.inria.astor.core.setup.ConfigurationProperties - p:lastJUnitVersion= ./examples/libs/junit-4.11.jar
2017-04-01 22:51:28,201 INFO fr.inria.astor.core.setup.ConfigurationProperties - p:alternativecompliancelevel= 4
2017-04-01 22:51:28,201 INFO fr.inria.astor.core.setup.ConfigurationProperties - p:ignoredTestCases= 
2017-04-01 22:51:28,201 INFO fr.inria.astor.core.setup.ConfigurationProperties - p:workingDirectory= /local/scr/mtufano/Math/55/b/random-global-embeddings/1
2017-04-01 22:51:28,201 INFO fr.inria.astor.core.setup.ConfigurationProperties - p:manipulatesuper= false
2017-04-01 22:51:28,201 INFO fr.inria.astor.core.setup.ConfigurationProperties - p:validation= process
2017-04-01 22:51:28,201 INFO fr.inria.astor.core.setup.ConfigurationProperties - p:jvm4testexecution= /usr/local/jdk1.7.0_80/bin/
2017-04-01 22:51:28,201 INFO fr.inria.astor.core.setup.ConfigurationProperties - p:binjavafolder= target/classes/
2017-04-01 22:51:28,201 INFO fr.inria.astor.core.setup.ConfigurationProperties - p:evosuiteresultfolder= evosuite
2017-04-01 22:51:28,202 INFO fr.inria.astor.core.setup.ConfigurationProperties - p:flthreshold= 0.1
2017-04-01 22:51:28,202 INFO fr.inria.astor.core.setup.ConfigurationProperties - p:regressionforfaultlocalization= true
2017-04-01 22:51:28,202 INFO fr.inria.astor.core.setup.ConfigurationProperties - p:tmax2= 960000
2017-04-01 22:51:28,202 INFO fr.inria.astor.core.setup.ConfigurationProperties - p:tmax1= 120000
2017-04-01 22:51:28,202 INFO fr.inria.astor.core.setup.ConfigurationProperties - p:probagenmutation= false
2017-04-01 22:51:28,202 INFO fr.inria.astor.core.setup.ConfigurationProperties - p:srctestfolder= src/test/java/
2017-04-01 22:51:28,202 INFO fr.inria.astor.core.setup.ConfigurationProperties - p:customop= fr.inria.astor.approaches.jgenprog.operators.InsertAfterOp:fr.inria.astor.approaches.jgenprog.operators.InsertBeforeOp:fr.inria.astor.approaches.jgenprog.operators.ReplaceOp
2017-04-01 22:51:28,202 INFO fr.inria.astor.core.setup.ConfigurationProperties - p:forceExecuteRegression= false
2017-04-01 22:51:28,202 INFO fr.inria.astor.core.setup.ConfigurationProperties - p:clusteringfilename= clustering.csv
2017-04-01 22:51:28,202 INFO fr.inria.astor.core.setup.ConfigurationProperties - p:failing= org.apache.commons.math.geometry.Vector3DTest
2017-04-01 22:51:28,202 INFO fr.inria.astor.core.setup.ConfigurationProperties - p:evo_buggy_class= true
2017-04-01 22:51:28,202 INFO fr.inria.astor.core.setup.ConfigurationProperties - p:numberExecutions= 1
2017-04-01 22:51:28,202 INFO fr.inria.astor.core.setup.ConfigurationProperties - p:evo_affected_by_op= true
2017-04-01 22:51:28,202 INFO fr.inria.astor.core.setup.ConfigurationProperties - p:population= 1
2017-04-01 22:51:28,202 INFO fr.inria.astor.core.setup.ConfigurationProperties - p:clonegranularity= types
2017-04-01 22:51:28,202 INFO fr.inria.astor.core.setup.ConfigurationProperties - p:regressiontestcases4fl= org.apache.commons.math.geometry.FrenchVector3DFormatTest:org.apache.commons.math.geometry.RotationOrderTest:org.apache.commons.math.geometry.RotationTest:org.apache.commons.math.geometry.Vector3DFormatTest:org.apache.commons.math.geometry.Vector3DTest:
2017-04-01 22:51:28,202 INFO fr.inria.astor.core.setup.ConfigurationProperties - p:savesolution= true
2017-04-01 22:51:28,203 INFO fr.inria.astor.core.setup.ConfigurationProperties - p:javacompliancelevel= 5
2017-04-01 22:51:28,203 INFO fr.inria.astor.core.setup.ConfigurationProperties - p:uniqueoptogen= false
2017-04-01 22:51:28,203 INFO fr.inria.astor.core.setup.ConfigurationProperties - p:projectIdentifier= 
2017-04-01 22:51:28,203 INFO fr.inria.astor.core.setup.ConfigurationProperties - p:modificationpointnavigation= weight
2017-04-01 22:51:28,203 INFO fr.inria.astor.core.setup.ConfigurationProperties - p:stopfirst= false
2017-04-01 22:51:28,203 INFO fr.inria.astor.core.setup.ConfigurationProperties - p:multipointmodification= false
2017-04-01 22:51:28,203 INFO fr.inria.astor.core.setup.ConfigurationProperties - p:elementsToMutate= 10
2017-04-01 22:51:28,203 INFO fr.inria.astor.core.setup.ConfigurationProperties - p:evoDSE= false
2017-04-01 22:51:28,203 INFO fr.inria.astor.core.setup.ConfigurationProperties - p:bintestfolder= target/test-classes/
2017-04-01 22:51:28,203 INFO fr.inria.astor.core.setup.ConfigurationProperties - p:testbystep= false
2017-04-01 22:51:28,203 INFO fr.inria.astor.core.setup.ConfigurationProperties - p:version-location= ./math-version/
2017-04-01 22:51:28,203 INFO fr.inria.astor.core.setup.ConfigurationProperties - p:reintroduce= parents
2017-04-01 22:51:28,203 INFO fr.inria.astor.core.setup.ConfigurationProperties - p:maxGeneration= 1000000
2017-04-01 22:51:28,203 INFO fr.inria.astor.core.setup.ConfigurationProperties - p:maxtime= 180
2017-04-01 22:51:28,203 INFO fr.inria.astor.core.setup.ConfigurationProperties - p:evosuitejar= ./lib/evosuite-master-1.0.4-SNAPSHOT.jar
2017-04-01 22:51:28,203 INFO fr.inria.astor.core.setup.ConfigurationProperties - p:commandTrunk= 50000
2017-04-01 22:51:28,203 INFO fr.inria.astor.core.setup.ConfigurationProperties - p:faultlocalization= fr.inria.astor.core.faultlocalization.GZoltarFaultLocalization
2017-04-01 22:51:28,204 INFO fr.inria.astor.core.setup.ConfigurationProperties - p:maxsuspcandidates= 1000
2017-04-01 22:51:28,204 INFO fr.inria.astor.core.setup.ConfigurationProperties - p:mode= statement
2017-04-01 22:51:28,204 INFO fr.inria.astor.core.setup.ConfigurationProperties - p:learningdir= ../../out/learningdir/Math/55/b/
2017-04-01 22:51:28,204 INFO fr.inria.astor.core.setup.ConfigurationProperties - p:jvm4evosuitetestexecution= /usr/local/jdk1.7.0_80/bin/
2017-04-01 22:51:28,204 INFO fr.inria.astor.core.setup.ConfigurationProperties - p:filterfaultlocalization= true
2017-04-01 22:51:28,204 INFO fr.inria.astor.core.setup.ConfigurationProperties - p:mutationrate= 1 
2017-04-01 22:51:28,204 INFO fr.inria.astor.core.setup.ConfigurationProperties - p:pathToMVNRepository= 
2017-04-01 22:51:28,204 INFO fr.inria.astor.core.setup.ConfigurationProperties - p:resourcesfolder= /src/main/resources:/src/test/resources:
2017-04-01 22:51:28,204 INFO fr.inria.astor.core.setup.ConfigurationProperties - p:timezone= America/New_York
2017-04-01 22:51:28,204 INFO fr.inria.astor.core.setup.ConfigurationProperties - p:classestoinstrument= org.apache.commons.math.exception.MathArithmeticException:org.apache.commons.math.exception.MathThrowable:org.apache.commons.math.exception.util.Localizable:org.apache.commons.math.geometry.Vector3D:org.apache.commons.math.util.CompositeFormat:org.apache.commons.math.exception.MathRuntimeException:org.apache.commons.math.exception.MathParseException:org.apache.commons.math.util.FastMath:org.apache.commons.math.geometry.Vector3DFormat:
2017-04-01 22:51:28,204 INFO fr.inria.astor.core.setup.ConfigurationProperties - p:evoRunOnBuggyClass= true
2017-04-01 22:51:28,204 INFO fr.inria.astor.core.setup.ConfigurationProperties - p:compiler= fr.inria.astor.core.manipulation.bytecode.compiler.SpoonClassCompiler
2017-04-01 22:51:28,204 INFO fr.inria.astor.core.setup.ConfigurationProperties - p:dependenciespath= ../../dat/libs/Math/commons-discovery-0.5.jar
2017-04-01 22:51:28,204 INFO fr.inria.astor.core.setup.ConfigurationProperties - p:skipfaultlocalization= false
2017-04-01 22:51:28,204 INFO fr.inria.astor.core.setup.ConfigurationProperties - p:packageToInstrument= org.apache.commons
2017-04-01 22:51:28,204 INFO fr.inria.astor.core.setup.ConfigurationProperties - p:scope= fr.inria.astor.core.loop.spaces.ingredients.scopes.ctscopes.CtGlobalIngredientScope
2017-04-01 22:51:28,204 INFO fr.inria.astor.core.setup.ConfigurationProperties - p:transformingredient= true
2017-04-01 22:51:28,205 INFO fr.inria.astor.core.setup.ConfigurationProperties - p:fitnessfunction= fr.inria.astor.core.loop.population.TestCaseFitnessFunction
2017-04-01 22:51:28,205 INFO fr.inria.astor.core.setup.ConfigurationProperties - p:pvariantfoldername= variant-
2017-04-01 22:51:28,205 INFO fr.inria.astor.core.setup.ConfigurationProperties - p:srcjavafolder= src/main/java/
2017-04-01 22:51:28,205 INFO fr.inria.astor.core.setup.ConfigurationProperties - p:populationcontroller= fr.inria.astor.core.loop.population.TestCaseBasedFitnessPopulationController
2017-04-01 22:51:28,205 INFO fr.inria.astor.core.setup.ConfigurationProperties - p:ignoreflakyinfl= false
2017-04-01 22:51:28,205 INFO fr.inria.astor.core.setup.ConfigurationProperties - p:applyCrossover= false
2017-04-01 22:51:28,205 INFO fr.inria.astor.core.setup.ConfigurationProperties - p:saveall= false
2017-04-01 22:51:28,205 INFO fr.inria.astor.core.setup.ConfigurationProperties - p:seed= 1
2017-04-01 22:51:28,205 INFO fr.inria.astor.core.setup.ConfigurationProperties - p:resetoperations= false
2017-04-01 22:51:28,205 INFO fr.inria.astor.core.setup.ConfigurationProperties - p:location= ../../dat/defects4j/Math/55/b/
2017-04-01 22:51:28,205 INFO fr.inria.astor.core.setup.ConfigurationProperties - p:ingredientstrategy= fr.inria.astor.core.loop.spaces.ingredients.ingredientSearch.EfficientIngredientStrategy
2017-04-01 22:51:28,205 INFO fr.inria.astor.core.setup.ConfigurationProperties - p:allpoints= false
2017-04-01 22:51:28,205 INFO fr.inria.astor.core.setup.ConfigurationProperties - p:bugId= 280
2017-04-01 22:51:28,205 INFO fr.inria.astor.core.setup.ConfigurationProperties - p:evosuitetimeout= 120
2017-04-01 22:51:28,205 INFO fr.inria.astor.core.setup.ConfigurationProperties - ----------------------------
2017-04-01 22:51:28,205 INFO main - 
----Starting Solution Search
2017-04-02 01:52:28,224 INFO main - 
 No more time for operating
2017-04-02 01:52:28,224 INFO main - Time Repair Loop (s): 10860.019
2017-04-02 01:52:28,224 INFO main - 
----SUMMARY_EXECUTION---
2017-04-02 01:52:28,232 INFO main - 
successful_ing_attempts (#trials 0, totalAttps 0): []
2017-04-02 01:52:28,233 INFO main - 
failing_ing_attempts (#trials 300, totalAttps 777): [1, 1, 4, 1, 1, 1, 4, 1, 3, 1, 8, 2, 3, 1, 1, 1, 1, 1, 1, 3, 3, 1, 4, 2, 6, 1, 4, 3, 2, 1, 2, 2, 1, 3, 1, 3, 2, 1, 1, 1, 1, 1, 3, 2, 1, 2, 1, 3, 2, 3, 2, 3, 4, 1, 2, 2, 1, 1, 2, 4, 1, 1, 2, 9, 2, 1, 3, 2, 1, 1, 4, 2, 1, 1, 3, 2, 1, 1, 1, 1, 2, 2, 9, 1, 3, 1, 1, 7, 1, 7, 2, 2, 1, 7, 2, 4, 2, 8, 14, 1, 1, 1, 6, 1, 1, 1, 4, 6, 5, 1, 3, 5, 7, 1, 2, 1, 3, 13, 5, 2, 1, 1, 2, 1, 5, 5, 1, 3, 1, 2, 2, 5, 4, 5, 3, 2, 1, 5, 1, 2, 1, 6, 4, 5, 7, 2, 1, 2, 3, 2, 1, 1, 2, 1, 4, 3, 2, 2, 6, 3, 4, 1, 3, 1, 2, 1, 3, 5, 5, 1, 4, 1, 4, 2, 2, 2, 1, 3, 3, 5, 4, 1, 2, 2, 3, 4, 1, 1, 1, 1, 3, 1, 1, 2, 1, 1, 3, 2, 2, 3, 1, 1, 11, 2, 5, 3, 1, 1, 1, 3, 3, 1, 1, 1, 3, 1, 1, 1, 6, 4, 1, 3, 6, 2, 1, 3, 3, 9, 4, 3, 1, 2, 1, 2, 3, 4, 2, 2, 5, 2, 1, 1, 3, 3, 4, 6, 2, 1, 11, 1, 3, 1, 1, 2, 4, 1, 5, 1, 2, 4, 3, 2, 5, 1, 6, 2, 1, 2, 4, 1, 3, 4, 2, 1, 3, 3, 4, 1, 1, 4, 1, 6, 6, 5, 2, 5, 1, 1, 1, 2, 1, 2, 2, 1, 2, 1, 2, 1, 1, 1]
2017-04-02 01:52:28,233 INFO main - 
total Patch Attempts (0): []
2017-04-02 01:52:28,233 INFO main - 
successful_ing_attempts_by_patch: []
2017-04-02 01:52:28,233 INFO main - 
failing_ing_attempts_by_patch: [(pv:2,at:1), (pv:3,at:1), (pv:4,at:4), (pv:5,at:1), (pv:6,at:1), (pv:7,at:1), (pv:8,at:4), (pv:9,at:1), (pv:10,at:3), (pv:11,at:1), (pv:12,at:8), (pv:13,at:2), (pv:14,at:3), (pv:15,at:1), (pv:16,at:1), (pv:17,at:1), (pv:18,at:1), (pv:19,at:1), (pv:20,at:1), (pv:21,at:3), (pv:22,at:3), (pv:23,at:1), (pv:24,at:4), (pv:25,at:2), (pv:26,at:6), (pv:27,at:1), (pv:28,at:4), (pv:29,at:3), (pv:30,at:2), (pv:31,at:1), (pv:32,at:2), (pv:33,at:2), (pv:34,at:1), (pv:35,at:3), (pv:36,at:1), (pv:37,at:3), (pv:38,at:2), (pv:39,at:1), (pv:40,at:1), (pv:41,at:1), (pv:42,at:1), (pv:43,at:1), (pv:44,at:3), (pv:45,at:2), (pv:46,at:1), (pv:47,at:2), (pv:48,at:1), (pv:49,at:3), (pv:50,at:2), (pv:51,at:3), (pv:52,at:2), (pv:53,at:3), (pv:54,at:4), (pv:55,at:1), (pv:56,at:2), (pv:57,at:2), (pv:58,at:1), (pv:59,at:1), (pv:60,at:2), (pv:61,at:4), (pv:62,at:1), (pv:63,at:1), (pv:64,at:2), (pv:65,at:9), (pv:66,at:2), (pv:67,at:1), (pv:68,at:3), (pv:69,at:2), (pv:70,at:1), (pv:71,at:1), (pv:72,at:4), (pv:73,at:2), (pv:74,at:1), (pv:75,at:1), (pv:76,at:3), (pv:77,at:2), (pv:78,at:1), (pv:79,at:1), (pv:80,at:1), (pv:81,at:1), (pv:82,at:2), (pv:83,at:2), (pv:84,at:9), (pv:85,at:1), (pv:86,at:3), (pv:87,at:1), (pv:88,at:1), (pv:89,at:7), (pv:90,at:1), (pv:91,at:7), (pv:92,at:2), (pv:93,at:2), (pv:94,at:1), (pv:95,at:7), (pv:96,at:2), (pv:97,at:4), (pv:98,at:2), (pv:99,at:8), (pv:100,at:14), (pv:101,at:1), (pv:102,at:1), (pv:103,at:1), (pv:104,at:6), (pv:105,at:1), (pv:106,at:1), (pv:107,at:1), (pv:108,at:4), (pv:109,at:6), (pv:110,at:5), (pv:111,at:1), (pv:112,at:3), (pv:113,at:5), (pv:114,at:7), (pv:115,at:1), (pv:116,at:2), (pv:117,at:1), (pv:118,at:3), (pv:119,at:13), (pv:120,at:5), (pv:121,at:2), (pv:122,at:1), (pv:123,at:1), (pv:124,at:2), (pv:125,at:1), (pv:126,at:5), (pv:127,at:5), (pv:128,at:1), (pv:129,at:3), (pv:130,at:1), (pv:131,at:2), (pv:132,at:2), (pv:133,at:5), (pv:134,at:4), (pv:135,at:5), (pv:136,at:3), (pv:137,at:2), (pv:138,at:1), (pv:139,at:5), (pv:140,at:1), (pv:141,at:2), (pv:142,at:1), (pv:143,at:6), (pv:144,at:4), (pv:145,at:5), (pv:146,at:7), (pv:147,at:2), (pv:148,at:1), (pv:149,at:2), (pv:150,at:3), (pv:151,at:2), (pv:152,at:1), (pv:153,at:1), (pv:154,at:2), (pv:155,at:1), (pv:156,at:4), (pv:157,at:3), (pv:158,at:2), (pv:159,at:2), (pv:160,at:6), (pv:161,at:3), (pv:162,at:4), (pv:163,at:1), (pv:164,at:3), (pv:165,at:1), (pv:166,at:2), (pv:167,at:1), (pv:168,at:3), (pv:169,at:5), (pv:170,at:5), (pv:171,at:1), (pv:172,at:4), (pv:173,at:1), (pv:174,at:4), (pv:175,at:2), (pv:176,at:2), (pv:177,at:2), (pv:178,at:1), (pv:179,at:3), (pv:180,at:3), (pv:181,at:5), (pv:182,at:4), (pv:183,at:1), (pv:184,at:2), (pv:185,at:2), (pv:186,at:3), (pv:187,at:4), (pv:188,at:1), (pv:189,at:1), (pv:190,at:1), (pv:191,at:1), (pv:192,at:3), (pv:193,at:1), (pv:194,at:1), (pv:195,at:2), (pv:196,at:1), (pv:197,at:1), (pv:198,at:3), (pv:199,at:2), (pv:200,at:2), (pv:201,at:3), (pv:202,at:1), (pv:203,at:1), (pv:204,at:11), (pv:205,at:2), (pv:206,at:5), (pv:207,at:3), (pv:208,at:1), (pv:209,at:1), (pv:210,at:1), (pv:211,at:3), (pv:212,at:3), (pv:213,at:1), (pv:214,at:1), (pv:215,at:1), (pv:216,at:3), (pv:217,at:1), (pv:218,at:1), (pv:219,at:1), (pv:220,at:6), (pv:221,at:4), (pv:222,at:1), (pv:223,at:3), (pv:224,at:6), (pv:225,at:2), (pv:226,at:1), (pv:227,at:3), (pv:228,at:3), (pv:229,at:9), (pv:230,at:4), (pv:231,at:3), (pv:232,at:1), (pv:233,at:2), (pv:234,at:1), (pv:235,at:2), (pv:236,at:3), (pv:237,at:4), (pv:238,at:2), (pv:239,at:2), (pv:240,at:5), (pv:241,at:2), (pv:242,at:1), (pv:243,at:1), (pv:244,at:3), (pv:245,at:3), (pv:246,at:4), (pv:247,at:6), (pv:248,at:2), (pv:249,at:1), (pv:250,at:11), (pv:251,at:1), (pv:252,at:3), (pv:253,at:1), (pv:255,at:1), (pv:256,at:2), (pv:257,at:4), (pv:258,at:1), (pv:259,at:5), (pv:260,at:1), (pv:261,at:2), (pv:262,at:4), (pv:263,at:3), (pv:264,at:2), (pv:265,at:5), (pv:266,at:1), (pv:267,at:6), (pv:268,at:2), (pv:269,at:1), (pv:270,at:2), (pv:271,at:4), (pv:272,at:1), (pv:273,at:3), (pv:274,at:4), (pv:275,at:2), (pv:276,at:1), (pv:277,at:3), (pv:278,at:3), (pv:279,at:4), (pv:281,at:1), (pv:282,at:1), (pv:283,at:4), (pv:286,at:1), (pv:287,at:6), (pv:288,at:6), (pv:289,at:5), (pv:290,at:2), (pv:291,at:5), (pv:292,at:1), (pv:293,at:1), (pv:294,at:1), (pv:295,at:2), (pv:296,at:1), (pv:297,at:2), (pv:299,at:2), (pv:300,at:1), (pv:302,at:2), (pv:304,at:1), (pv:306,at:2), (pv:308,at:1), (pv:310,at:1), (pv:318,at:1)]
2017-04-02 01:52:28,234 INFO main - 
pvariants_with_transformed_ingredients: [(pv:2,at:1), (pv:3,at:1), (pv:4,at:4), (pv:5,at:1), (pv:6,at:1), (pv:7,at:1), (pv:8,at:4), (pv:9,at:1), (pv:10,at:3), (pv:11,at:1), (pv:12,at:8), (pv:13,at:2), (pv:14,at:3), (pv:15,at:1), (pv:16,at:1), (pv:17,at:1), (pv:18,at:1), (pv:19,at:1), (pv:20,at:1), (pv:21,at:3), (pv:22,at:3), (pv:23,at:1), (pv:24,at:4), (pv:25,at:2), (pv:26,at:6), (pv:27,at:1), (pv:28,at:4), (pv:29,at:3), (pv:30,at:2), (pv:31,at:1), (pv:32,at:2), (pv:33,at:2), (pv:34,at:1), (pv:35,at:3), (pv:36,at:1), (pv:37,at:3), (pv:38,at:2), (pv:39,at:1), (pv:40,at:1), (pv:41,at:1), (pv:42,at:1), (pv:43,at:1), (pv:44,at:3), (pv:45,at:2), (pv:46,at:1), (pv:47,at:2), (pv:48,at:1), (pv:49,at:3), (pv:50,at:2), (pv:51,at:3), (pv:52,at:2), (pv:53,at:3), (pv:54,at:4), (pv:55,at:1), (pv:56,at:2), (pv:57,at:2), (pv:58,at:1), (pv:59,at:1), (pv:60,at:2), (pv:61,at:4), (pv:62,at:1), (pv:63,at:1), (pv:64,at:2), (pv:65,at:9), (pv:66,at:2), (pv:67,at:1), (pv:68,at:3), (pv:69,at:2), (pv:70,at:1), (pv:71,at:1), (pv:72,at:4), (pv:73,at:2), (pv:74,at:1), (pv:75,at:1), (pv:76,at:3), (pv:77,at:2), (pv:78,at:1), (pv:79,at:1), (pv:80,at:1), (pv:81,at:1), (pv:82,at:2), (pv:83,at:2), (pv:84,at:9), (pv:85,at:1), (pv:86,at:3), (pv:87,at:1), (pv:88,at:1), (pv:89,at:7), (pv:90,at:1), (pv:91,at:7), (pv:92,at:2), (pv:93,at:2), (pv:94,at:1), (pv:95,at:7), (pv:96,at:2), (pv:97,at:4), (pv:98,at:2), (pv:99,at:8), (pv:100,at:14), (pv:101,at:1), (pv:102,at:1), (pv:103,at:1), (pv:104,at:6), (pv:105,at:1), (pv:106,at:1), (pv:107,at:1), (pv:108,at:4), (pv:109,at:6), (pv:110,at:5), (pv:111,at:1), (pv:112,at:3), (pv:113,at:5), (pv:114,at:7), (pv:115,at:1), (pv:116,at:2), (pv:117,at:1), (pv:118,at:3), (pv:119,at:13), (pv:120,at:5), (pv:121,at:2), (pv:122,at:1), (pv:123,at:1), (pv:124,at:2), (pv:125,at:1), (pv:126,at:5), (pv:127,at:5), (pv:128,at:1), (pv:129,at:3), (pv:130,at:1), (pv:131,at:2), (pv:132,at:2), (pv:133,at:5), (pv:134,at:4), (pv:135,at:5), (pv:136,at:3), (pv:137,at:2), (pv:138,at:1), (pv:139,at:5), (pv:140,at:1), (pv:141,at:2), (pv:142,at:1), (pv:143,at:6), (pv:144,at:4), (pv:145,at:5), (pv:146,at:7), (pv:147,at:2), (pv:148,at:1), (pv:149,at:2), (pv:150,at:3), (pv:151,at:2), (pv:152,at:1), (pv:153,at:1), (pv:154,at:2), (pv:155,at:1), (pv:156,at:4), (pv:157,at:3), (pv:158,at:2), (pv:159,at:2), (pv:160,at:6), (pv:161,at:3), (pv:162,at:4), (pv:163,at:1), (pv:164,at:3), (pv:165,at:1), (pv:166,at:2), (pv:167,at:1), (pv:168,at:3), (pv:169,at:5), (pv:170,at:5), (pv:171,at:1), (pv:172,at:4), (pv:173,at:1), (pv:174,at:4), (pv:175,at:2), (pv:176,at:2), (pv:177,at:2), (pv:178,at:1), (pv:179,at:3), (pv:180,at:3), (pv:181,at:5), (pv:182,at:4), (pv:183,at:1), (pv:184,at:2), (pv:185,at:2), (pv:186,at:3), (pv:187,at:4), (pv:188,at:1), (pv:189,at:1), (pv:190,at:1), (pv:191,at:1), (pv:192,at:3), (pv:193,at:1), (pv:194,at:1), (pv:195,at:2), (pv:196,at:1), (pv:197,at:1), (pv:198,at:3), (pv:199,at:2), (pv:200,at:2), (pv:201,at:3), (pv:202,at:1), (pv:203,at:1), (pv:204,at:11), (pv:205,at:2), (pv:206,at:5), (pv:207,at:3), (pv:208,at:1), (pv:209,at:1), (pv:210,at:1), (pv:211,at:3), (pv:212,at:3), (pv:213,at:1), (pv:214,at:1), (pv:215,at:1), (pv:216,at:3), (pv:217,at:1), (pv:218,at:1), (pv:219,at:1), (pv:220,at:6), (pv:221,at:4), (pv:222,at:1), (pv:223,at:3), (pv:224,at:6), (pv:225,at:2), (pv:226,at:1), (pv:227,at:3), (pv:228,at:3), (pv:229,at:9), (pv:230,at:4), (pv:231,at:3), (pv:232,at:1), (pv:233,at:2), (pv:234,at:1), (pv:235,at:2), (pv:236,at:3), (pv:237,at:4), (pv:238,at:2), (pv:239,at:2), (pv:240,at:5), (pv:241,at:2), (pv:242,at:1), (pv:243,at:1), (pv:244,at:3), (pv:245,at:3), (pv:246,at:4), (pv:247,at:6), (pv:248,at:2), (pv:249,at:1), (pv:250,at:11), (pv:251,at:1), (pv:252,at:3), (pv:253,at:1), (pv:255,at:1), (pv:256,at:2), (pv:257,at:4), (pv:258,at:1), (pv:259,at:5), (pv:260,at:1), (pv:261,at:2), (pv:262,at:4), (pv:263,at:3), (pv:264,at:2), (pv:265,at:5), (pv:266,at:1), (pv:267,at:6), (pv:268,at:2), (pv:269,at:1), (pv:270,at:2), (pv:271,at:4), (pv:272,at:1), (pv:273,at:3), (pv:274,at:4), (pv:275,at:2), (pv:276,at:1), (pv:277,at:3), (pv:278,at:3), (pv:279,at:4), (pv:281,at:1), (pv:282,at:1), (pv:283,at:4), (pv:286,at:1), (pv:287,at:6), (pv:288,at:6), (pv:289,at:5), (pv:290,at:2), (pv:291,at:5), (pv:292,at:1), (pv:293,at:1), (pv:294,at:1), (pv:295,at:2), (pv:296,at:1), (pv:297,at:2), (pv:299,at:2), (pv:300,at:1), (pv:302,at:2), (pv:304,at:1), (pv:306,at:2), (pv:308,at:1), (pv:310,at:1), (pv:318,at:1)]
2017-04-02 01:52:28,234 INFO fr.inria.main.evolution.AstorMain - Time Total(s): 10998.024
