Warning: no access to tty (Bad file descriptor).
Thus no job control in this shell.
tput: No value for $TERM and no -T specified
Node: wh01.sciclone.wm.edu
2017-03-28 00:01:05,573 INFO main - command line arguments: [-out  /local/scr/mtufano/Time/26/b/random-package-embeddings/1  -jvm4testexecution  /usr/local/jdk1.7.0_80/bin/  -loglevel  INFO  -maxgen  1000000  -population  1  -maxtime  180  -timezone  America/New_York  -customop  fr.inria.astor.approaches.jgenprog.operators.InsertAfterOp:fr.inria.astor.approaches.jgenprog.operators.InsertBeforeOp:fr.inria.astor.approaches.jgenprog.operators.ReplaceOp  -seed  1  -javacompliancelevel  5  -package  org.joda  -binjavafolder  build/classes/  -bintestfolder  build/tests/  -srcjavafolder  src/main/java/  -srctestfolder  src/test/java/  -learningdir  ../../out/learningdir/Time/26/b/  -location  ../../dat/defects4j/Time/26/b/  -failing  org.joda.time.TestDateTimeZoneCutover  -dependencies  ../../dat/libs/Time/joda-convert-1.2.jar  -scope  fr.inria.astor.core.loop.spaces.ingredients.scopes.ctscopes.CtPackageIngredientScope  -ingredientstrategy  fr.inria.astor.core.loop.spaces.ingredients.ingredientSearch.EfficientIngredientStrategy  -transformingredient  -classestoinstrument  org.joda.time.convert.StringConverter:org.joda.time.convert.LongConverter:org.joda.time.tz.FixedDateTimeZone:org.joda.time.ReadablePeriod:org.joda.time.field.RemainderDateTimeField:org.joda.time.field.PreciseDateTimeField:org.joda.time.convert.ConverterSet:org.joda.time.field.FieldUtils:org.joda.time.format.FormatUtils:org.joda.time.field.DividedDateTimeField:org.joda.time.convert.CalendarConverter:org.joda.time.format.DateTimeParserBucket:org.joda.time.ReadableInstant:org.joda.time.format.DateTimeParser:org.joda.time.field.DecoratedDurationField:org.joda.time.convert.ReadablePartialConverter:org.joda.time.field.OffsetDateTimeField:org.joda.time.DateTimeField:org.joda.time.chrono.BasicMonthOfYearDateTimeField:org.joda.time.chrono.JulianChronology:org.joda.time.base.BaseDateTime:org.joda.time.chrono.BasicWeekOfWeekyearDateTimeField:org.joda.time.tz.Provider:org.joda.time.format.DateTimePrinter:org.joda.time.DateTimeFieldType:org.joda.time.field.ScaledDurationField:org.joda.time.tz.DateTimeZoneBuilder:org.joda.time.format.DateTimeFormatter:org.joda.time.convert.Converter:org.joda.time.chrono.GJMonthOfYearDateTimeField:org.joda.time.field.ImpreciseDateTimeField:org.joda.time.chrono.GJEraDateTimeField:org.joda.time.convert.ReadablePeriodConverter:org.joda.time.DateTimeZone:org.joda.time.field.BaseDateTimeField:org.joda.time.convert.PartialConverter:org.joda.time.base.AbstractInstant:org.joda.time.DateTimeUtils:org.joda.time.convert.PeriodConverter:org.joda.time.convert.ConverterManager:org.joda.time.chrono.BasicGJChronology:org.joda.time.chrono.GJChronology:org.joda.time.chrono.BuddhistChronology:org.joda.time.chrono.ISOYearOfEraDateTimeField:org.joda.time.convert.ReadableInstantConverter:org.joda.time.DateTime:org.joda.time.chrono.ISOChronology:org.joda.time.format.ISODateTimeFormat:org.joda.time.DurationField:org.joda.time.convert.IntervalConverter:org.joda.time.convert.ReadableIntervalConverter:org.joda.time.field.DecoratedDateTimeField:org.joda.time.chrono.BaseChronology:org.joda.time.chrono.GJYearOfEraDateTimeField:org.joda.time.convert.NullConverter:org.joda.time.tz.CachedDateTimeZone:org.joda.time.field.MillisDurationField:org.joda.time.convert.AbstractConverter:org.joda.time.chrono.GJDayOfWeekDateTimeField:org.joda.time.field.PreciseDurationDateTimeField:org.joda.time.chrono.BasicDayOfYearDateTimeField:org.joda.time.IllegalFieldValueException:org.joda.time.chrono.GregorianChronology:org.joda.time.chrono.AssembledChronology:org.joda.time.DurationFieldType:org.joda.time.field.UnsupportedDateTimeField:org.joda.time.tz.DefaultNameProvider:org.joda.time.field.BaseDurationField:org.joda.time.ReadableInterval:org.joda.time.field.UnsupportedDurationField:org.joda.time.chrono.BasicChronology:org.joda.time.Chronology:org.joda.time.format.DateTimeFormatterBuilder:org.joda.time.convert.DateConverter:org.joda.time.chrono.BasicYearDateTimeField:org.joda.time.chrono.BasicDayOfMonthDateTimeField:org.joda.time.base.AbstractDateTime:org.joda.time.JodaTimePermission:org.joda.time.chrono.BasicWeekyearDateTimeField:org.joda.time.tz.NameProvider:org.joda.time.ReadableDateTime:org.joda.time.field.ZeroIsMaxDateTimeField:org.joda.time.chrono.ZonedChronology:org.joda.time.convert.DurationConverter:org.joda.time.convert.InstantConverter:org.joda.time.field.PreciseDurationField:org.joda.time.convert.ReadableDurationConverter:org.joda.time.tz.ZoneInfoProvider:  -regressiontestcases4fl  org.joda.time.TestAbstractPartial:org.joda.time.TestBasePartial:org.joda.time.TestBaseSingleFieldPeriod:org.joda.time.TestChronology:org.joda.time.TestDateMidnight_Basics:org.joda.time.TestDateMidnight_Constructors:org.joda.time.TestDateMidnight_Properties:org.joda.time.TestDateTimeComparator:org.joda.time.TestDateTimeFieldType:org.joda.time.TestDateTimeUtils:org.joda.time.TestDateTimeZone:org.joda.time.TestDateTimeZoneCutover:org.joda.time.TestDateTime_Basics:org.joda.time.TestDateTime_Constructors:org.joda.time.TestDateTime_Properties:org.joda.time.TestDays:org.joda.time.TestDurationField:org.joda.time.TestDurationFieldType:org.joda.time.TestDuration_Basics:org.joda.time.TestDuration_Constructors:org.joda.time.TestHours:org.joda.time.TestIllegalFieldValueException:org.joda.time.TestInstant_Basics:org.joda.time.TestInstant_Constructors:org.joda.time.TestInterval_Basics:org.joda.time.TestInterval_Constructors:org.joda.time.TestLocalDateTime_Basics:org.joda.time.TestLocalDateTime_Constructors:org.joda.time.TestLocalDateTime_Properties:org.joda.time.TestLocalDate_Basics:org.joda.time.TestLocalDate_Constructors:org.joda.time.TestLocalDate_Properties:org.joda.time.TestLocalTime_Basics:org.joda.time.TestLocalTime_Constructors:org.joda.time.TestLocalTime_Properties:org.joda.time.TestMinutes:org.joda.time.TestMonthDay_Basics:org.joda.time.TestMonthDay_Constructors:org.joda.time.TestMonthDay_Properties:org.joda.time.TestMonths:org.joda.time.TestMutableDateTime_Adds:org.joda.time.TestMutableDateTime_Basics:org.joda.time.TestMutableDateTime_Constructors:org.joda.time.TestMutableDateTime_Properties:org.joda.time.TestMutableDateTime_Sets:org.joda.time.TestMutableInterval_Basics:org.joda.time.TestMutableInterval_Constructors:org.joda.time.TestMutableInterval_Updates:org.joda.time.TestMutablePeriod_Basics:org.joda.time.TestMutablePeriod_Constructors:org.joda.time.TestMutablePeriod_Updates:org.joda.time.TestPartial_Basics:org.joda.time.TestPartial_Constructors:org.joda.time.TestPartial_Match:org.joda.time.TestPartial_Properties:org.joda.time.TestPeriodType:org.joda.time.TestPeriod_Basics:org.joda.time.TestPeriod_Constructors:org.joda.time.TestSeconds:org.joda.time.TestSerialization:org.joda.time.TestStringConvert:org.joda.time.TestTimeOfDay_Basics:org.joda.time.TestTimeOfDay_Constructors:org.joda.time.TestTimeOfDay_Properties:org.joda.time.TestWeeks:org.joda.time.TestYearMonthDay_Basics:org.joda.time.TestYearMonthDay_Constructors:org.joda.time.TestYearMonthDay_Properties:org.joda.time.TestYearMonth_Basics:org.joda.time.TestYearMonth_Constructors:org.joda.time.TestYearMonth_Properties:org.joda.time.TestYears:org.joda.time.chrono.TestBuddhistChronology:org.joda.time.chrono.TestCopticChronology:org.joda.time.chrono.TestEthiopicChronology:org.joda.time.chrono.TestGJChronology:org.joda.time.chrono.TestGregorianChronology:org.joda.time.chrono.TestISOChronology:org.joda.time.chrono.TestIslamicChronology:org.joda.time.chrono.TestJulianChronology:org.joda.time.chrono.TestLenientChronology:org.joda.time.convert.TestCalendarConverter:org.joda.time.convert.TestConverterManager:org.joda.time.convert.TestDateConverter:org.joda.time.convert.TestLongConverter:org.joda.time.convert.TestNullConverter:org.joda.time.convert.TestReadableDurationConverter:org.joda.time.convert.TestReadableInstantConverter:org.joda.time.convert.TestReadableIntervalConverter:org.joda.time.convert.TestReadablePartialConverter:org.joda.time.convert.TestReadablePeriodConverter:org.joda.time.convert.TestStringConverter:org.joda.time.field.TestBaseDateTimeField:org.joda.time.field.TestMillisDurationField:org.joda.time.field.TestOffsetDateTimeField:org.joda.time.field.TestPreciseDateTimeField:org.joda.time.field.TestPreciseDurationDateTimeField:org.joda.time.field.TestPreciseDurationField:org.joda.time.field.TestScaledDurationField:org.joda.time.field.TestUnsupportedDateTimeField:org.joda.time.format.TestDateTimeFormat:org.joda.time.format.TestDateTimeFormatStyle:org.joda.time.format.TestDateTimeFormatter:org.joda.time.format.TestDateTimeFormatterBuilder:org.joda.time.format.TestISODateTimeFormat:org.joda.time.format.TestISODateTimeFormatParsing:org.joda.time.format.TestISODateTimeFormat_Fields:org.joda.time.format.TestISOPeriodFormat:org.joda.time.format.TestISOPeriodFormatParsing:org.joda.time.format.TestPeriodFormat:org.joda.time.format.TestPeriodFormatParsing:org.joda.time.format.TestPeriodFormatter:org.joda.time.format.TestPeriodFormatterBuilder:org.joda.time.format.TestTextFields:org.joda.time.tz.TestBuilder:org.joda.time.tz.TestCompiler:]
2017-03-28 00:01:06,542 INFO main - building model: /local/scr/mtufano/Time/26/b/random-package-embeddings/1/AstorMain-b//src//default, compliance level: 5
2017-03-28 00:01:06,564 INFO main - Classpath for building SpoonModel [/sciclone/data20/mtufano/deeprepair/bin/eval/../../dat/libs/Time/joda-convert-1.2.jar]
2017-03-28 00:01:14,225 INFO main - -Executing Gzoltar classpath: /local/scr/mtufano/Time/26/b/random-package-embeddings/1/AstorMain-b//bin//default from 116 classes with test cases
2017-03-28 00:01:14,225 INFO fr.inria.astor.core.faultlocalization.GZoltarFaultLocalization - Gzoltar fault localization: min susp value parameter: 0.1
2017-03-28 00:01:14,972 INFO fr.inria.astor.core.faultlocalization.GZoltarFaultLocalization - -gz-Adding classpath: [/local/scr/mtufano/Time/26/b/random-package-embeddings/1/AstorMain-b//bin//default, /sciclone/data20/mtufano/deeprepair/bin/eval/../../dat/libs/Time/joda-convert-1.2.jar]
2017-03-28 00:01:27,034 INFO fr.inria.astor.core.faultlocalization.GZoltarFaultLocalization - Test failt: org.joda.time.format.TestDateTimeFormatter#testZoneShortNameNearTransition
2017-03-28 00:01:27,034 INFO fr.inria.astor.core.faultlocalization.GZoltarFaultLocalization - Test failt: org.joda.time.format.TestDateTimeFormatter#testZoneNameNearTransition
2017-03-28 00:01:27,038 INFO fr.inria.astor.core.faultlocalization.GZoltarFaultLocalization - Test failt: org.joda.time.format.TestDateTimeFormatStyle#testForStyle_fullDateTime
2017-03-28 00:01:27,038 INFO fr.inria.astor.core.faultlocalization.GZoltarFaultLocalization - Test failt: org.joda.time.format.TestDateTimeFormatStyle#testForStyle_mediumLongDateTime
2017-03-28 00:01:27,039 INFO fr.inria.astor.core.faultlocalization.GZoltarFaultLocalization - Test failt: org.joda.time.format.TestDateTimeFormatStyle#testForStyle_fullTime
2017-03-28 00:01:27,039 INFO fr.inria.astor.core.faultlocalization.GZoltarFaultLocalization - Test failt: org.joda.time.format.TestDateTimeFormatStyle#testForStyle_shortLongDateTime
2017-03-28 00:01:27,039 INFO fr.inria.astor.core.faultlocalization.GZoltarFaultLocalization - Test failt: org.joda.time.format.TestDateTimeFormatStyle#testForStyle_longTime
2017-03-28 00:01:27,039 INFO fr.inria.astor.core.faultlocalization.GZoltarFaultLocalization - Test failt: org.joda.time.format.TestDateTimeFormatStyle#testForStyle_mediumFullDateTime
2017-03-28 00:01:27,039 INFO fr.inria.astor.core.faultlocalization.GZoltarFaultLocalization - Test failt: org.joda.time.format.TestDateTimeFormatStyle#testForStyle_shortFullDateTime
2017-03-28 00:01:27,039 INFO fr.inria.astor.core.faultlocalization.GZoltarFaultLocalization - Test failt: org.joda.time.format.TestDateTimeFormatStyle#testForStyle_longDateTime
2017-03-28 00:01:27,039 INFO fr.inria.astor.core.faultlocalization.GZoltarFaultLocalization - Test failt: org.joda.time.format.TestDateTimeFormat#testFormat_zoneText
2017-03-28 00:01:27,039 INFO fr.inria.astor.core.faultlocalization.GZoltarFaultLocalization - Test failt: org.joda.time.format.TestDateTimeFormat#testFormat_zoneLongText
2017-03-28 00:01:27,040 INFO fr.inria.astor.core.faultlocalization.GZoltarFaultLocalization - Test failt: org.joda.time.TestDateTimeZoneCutover#testWithSecondOfMinuteInDstChange
2017-03-28 00:01:27,040 INFO fr.inria.astor.core.faultlocalization.GZoltarFaultLocalization - Test failt: org.joda.time.TestDateTimeZoneCutover#testWithMinuteOfHourInDstChange
2017-03-28 00:01:27,040 INFO fr.inria.astor.core.faultlocalization.GZoltarFaultLocalization - Test failt: org.joda.time.TestDateTimeZoneCutover#testWithMinuteOfHourInDstChange_mockZone
2017-03-28 00:01:27,040 INFO fr.inria.astor.core.faultlocalization.GZoltarFaultLocalization - Test failt: org.joda.time.TestDateTimeZoneCutover#testBug2182444_usCentral
2017-03-28 00:01:27,040 INFO fr.inria.astor.core.faultlocalization.GZoltarFaultLocalization - Test failt: org.joda.time.TestDateTimeZoneCutover#testWithMillisOfSecondInDstChange_Paris_summer
2017-03-28 00:01:27,040 INFO fr.inria.astor.core.faultlocalization.GZoltarFaultLocalization - Test failt: org.joda.time.TestDateTimeZoneCutover#testWithHourOfDayInDstChange
2017-03-28 00:01:27,040 INFO fr.inria.astor.core.faultlocalization.GZoltarFaultLocalization - Test failt: org.joda.time.TestDateTimeZoneCutover#testWithMillisOfSecondInDstChange_NewYork_winter
2017-03-28 00:01:27,040 INFO fr.inria.astor.core.faultlocalization.GZoltarFaultLocalization - Test failt: org.joda.time.TestDateTimeZoneCutover#testBug2182444_ausNSW
2017-03-28 00:01:27,041 INFO fr.inria.astor.core.faultlocalization.GZoltarFaultLocalization - Test failt: org.joda.time.TestDateTimeZone#testGetShortName
2017-03-28 00:01:27,041 INFO fr.inria.astor.core.faultlocalization.GZoltarFaultLocalization - Test failt: org.joda.time.TestDateTimeZone#testGetName
2017-03-28 00:01:27,042 INFO fr.inria.astor.core.faultlocalization.GZoltarFaultLocalization - Gzoltar Test Result Total:3781, fails: 22, GZoltar suspicious 9844
2017-03-28 00:01:27,093 INFO fr.inria.astor.core.faultlocalization.GZoltarFaultLocalization - Gzoltar found: 651 with susp > 0.1, we consider: 651
2017-03-28 00:01:27,094 INFO main - 
---- Initial suspicious size: 651
2017-03-28 00:01:27,167 INFO main - -any mod point created for suspicious Candidate [className=org.joda.time.format.DateTimeFormat, methodName=org.joda.time.format.DateTimeFormat{parsePatternTo(Lorg/joda/time/format/DateTimeFormatterBuilder;Ljava/lang/String;)V 0.0, lineNumber=533, susp=0.7385489458759964]
2017-03-28 00:01:27,381 INFO main - -any mod point created for suspicious Candidate [className=org.joda.time.format.DateTimeFormatterBuilder$TimeZoneName, methodName=org.joda.time.format.DateTimeFormatterBuilder$TimeZoneName{printTo(Ljava/lang/StringBuffer;JLorg/joda/time/Chronology;ILorg/joda/time/DateTimeZone;Ljava/util/Locale;)V 0.0, lineNumber=2422, susp=0.7095748751868991]
2017-03-28 00:01:27,788 INFO main - -any mod point created for suspicious Candidate [className=org.joda.time.format.DateTimeFormat, methodName=org.joda.time.format.DateTimeFormat{parsePatternTo(Lorg/joda/time/format/DateTimeFormatterBuilder;Ljava/lang/String;)V 0.0, lineNumber=538, susp=0.674199862463242]
2017-03-28 00:01:27,843 INFO main - -any mod point created for suspicious Candidate [className=org.joda.time.format.DateTimeFormatterBuilder$TimeZoneName, methodName=org.joda.time.format.DateTimeFormatterBuilder$TimeZoneName{print(JLorg/joda/time/DateTimeZone;Ljava/util/Locale;)Ljava/lang/String; 0.0, lineNumber=2438, susp=0.674199862463242]
2017-03-28 00:01:27,912 INFO main - -any mod point created for suspicious Candidate [className=org.joda.time.format.DateTimeFormat, methodName=org.joda.time.format.DateTimeFormat{parsePatternTo(Lorg/joda/time/format/DateTimeFormatterBuilder;Ljava/lang/String;)V 0.0, lineNumber=511, susp=0.5330017908890261]
2017-03-28 00:01:27,915 INFO main - -any mod point created for suspicious Candidate [className=org.joda.time.format.DateTimeFormat, methodName=org.joda.time.format.DateTimeFormat{parsePatternTo(Lorg/joda/time/format/DateTimeFormatterBuilder;Ljava/lang/String;)V 0.0, lineNumber=512, susp=0.5330017908890261]
2017-03-28 00:01:27,944 INFO main - -any mod point created for suspicious Candidate [className=org.joda.time.format.DateTimeFormat, methodName=org.joda.time.format.DateTimeFormat{parsePatternTo(Lorg/joda/time/format/DateTimeFormatterBuilder;Ljava/lang/String;)V 0.0, lineNumber=508, susp=0.4181210050035454]
2017-03-28 00:01:27,947 INFO main - -any mod point created for suspicious Candidate [className=org.joda.time.format.DateTimeFormat, methodName=org.joda.time.format.DateTimeFormat{parsePatternTo(Lorg/joda/time/format/DateTimeFormatterBuilder;Ljava/lang/String;)V 0.0, lineNumber=509, susp=0.4181210050035454]
2017-03-28 00:01:27,954 INFO main - -any mod point created for suspicious Candidate [className=org.joda.time.format.DateTimeFormat$StyleFormatter, methodName=org.joda.time.format.DateTimeFormat$StyleFormatter{getPattern(Ljava/util/Locale;)Ljava/lang/String; 0.0, lineNumber=842, susp=0.40451991747794525]
2017-03-28 00:01:27,960 INFO main - -any mod point created for suspicious Candidate [className=org.joda.time.format.DateTimeFormat, methodName=org.joda.time.format.DateTimeFormat{parsePatternTo(Lorg/joda/time/format/DateTimeFormatterBuilder;Ljava/lang/String;)V 0.0, lineNumber=499, susp=0.4029114820126901]
2017-03-28 00:01:27,962 INFO main - -any mod point created for suspicious Candidate [className=org.joda.time.format.DateTimeFormat, methodName=org.joda.time.format.DateTimeFormat{parsePatternTo(Lorg/joda/time/format/DateTimeFormatterBuilder;Ljava/lang/String;)V 0.0, lineNumber=500, susp=0.4029114820126901]
2017-03-28 00:01:28,005 INFO main - -any mod point created for suspicious Candidate [className=org.joda.time.format.DateTimeFormat$StyleFormatter, methodName=org.joda.time.format.DateTimeFormat$StyleFormatter{printTo(Ljava/lang/StringBuffer;JLorg/joda/time/Chronology;ILorg/joda/time/DateTimeZone;Ljava/util/Locale;)V 0.0, lineNumber=789, susp=0.40201512610368484]
2017-03-28 00:01:28,209 INFO main - -any mod point created for suspicious Candidate [className=org.joda.time.format.DateTimeFormat$StyleFormatter, methodName=org.joda.time.format.DateTimeFormat$StyleFormatter{getFormatter(Ljava/util/Locale;)Lorg/joda/time/format/DateTimeFormatter; 0.0, lineNumber=828, susp=0.40201512610368484]
2017-03-28 00:01:28,417 INFO main - -any mod point created for suspicious Candidate [className=org.joda.time.format.DateTimeFormat, methodName=org.joda.time.format.DateTimeFormat{createFormatterForStyleIndex(II)Lorg/joda/time/format/DateTimeFormatter; 0.0, lineNumber=736, susp=0.40201512610368484]
2017-03-28 00:01:28,451 INFO main - -any mod point created for suspicious Candidate [className=org.joda.time.format.DateTimeFormat, methodName=org.joda.time.format.DateTimeFormat{selectStyle(C)I 0.0, lineNumber=755, susp=0.38138503569823695]
2017-03-28 00:01:28,452 INFO main - -any mod point created for suspicious Candidate [className=org.joda.time.format.DateTimeFormat, methodName=org.joda.time.format.DateTimeFormat{selectStyle(C)I 0.0, lineNumber=753, susp=0.38138503569823695]
2017-03-28 00:01:28,543 INFO main - -any mod point created for suspicious Candidate [className=org.joda.time.format.DateTimeFormat, methodName=org.joda.time.format.DateTimeFormat{parseToken(Ljava/lang/String;[I)Ljava/lang/String; 0.0, lineNumber=593, susp=0.3221390769615825]
2017-03-28 00:01:28,547 INFO main - -any mod point created for suspicious Candidate [className=org.joda.time.format.DateTimeFormat, methodName=org.joda.time.format.DateTimeFormat{parsePatternTo(Lorg/joda/time/format/DateTimeFormatterBuilder;Ljava/lang/String;)V 0.0, lineNumber=549, susp=0.3178208630818641]
2017-03-28 00:01:28,559 INFO main - -any mod point created for suspicious Candidate [className=org.joda.time.format.DateTimeFormat, methodName=org.joda.time.format.DateTimeFormat{parsePatternTo(Lorg/joda/time/format/DateTimeFormatterBuilder;Ljava/lang/String;)V 0.0, lineNumber=550, susp=0.3178208630818641]
2017-03-28 00:01:28,743 INFO main - -any mod point created for suspicious Candidate [className=org.joda.time.format.DateTimeFormatterBuilder$TimeZoneName, methodName=org.joda.time.format.DateTimeFormatterBuilder$TimeZoneName{print(JLorg/joda/time/DateTimeZone;Ljava/util/Locale;)Ljava/lang/String; 0.0, lineNumber=2436, susp=0.30151134457776363]
2017-03-28 00:01:28,753 INFO main - -any mod point created for suspicious Candidate [className=org.joda.time.format.DateTimeFormat, methodName=org.joda.time.format.DateTimeFormat{parsePatternTo(Lorg/joda/time/format/DateTimeFormatterBuilder;Ljava/lang/String;)V 0.0, lineNumber=563, susp=0.2934695928267111]
2017-03-28 00:01:28,777 INFO main - -any mod point created for suspicious Candidate [className=org.joda.time.format.DateTimeFormat, methodName=org.joda.time.format.DateTimeFormat{parsePatternTo(Lorg/joda/time/format/DateTimeFormatterBuilder;Ljava/lang/String;)V 0.0, lineNumber=490, susp=0.29250896965085227]
2017-03-28 00:01:28,779 INFO main - -any mod point created for suspicious Candidate [className=org.joda.time.format.DateTimeFormat, methodName=org.joda.time.format.DateTimeFormat{parsePatternTo(Lorg/joda/time/format/DateTimeFormatterBuilder;Ljava/lang/String;)V 0.0, lineNumber=491, susp=0.29250896965085227]
2017-03-28 00:01:28,927 INFO main - -any mod point created for suspicious Candidate [className=org.joda.time.format.DateTimeFormat, methodName=org.joda.time.format.DateTimeFormat{parsePatternTo(Lorg/joda/time/format/DateTimeFormatterBuilder;Ljava/lang/String;)V 0.0, lineNumber=424, susp=0.2842676218074806]
2017-03-28 00:01:28,934 INFO main - -any mod point created for suspicious Candidate [className=org.joda.time.format.DateTimeFormat, methodName=org.joda.time.format.DateTimeFormat{parsePatternTo(Lorg/joda/time/format/DateTimeFormatterBuilder;Ljava/lang/String;)V 0.0, lineNumber=479, susp=0.27668578554642986]
2017-03-28 00:01:28,936 INFO main - -any mod point created for suspicious Candidate [className=org.joda.time.format.DateTimeFormat, methodName=org.joda.time.format.DateTimeFormat{parsePatternTo(Lorg/joda/time/format/DateTimeFormatterBuilder;Ljava/lang/String;)V 0.0, lineNumber=470, susp=0.2727272727272727]
2017-03-28 00:01:28,937 INFO main - -any mod point created for suspicious Candidate [className=org.joda.time.format.DateTimeFormat, methodName=org.joda.time.format.DateTimeFormat{parsePatternTo(Lorg/joda/time/format/DateTimeFormatterBuilder;Ljava/lang/String;)V 0.0, lineNumber=471, susp=0.2727272727272727]
2017-03-28 00:01:29,007 INFO main - -any mod point created for suspicious Candidate [className=org.joda.time.format.DateTimeFormat, methodName=org.joda.time.format.DateTimeFormat{parsePatternTo(Lorg/joda/time/format/DateTimeFormatterBuilder;Ljava/lang/String;)V 0.0, lineNumber=477, susp=0.2558408596267325]
2017-03-28 00:01:29,152 INFO main - -any mod point created for suspicious Candidate [className=org.joda.time.format.DateTimeFormat, methodName=org.joda.time.format.DateTimeFormat{parsePatternTo(Lorg/joda/time/format/DateTimeFormatterBuilder;Ljava/lang/String;)V 0.0, lineNumber=557, susp=0.22019275302527214]
2017-03-28 00:01:29,273 INFO main - -any mod point created for suspicious Candidate [className=org.joda.time.format.FormatUtils, methodName=org.joda.time.format.FormatUtils{appendPaddedInteger(Ljava/lang/StringBuffer;II)V 0.0, lineNumber=78, susp=0.21564047339087547]
2017-03-28 00:01:29,284 INFO main - -any mod point created for suspicious Candidate [className=org.joda.time.format.DateTimeFormatterBuilder$CharacterLiteral, methodName=org.joda.time.format.DateTimeFormatterBuilder$CharacterLiteral{printTo(Ljava/lang/StringBuffer;JLorg/joda/time/Chronology;ILorg/joda/time/DateTimeZone;Ljava/util/Locale;)V 0.0, lineNumber=1152, susp=0.21564047339087547]
2017-03-28 00:01:29,463 INFO main - -any mod point created for suspicious Candidate [className=org.joda.time.format.DateTimeFormatterBuilder$Composite, methodName=org.joda.time.format.DateTimeFormatterBuilder$Composite{printTo(Ljava/lang/StringBuffer;JLorg/joda/time/Chronology;ILorg/joda/time/DateTimeZone;Ljava/util/Locale;)V 0.0, lineNumber=2524, susp=0.21454584462916304]
2017-03-28 00:01:29,490 INFO main - -any mod point created for suspicious Candidate [className=org.joda.time.format.DateTimeFormatterBuilder$PaddedNumber, methodName=org.joda.time.format.DateTimeFormatterBuilder$PaddedNumber{printTo(Ljava/lang/StringBuffer;JLorg/joda/time/Chronology;ILorg/joda/time/DateTimeZone;Ljava/util/Locale;)V 0.0, lineNumber=1412, susp=0.21454584462916304]
2017-03-28 00:01:29,495 INFO main - -any mod point created for suspicious Candidate [className=org.joda.time.format.DateTimeFormatterBuilder$PaddedNumber, methodName=org.joda.time.format.DateTimeFormatterBuilder$PaddedNumber{printTo(Ljava/lang/StringBuffer;JLorg/joda/time/Chronology;ILorg/joda/time/DateTimeZone;Ljava/util/Locale;)V 0.0, lineNumber=1413, susp=0.21454584462916304]
2017-03-28 00:01:29,511 INFO main - -any mod point created for suspicious Candidate [className=org.joda.time.format.DateTimeFormatter, methodName=org.joda.time.format.DateTimeFormatter{printTo(Ljava/lang/StringBuffer;Lorg/joda/time/ReadableInstant;)V 0.0, lineNumber=460, susp=0.21346771798353542]
2017-03-28 00:01:29,527 INFO main - -any mod point created for suspicious Candidate [className=org.joda.time.format.DateTimeFormat$StyleFormatter, methodName=org.joda.time.format.DateTimeFormat$StyleFormatter{getPattern(Ljava/util/Locale;)Ljava/lang/String; 0.0, lineNumber=839, susp=0.21320071635561041]
2017-03-28 00:01:29,533 INFO main - -any mod point created for suspicious Candidate [className=org.joda.time.format.DateTimeFormat$StyleFormatter, methodName=org.joda.time.format.DateTimeFormat$StyleFormatter{getPattern(Ljava/util/Locale;)Ljava/lang/String; 0.0, lineNumber=840, susp=0.21320071635561041]
2017-03-28 00:01:29,545 INFO main - -any mod point created for suspicious Candidate [className=org.joda.time.format.DateTimeFormat, methodName=org.joda.time.format.DateTimeFormat{createFormatterForPattern(Ljava/lang/String;)Lorg/joda/time/format/DateTimeFormatter; 0.0, lineNumber=687, susp=0.2124642695389533]
2017-03-28 00:01:29,558 INFO main - -any mod point created for suspicious Candidate [className=org.joda.time.format.DateTimeFormatter, methodName=org.joda.time.format.DateTimeFormatter{printTo(Ljava/lang/StringBuffer;JLorg/joda/time/Chronology;)V 0.0, lineNumber=630, susp=0.21188057538790941]
2017-03-28 00:01:29,602 INFO main - -any mod point created for suspicious Candidate [className=org.joda.time.format.DateTimeFormatterBuilder, methodName=org.joda.time.format.DateTimeFormatterBuilder{appendLiteral(Ljava/lang/String;)Lorg/joda/time/format/DateTimeFormatterBuilder; 0.0, lineNumber=379, susp=0.20683507599800766]
2017-03-28 00:01:29,612 INFO main - -any mod point created for suspicious Candidate [className=org.joda.time.format.DateTimeFormatterBuilder$StringLiteral, methodName=org.joda.time.format.DateTimeFormatterBuilder$StringLiteral{printTo(Ljava/lang/StringBuffer;JLorg/joda/time/Chronology;ILorg/joda/time/DateTimeZone;Ljava/util/Locale;)V 0.0, lineNumber=1215, susp=0.20683507599800766]
2017-03-28 00:01:29,626 INFO main - -any mod point created for suspicious Candidate [className=org.joda.time.format.FormatUtils, methodName=org.joda.time.format.FormatUtils{appendPaddedInteger(Ljava/lang/StringBuffer;II)V 0.0, lineNumber=92, susp=0.1956038587687303]
2017-03-28 00:01:29,762 INFO main - -any mod point created for suspicious Candidate [className=org.joda.time.format.DateTimeFormat, methodName=org.joda.time.format.DateTimeFormat{parsePatternTo(Lorg/joda/time/format/DateTimeFormatterBuilder;Ljava/lang/String;)V 0.0, lineNumber=514, susp=0.19069251784911848]
2017-03-28 00:01:29,763 INFO main - -any mod point created for suspicious Candidate [className=org.joda.time.format.DateTimeFormat, methodName=org.joda.time.format.DateTimeFormat{parsePatternTo(Lorg/joda/time/format/DateTimeFormatterBuilder;Ljava/lang/String;)V 0.0, lineNumber=515, susp=0.19069251784911848]
2017-03-28 00:01:29,985 INFO main - -any mod point created for suspicious Candidate [className=org.joda.time.format.DateTimeFormat, methodName=org.joda.time.format.DateTimeFormat{parsePatternTo(Lorg/joda/time/format/DateTimeFormatterBuilder;Ljava/lang/String;)V 0.0, lineNumber=488, susp=0.17407765595569785]
2017-03-28 00:01:30,007 INFO main - -any mod point created for suspicious Candidate [className=org.joda.time.DateTimeFieldType$StandardDateTimeFieldType, methodName=org.joda.time.DateTimeFieldType$StandardDateTimeFieldType{getField(Lorg/joda/time/Chronology;)Lorg/joda/time/DateTimeField; 0.0, lineNumber=505, susp=0.1654758480803738]
2017-03-28 00:01:30,451 INFO main - -any mod point created for suspicious Candidate [className=org.joda.time.format.DateTimeFormat, methodName=org.joda.time.format.DateTimeFormat{selectStyle(C)I 0.0, lineNumber=751, susp=0.16116459280507606]
2017-03-28 00:01:30,452 INFO main - -any mod point created for suspicious Candidate [className=org.joda.time.format.DateTimeFormat, methodName=org.joda.time.format.DateTimeFormat{selectStyle(C)I 0.0, lineNumber=749, susp=0.16116459280507606]
2017-03-28 00:01:30,674 INFO main - -any mod point created for suspicious Candidate [className=org.joda.time.DateTimeFieldType$StandardDateTimeFieldType, methodName=org.joda.time.DateTimeFieldType$StandardDateTimeFieldType{getField(Lorg/joda/time/Chronology;)Lorg/joda/time/DateTimeField; 0.0, lineNumber=501, susp=0.15717365336548286]
2017-03-28 00:01:30,701 INFO main - -any mod point created for suspicious Candidate [className=org.joda.time.DateTimeFieldType$StandardDateTimeFieldType, methodName=org.joda.time.DateTimeFieldType$StandardDateTimeFieldType{getField(Lorg/joda/time/Chronology;)Lorg/joda/time/DateTimeField; 0.0, lineNumber=497, susp=0.15436768323566552]
2017-03-28 00:01:30,885 INFO main - -any mod point created for suspicious Candidate [className=org.joda.time.format.DateTimeFormatterBuilder$TwoDigitYear, methodName=org.joda.time.format.DateTimeFormatterBuilder$TwoDigitYear{printTo(Ljava/lang/StringBuffer;JLorg/joda/time/Chronology;ILorg/joda/time/DateTimeZone;Ljava/util/Locale;)V 0.0, lineNumber=1617, susp=0.15075567228888181]
2017-03-28 00:01:31,901 INFO main - -any mod point created for suspicious Candidate [className=org.joda.time.format.DateTimeFormatterBuilder$Composite, methodName=org.joda.time.format.DateTimeFormatterBuilder$Composite{decompose(Ljava/util/List;Ljava/util/List;Ljava/util/List;)V 0.0, lineNumber=2629, susp=0.1454016817255763]
2017-03-28 00:01:31,941 INFO main - -any mod point created for suspicious Candidate [className=org.joda.time.DateTimeFieldType$StandardDateTimeFieldType, methodName=org.joda.time.DateTimeFieldType$StandardDateTimeFieldType{getField(Lorg/joda/time/Chronology;)Lorg/joda/time/DateTimeField; 0.0, lineNumber=479, susp=0.1442263244544471]
2017-03-28 00:01:31,960 INFO main - -any mod point created for suspicious Candidate [className=org.joda.time.format.DateTimeFormatterBuilder$Fraction, methodName=org.joda.time.format.DateTimeFormatterBuilder$Fraction{printTo(Ljava/lang/StringBuffer;JLorg/joda/time/Chronology;ILorg/joda/time/DateTimeZone;Ljava/util/Locale;)V 0.0, lineNumber=1849, susp=0.14235366225076904]
2017-03-28 00:01:31,963 INFO main - -any mod point created for suspicious Candidate [className=org.joda.time.format.DateTimeFormatterBuilder$Fraction, methodName=org.joda.time.format.DateTimeFormatterBuilder$Fraction{printTo(Ljava/lang/StringBuffer;JLorg/joda/time/Chronology;ILorg/joda/time/DateTimeZone;Ljava/util/Locale;)V 0.0, lineNumber=1850, susp=0.14235366225076904]
2017-03-28 00:01:31,964 INFO main - -any mod point created for suspicious Candidate [className=org.joda.time.format.DateTimeFormat, methodName=org.joda.time.format.DateTimeFormat{selectStyle(C)I 0.0, lineNumber=757, susp=0.1421338109037403]
2017-03-28 00:01:31,980 INFO main - -any mod point created for suspicious Candidate [className=org.joda.time.DateTimeFieldType$StandardDateTimeFieldType, methodName=org.joda.time.DateTimeFieldType$StandardDateTimeFieldType{getField(Lorg/joda/time/Chronology;)Lorg/joda/time/DateTimeField; 0.0, lineNumber=477, susp=0.14031702420750725]
2017-03-28 00:01:31,996 INFO main - -any mod point created for suspicious Candidate [className=org.joda.time.DateTimeFieldType$StandardDateTimeFieldType, methodName=org.joda.time.DateTimeFieldType$StandardDateTimeFieldType{getField(Lorg/joda/time/Chronology;)Lorg/joda/time/DateTimeField; 0.0, lineNumber=473, susp=0.13938837718035152]
2017-03-28 00:01:32,039 INFO main - -any mod point created for suspicious Candidate [className=org.joda.time.format.DateTimeFormatterBuilder$Fraction, methodName=org.joda.time.format.DateTimeFormatterBuilder$Fraction{printTo(Ljava/lang/StringBuffer;Ljava/io/Writer;JLorg/joda/time/Chronology;)V 0.0, lineNumber=1892, susp=0.139159082112814]
2017-03-28 00:01:32,080 INFO main - -any mod point created for suspicious Candidate [className=org.joda.time.tz.CachedDateTimeZone, methodName=org.joda.time.tz.CachedDateTimeZone{createInfo(J)Lorg/joda/time/tz/CachedDateTimeZone$Info; 0.0, lineNumber=172, susp=0.13834289277321493]
2017-03-28 00:01:32,230 INFO main - -any mod point created for suspicious Candidate [className=org.joda.time.format.DateTimeFormat, methodName=org.joda.time.format.DateTimeFormat{parsePatternTo(Lorg/joda/time/format/DateTimeFormatterBuilder;Ljava/lang/String;)V 0.0, lineNumber=448, susp=0.13483997249264842]
2017-03-28 00:01:33,315 INFO main - -any mod point created for suspicious Candidate [className=org.joda.time.format.DateTimeFormatterBuilder$Fraction, methodName=org.joda.time.format.DateTimeFormatterBuilder$Fraction{getFractionData(JLorg/joda/time/DateTimeField;)[J 0.0, lineNumber=1975, susp=0.12989718332941097]
2017-03-28 00:01:33,364 INFO main - -any mod point created for suspicious Candidate [className=org.joda.time.format.DateTimeFormat, methodName=org.joda.time.format.DateTimeFormat{parsePatternTo(Lorg/joda/time/format/DateTimeFormatterBuilder;Ljava/lang/String;)V 0.0, lineNumber=451, susp=0.128564869306645]
2017-03-28 00:01:33,589 INFO main - -any mod point created for suspicious Candidate [className=org.joda.time.DateTimeFieldType$StandardDateTimeFieldType, methodName=org.joda.time.DateTimeFieldType$StandardDateTimeFieldType{getField(Lorg/joda/time/Chronology;)Lorg/joda/time/DateTimeField; 0.0, lineNumber=503, susp=0.1272855850519461]
2017-03-28 00:01:33,869 INFO main - -any mod point created for suspicious Candidate [className=org.joda.time.format.DateTimeFormatterBuilder$Fraction, methodName=org.joda.time.format.DateTimeFormatterBuilder$Fraction{parseInto(Lorg/joda/time/format/DateTimeParserBucket;Ljava/lang/String;I)I 0.0, lineNumber=2017, susp=0.12392039927415241]
2017-03-28 00:01:34,047 INFO main - -any mod point created for suspicious Candidate [className=org.joda.time.format.DateTimeParserBucket, methodName=org.joda.time.format.DateTimeParserBucket{saveField(Lorg/joda/time/DateTimeField;I)V 0.0, lineNumber=225, susp=0.12392039927415241]
2017-03-28 00:01:34,050 INFO main - -any mod point created for suspicious Candidate [className=org.joda.time.chrono.GregorianChronology, methodName=org.joda.time.chrono.GregorianChronology{assemble(Lorg/joda/time/chrono/AssembledChronology$Fields;)V 0.0, lineNumber=194, susp=0.12309149097933272]
2017-03-28 00:01:34,096 INFO main - -any mod point created for suspicious Candidate [className=org.joda.time.format.DateTimeFormatterBuilder$TextField, methodName=org.joda.time.format.DateTimeFormatterBuilder$TextField{printTo(Ljava/lang/StringBuffer;JLorg/joda/time/Chronology;ILorg/joda/time/DateTimeZone;Ljava/util/Locale;)V 0.0, lineNumber=1703, susp=0.12060453783110543]
2017-03-28 00:01:34,099 INFO main - -any mod point created for suspicious Candidate [className=org.joda.time.format.DateTimeFormatterBuilder$TextField, methodName=org.joda.time.format.DateTimeFormatterBuilder$TextField{printTo(Ljava/lang/StringBuffer;JLorg/joda/time/Chronology;ILorg/joda/time/DateTimeZone;Ljava/util/Locale;)V 0.0, lineNumber=1704, susp=0.12060453783110543]
2017-03-28 00:01:34,483 INFO main - -any mod point created for suspicious Candidate [className=org.joda.time.chrono.GregorianChronology, methodName=org.joda.time.chrono.GregorianChronology{getDateTimeMillis(IIIIIII)J 0.0, lineNumber=45, susp=0.10975544464534094]
2017-03-28 00:01:34,538 INFO main -  Not ctClass for suspicious code Candidate [className=org.joda.time.MockZone, methodName=org.joda.time.MockZone{equals(Ljava/lang/Object;)Z 0.0, lineNumber=56, susp=0.10660035817780521]
2017-03-28 00:01:34,538 INFO main - -any mod point created for suspicious Candidate [className=org.joda.time.MockZone, methodName=org.joda.time.MockZone{equals(Ljava/lang/Object;)Z 0.0, lineNumber=56, susp=0.10660035817780521]
2017-03-28 00:01:34,665 INFO main - -any mod point created for suspicious Candidate [className=org.joda.time.format.DateTimeParserBucket, methodName=org.joda.time.format.DateTimeParserBucket{setOffset(I)V 0.0, lineNumber=184, susp=0.10453025125088634]
2017-03-28 00:01:34,989 INFO main - Total suspicious from FL: 651,  580
2017-03-28 00:01:34,989 INFO main - Total ModPoint created: 580
2017-03-28 00:01:34,990 INFO main - Creating program variant #1, [Variant id: 1, #gens: 580, #ops: 0, parent:-]
2017-03-28 00:01:53,525 INFO fr.inria.astor.core.setup.ConfigurationProperties - ----------------------------
2017-03-28 00:01:53,525 INFO fr.inria.astor.core.setup.ConfigurationProperties - ---Configuration properties:---Execution values
2017-03-28 00:01:53,525 INFO fr.inria.astor.core.setup.ConfigurationProperties - p:lastJUnitVersion= ./examples/libs/junit-4.11.jar
2017-03-28 00:01:53,525 INFO fr.inria.astor.core.setup.ConfigurationProperties - p:alternativecompliancelevel= 4
2017-03-28 00:01:53,525 INFO fr.inria.astor.core.setup.ConfigurationProperties - p:ignoredTestCases= 
2017-03-28 00:01:53,526 INFO fr.inria.astor.core.setup.ConfigurationProperties - p:workingDirectory= /local/scr/mtufano/Time/26/b/random-package-embeddings/1
2017-03-28 00:01:53,526 INFO fr.inria.astor.core.setup.ConfigurationProperties - p:manipulatesuper= false
2017-03-28 00:01:53,526 INFO fr.inria.astor.core.setup.ConfigurationProperties - p:validation= process
2017-03-28 00:01:53,526 INFO fr.inria.astor.core.setup.ConfigurationProperties - p:jvm4testexecution= /usr/local/jdk1.7.0_80/bin/
2017-03-28 00:01:53,526 INFO fr.inria.astor.core.setup.ConfigurationProperties - p:binjavafolder= build/classes/
2017-03-28 00:01:53,526 INFO fr.inria.astor.core.setup.ConfigurationProperties - p:evosuiteresultfolder= evosuite
2017-03-28 00:01:53,526 INFO fr.inria.astor.core.setup.ConfigurationProperties - p:flthreshold= 0.1
2017-03-28 00:01:53,526 INFO fr.inria.astor.core.setup.ConfigurationProperties - p:regressionforfaultlocalization= true
2017-03-28 00:01:53,526 INFO fr.inria.astor.core.setup.ConfigurationProperties - p:tmax2= 960000
2017-03-28 00:01:53,526 INFO fr.inria.astor.core.setup.ConfigurationProperties - p:tmax1= 120000
2017-03-28 00:01:53,526 INFO fr.inria.astor.core.setup.ConfigurationProperties - p:probagenmutation= false
2017-03-28 00:01:53,526 INFO fr.inria.astor.core.setup.ConfigurationProperties - p:srctestfolder= src/test/java/
2017-03-28 00:01:53,526 INFO fr.inria.astor.core.setup.ConfigurationProperties - p:customop= fr.inria.astor.approaches.jgenprog.operators.InsertAfterOp:fr.inria.astor.approaches.jgenprog.operators.InsertBeforeOp:fr.inria.astor.approaches.jgenprog.operators.ReplaceOp
2017-03-28 00:01:53,527 INFO fr.inria.astor.core.setup.ConfigurationProperties - p:forceExecuteRegression= false
2017-03-28 00:01:53,529 INFO fr.inria.astor.core.setup.ConfigurationProperties - p:clusteringfilename= clustering.csv
2017-03-28 00:01:53,529 INFO fr.inria.astor.core.setup.ConfigurationProperties - p:failing= org.joda.time.TestDateTimeZoneCutover
2017-03-28 00:01:53,529 INFO fr.inria.astor.core.setup.ConfigurationProperties - p:evo_buggy_class= true
2017-03-28 00:01:53,530 INFO fr.inria.astor.core.setup.ConfigurationProperties - p:numberExecutions= 1
2017-03-28 00:01:53,530 INFO fr.inria.astor.core.setup.ConfigurationProperties - p:evo_affected_by_op= true
2017-03-28 00:01:53,530 INFO fr.inria.astor.core.setup.ConfigurationProperties - p:population= 1
2017-03-28 00:01:53,530 INFO fr.inria.astor.core.setup.ConfigurationProperties - p:clonegranularity= types
2017-03-28 00:01:53,530 INFO fr.inria.astor.core.setup.ConfigurationProperties - p:regressiontestcases4fl= org.joda.time.TestAbstractPartial:org.joda.time.TestBasePartial:org.joda.time.TestBaseSingleFieldPeriod:org.joda.time.TestChronology:org.joda.time.TestDateMidnight_Basics:org.joda.time.TestDateMidnight_Constructors:org.joda.time.TestDateMidnight_Properties:org.joda.time.TestDateTimeComparator:org.joda.time.TestDateTimeFieldType:org.joda.time.TestDateTimeUtils:org.joda.time.TestDateTimeZone:org.joda.time.TestDateTimeZoneCutover:org.joda.time.TestDateTime_Basics:org.joda.time.TestDateTime_Constructors:org.joda.time.TestDateTime_Properties:org.joda.time.TestDays:org.joda.time.TestDurationField:org.joda.time.TestDurationFieldType:org.joda.time.TestDuration_Basics:org.joda.time.TestDuration_Constructors:org.joda.time.TestHours:org.joda.time.TestIllegalFieldValueException:org.joda.time.TestInstant_Basics:org.joda.time.TestInstant_Constructors:org.joda.time.TestInterval_Basics:org.joda.time.TestInterval_Constructors:org.joda.time.TestLocalDateTime_Basics:org.joda.time.TestLocalDateTime_Constructors:org.joda.time.TestLocalDateTime_Properties:org.joda.time.TestLocalDate_Basics:org.joda.time.TestLocalDate_Constructors:org.joda.time.TestLocalDate_Properties:org.joda.time.TestLocalTime_Basics:org.joda.time.TestLocalTime_Constructors:org.joda.time.TestLocalTime_Properties:org.joda.time.TestMinutes:org.joda.time.TestMonthDay_Basics:org.joda.time.TestMonthDay_Constructors:org.joda.time.TestMonthDay_Properties:org.joda.time.TestMonths:org.joda.time.TestMutableDateTime_Adds:org.joda.time.TestMutableDateTime_Basics:org.joda.time.TestMutableDateTime_Constructors:org.joda.time.TestMutableDateTime_Properties:org.joda.time.TestMutableDateTime_Sets:org.joda.time.TestMutableInterval_Basics:org.joda.time.TestMutableInterval_Constructors:org.joda.time.TestMutableInterval_Updates:org.joda.time.TestMutablePeriod_Basics:org.joda.time.TestMutablePeriod_Constructors:org.joda.time.TestMutablePeriod_Updates:org.joda.time.TestPartial_Basics:org.joda.time.TestPartial_Constructors:org.joda.time.TestPartial_Match:org.joda.time.TestPartial_Properties:org.joda.time.TestPeriodType:org.joda.time.TestPeriod_Basics:org.joda.time.TestPeriod_Constructors:org.joda.time.TestSeconds:org.joda.time.TestSerialization:org.joda.time.TestStringConvert:org.joda.time.TestTimeOfDay_Basics:org.joda.time.TestTimeOfDay_Constructors:org.joda.time.TestTimeOfDay_Properties:org.joda.time.TestWeeks:org.joda.time.TestYearMonthDay_Basics:org.joda.time.TestYearMonthDay_Constructors:org.joda.time.TestYearMonthDay_Properties:org.joda.time.TestYearMonth_Basics:org.joda.time.TestYearMonth_Constructors:org.joda.time.TestYearMonth_Properties:org.joda.time.TestYears:org.joda.time.chrono.TestBuddhistChronology:org.joda.time.chrono.TestCopticChronology:org.joda.time.chrono.TestEthiopicChronology:org.joda.time.chrono.TestGJChronology:org.joda.time.chrono.TestGregorianChronology:org.joda.time.chrono.TestISOChronology:org.joda.time.chrono.TestIslamicChronology:org.joda.time.chrono.TestJulianChronology:org.joda.time.chrono.TestLenientChronology:org.joda.time.convert.TestCalendarConverter:org.joda.time.convert.TestConverterManager:org.joda.time.convert.TestDateConverter:org.joda.time.convert.TestLongConverter:org.joda.time.convert.TestNullConverter:org.joda.time.convert.TestReadableDurationConverter:org.joda.time.convert.TestReadableInstantConverter:org.joda.time.convert.TestReadableIntervalConverter:org.joda.time.convert.TestReadablePartialConverter:org.joda.time.convert.TestReadablePeriodConverter:org.joda.time.convert.TestStringConverter:org.joda.time.field.TestBaseDateTimeField:org.joda.time.field.TestMillisDurationField:org.joda.time.field.TestOffsetDateTimeField:org.joda.time.field.TestPreciseDateTimeField:org.joda.time.field.TestPreciseDurationDateTimeField:org.joda.time.field.TestPreciseDurationField:org.joda.time.field.TestScaledDurationField:org.joda.time.field.TestUnsupportedDateTimeField:org.joda.time.format.TestDateTimeFormat:org.joda.time.format.TestDateTimeFormatStyle:org.joda.time.format.TestDateTimeFormatter:org.joda.time.format.TestDateTimeFormatterBuilder:org.joda.time.format.TestISODateTimeFormat:org.joda.time.format.TestISODateTimeFormatParsing:org.joda.time.format.TestISODateTimeFormat_Fields:org.joda.time.format.TestISOPeriodFormat:org.joda.time.format.TestISOPeriodFormatParsing:org.joda.time.format.TestPeriodFormat:org.joda.time.format.TestPeriodFormatParsing:org.joda.time.format.TestPeriodFormatter:org.joda.time.format.TestPeriodFormatterBuilder:org.joda.time.format.TestTextFields:org.joda.time.tz.TestBuilder:org.joda.time.tz.TestCompiler:
2017-03-28 00:01:53,530 INFO fr.inria.astor.core.setup.ConfigurationProperties - p:savesolution= true
2017-03-28 00:01:53,530 INFO fr.inria.astor.core.setup.ConfigurationProperties - p:javacompliancelevel= 5
2017-03-28 00:01:53,530 INFO fr.inria.astor.core.setup.ConfigurationProperties - p:uniqueoptogen= false
2017-03-28 00:01:53,530 INFO fr.inria.astor.core.setup.ConfigurationProperties - p:projectIdentifier= 
2017-03-28 00:01:53,530 INFO fr.inria.astor.core.setup.ConfigurationProperties - p:modificationpointnavigation= weight
2017-03-28 00:01:53,530 INFO fr.inria.astor.core.setup.ConfigurationProperties - p:stopfirst= false
2017-03-28 00:01:53,530 INFO fr.inria.astor.core.setup.ConfigurationProperties - p:multipointmodification= false
2017-03-28 00:01:53,530 INFO fr.inria.astor.core.setup.ConfigurationProperties - p:elementsToMutate= 10
2017-03-28 00:01:53,530 INFO fr.inria.astor.core.setup.ConfigurationProperties - p:evoDSE= false
2017-03-28 00:01:53,531 INFO fr.inria.astor.core.setup.ConfigurationProperties - p:bintestfolder= build/tests/
2017-03-28 00:01:53,531 INFO fr.inria.astor.core.setup.ConfigurationProperties - p:testbystep= false
2017-03-28 00:01:53,531 INFO fr.inria.astor.core.setup.ConfigurationProperties - p:version-location= ./math-version/
2017-03-28 00:01:53,531 INFO fr.inria.astor.core.setup.ConfigurationProperties - p:reintroduce= parents
2017-03-28 00:01:53,531 INFO fr.inria.astor.core.setup.ConfigurationProperties - p:maxGeneration= 1000000
2017-03-28 00:01:53,531 INFO fr.inria.astor.core.setup.ConfigurationProperties - p:maxtime= 180
2017-03-28 00:01:53,531 INFO fr.inria.astor.core.setup.ConfigurationProperties - p:evosuitejar= ./lib/evosuite-master-1.0.4-SNAPSHOT.jar
2017-03-28 00:01:53,531 INFO fr.inria.astor.core.setup.ConfigurationProperties - p:commandTrunk= 50000
2017-03-28 00:01:53,531 INFO fr.inria.astor.core.setup.ConfigurationProperties - p:faultlocalization= fr.inria.astor.core.faultlocalization.GZoltarFaultLocalization
2017-03-28 00:01:53,531 INFO fr.inria.astor.core.setup.ConfigurationProperties - p:maxsuspcandidates= 1000
2017-03-28 00:01:53,531 INFO fr.inria.astor.core.setup.ConfigurationProperties - p:mode= statement
2017-03-28 00:01:53,531 INFO fr.inria.astor.core.setup.ConfigurationProperties - p:learningdir= ../../out/learningdir/Time/26/b/
2017-03-28 00:01:53,531 INFO fr.inria.astor.core.setup.ConfigurationProperties - p:jvm4evosuitetestexecution= /usr/local/jdk1.7.0_80/bin/
2017-03-28 00:01:53,531 INFO fr.inria.astor.core.setup.ConfigurationProperties - p:filterfaultlocalization= true
2017-03-28 00:01:53,532 INFO fr.inria.astor.core.setup.ConfigurationProperties - p:mutationrate= 1 
2017-03-28 00:01:53,532 INFO fr.inria.astor.core.setup.ConfigurationProperties - p:pathToMVNRepository= 
2017-03-28 00:01:53,532 INFO fr.inria.astor.core.setup.ConfigurationProperties - p:resourcesfolder= /src/main/resources:/src/test/resources:
2017-03-28 00:01:53,532 INFO fr.inria.astor.core.setup.ConfigurationProperties - p:timezone= America/New_York
2017-03-28 00:01:53,532 INFO fr.inria.astor.core.setup.ConfigurationProperties - p:classestoinstrument= org.joda.time.convert.StringConverter:org.joda.time.convert.LongConverter:org.joda.time.tz.FixedDateTimeZone:org.joda.time.ReadablePeriod:org.joda.time.field.RemainderDateTimeField:org.joda.time.field.PreciseDateTimeField:org.joda.time.convert.ConverterSet:org.joda.time.field.FieldUtils:org.joda.time.format.FormatUtils:org.joda.time.field.DividedDateTimeField:org.joda.time.convert.CalendarConverter:org.joda.time.format.DateTimeParserBucket:org.joda.time.ReadableInstant:org.joda.time.format.DateTimeParser:org.joda.time.field.DecoratedDurationField:org.joda.time.convert.ReadablePartialConverter:org.joda.time.field.OffsetDateTimeField:org.joda.time.DateTimeField:org.joda.time.chrono.BasicMonthOfYearDateTimeField:org.joda.time.chrono.JulianChronology:org.joda.time.base.BaseDateTime:org.joda.time.chrono.BasicWeekOfWeekyearDateTimeField:org.joda.time.tz.Provider:org.joda.time.format.DateTimePrinter:org.joda.time.DateTimeFieldType:org.joda.time.field.ScaledDurationField:org.joda.time.tz.DateTimeZoneBuilder:org.joda.time.format.DateTimeFormatter:org.joda.time.convert.Converter:org.joda.time.chrono.GJMonthOfYearDateTimeField:org.joda.time.field.ImpreciseDateTimeField:org.joda.time.chrono.GJEraDateTimeField:org.joda.time.convert.ReadablePeriodConverter:org.joda.time.DateTimeZone:org.joda.time.field.BaseDateTimeField:org.joda.time.convert.PartialConverter:org.joda.time.base.AbstractInstant:org.joda.time.DateTimeUtils:org.joda.time.convert.PeriodConverter:org.joda.time.convert.ConverterManager:org.joda.time.chrono.BasicGJChronology:org.joda.time.chrono.GJChronology:org.joda.time.chrono.BuddhistChronology:org.joda.time.chrono.ISOYearOfEraDateTimeField:org.joda.time.convert.ReadableInstantConverter:org.joda.time.DateTime:org.joda.time.chrono.ISOChronology:org.joda.time.format.ISODateTimeFormat:org.joda.time.DurationField:org.joda.time.convert.IntervalConverter:org.joda.time.convert.ReadableIntervalConverter:org.joda.time.field.DecoratedDateTimeField:org.joda.time.chrono.BaseChronology:org.joda.time.chrono.GJYearOfEraDateTimeField:org.joda.time.convert.NullConverter:org.joda.time.tz.CachedDateTimeZone:org.joda.time.field.MillisDurationField:org.joda.time.convert.AbstractConverter:org.joda.time.chrono.GJDayOfWeekDateTimeField:org.joda.time.field.PreciseDurationDateTimeField:org.joda.time.chrono.BasicDayOfYearDateTimeField:org.joda.time.IllegalFieldValueException:org.joda.time.chrono.GregorianChronology:org.joda.time.chrono.AssembledChronology:org.joda.time.DurationFieldType:org.joda.time.field.UnsupportedDateTimeField:org.joda.time.tz.DefaultNameProvider:org.joda.time.field.BaseDurationField:org.joda.time.ReadableInterval:org.joda.time.field.UnsupportedDurationField:org.joda.time.chrono.BasicChronology:org.joda.time.Chronology:org.joda.time.format.DateTimeFormatterBuilder:org.joda.time.convert.DateConverter:org.joda.time.chrono.BasicYearDateTimeField:org.joda.time.chrono.BasicDayOfMonthDateTimeField:org.joda.time.base.AbstractDateTime:org.joda.time.JodaTimePermission:org.joda.time.chrono.BasicWeekyearDateTimeField:org.joda.time.tz.NameProvider:org.joda.time.ReadableDateTime:org.joda.time.field.ZeroIsMaxDateTimeField:org.joda.time.chrono.ZonedChronology:org.joda.time.convert.DurationConverter:org.joda.time.convert.InstantConverter:org.joda.time.field.PreciseDurationField:org.joda.time.convert.ReadableDurationConverter:org.joda.time.tz.ZoneInfoProvider:
2017-03-28 00:01:53,532 INFO fr.inria.astor.core.setup.ConfigurationProperties - p:evoRunOnBuggyClass= true
2017-03-28 00:01:53,532 INFO fr.inria.astor.core.setup.ConfigurationProperties - p:compiler= fr.inria.astor.core.manipulation.bytecode.compiler.SpoonClassCompiler
2017-03-28 00:01:53,532 INFO fr.inria.astor.core.setup.ConfigurationProperties - p:dependenciespath= ../../dat/libs/Time/joda-convert-1.2.jar
2017-03-28 00:01:53,532 INFO fr.inria.astor.core.setup.ConfigurationProperties - p:skipfaultlocalization= false
2017-03-28 00:01:53,532 INFO fr.inria.astor.core.setup.ConfigurationProperties - p:packageToInstrument= org.joda
2017-03-28 00:01:53,532 INFO fr.inria.astor.core.setup.ConfigurationProperties - p:scope= fr.inria.astor.core.loop.spaces.ingredients.scopes.ctscopes.CtPackageIngredientScope
2017-03-28 00:01:53,532 INFO fr.inria.astor.core.setup.ConfigurationProperties - p:transformingredient= true
2017-03-28 00:01:53,532 INFO fr.inria.astor.core.setup.ConfigurationProperties - p:fitnessfunction= fr.inria.astor.core.loop.population.TestCaseFitnessFunction
2017-03-28 00:01:53,532 INFO fr.inria.astor.core.setup.ConfigurationProperties - p:pvariantfoldername= variant-
2017-03-28 00:01:53,533 INFO fr.inria.astor.core.setup.ConfigurationProperties - p:srcjavafolder= src/main/java/
2017-03-28 00:01:53,533 INFO fr.inria.astor.core.setup.ConfigurationProperties - p:populationcontroller= fr.inria.astor.core.loop.population.TestCaseBasedFitnessPopulationController
2017-03-28 00:01:53,533 INFO fr.inria.astor.core.setup.ConfigurationProperties - p:ignoreflakyinfl= false
2017-03-28 00:01:53,533 INFO fr.inria.astor.core.setup.ConfigurationProperties - p:applyCrossover= false
2017-03-28 00:01:53,533 INFO fr.inria.astor.core.setup.ConfigurationProperties - p:saveall= false
2017-03-28 00:01:53,533 INFO fr.inria.astor.core.setup.ConfigurationProperties - p:seed= 1
2017-03-28 00:01:53,533 INFO fr.inria.astor.core.setup.ConfigurationProperties - p:resetoperations= false
2017-03-28 00:01:53,533 INFO fr.inria.astor.core.setup.ConfigurationProperties - p:location= ../../dat/defects4j/Time/26/b/
2017-03-28 00:01:53,533 INFO fr.inria.astor.core.setup.ConfigurationProperties - p:ingredientstrategy= fr.inria.astor.core.loop.spaces.ingredients.ingredientSearch.EfficientIngredientStrategy
2017-03-28 00:01:53,533 INFO fr.inria.astor.core.setup.ConfigurationProperties - p:allpoints= false
2017-03-28 00:01:53,533 INFO fr.inria.astor.core.setup.ConfigurationProperties - p:bugId= 280
2017-03-28 00:01:53,533 INFO fr.inria.astor.core.setup.ConfigurationProperties - p:evosuitetimeout= 120
2017-03-28 00:01:53,533 INFO fr.inria.astor.core.setup.ConfigurationProperties - ----------------------------
2017-03-28 00:01:53,533 INFO main - 
----Starting Solution Search
2017-03-28 00:27:41,514 INFO main - The Process that runs JUnit test cases had problems: process hasn't exited
2017-03-28 02:09:19,150 INFO main - The Process that runs JUnit test cases had problems: process hasn't exited
2017-03-28 03:03:28,455 INFO main - 
 No more time for operating
2017-03-28 03:03:28,456 INFO main - Time Repair Loop (s): 10894.922
2017-03-28 03:03:28,456 INFO main - 
----SUMMARY_EXECUTION---
2017-03-28 03:03:28,512 INFO main - 
successful_ing_attempts (#trials 0, totalAttps 0): []
2017-03-28 03:03:28,546 INFO main - 
failing_ing_attempts (#trials 658, totalAttps 3121): [16, 1, 2, 3, 2, 1, 1, 1, 1, 6, 2, 1, 9, 7, 3, 5, 3, 3, 1, 4, 2, 3, 5, 2, 3, 3, 18, 1, 3, 5, 6, 11, 7, 6, 2, 1, 9, 2, 2, 5, 3, 5, 1, 6, 18, 1, 3, 2, 1, 7, 3, 2, 3, 11, 2, 9, 3, 7, 2, 103, 5, 1, 9, 1, 13, 3, 2, 11, 9, 5, 2, 3, 1, 4, 11, 2, 1, 1, 4, 3, 1, 3, 1, 6, 1, 3, 4, 2, 1, 2, 3, 1, 1, 2, 1, 31, 1, 2, 1, 5, 8, 5, 2, 6, 3, 1, 3, 4, 2, 3, 11, 7, 2, 1, 4, 13, 1, 14, 3, 4, 5, 5, 3, 5, 9, 5, 3, 1, 10, 2, 4, 2, 8, 13, 4, 2, 9, 3, 1, 6, 6, 2, 2, 7, 1, 2, 1, 6, 6, 10, 6, 2, 2, 6, 9, 1, 1, 1, 2, 1, 2, 2, 2, 4, 4, 1, 6, 7, 1, 6, 2, 12, 1, 2, 3, 8, 5, 4, 2, 2, 2, 6, 1, 1, 3, 6, 1, 3, 9, 1, 1, 10, 1, 2, 3, 3, 5, 13, 4, 4, 2, 2, 7, 4, 14, 14, 1, 3, 2, 9, 1, 1, 6, 2, 6, 1, 4, 7, 9, 3, 7, 6, 2, 2, 3, 1, 8, 3, 6, 6, 2, 2, 2, 14, 3, 4, 2, 1, 11, 59, 2, 2, 22, 3, 4, 1, 8, 5, 6, 1, 7, 1, 5, 1, 7, 3, 1, 5, 2, 2, 1, 3, 2, 1, 1, 1, 19, 1, 5, 1, 2, 3, 6, 9, 2, 1, 2, 2, 1, 2, 1, 90, 1, 4, 1, 4, 1, 8, 4, 2, 1, 3, 4, 1, 5, 2, 6, 14, 1, 17, 2, 5, 4, 1, 2, 8, 9, 4, 8, 14, 6, 1, 1, 1, 1, 2, 4, 1, 8, 5, 2, 1, 7, 5, 10, 8, 1, 2, 5, 2, 4, 1, 10, 2, 3, 4, 4, 2, 3, 4, 1, 2, 1, 1, 4, 11, 1, 1, 9, 4, 5, 2, 3, 14, 3, 4, 17, 3, 1, 14, 1, 1, 1, 3, 2, 2, 3, 3, 1, 1, 2, 1, 3, 3, 1, 18, 2, 3, 1, 2, 5, 1, 1, 10, 1, 2, 10, 18, 5, 1, 1, 11, 3, 6, 5, 4, 3, 3, 32, 1, 3, 6, 1, 6, 4, 2, 2, 3, 28, 4, 1, 2, 4, 5, 1, 3, 7, 1, 3, 3, 1, 4, 1, 3, 1, 2, 3, 1, 3, 3, 3, 1, 3, 1, 8, 3, 2, 2, 2, 8, 1, 4, 3, 1, 10, 2, 3, 3, 4, 4, 7, 1, 17, 2, 5, 2, 1, 2, 5, 18, 52, 1, 4, 1, 5, 5, 4, 3, 1, 6, 1, 6, 3, 3, 5, 9, 1, 2, 12, 1, 1, 1, 2, 2, 1, 3, 1, 1, 7, 3, 1, 7, 6, 2, 1, 12, 5, 11, 4, 2, 1, 2, 1, 1, 9, 14, 3, 1, 5, 6, 2, 9, 2, 4, 2, 2, 6, 6, 3, 3, 9, 2, 1, 4, 6, 3, 1, 4, 1, 12, 1, 9, 4, 2, 3, 4, 3, 11, 15, 1, 1, 5, 2, 1, 4, 3, 8, 4, 6, 1, 1, 2, 9, 1, 6, 7, 3, 3, 9, 11, 7, 3, 12, 1, 2, 12, 6, 3, 1, 2, 5, 11, 1, 4, 1, 1, 2, 3, 36, 1, 10, 4, 1, 1, 6, 1, 6, 6, 8, 2, 7, 1, 1, 7, 2, 1, 2, 4, 1, 5, 4, 3, 11, 1, 1, 7, 4, 1, 5, 1, 1, 10, 3, 2, 11, 3, 3, 6, 6, 2, 1, 1, 47, 4, 11, 1, 9, 5, 4, 3, 7, 1, 1, 1, 4, 3, 5, 2, 6, 2, 5, 6, 3, 1, 1, 6, 8, 4, 1, 5, 3, 3, 1, 3, 3, 7, 5, 2]
2017-03-28 03:03:28,546 INFO main - 
total Patch Attempts (0): []
2017-03-28 03:03:28,546 INFO main - 
successful_ing_attempts_by_patch: []
2017-03-28 03:03:28,547 INFO main - 
failing_ing_attempts_by_patch: [(pv:2,at:16), (pv:3,at:1), (pv:4,at:2), (pv:5,at:3), (pv:6,at:2), (pv:7,at:1), (pv:8,at:1), (pv:9,at:1), (pv:10,at:1), (pv:11,at:6), (pv:12,at:2), (pv:13,at:1), (pv:14,at:9), (pv:15,at:7), (pv:16,at:3), (pv:17,at:5), (pv:18,at:3), (pv:19,at:3), (pv:20,at:1), (pv:21,at:4), (pv:22,at:2), (pv:23,at:3), (pv:24,at:5), (pv:25,at:2), (pv:26,at:3), (pv:27,at:3), (pv:28,at:18), (pv:29,at:1), (pv:30,at:3), (pv:31,at:5), (pv:32,at:6), (pv:33,at:11), (pv:34,at:7), (pv:35,at:6), (pv:36,at:2), (pv:37,at:1), (pv:38,at:9), (pv:39,at:2), (pv:40,at:2), (pv:41,at:5), (pv:42,at:3), (pv:43,at:5), (pv:44,at:1), (pv:45,at:6), (pv:46,at:18), (pv:47,at:1), (pv:48,at:3), (pv:49,at:2), (pv:50,at:1), (pv:51,at:7), (pv:52,at:3), (pv:53,at:2), (pv:54,at:3), (pv:55,at:11), (pv:56,at:2), (pv:57,at:9), (pv:58,at:3), (pv:59,at:7), (pv:60,at:2), (pv:61,at:103), (pv:62,at:5), (pv:63,at:1), (pv:64,at:9), (pv:65,at:1), (pv:66,at:13), (pv:67,at:3), (pv:68,at:2), (pv:69,at:11), (pv:70,at:9), (pv:71,at:5), (pv:72,at:2), (pv:73,at:3), (pv:74,at:1), (pv:75,at:4), (pv:76,at:11), (pv:77,at:2), (pv:78,at:1), (pv:79,at:1), (pv:80,at:4), (pv:81,at:3), (pv:82,at:1), (pv:83,at:3), (pv:84,at:1), (pv:85,at:6), (pv:86,at:1), (pv:87,at:3), (pv:88,at:4), (pv:89,at:2), (pv:90,at:1), (pv:91,at:2), (pv:92,at:3), (pv:93,at:1), (pv:94,at:1), (pv:95,at:2), (pv:96,at:1), (pv:97,at:31), (pv:98,at:1), (pv:99,at:2), (pv:100,at:1), (pv:101,at:5), (pv:102,at:8), (pv:103,at:5), (pv:104,at:2), (pv:105,at:6), (pv:106,at:3), (pv:107,at:1), (pv:108,at:3), (pv:109,at:4), (pv:110,at:2), (pv:111,at:3), (pv:112,at:11), (pv:113,at:7), (pv:114,at:2), (pv:115,at:1), (pv:116,at:4), (pv:117,at:13), (pv:118,at:1), (pv:119,at:14), (pv:120,at:3), (pv:121,at:4), (pv:122,at:5), (pv:123,at:5), (pv:124,at:3), (pv:125,at:5), (pv:126,at:9), (pv:127,at:5), (pv:128,at:3), (pv:129,at:1), (pv:130,at:10), (pv:131,at:2), (pv:132,at:4), (pv:133,at:2), (pv:134,at:8), (pv:135,at:13), (pv:136,at:4), (pv:137,at:2), (pv:138,at:9), (pv:139,at:3), (pv:140,at:1), (pv:141,at:6), (pv:142,at:6), (pv:143,at:2), (pv:144,at:2), (pv:145,at:7), (pv:146,at:1), (pv:147,at:2), (pv:148,at:1), (pv:149,at:6), (pv:150,at:6), (pv:151,at:10), (pv:152,at:6), (pv:153,at:2), (pv:154,at:2), (pv:155,at:6), (pv:156,at:9), (pv:157,at:1), (pv:158,at:1), (pv:159,at:1), (pv:160,at:2), (pv:161,at:1), (pv:162,at:2), (pv:163,at:2), (pv:164,at:2), (pv:165,at:4), (pv:166,at:4), (pv:167,at:1), (pv:168,at:6), (pv:169,at:7), (pv:170,at:1), (pv:171,at:6), (pv:172,at:2), (pv:173,at:12), (pv:174,at:1), (pv:175,at:2), (pv:176,at:3), (pv:177,at:8), (pv:178,at:5), (pv:179,at:4), (pv:180,at:2), (pv:181,at:2), (pv:182,at:2), (pv:183,at:6), (pv:184,at:1), (pv:185,at:1), (pv:186,at:3), (pv:187,at:6), (pv:188,at:1), (pv:189,at:3), (pv:190,at:9), (pv:191,at:1), (pv:192,at:1), (pv:193,at:10), (pv:194,at:1), (pv:195,at:2), (pv:196,at:3), (pv:197,at:3), (pv:198,at:5), (pv:199,at:13), (pv:200,at:4), (pv:201,at:4), (pv:202,at:2), (pv:203,at:2), (pv:204,at:7), (pv:205,at:4), (pv:206,at:14), (pv:207,at:14), (pv:208,at:1), (pv:209,at:3), (pv:210,at:2), (pv:211,at:9), (pv:212,at:1), (pv:213,at:1), (pv:214,at:6), (pv:215,at:2), (pv:216,at:6), (pv:217,at:1), (pv:218,at:4), (pv:219,at:7), (pv:220,at:9), (pv:221,at:3), (pv:222,at:7), (pv:223,at:6), (pv:224,at:2), (pv:225,at:2), (pv:226,at:3), (pv:227,at:1), (pv:228,at:8), (pv:229,at:3), (pv:230,at:6), (pv:231,at:6), (pv:232,at:2), (pv:233,at:2), (pv:234,at:2), (pv:235,at:14), (pv:236,at:3), (pv:237,at:4), (pv:238,at:2), (pv:239,at:1), (pv:240,at:11), (pv:241,at:59), (pv:242,at:2), (pv:243,at:2), (pv:244,at:22), (pv:245,at:3), (pv:246,at:4), (pv:247,at:1), (pv:248,at:8), (pv:249,at:5), (pv:250,at:6), (pv:251,at:1), (pv:252,at:7), (pv:253,at:1), (pv:254,at:5), (pv:255,at:1), (pv:256,at:7), (pv:257,at:3), (pv:258,at:1), (pv:259,at:5), (pv:260,at:2), (pv:261,at:2), (pv:262,at:1), (pv:263,at:3), (pv:264,at:2), (pv:265,at:1), (pv:266,at:1), (pv:267,at:1), (pv:268,at:19), (pv:269,at:1), (pv:270,at:5), (pv:271,at:1), (pv:272,at:2), (pv:273,at:3), (pv:274,at:6), (pv:275,at:9), (pv:276,at:2), (pv:277,at:1), (pv:278,at:2), (pv:279,at:2), (pv:280,at:1), (pv:281,at:2), (pv:282,at:1), (pv:283,at:90), (pv:284,at:1), (pv:285,at:4), (pv:286,at:1), (pv:287,at:4), (pv:288,at:1), (pv:289,at:8), (pv:290,at:4), (pv:291,at:2), (pv:292,at:1), (pv:293,at:3), (pv:294,at:4), (pv:295,at:1), (pv:296,at:5), (pv:297,at:2), (pv:298,at:6), (pv:299,at:14), (pv:300,at:1), (pv:301,at:17), (pv:302,at:2), (pv:303,at:5), (pv:304,at:4), (pv:305,at:1), (pv:306,at:2), (pv:307,at:8), (pv:308,at:9), (pv:309,at:4), (pv:310,at:8), (pv:311,at:14), (pv:312,at:6), (pv:313,at:1), (pv:314,at:1), (pv:315,at:1), (pv:316,at:1), (pv:317,at:2), (pv:318,at:4), (pv:319,at:1), (pv:320,at:8), (pv:321,at:5), (pv:322,at:2), (pv:323,at:1), (pv:324,at:7), (pv:325,at:5), (pv:326,at:10), (pv:327,at:8), (pv:328,at:1), (pv:329,at:2), (pv:330,at:5), (pv:331,at:2), (pv:332,at:4), (pv:333,at:1), (pv:334,at:10), (pv:335,at:2), (pv:336,at:3), (pv:337,at:4), (pv:338,at:4), (pv:339,at:2), (pv:340,at:3), (pv:341,at:4), (pv:342,at:1), (pv:343,at:2), (pv:344,at:1), (pv:345,at:1), (pv:346,at:4), (pv:347,at:11), (pv:348,at:1), (pv:349,at:1), (pv:350,at:9), (pv:351,at:4), (pv:352,at:5), (pv:353,at:2), (pv:354,at:3), (pv:355,at:14), (pv:356,at:3), (pv:357,at:4), (pv:358,at:17), (pv:359,at:3), (pv:360,at:1), (pv:361,at:14), (pv:362,at:1), (pv:363,at:1), (pv:364,at:1), (pv:365,at:3), (pv:366,at:2), (pv:367,at:2), (pv:368,at:3), (pv:369,at:3), (pv:370,at:1), (pv:371,at:1), (pv:372,at:2), (pv:373,at:1), (pv:374,at:3), (pv:375,at:3), (pv:376,at:1), (pv:377,at:18), (pv:378,at:2), (pv:379,at:3), (pv:380,at:1), (pv:381,at:2), (pv:382,at:5), (pv:383,at:1), (pv:384,at:1), (pv:385,at:10), (pv:386,at:1), (pv:387,at:2), (pv:388,at:10), (pv:389,at:18), (pv:390,at:5), (pv:391,at:1), (pv:392,at:1), (pv:393,at:11), (pv:394,at:3), (pv:395,at:6), (pv:396,at:5), (pv:397,at:4), (pv:398,at:3), (pv:399,at:3), (pv:400,at:32), (pv:401,at:1), (pv:402,at:3), (pv:403,at:6), (pv:404,at:1), (pv:405,at:6), (pv:406,at:4), (pv:407,at:2), (pv:408,at:2), (pv:409,at:3), (pv:410,at:28), (pv:411,at:4), (pv:412,at:1), (pv:413,at:2), (pv:414,at:4), (pv:415,at:5), (pv:416,at:1), (pv:417,at:3), (pv:418,at:7), (pv:419,at:1), (pv:420,at:3), (pv:421,at:3), (pv:422,at:1), (pv:423,at:4), (pv:424,at:1), (pv:425,at:3), (pv:426,at:1), (pv:427,at:2), (pv:428,at:3), (pv:429,at:1), (pv:430,at:3), (pv:431,at:3), (pv:432,at:3), (pv:433,at:1), (pv:434,at:3), (pv:435,at:1), (pv:436,at:8), (pv:437,at:3), (pv:438,at:2), (pv:439,at:2), (pv:440,at:2), (pv:441,at:8), (pv:442,at:1), (pv:443,at:4), (pv:444,at:3), (pv:445,at:1), (pv:446,at:10), (pv:447,at:2), (pv:448,at:3), (pv:449,at:3), (pv:450,at:4), (pv:451,at:4), (pv:452,at:7), (pv:453,at:1), (pv:454,at:17), (pv:455,at:2), (pv:456,at:5), (pv:457,at:2), (pv:458,at:1), (pv:459,at:2), (pv:460,at:5), (pv:461,at:18), (pv:462,at:52), (pv:463,at:1), (pv:464,at:4), (pv:465,at:1), (pv:466,at:5), (pv:467,at:5), (pv:468,at:4), (pv:469,at:3), (pv:470,at:1), (pv:471,at:6), (pv:472,at:1), (pv:473,at:6), (pv:474,at:3), (pv:475,at:3), (pv:476,at:5), (pv:477,at:9), (pv:478,at:1), (pv:479,at:2), (pv:480,at:12), (pv:481,at:1), (pv:482,at:1), (pv:483,at:1), (pv:484,at:2), (pv:485,at:2), (pv:486,at:1), (pv:487,at:3), (pv:488,at:1), (pv:489,at:1), (pv:490,at:7), (pv:491,at:3), (pv:492,at:1), (pv:493,at:7), (pv:494,at:6), (pv:495,at:2), (pv:496,at:1), (pv:497,at:12), (pv:498,at:5), (pv:499,at:11), (pv:500,at:4), (pv:501,at:2), (pv:502,at:1), (pv:503,at:2), (pv:504,at:1), (pv:505,at:1), (pv:506,at:9), (pv:507,at:14), (pv:508,at:3), (pv:509,at:1), (pv:510,at:5), (pv:511,at:6), (pv:512,at:2), (pv:513,at:9), (pv:514,at:2), (pv:515,at:4), (pv:516,at:2), (pv:517,at:2), (pv:518,at:6), (pv:519,at:6), (pv:520,at:3), (pv:521,at:3), (pv:522,at:9), (pv:523,at:2), (pv:524,at:1), (pv:525,at:4), (pv:526,at:6), (pv:527,at:3), (pv:528,at:1), (pv:529,at:4), (pv:530,at:1), (pv:531,at:12), (pv:532,at:1), (pv:533,at:9), (pv:534,at:4), (pv:535,at:2), (pv:536,at:3), (pv:537,at:4), (pv:538,at:3), (pv:539,at:11), (pv:540,at:15), (pv:541,at:1), (pv:542,at:1), (pv:543,at:5), (pv:544,at:2), (pv:545,at:1), (pv:546,at:4), (pv:547,at:3), (pv:548,at:8), (pv:549,at:4), (pv:550,at:6), (pv:551,at:1), (pv:552,at:1), (pv:553,at:2), (pv:554,at:9), (pv:555,at:1), (pv:556,at:6), (pv:557,at:7), (pv:558,at:3), (pv:559,at:3), (pv:560,at:9), (pv:561,at:11), (pv:562,at:7), (pv:563,at:3), (pv:564,at:12), (pv:565,at:1), (pv:566,at:2), (pv:567,at:12), (pv:568,at:6), (pv:569,at:3), (pv:570,at:1), (pv:571,at:2), (pv:572,at:5), (pv:573,at:11), (pv:574,at:1), (pv:575,at:4), (pv:576,at:1), (pv:577,at:1), (pv:578,at:2), (pv:579,at:3), (pv:580,at:36), (pv:581,at:1), (pv:582,at:10), (pv:583,at:4), (pv:584,at:1), (pv:585,at:1), (pv:586,at:6), (pv:587,at:1), (pv:588,at:6), (pv:589,at:6), (pv:590,at:8), (pv:591,at:2), (pv:592,at:7), (pv:593,at:1), (pv:594,at:1), (pv:595,at:7), (pv:596,at:2), (pv:597,at:1), (pv:598,at:2), (pv:599,at:4), (pv:600,at:1), (pv:601,at:5), (pv:602,at:4), (pv:603,at:3), (pv:604,at:11), (pv:605,at:1), (pv:606,at:1), (pv:607,at:7), (pv:608,at:4), (pv:609,at:1), (pv:610,at:5), (pv:611,at:1), (pv:612,at:1), (pv:613,at:10), (pv:614,at:3), (pv:615,at:2), (pv:616,at:11), (pv:617,at:3), (pv:618,at:3), (pv:619,at:6), (pv:620,at:6), (pv:621,at:2), (pv:622,at:1), (pv:623,at:1), (pv:624,at:47), (pv:625,at:4), (pv:626,at:11), (pv:627,at:1), (pv:628,at:9), (pv:629,at:5), (pv:630,at:4), (pv:631,at:3), (pv:632,at:7), (pv:633,at:1), (pv:634,at:1), (pv:635,at:1), (pv:636,at:4), (pv:637,at:3), (pv:638,at:5), (pv:639,at:2), (pv:640,at:6), (pv:641,at:2), (pv:642,at:5), (pv:643,at:6), (pv:644,at:3), (pv:645,at:1), (pv:646,at:1), (pv:647,at:6), (pv:648,at:8), (pv:649,at:4), (pv:650,at:1), (pv:651,at:5), (pv:652,at:3), (pv:653,at:3), (pv:654,at:1), (pv:655,at:3), (pv:656,at:3), (pv:657,at:7), (pv:658,at:5), (pv:659,at:2)]
2017-03-28 03:03:28,547 INFO main - 
pvariants_with_transformed_ingredients: [(pv:2,at:16), (pv:3,at:1), (pv:4,at:2), (pv:5,at:3), (pv:6,at:2), (pv:7,at:1), (pv:8,at:1), (pv:9,at:1), (pv:10,at:1), (pv:11,at:6), (pv:12,at:2), (pv:13,at:1), (pv:14,at:9), (pv:15,at:7), (pv:16,at:3), (pv:17,at:5), (pv:18,at:3), (pv:19,at:3), (pv:20,at:1), (pv:21,at:4), (pv:22,at:2), (pv:23,at:3), (pv:24,at:5), (pv:25,at:2), (pv:26,at:3), (pv:27,at:3), (pv:28,at:18), (pv:29,at:1), (pv:30,at:3), (pv:31,at:5), (pv:32,at:6), (pv:33,at:11), (pv:34,at:7), (pv:35,at:6), (pv:36,at:2), (pv:37,at:1), (pv:38,at:9), (pv:39,at:2), (pv:40,at:2), (pv:41,at:5), (pv:42,at:3), (pv:43,at:5), (pv:44,at:1), (pv:45,at:6), (pv:46,at:18), (pv:47,at:1), (pv:48,at:3), (pv:49,at:2), (pv:50,at:1), (pv:51,at:7), (pv:52,at:3), (pv:53,at:2), (pv:54,at:3), (pv:55,at:11), (pv:56,at:2), (pv:57,at:9), (pv:58,at:3), (pv:59,at:7), (pv:60,at:2), (pv:61,at:103), (pv:62,at:5), (pv:63,at:1), (pv:64,at:9), (pv:65,at:1), (pv:66,at:13), (pv:67,at:3), (pv:68,at:2), (pv:69,at:11), (pv:70,at:9), (pv:71,at:5), (pv:72,at:2), (pv:73,at:3), (pv:74,at:1), (pv:75,at:4), (pv:76,at:11), (pv:77,at:2), (pv:78,at:1), (pv:79,at:1), (pv:80,at:4), (pv:81,at:3), (pv:82,at:1), (pv:83,at:3), (pv:84,at:1), (pv:85,at:6), (pv:86,at:1), (pv:87,at:3), (pv:88,at:4), (pv:89,at:2), (pv:90,at:1), (pv:91,at:2), (pv:92,at:3), (pv:93,at:1), (pv:94,at:1), (pv:95,at:2), (pv:96,at:1), (pv:97,at:31), (pv:98,at:1), (pv:99,at:2), (pv:100,at:1), (pv:101,at:5), (pv:102,at:8), (pv:103,at:5), (pv:104,at:2), (pv:105,at:6), (pv:106,at:3), (pv:107,at:1), (pv:108,at:3), (pv:109,at:4), (pv:110,at:2), (pv:111,at:3), (pv:112,at:11), (pv:113,at:7), (pv:114,at:2), (pv:115,at:1), (pv:116,at:4), (pv:117,at:13), (pv:118,at:1), (pv:119,at:14), (pv:120,at:3), (pv:121,at:4), (pv:122,at:5), (pv:123,at:5), (pv:124,at:3), (pv:125,at:5), (pv:126,at:9), (pv:127,at:5), (pv:128,at:3), (pv:129,at:1), (pv:130,at:10), (pv:131,at:2), (pv:132,at:4), (pv:133,at:2), (pv:134,at:8), (pv:135,at:13), (pv:136,at:4), (pv:137,at:2), (pv:138,at:9), (pv:139,at:3), (pv:140,at:1), (pv:141,at:6), (pv:142,at:6), (pv:143,at:2), (pv:144,at:2), (pv:145,at:7), (pv:146,at:1), (pv:147,at:2), (pv:148,at:1), (pv:149,at:6), (pv:150,at:6), (pv:151,at:10), (pv:152,at:6), (pv:153,at:2), (pv:154,at:2), (pv:155,at:6), (pv:156,at:9), (pv:157,at:1), (pv:158,at:1), (pv:159,at:1), (pv:160,at:2), (pv:161,at:1), (pv:162,at:2), (pv:163,at:2), (pv:164,at:2), (pv:165,at:4), (pv:166,at:4), (pv:167,at:1), (pv:168,at:6), (pv:169,at:7), (pv:170,at:1), (pv:171,at:6), (pv:172,at:2), (pv:173,at:12), (pv:174,at:1), (pv:175,at:2), (pv:176,at:3), (pv:177,at:8), (pv:178,at:5), (pv:179,at:4), (pv:180,at:2), (pv:181,at:2), (pv:182,at:2), (pv:183,at:6), (pv:184,at:1), (pv:185,at:1), (pv:186,at:3), (pv:187,at:6), (pv:188,at:1), (pv:189,at:3), (pv:190,at:9), (pv:191,at:1), (pv:192,at:1), (pv:193,at:10), (pv:194,at:1), (pv:195,at:2), (pv:196,at:3), (pv:197,at:3), (pv:198,at:5), (pv:199,at:13), (pv:200,at:4), (pv:201,at:4), (pv:202,at:2), (pv:203,at:2), (pv:204,at:7), (pv:205,at:4), (pv:206,at:14), (pv:207,at:14), (pv:208,at:1), (pv:209,at:3), (pv:210,at:2), (pv:211,at:9), (pv:212,at:1), (pv:213,at:1), (pv:214,at:6), (pv:215,at:2), (pv:216,at:6), (pv:217,at:1), (pv:218,at:4), (pv:219,at:7), (pv:220,at:9), (pv:221,at:3), (pv:222,at:7), (pv:223,at:6), (pv:224,at:2), (pv:225,at:2), (pv:226,at:3), (pv:227,at:1), (pv:228,at:8), (pv:229,at:3), (pv:230,at:6), (pv:231,at:6), (pv:232,at:2), (pv:233,at:2), (pv:234,at:2), (pv:235,at:14), (pv:236,at:3), (pv:237,at:4), (pv:238,at:2), (pv:239,at:1), (pv:240,at:11), (pv:241,at:59), (pv:242,at:2), (pv:243,at:2), (pv:244,at:22), (pv:245,at:3), (pv:246,at:4), (pv:247,at:1), (pv:248,at:8), (pv:249,at:5), (pv:250,at:6), (pv:251,at:1), (pv:252,at:7), (pv:253,at:1), (pv:254,at:5), (pv:255,at:1), (pv:256,at:7), (pv:257,at:3), (pv:258,at:1), (pv:259,at:5), (pv:260,at:2), (pv:261,at:2), (pv:262,at:1), (pv:263,at:3), (pv:264,at:2), (pv:265,at:1), (pv:266,at:1), (pv:267,at:1), (pv:268,at:19), (pv:269,at:1), (pv:270,at:5), (pv:271,at:1), (pv:272,at:2), (pv:273,at:3), (pv:274,at:6), (pv:275,at:9), (pv:276,at:2), (pv:277,at:1), (pv:278,at:2), (pv:279,at:2), (pv:280,at:1), (pv:281,at:2), (pv:282,at:1), (pv:283,at:90), (pv:284,at:1), (pv:285,at:4), (pv:286,at:1), (pv:287,at:4), (pv:288,at:1), (pv:289,at:8), (pv:290,at:4), (pv:291,at:2), (pv:292,at:1), (pv:293,at:3), (pv:294,at:4), (pv:295,at:1), (pv:296,at:5), (pv:297,at:2), (pv:298,at:6), (pv:299,at:14), (pv:300,at:1), (pv:301,at:17), (pv:302,at:2), (pv:303,at:5), (pv:304,at:4), (pv:305,at:1), (pv:306,at:2), (pv:307,at:8), (pv:308,at:9), (pv:309,at:4), (pv:310,at:8), (pv:311,at:14), (pv:312,at:6), (pv:313,at:1), (pv:314,at:1), (pv:315,at:1), (pv:316,at:1), (pv:317,at:2), (pv:318,at:4), (pv:319,at:1), (pv:320,at:8), (pv:321,at:5), (pv:322,at:2), (pv:323,at:1), (pv:324,at:7), (pv:325,at:5), (pv:326,at:10), (pv:327,at:8), (pv:328,at:1), (pv:329,at:2), (pv:330,at:5), (pv:331,at:2), (pv:332,at:4), (pv:333,at:1), (pv:334,at:10), (pv:335,at:2), (pv:336,at:3), (pv:337,at:4), (pv:338,at:4), (pv:339,at:2), (pv:340,at:3), (pv:341,at:4), (pv:342,at:1), (pv:343,at:2), (pv:344,at:1), (pv:345,at:1), (pv:346,at:4), (pv:347,at:11), (pv:348,at:1), (pv:349,at:1), (pv:350,at:9), (pv:351,at:4), (pv:352,at:5), (pv:353,at:2), (pv:354,at:3), (pv:355,at:14), (pv:356,at:3), (pv:357,at:4), (pv:358,at:17), (pv:359,at:3), (pv:360,at:1), (pv:361,at:14), (pv:362,at:1), (pv:363,at:1), (pv:364,at:1), (pv:365,at:3), (pv:366,at:2), (pv:367,at:2), (pv:368,at:3), (pv:369,at:3), (pv:370,at:1), (pv:371,at:1), (pv:372,at:2), (pv:373,at:1), (pv:374,at:3), (pv:375,at:3), (pv:376,at:1), (pv:377,at:18), (pv:378,at:2), (pv:379,at:3), (pv:380,at:1), (pv:381,at:2), (pv:382,at:5), (pv:383,at:1), (pv:384,at:1), (pv:385,at:10), (pv:386,at:1), (pv:387,at:2), (pv:388,at:10), (pv:389,at:18), (pv:390,at:5), (pv:391,at:1), (pv:392,at:1), (pv:393,at:11), (pv:394,at:3), (pv:395,at:6), (pv:396,at:5), (pv:397,at:4), (pv:398,at:3), (pv:399,at:3), (pv:400,at:32), (pv:401,at:1), (pv:402,at:3), (pv:403,at:6), (pv:404,at:1), (pv:405,at:6), (pv:406,at:4), (pv:407,at:2), (pv:408,at:2), (pv:409,at:3), (pv:410,at:28), (pv:411,at:4), (pv:412,at:1), (pv:413,at:2), (pv:414,at:4), (pv:415,at:5), (pv:416,at:1), (pv:417,at:3), (pv:418,at:7), (pv:419,at:1), (pv:420,at:3), (pv:421,at:3), (pv:422,at:1), (pv:423,at:4), (pv:424,at:1), (pv:425,at:3), (pv:426,at:1), (pv:427,at:2), (pv:428,at:3), (pv:429,at:1), (pv:430,at:3), (pv:431,at:3), (pv:432,at:3), (pv:433,at:1), (pv:434,at:3), (pv:435,at:1), (pv:436,at:8), (pv:437,at:3), (pv:438,at:2), (pv:439,at:2), (pv:440,at:2), (pv:441,at:8), (pv:442,at:1), (pv:443,at:4), (pv:444,at:3), (pv:445,at:1), (pv:446,at:10), (pv:447,at:2), (pv:448,at:3), (pv:449,at:3), (pv:450,at:4), (pv:451,at:4), (pv:452,at:7), (pv:453,at:1), (pv:454,at:17), (pv:455,at:2), (pv:456,at:5), (pv:457,at:2), (pv:458,at:1), (pv:459,at:2), (pv:460,at:5), (pv:461,at:18), (pv:462,at:52), (pv:463,at:1), (pv:464,at:4), (pv:465,at:1), (pv:466,at:5), (pv:467,at:5), (pv:468,at:4), (pv:469,at:3), (pv:470,at:1), (pv:471,at:6), (pv:472,at:1), (pv:473,at:6), (pv:474,at:3), (pv:475,at:3), (pv:476,at:5), (pv:477,at:9), (pv:478,at:1), (pv:479,at:2), (pv:480,at:12), (pv:481,at:1), (pv:482,at:1), (pv:483,at:1), (pv:484,at:2), (pv:485,at:2), (pv:486,at:1), (pv:487,at:3), (pv:488,at:1), (pv:489,at:1), (pv:490,at:7), (pv:491,at:3), (pv:492,at:1), (pv:493,at:7), (pv:494,at:6), (pv:495,at:2), (pv:496,at:1), (pv:497,at:12), (pv:498,at:5), (pv:499,at:11), (pv:500,at:4), (pv:501,at:2), (pv:502,at:1), (pv:503,at:2), (pv:504,at:1), (pv:505,at:1), (pv:506,at:9), (pv:507,at:14), (pv:508,at:3), (pv:509,at:1), (pv:510,at:5), (pv:511,at:6), (pv:512,at:2), (pv:513,at:9), (pv:514,at:2), (pv:515,at:4), (pv:516,at:2), (pv:517,at:2), (pv:518,at:6), (pv:519,at:6), (pv:520,at:3), (pv:521,at:3), (pv:522,at:9), (pv:523,at:2), (pv:524,at:1), (pv:525,at:4), (pv:526,at:6), (pv:527,at:3), (pv:528,at:1), (pv:529,at:4), (pv:530,at:1), (pv:531,at:12), (pv:532,at:1), (pv:533,at:9), (pv:534,at:4), (pv:535,at:2), (pv:536,at:3), (pv:537,at:4), (pv:538,at:3), (pv:539,at:11), (pv:540,at:15), (pv:541,at:1), (pv:542,at:1), (pv:543,at:5), (pv:544,at:2), (pv:545,at:1), (pv:546,at:4), (pv:547,at:3), (pv:548,at:8), (pv:549,at:4), (pv:550,at:6), (pv:551,at:1), (pv:552,at:1), (pv:553,at:2), (pv:554,at:9), (pv:555,at:1), (pv:556,at:6), (pv:557,at:7), (pv:558,at:3), (pv:559,at:3), (pv:560,at:9), (pv:561,at:11), (pv:562,at:7), (pv:563,at:3), (pv:564,at:12), (pv:565,at:1), (pv:566,at:2), (pv:567,at:12), (pv:568,at:6), (pv:569,at:3), (pv:570,at:1), (pv:571,at:2), (pv:572,at:5), (pv:573,at:11), (pv:574,at:1), (pv:575,at:4), (pv:576,at:1), (pv:577,at:1), (pv:578,at:2), (pv:579,at:3), (pv:580,at:36), (pv:581,at:1), (pv:582,at:10), (pv:583,at:4), (pv:584,at:1), (pv:585,at:1), (pv:586,at:6), (pv:587,at:1), (pv:588,at:6), (pv:589,at:6), (pv:590,at:8), (pv:591,at:2), (pv:592,at:7), (pv:593,at:1), (pv:594,at:1), (pv:595,at:7), (pv:596,at:2), (pv:597,at:1), (pv:598,at:2), (pv:599,at:4), (pv:600,at:1), (pv:601,at:5), (pv:602,at:4), (pv:603,at:3), (pv:604,at:11), (pv:605,at:1), (pv:606,at:1), (pv:607,at:7), (pv:608,at:4), (pv:609,at:1), (pv:610,at:5), (pv:611,at:1), (pv:612,at:1), (pv:613,at:10), (pv:614,at:3), (pv:615,at:2), (pv:616,at:11), (pv:617,at:3), (pv:618,at:3), (pv:619,at:6), (pv:620,at:6), (pv:621,at:2), (pv:622,at:1), (pv:623,at:1), (pv:624,at:47), (pv:625,at:4), (pv:626,at:11), (pv:627,at:1), (pv:628,at:9), (pv:629,at:5), (pv:630,at:4), (pv:631,at:3), (pv:632,at:7), (pv:633,at:1), (pv:634,at:1), (pv:635,at:1), (pv:636,at:4), (pv:637,at:3), (pv:638,at:5), (pv:639,at:2), (pv:640,at:6), (pv:641,at:2), (pv:642,at:5), (pv:643,at:6), (pv:644,at:3), (pv:645,at:1), (pv:646,at:1), (pv:647,at:6), (pv:648,at:8), (pv:649,at:4), (pv:650,at:1), (pv:651,at:5), (pv:652,at:3), (pv:653,at:3), (pv:654,at:1), (pv:655,at:3), (pv:656,at:3), (pv:657,at:7), (pv:658,at:5), (pv:659,at:2)]
2017-03-28 03:03:28,547 INFO fr.inria.main.evolution.AstorMain - Time Total(s): 10942.967
