Warning: no access to tty (Bad file descriptor).
Thus no job control in this shell.
tput: No value for $TERM and no -T specified
Node: wh39.sciclone.wm.edu
[INFO ] fr.inria.main.AbstractMain.processArguments(AbstractMain.java:295) - command line arguments: [-out  /local/scr/mtufano/Math/20/b/random-global-default/2  -jvm4testexecution  /usr/local/jdk1.7.0_80/bin/  -loglevel  INFO  -maxVarCombination  1000  -maxgen  1000000  -population  1  -maxtime  180  -timezone  America/New_York  -customop  fr.inria.astor.approaches.jgenprog.operators.InsertAfterOp:fr.inria.astor.approaches.jgenprog.operators.InsertBeforeOp:fr.inria.astor.approaches.jgenprog.operators.ReplaceOp  -seed  2  -javacompliancelevel  5  -package  org.apache.commons  -binjavafolder  target/classes/  -bintestfolder  target/test-classes/  -srcjavafolder  src/main/java/  -srctestfolder  src/test/java/  -learningdir  ../../out/learningdir/Math/20/b/  -location  ../../dat/defects4j/Math/20/b/  -failing  org.apache.commons.math3.optimization.direct.CMAESOptimizerTest  -dependencies  ../../dat/libs/Math/commons-discovery-0.5.jar  -scope  fr.inria.astor.core.loop.spaces.ingredients.scopes.ctscopes.CtGlobalIngredientScope  -ingredientstrategy  fr.inria.astor.core.loop.spaces.ingredients.ingredientSearch.EfficientIngredientStrategy  -classestoinstrument  org.apache.commons.math3.util.Precision:org.apache.commons.math3.exception.util.Localizable:org.apache.commons.math3.util.FastMathLiteralArrays:org.apache.commons.math3.util.CompositeFormat:org.apache.commons.math3.optimization.BaseMultivariateSimpleBoundsOptimizer:org.apache.commons.math3.exception.DimensionMismatchException:org.apache.commons.math3.analysis.MultivariateFunction:org.apache.commons.math3.linear.MatrixUtils:org.apache.commons.math3.linear.Array2DRowRealMatrix:org.apache.commons.math3.exception.TooManyEvaluationsException:org.apache.commons.math3.optimization.direct.BaseAbstractMultivariateSimpleBoundsOptimizer:org.apache.commons.math3.linear.AbstractFieldMatrix:org.apache.commons.math3.linear.ArrayRealVector:org.apache.commons.math3.linear.RealMatrixChangingVisitor:org.apache.commons.math3.linear.RealMatrix:org.apache.commons.math3.exception.NotStrictlyPositiveException:org.apache.commons.math3.linear.Array2DRowFieldMatrix:org.apache.commons.math3.exception.MathUnsupportedOperationException:org.apache.commons.math3.linear.OpenMapRealMatrix:org.apache.commons.math3.optimization.SimpleValueChecker:org.apache.commons.math3.optimization.MultivariateOptimizer:org.apache.commons.math3.linear.FieldVector:org.apache.commons.math3.exception.NullArgumentException:org.apache.commons.math3.optimization.direct.CMAESOptimizer:org.apache.commons.math3.linear.RealVectorFormat:org.apache.commons.math3.linear.DefaultRealMatrixPreservingVisitor:org.apache.commons.math3.util.MathArrays:org.apache.commons.math3.linear.BlockRealMatrix:org.apache.commons.math3.linear.SparseRealMatrix:org.apache.commons.math3.linear.BlockFieldMatrix:org.apache.commons.math3.exception.util.ExceptionContextProvider:org.apache.commons.math3.exception.NoDataException:org.apache.commons.math3.exception.NotPositiveException:org.apache.commons.math3.random.RandomGenerator:org.apache.commons.math3.exception.NonMonotonicSequenceException:org.apache.commons.math3.exception.MultiDimensionMismatchException:org.apache.commons.math3.exception.NotFiniteNumberException:org.apache.commons.math3.exception.ZeroException:org.apache.commons.math3.optimization.PointValuePair:org.apache.commons.math3.util.Pair:org.apache.commons.math3.random.MersenneTwister:org.apache.commons.math3.exception.MathInternalError:org.apache.commons.math3.linear.FieldMatrix:org.apache.commons.math3.exception.MathIllegalArgumentException:org.apache.commons.math3.linear.NonSymmetricMatrixException:org.apache.commons.math3.exception.NumberIsTooSmallException:org.apache.commons.math3.optimization.BaseOptimizer:org.apache.commons.math3.linear.NonSquareMatrixException:org.apache.commons.math3.exception.OutOfRangeException:org.apache.commons.math3.exception.MathArithmeticException:org.apache.commons.math3.linear.AbstractRealMatrix:org.apache.commons.math3.exception.MathParseException:org.apache.commons.math3.optimization.direct.BaseAbstractMultivariateOptimizer:org.apache.commons.math3.linear.TriDiagonalTransformer:org.apache.commons.math3.linear.DecompositionSolver:org.apache.commons.math3.optimization.AbstractConvergenceChecker:org.apache.commons.math3.linear.AnyMatrix:org.apache.commons.math3.linear.RealVector:org.apache.commons.math3.optimization.BaseMultivariateOptimizer:org.apache.commons.math3.exception.MathIllegalNumberException:org.apache.commons.math3.linear.MatrixDimensionMismatchException:org.apache.commons.math3.exception.MaxCountExceededException:org.apache.commons.math3.linear.FieldMatrixPreservingVisitor:org.apache.commons.math3.optimization.ConvergenceChecker:org.apache.commons.math3.analysis.BivariateFunction:org.apache.commons.math3.exception.MathIllegalStateException:org.apache.commons.math3.linear.RealMatrixPreservingVisitor:org.apache.commons.math3.util.FastMath:org.apache.commons.math3.random.BitsStreamGenerator:org.apache.commons.math3.util.MathUtils:org.apache.commons.math3.util.Incrementor:org.apache.commons.math3.optimization.GoalType:org.apache.commons.math3.linear.EigenDecomposition:org.apache.commons.math3.linear.RealMatrixFormat:org.apache.commons.math3.exception.NumberIsTooLargeException:org.apache.commons.math3.linear.RealLinearOperator:  -regressiontestcases4fl  org.apache.commons.math3.optimization.direct.CMAESOptimizerTest:]
[INFO ] fr.inria.astor.core.manipulation.MutationSupporter.buildModel(MutationSupporter.java:76) - building model: /local/scr/mtufano/Math/20/b/random-global-default/2/AstorMain-b//src//default, compliance level: 5
[INFO ] fr.inria.astor.core.manipulation.MutationSupporter.buildModel(MutationSupporter.java:85) - Classpath for building SpoonModel [/sciclone/data20/mtufano/deeprepair/bin/eval/../../dat/libs/Math/commons-discovery-0.5.jar]
[INFO ] fr.inria.astor.core.setup.ProjectRepairFacade.calculateSuspicious(ProjectRepairFacade.java:215) - -Executing Gzoltar classpath: /local/scr/mtufano/Math/20/b/random-global-default/2/AstorMain-b//bin//default from 1 classes with test cases
[INFO ] fr.inria.astor.core.faultlocalization.GZoltarFaultLocalization.searchSuspicious(GZoltarFaultLocalization.java:37) - Gzoltar fault localization: min susp value parameter: 0.1
[INFO ] fr.inria.astor.core.faultlocalization.GZoltarFaultLocalization.searchSuspicious(GZoltarFaultLocalization.java:57) - -gz-Adding classpath: [/local/scr/mtufano/Math/20/b/random-global-default/2/AstorMain-b//bin//default, /sciclone/data20/mtufano/deeprepair/bin/eval/../../dat/libs/Math/commons-discovery-0.5.jar]
[INFO ] fr.inria.astor.core.faultlocalization.GZoltarFaultLocalization.searchSuspicious(GZoltarFaultLocalization.java:76) - Test failt: org.apache.commons.math3.optimization.direct.CMAESOptimizerTest#testMath864
[INFO ] fr.inria.astor.core.faultlocalization.GZoltarFaultLocalization.searchSuspicious(GZoltarFaultLocalization.java:81) - Gzoltar Test Result Total:24, fails: 1, GZoltar suspicious 1075
[INFO ] fr.inria.astor.core.faultlocalization.GZoltarFaultLocalization.searchSuspicious(GZoltarFaultLocalization.java:123) - Gzoltar found: 828 with susp > 0.1, we consider: 828
[INFO ] fr.inria.astor.approaches.jgenprog.JGenProg.initPopulation(JGenProg.java:80) - 
---- Initial suspicious size: 828
[INFO ] fr.inria.astor.core.loop.population.ProgramVariantFactory.createProgramInstance(ProgramVariantFactory.java:126) - -any mod point created for suspicious Candidate [className=org.apache.commons.math3.optimization.direct.CMAESOptimizer$FitnessFunction, methodName=org.apache.commons.math3.optimization.direct.CMAESOptimizer$FitnessFunction{value([D)D 0.0, lineNumber=952, susp=0.5773502691896258]
[INFO ] fr.inria.astor.core.loop.population.ProgramVariantFactory.createProgramInstance(ProgramVariantFactory.java:126) - -any mod point created for suspicious Candidate [className=org.apache.commons.math3.optimization.direct.CMAESOptimizer, methodName=org.apache.commons.math3.optimization.direct.CMAESOptimizer{updateCovariance(ZLorg/apache/commons/math3/linear/RealMatrix;Lorg/apache/commons/math3/linear/RealMatrix;[ILorg/apache/commons/math3/linear/RealMatrix;)V 0.0, lineNumber=748, susp=0.2581988897471611]
[INFO ] fr.inria.astor.core.loop.population.ProgramVariantFactory.createProgramInstance(ProgramVariantFactory.java:126) - -any mod point created for suspicious Candidate [className=org.apache.commons.math3.optimization.direct.CMAESOptimizer, methodName=org.apache.commons.math3.optimization.direct.CMAESOptimizer{updateCovariance(ZLorg/apache/commons/math3/linear/RealMatrix;Lorg/apache/commons/math3/linear/RealMatrix;[ILorg/apache/commons/math3/linear/RealMatrix;)V 0.0, lineNumber=760, susp=0.2581988897471611]
[INFO ] fr.inria.astor.core.loop.population.ProgramVariantFactory.createProgramInstance(ProgramVariantFactory.java:126) - -any mod point created for suspicious Candidate [className=org.apache.commons.math3.optimization.direct.CMAESOptimizer, methodName=org.apache.commons.math3.optimization.direct.CMAESOptimizer{updateBD(D)V 0.0, lineNumber=796, susp=0.2581988897471611]
[INFO ] fr.inria.astor.core.loop.population.ProgramVariantFactory.createProgramInstance(ProgramVariantFactory.java:126) - -any mod point created for suspicious Candidate [className=org.apache.commons.math3.linear.EigenDecomposition, methodName=org.apache.commons.math3.linear.EigenDecomposition{transformToTridiagonal(Lorg/apache/commons/math3/linear/RealMatrix;)V 0.0, lineNumber=558, susp=0.2581988897471611]
[INFO ] fr.inria.astor.core.loop.population.ProgramVariantFactory.createProgramInstance(ProgramVariantFactory.java:126) - -any mod point created for suspicious Candidate [className=org.apache.commons.math3.linear.EigenDecomposition, methodName=org.apache.commons.math3.linear.EigenDecomposition{findEigenVectors([[D)V 0.0, lineNumber=668, susp=0.2581988897471611]
[INFO ] fr.inria.astor.core.loop.population.ProgramVariantFactory.createProgramInstance(ProgramVariantFactory.java:126) - -any mod point created for suspicious Candidate [className=org.apache.commons.math3.linear.EigenDecomposition, methodName=org.apache.commons.math3.linear.EigenDecomposition{findEigenVectors([[D)V 0.0, lineNumber=715, susp=0.2581988897471611]
[INFO ] fr.inria.astor.core.loop.population.ProgramVariantFactory.createProgramInstance(ProgramVariantFactory.java:126) - -any mod point created for suspicious Candidate [className=org.apache.commons.math3.linear.Array2DRowRealMatrix, methodName=org.apache.commons.math3.linear.Array2DRowRealMatrix{setSubMatrix([[DII)V 0.0, lineNumber=294, susp=0.2581988897471611]
[INFO ] fr.inria.astor.core.loop.population.ProgramVariantFactory.createProgramInstance(ProgramVariantFactory.java:126) - -any mod point created for suspicious Candidate [className=org.apache.commons.math3.linear.Array2DRowRealMatrix, methodName=org.apache.commons.math3.linear.Array2DRowRealMatrix{setSubMatrix([[DII)V 0.0, lineNumber=298, susp=0.2581988897471611]
[INFO ] fr.inria.astor.core.loop.population.ProgramVariantFactory.createProgramInstance(ProgramVariantFactory.java:126) - -any mod point created for suspicious Candidate [className=org.apache.commons.math3.linear.Array2DRowRealMatrix, methodName=org.apache.commons.math3.linear.Array2DRowRealMatrix{copyIn([[D)V 0.0, lineNumber=544, susp=0.2581988897471611]
[INFO ] fr.inria.astor.core.loop.population.ProgramVariantFactory.createProgramInstance(ProgramVariantFactory.java:126) - -any mod point created for suspicious Candidate [className=org.apache.commons.math3.linear.TriDiagonalTransformer, methodName=org.apache.commons.math3.linear.TriDiagonalTransformer{transform()V 0.0, lineNumber=253, susp=0.2581988897471611]
[INFO ] fr.inria.astor.core.loop.population.ProgramVariantFactory.createProgramInstance(ProgramVariantFactory.java:126) - -any mod point created for suspicious Candidate [className=org.apache.commons.math3.util.MathUtils, methodName=org.apache.commons.math3.util.MathUtils{checkNotNull(Ljava/lang/Object;)V 0.0, lineNumber=267, susp=0.2581988897471611]
[INFO ] fr.inria.astor.core.loop.population.ProgramVariantFactory.createProgramInstance(ProgramVariantFactory.java:126) - -any mod point created for suspicious Candidate [className=org.apache.commons.math3.linear.AbstractRealMatrix, methodName=org.apache.commons.math3.linear.AbstractRealMatrix{setColumnVector(ILorg/apache/commons/math3/linear/RealVector;)V 0.0, lineNumber=530, susp=0.2581988897471611]
[INFO ] fr.inria.astor.core.loop.population.ProgramVariantFactory.createProgramInstance(ProgramVariantFactory.java:126) - -any mod point created for suspicious Candidate [className=org.apache.commons.math3.linear.DefaultRealMatrixPreservingVisitor, methodName=org.apache.commons.math3.linear.DefaultRealMatrixPreservingVisitor{start(IIIIII)V 0.0, lineNumber=34, susp=0.25]
[INFO ] fr.inria.astor.core.loop.population.ProgramVariantFactory.createProgramInstance(ProgramVariantFactory.java:126) - -any mod point created for suspicious Candidate [className=org.apache.commons.math3.util.FastMath$lnMant, methodName=org.apache.commons.math3.util.FastMath$lnMant{access$400()[[D 0.0, lineNumber=3752, susp=0.25]
[INFO ] fr.inria.astor.core.loop.population.ProgramVariantFactory.createProgramInstance(ProgramVariantFactory.java:126) - -any mod point created for suspicious Candidate [className=org.apache.commons.math3.linear.AbstractRealMatrix$2, methodName=org.apache.commons.math3.linear.AbstractRealMatrix$2{start(IIIIII)V 0.0, lineNumber=290, susp=0.25]
[INFO ] fr.inria.astor.core.loop.population.ProgramVariantFactory.createProgramInstance(ProgramVariantFactory.java:126) - -any mod point created for suspicious Candidate [className=org.apache.commons.math3.linear.AbstractRealMatrix$2, methodName=org.apache.commons.math3.linear.AbstractRealMatrix$2{visit(IID)V 0.0, lineNumber=295, susp=0.25]
[INFO ] fr.inria.astor.core.loop.population.ProgramVariantFactory.createProgramInstance(ProgramVariantFactory.java:126) - -any mod point created for suspicious Candidate [className=org.apache.commons.math3.linear.AbstractRealMatrix$5, methodName=org.apache.commons.math3.linear.AbstractRealMatrix$5{visit(IID)V 0.0, lineNumber=607, susp=0.25]
[INFO ] fr.inria.astor.core.loop.population.ProgramVariantFactory.createProgramInstance(ProgramVariantFactory.java:126) - -any mod point created for suspicious Candidate [className=org.apache.commons.math3.optimization.direct.BaseAbstractMultivariateOptimizer, methodName=org.apache.commons.math3.optimization.direct.BaseAbstractMultivariateOptimizer{computeObjectiveValue([D)D 0.0, lineNumber=98, susp=0.25]
[INFO ] fr.inria.astor.core.loop.population.ProgramVariantFactory.createProgramInstance(ProgramVariantFactory.java:126) - -any mod point created for suspicious Candidate [className=org.apache.commons.math3.optimization.direct.CMAESOptimizer, methodName=org.apache.commons.math3.optimization.direct.CMAESOptimizer{doOptimize()Lorg/apache/commons/math3/optimization/PointValuePair; 0.0, lineNumber=395, susp=0.25]
[INFO ] fr.inria.astor.core.loop.population.ProgramVariantFactory.createProgramInstance(ProgramVariantFactory.java:126) - -any mod point created for suspicious Candidate [className=org.apache.commons.math3.optimization.direct.CMAESOptimizer, methodName=org.apache.commons.math3.optimization.direct.CMAESOptimizer{checkParameters()V 0.0, lineNumber=553, susp=0.25]
[INFO ] fr.inria.astor.core.loop.population.ProgramVariantFactory.createProgramInstance(ProgramVariantFactory.java:126) - -any mod point created for suspicious Candidate [className=org.apache.commons.math3.optimization.direct.CMAESOptimizer, methodName=org.apache.commons.math3.optimization.direct.CMAESOptimizer{initializeCMA([D)V 0.0, lineNumber=627, susp=0.25]
[INFO ] fr.inria.astor.core.loop.population.ProgramVariantFactory.createProgramInstance(ProgramVariantFactory.java:126) - -any mod point created for suspicious Candidate [className=org.apache.commons.math3.optimization.direct.CMAESOptimizer, methodName=org.apache.commons.math3.optimization.direct.CMAESOptimizer{push([DD)V 0.0, lineNumber=809, susp=0.25]
[INFO ] fr.inria.astor.core.loop.population.ProgramVariantFactory.createProgramInstance(ProgramVariantFactory.java:126) - -any mod point created for suspicious Candidate [className=org.apache.commons.math3.optimization.direct.CMAESOptimizer, methodName=org.apache.commons.math3.optimization.direct.CMAESOptimizer{copyColumn(Lorg/apache/commons/math3/linear/RealMatrix;ILorg/apache/commons/math3/linear/RealMatrix;I)V 0.0, lineNumber=1173, susp=0.25]
[INFO ] fr.inria.astor.core.loop.population.ProgramVariantFactory.createProgramInstance(ProgramVariantFactory.java:126) - -any mod point created for suspicious Candidate [className=org.apache.commons.math3.optimization.direct.CMAESOptimizer, methodName=org.apache.commons.math3.optimization.direct.CMAESOptimizer{access$100(Lorg/apache/commons/math3/optimization/direct/CMAESOptimizer;)[[D 0.0, lineNumber=85, susp=0.25]
[INFO ] fr.inria.astor.core.loop.population.ProgramVariantFactory.createProgramInstance(ProgramVariantFactory.java:126) - -any mod point created for suspicious Candidate [className=org.apache.commons.math3.optimization.direct.CMAESOptimizer, methodName=org.apache.commons.math3.optimization.direct.CMAESOptimizer{access$200(Lorg/apache/commons/math3/optimization/direct/CMAESOptimizer;)Z 0.0, lineNumber=85, susp=0.25]
[INFO ] fr.inria.astor.core.loop.population.ProgramVariantFactory.createProgramInstance(ProgramVariantFactory.java:126) - -any mod point created for suspicious Candidate [className=org.apache.commons.math3.util.FastMath, methodName=org.apache.commons.math3.util.FastMath{sin(D)D 0.0, lineNumber=2249, susp=0.25]
[INFO ] fr.inria.astor.core.loop.population.ProgramVariantFactory.createProgramInstance(ProgramVariantFactory.java:126) - -any mod point created for suspicious Candidate [className=org.apache.commons.math3.util.FastMath, methodName=org.apache.commons.math3.util.FastMath{sin(D)D 0.0, lineNumber=2251, susp=0.25]
[INFO ] fr.inria.astor.core.loop.population.ProgramVariantFactory.createProgramInstance(ProgramVariantFactory.java:126) - -any mod point created for suspicious Candidate [className=org.apache.commons.math3.util.FastMath, methodName=org.apache.commons.math3.util.FastMath{sin(D)D 0.0, lineNumber=2253, susp=0.25]
[INFO ] fr.inria.astor.core.loop.population.ProgramVariantFactory.createProgramInstance(ProgramVariantFactory.java:126) - -any mod point created for suspicious Candidate [className=org.apache.commons.math3.util.FastMath, methodName=org.apache.commons.math3.util.FastMath{sin(D)D 0.0, lineNumber=2255, susp=0.25]
[INFO ] fr.inria.astor.core.loop.population.ProgramVariantFactory.createProgramInstance(ProgramVariantFactory.java:126) - -any mod point created for suspicious Candidate [className=org.apache.commons.math3.util.FastMath, methodName=org.apache.commons.math3.util.FastMath{cos(D)D 0.0, lineNumber=2303, susp=0.25]
[INFO ] fr.inria.astor.core.loop.population.ProgramVariantFactory.createProgramInstance(ProgramVariantFactory.java:126) - -any mod point created for suspicious Candidate [className=org.apache.commons.math3.util.FastMath, methodName=org.apache.commons.math3.util.FastMath{cos(D)D 0.0, lineNumber=2305, susp=0.25]
[INFO ] fr.inria.astor.core.loop.population.ProgramVariantFactory.createProgramInstance(ProgramVariantFactory.java:126) - -any mod point created for suspicious Candidate [className=org.apache.commons.math3.util.FastMath, methodName=org.apache.commons.math3.util.FastMath{cos(D)D 0.0, lineNumber=2307, susp=0.25]
[INFO ] fr.inria.astor.core.loop.population.ProgramVariantFactory.createProgramInstance(ProgramVariantFactory.java:126) - -any mod point created for suspicious Candidate [className=org.apache.commons.math3.util.FastMath, methodName=org.apache.commons.math3.util.FastMath{cos(D)D 0.0, lineNumber=2309, susp=0.25]
[INFO ] fr.inria.astor.core.loop.population.ProgramVariantFactory.createProgramInstance(ProgramVariantFactory.java:126) - -any mod point created for suspicious Candidate [className=org.apache.commons.math3.optimization.direct.CMAESOptimizer$FitnessFunction, methodName=org.apache.commons.math3.optimization.direct.CMAESOptimizer$FitnessFunction{setValueRange(D)V 0.0, lineNumber=983, susp=0.25]
[INFO ] fr.inria.astor.core.loop.population.ProgramVariantFactory.createProgramInstance(ProgramVariantFactory.java:126) - -any mod point created for suspicious Candidate [className=org.apache.commons.math3.optimization.SimpleValueChecker, methodName=org.apache.commons.math3.optimization.SimpleValueChecker{converged(ILjava/lang/Object;Ljava/lang/Object;)Z 0.0, lineNumber=34, susp=0.25]
[INFO ] fr.inria.astor.core.loop.population.ProgramVariantFactory.createProgramInstance(ProgramVariantFactory.java:126) - -any mod point created for suspicious Candidate [className=org.apache.commons.math3.random.BitsStreamGenerator, methodName=org.apache.commons.math3.random.BitsStreamGenerator{nextGaussian()D 0.0, lineNumber=107, susp=0.25]
[INFO ] fr.inria.astor.core.loop.population.ProgramVariantFactory.createProgramInstance(ProgramVariantFactory.java:126) - -any mod point created for suspicious Candidate [className=org.apache.commons.math3.linear.MatrixUtils, methodName=org.apache.commons.math3.linear.MatrixUtils{checkMatrixIndex(Lorg/apache/commons/math3/linear/AnyMatrix;II)V 0.0, lineNumber=391, susp=0.25]
[INFO ] fr.inria.astor.core.loop.population.ProgramVariantFactory.createProgramInstance(ProgramVariantFactory.java:126) - -any mod point created for suspicious Candidate [className=org.apache.commons.math3.linear.MatrixUtils, methodName=org.apache.commons.math3.linear.MatrixUtils{checkRowIndex(Lorg/apache/commons/math3/linear/AnyMatrix;I)V 0.0, lineNumber=407, susp=0.25]
[INFO ] fr.inria.astor.core.loop.population.ProgramVariantFactory.createProgramInstance(ProgramVariantFactory.java:126) - -any mod point created for suspicious Candidate [className=org.apache.commons.math3.linear.MatrixUtils, methodName=org.apache.commons.math3.linear.MatrixUtils{checkColumnIndex(Lorg/apache/commons/math3/linear/AnyMatrix;I)V 0.0, lineNumber=422, susp=0.25]
[INFO ] fr.inria.astor.core.loop.population.ProgramVariantFactory.createProgramInstance(ProgramVariantFactory.java:126) - -any mod point created for suspicious Candidate [className=org.apache.commons.math3.linear.MatrixUtils, methodName=org.apache.commons.math3.linear.MatrixUtils{checkAdditionCompatible(Lorg/apache/commons/math3/linear/AnyMatrix;Lorg/apache/commons/math3/linear/AnyMatrix;)V 0.0, lineNumber=511, susp=0.25]
[INFO ] fr.inria.astor.core.loop.population.ProgramVariantFactory.createProgramInstance(ProgramVariantFactory.java:126) - -any mod point created for suspicious Candidate [className=org.apache.commons.math3.linear.MatrixUtils, methodName=org.apache.commons.math3.linear.MatrixUtils{checkSubtractionCompatible(Lorg/apache/commons/math3/linear/AnyMatrix;Lorg/apache/commons/math3/linear/AnyMatrix;)V 0.0, lineNumber=528, susp=0.25]
[INFO ] fr.inria.astor.core.loop.population.ProgramVariantFactory.createProgramInstance(ProgramVariantFactory.java:126) - -any mod point created for suspicious Candidate [className=org.apache.commons.math3.linear.MatrixUtils, methodName=org.apache.commons.math3.linear.MatrixUtils{checkMultiplicationCompatible(Lorg/apache/commons/math3/linear/AnyMatrix;Lorg/apache/commons/math3/linear/AnyMatrix;)V 0.0, lineNumber=545, susp=0.25]
[INFO ] fr.inria.astor.core.loop.population.ProgramVariantFactory.createProgramInstance(ProgramVariantFactory.java:126) - -any mod point created for suspicious Candidate [className=org.apache.commons.math3.util.Incrementor, methodName=org.apache.commons.math3.util.Incrementor{incrementCount()V 0.0, lineNumber=158, susp=0.25]
[INFO ] fr.inria.astor.core.loop.population.ProgramVariantFactory.createProgramInstance(ProgramVariantFactory.java:126) - -any mod point created for suspicious Candidate [className=org.apache.commons.math3.linear.Array2DRowRealMatrix, methodName=org.apache.commons.math3.linear.Array2DRowRealMatrix{setEntry(IID)V 0.0, lineNumber=312, susp=0.25]
[INFO ] fr.inria.astor.core.loop.population.ProgramVariantFactory.createProgramInstance(ProgramVariantFactory.java:126) - -any mod point created for suspicious Candidate [className=org.apache.commons.math3.optimization.direct.CMAESOptimizer$DoubleIndex, methodName=org.apache.commons.math3.optimization.direct.CMAESOptimizer$DoubleIndex{compareTo(Ljava/lang/Object;)I 0.0, lineNumber=834, susp=0.25]
[INFO ] fr.inria.astor.core.loop.population.ProgramVariantFactory.createProgramInstance(ProgramVariantFactory.java:126) - -any mod point created for suspicious Candidate [className=org.apache.commons.math3.optimization.direct.CMAESOptimizer$DoubleIndex, methodName=org.apache.commons.math3.optimization.direct.CMAESOptimizer$DoubleIndex{access$000(Lorg/apache/commons/math3/optimization/direct/CMAESOptimizer$DoubleIndex;)I 0.0, lineNumber=834, susp=0.25]
[INFO ] fr.inria.astor.core.loop.population.ProgramVariantFactory.createProgramInstance(ProgramVariantFactory.java:126) - -any mod point created for suspicious Candidate [className=org.apache.commons.math3.util.Incrementor, methodName=org.apache.commons.math3.util.Incrementor{setMaximalCount(I)V 0.0, lineNumber=97, susp=0.2182178902359924]
[INFO ] fr.inria.astor.core.loop.population.ProgramVariantFactory.createProgramInstance(ProgramVariantFactory.java:126) - -any mod point created for suspicious Candidate [className=org.apache.commons.math3.util.Incrementor, methodName=org.apache.commons.math3.util.Incrementor{resetCount()V 0.0, lineNumber=165, susp=0.2182178902359924]
[INFO ] fr.inria.astor.core.loop.population.ProgramVariantFactory.createModificationPoints(ProgramVariantFactory.java:207) -  Not ctClass for suspicious code Candidate [className=org.apache.commons.math3.RetryRunner$1, methodName=org.apache.commons.math3.RetryRunner$1{evaluate()V 0.0, lineNumber=60, susp=0.21320071635561041]
[INFO ] fr.inria.astor.core.loop.population.ProgramVariantFactory.createProgramInstance(ProgramVariantFactory.java:126) - -any mod point created for suspicious Candidate [className=org.apache.commons.math3.RetryRunner$1, methodName=org.apache.commons.math3.RetryRunner$1{evaluate()V 0.0, lineNumber=60, susp=0.21320071635561041]
[INFO ] fr.inria.astor.core.loop.population.ProgramVariantFactory.createModificationPoints(ProgramVariantFactory.java:207) -  Not ctClass for suspicious code Candidate [className=org.apache.commons.math3.RetryRunner$1, methodName=org.apache.commons.math3.RetryRunner$1{evaluate()V 0.0, lineNumber=55, susp=0.20412414523193154]
[INFO ] fr.inria.astor.core.loop.population.ProgramVariantFactory.createProgramInstance(ProgramVariantFactory.java:126) - -any mod point created for suspicious Candidate [className=org.apache.commons.math3.RetryRunner$1, methodName=org.apache.commons.math3.RetryRunner$1{evaluate()V 0.0, lineNumber=55, susp=0.20412414523193154]
[INFO ] fr.inria.astor.core.loop.population.ProgramVariantFactory.createModificationPoints(ProgramVariantFactory.java:207) -  Not ctClass for suspicious code Candidate [className=org.apache.commons.math3.RetryRunner$1, methodName=org.apache.commons.math3.RetryRunner$1{evaluate()V 0.0, lineNumber=57, susp=0.20412414523193154]
[INFO ] fr.inria.astor.core.loop.population.ProgramVariantFactory.createProgramInstance(ProgramVariantFactory.java:126) - -any mod point created for suspicious Candidate [className=org.apache.commons.math3.RetryRunner$1, methodName=org.apache.commons.math3.RetryRunner$1{evaluate()V 0.0, lineNumber=57, susp=0.20412414523193154]
[INFO ] fr.inria.astor.core.loop.population.ProgramVariantFactory.createModificationPoints(ProgramVariantFactory.java:207) -  Not ctClass for suspicious code Candidate [className=org.apache.commons.math3.RetryRunner$1, methodName=org.apache.commons.math3.RetryRunner$1{evaluate()V 0.0, lineNumber=58, susp=0.20412414523193154]
[INFO ] fr.inria.astor.core.loop.population.ProgramVariantFactory.createProgramInstance(ProgramVariantFactory.java:126) - -any mod point created for suspicious Candidate [className=org.apache.commons.math3.RetryRunner$1, methodName=org.apache.commons.math3.RetryRunner$1{evaluate()V 0.0, lineNumber=58, susp=0.20412414523193154]
[INFO ] fr.inria.astor.core.loop.population.ProgramVariantFactory.createModificationPoints(ProgramVariantFactory.java:207) -  Not ctClass for suspicious code Candidate [className=org.apache.commons.math3.RetryRunner, methodName=org.apache.commons.math3.RetryRunner{methodInvoker(Lorg/junit/runners/model/FrameworkMethod;Ljava/lang/Object;)Lorg/junit/runners/model/Statement; 0.0, lineNumber=45, susp=0.20412414523193154]
[INFO ] fr.inria.astor.core.loop.population.ProgramVariantFactory.createProgramInstance(ProgramVariantFactory.java:126) - -any mod point created for suspicious Candidate [className=org.apache.commons.math3.RetryRunner, methodName=org.apache.commons.math3.RetryRunner{methodInvoker(Lorg/junit/runners/model/FrameworkMethod;Ljava/lang/Object;)Lorg/junit/runners/model/Statement; 0.0, lineNumber=45, susp=0.20412414523193154]
[INFO ] fr.inria.astor.core.loop.population.ProgramVariantFactory.createModificationPoints(ProgramVariantFactory.java:207) -  Not ctClass for suspicious code Candidate [className=org.apache.commons.math3.RetryRunner, methodName=org.apache.commons.math3.RetryRunner{methodInvoker(Lorg/junit/runners/model/FrameworkMethod;Ljava/lang/Object;)Lorg/junit/runners/model/Statement; 0.0, lineNumber=46, susp=0.20412414523193154]
[INFO ] fr.inria.astor.core.loop.population.ProgramVariantFactory.createProgramInstance(ProgramVariantFactory.java:126) - -any mod point created for suspicious Candidate [className=org.apache.commons.math3.RetryRunner, methodName=org.apache.commons.math3.RetryRunner{methodInvoker(Lorg/junit/runners/model/FrameworkMethod;Ljava/lang/Object;)Lorg/junit/runners/model/Statement; 0.0, lineNumber=46, susp=0.20412414523193154]
[INFO ] fr.inria.astor.core.loop.population.ProgramVariantFactory.createProgramInstance(ProgramVariantFactory.java:130) - Total suspicious from FL: 828,  773
[INFO ] fr.inria.astor.core.loop.population.ProgramVariantFactory.createProgramInstance(ProgramVariantFactory.java:138) - Total ModPoint created: 773
[INFO ] fr.inria.astor.core.loop.population.ProgramVariantFactory.createInitialPopulation(ProgramVariantFactory.java:82) - Creating program variant #1, [Variant id: 1, #gens: 773, #ops: 0, parent:-]
[INFO ] fr.inria.astor.core.setup.ConfigurationProperties.print(ConfigurationProperties.java:63) - ----------------------------
[INFO ] fr.inria.astor.core.setup.ConfigurationProperties.print(ConfigurationProperties.java:64) - ---Configuration properties:---Execution values
[INFO ] fr.inria.astor.core.setup.ConfigurationProperties.print(ConfigurationProperties.java:66) - p:lastJUnitVersion= ./examples/libs/junit-4.11.jar
[INFO ] fr.inria.astor.core.setup.ConfigurationProperties.print(ConfigurationProperties.java:66) - p:alternativecompliancelevel= 4
[INFO ] fr.inria.astor.core.setup.ConfigurationProperties.print(ConfigurationProperties.java:66) - p:ignoredTestCases= 
[INFO ] fr.inria.astor.core.setup.ConfigurationProperties.print(ConfigurationProperties.java:66) - p:workingDirectory= /local/scr/mtufano/Math/20/b/random-global-default/2
[INFO ] fr.inria.astor.core.setup.ConfigurationProperties.print(ConfigurationProperties.java:66) - p:manipulatesuper= false
[INFO ] fr.inria.astor.core.setup.ConfigurationProperties.print(ConfigurationProperties.java:66) - p:validation= process
[INFO ] fr.inria.astor.core.setup.ConfigurationProperties.print(ConfigurationProperties.java:66) - p:jvm4testexecution= /usr/local/jdk1.7.0_80/bin/
[INFO ] fr.inria.astor.core.setup.ConfigurationProperties.print(ConfigurationProperties.java:66) - p:binjavafolder= target/classes/
[INFO ] fr.inria.astor.core.setup.ConfigurationProperties.print(ConfigurationProperties.java:66) - p:evosuiteresultfolder= evosuite
[INFO ] fr.inria.astor.core.setup.ConfigurationProperties.print(ConfigurationProperties.java:66) - p:flthreshold= 0.1
[INFO ] fr.inria.astor.core.setup.ConfigurationProperties.print(ConfigurationProperties.java:66) - p:regressionforfaultlocalization= true
[INFO ] fr.inria.astor.core.setup.ConfigurationProperties.print(ConfigurationProperties.java:66) - p:tmax2= 960000
[INFO ] fr.inria.astor.core.setup.ConfigurationProperties.print(ConfigurationProperties.java:66) - p:tmax1= 120000
[INFO ] fr.inria.astor.core.setup.ConfigurationProperties.print(ConfigurationProperties.java:66) - p:probagenmutation= false
[INFO ] fr.inria.astor.core.setup.ConfigurationProperties.print(ConfigurationProperties.java:66) - p:srctestfolder= src/test/java/
[INFO ] fr.inria.astor.core.setup.ConfigurationProperties.print(ConfigurationProperties.java:66) - p:customop= fr.inria.astor.approaches.jgenprog.operators.InsertAfterOp:fr.inria.astor.approaches.jgenprog.operators.InsertBeforeOp:fr.inria.astor.approaches.jgenprog.operators.ReplaceOp
[INFO ] fr.inria.astor.core.setup.ConfigurationProperties.print(ConfigurationProperties.java:66) - p:forceExecuteRegression= false
[INFO ] fr.inria.astor.core.setup.ConfigurationProperties.print(ConfigurationProperties.java:66) - p:clusteringfilename= clustering.csv
[INFO ] fr.inria.astor.core.setup.ConfigurationProperties.print(ConfigurationProperties.java:66) - p:failing= org.apache.commons.math3.optimization.direct.CMAESOptimizerTest
[INFO ] fr.inria.astor.core.setup.ConfigurationProperties.print(ConfigurationProperties.java:66) - p:evo_buggy_class= true
[INFO ] fr.inria.astor.core.setup.ConfigurationProperties.print(ConfigurationProperties.java:66) - p:numberExecutions= 1
[INFO ] fr.inria.astor.core.setup.ConfigurationProperties.print(ConfigurationProperties.java:66) - p:evo_affected_by_op= true
[INFO ] fr.inria.astor.core.setup.ConfigurationProperties.print(ConfigurationProperties.java:66) - p:population= 1
[INFO ] fr.inria.astor.core.setup.ConfigurationProperties.print(ConfigurationProperties.java:66) - p:clonegranularity= types
[INFO ] fr.inria.astor.core.setup.ConfigurationProperties.print(ConfigurationProperties.java:66) - p:regressiontestcases4fl= org.apache.commons.math3.optimization.direct.CMAESOptimizerTest:
[INFO ] fr.inria.astor.core.setup.ConfigurationProperties.print(ConfigurationProperties.java:66) - p:savesolution= true
[INFO ] fr.inria.astor.core.setup.ConfigurationProperties.print(ConfigurationProperties.java:66) - p:javacompliancelevel= 5
[INFO ] fr.inria.astor.core.setup.ConfigurationProperties.print(ConfigurationProperties.java:66) - p:uniqueoptogen= false
[INFO ] fr.inria.astor.core.setup.ConfigurationProperties.print(ConfigurationProperties.java:66) - p:projectIdentifier= 
[INFO ] fr.inria.astor.core.setup.ConfigurationProperties.print(ConfigurationProperties.java:66) - p:modificationpointnavigation= weight
[INFO ] fr.inria.astor.core.setup.ConfigurationProperties.print(ConfigurationProperties.java:66) - p:stopfirst= false
[INFO ] fr.inria.astor.core.setup.ConfigurationProperties.print(ConfigurationProperties.java:66) - p:multipointmodification= false
[INFO ] fr.inria.astor.core.setup.ConfigurationProperties.print(ConfigurationProperties.java:66) - p:elementsToMutate= 10
[INFO ] fr.inria.astor.core.setup.ConfigurationProperties.print(ConfigurationProperties.java:66) - p:evoDSE= false
[INFO ] fr.inria.astor.core.setup.ConfigurationProperties.print(ConfigurationProperties.java:66) - p:bintestfolder= target/test-classes/
[INFO ] fr.inria.astor.core.setup.ConfigurationProperties.print(ConfigurationProperties.java:66) - p:testbystep= false
[INFO ] fr.inria.astor.core.setup.ConfigurationProperties.print(ConfigurationProperties.java:66) - p:version-location= ./math-version/
[INFO ] fr.inria.astor.core.setup.ConfigurationProperties.print(ConfigurationProperties.java:66) - p:reintroduce= PARENTS
[INFO ] fr.inria.astor.core.setup.ConfigurationProperties.print(ConfigurationProperties.java:66) - p:maxGeneration= 1000000
[INFO ] fr.inria.astor.core.setup.ConfigurationProperties.print(ConfigurationProperties.java:66) - p:maxVarCombination= 1000
[INFO ] fr.inria.astor.core.setup.ConfigurationProperties.print(ConfigurationProperties.java:66) - p:maxtime= 180
[INFO ] fr.inria.astor.core.setup.ConfigurationProperties.print(ConfigurationProperties.java:66) - p:evosuitejar= ./lib/evosuite-master-1.0.4-SNAPSHOT.jar
[INFO ] fr.inria.astor.core.setup.ConfigurationProperties.print(ConfigurationProperties.java:66) - p:commandTrunk= 50000
[INFO ] fr.inria.astor.core.setup.ConfigurationProperties.print(ConfigurationProperties.java:66) - p:faultlocalization= fr.inria.astor.core.faultlocalization.GZoltarFaultLocalization
[INFO ] fr.inria.astor.core.setup.ConfigurationProperties.print(ConfigurationProperties.java:66) - p:maxsuspcandidates= 1000
[INFO ] fr.inria.astor.core.setup.ConfigurationProperties.print(ConfigurationProperties.java:66) - p:mode= statement
[INFO ] fr.inria.astor.core.setup.ConfigurationProperties.print(ConfigurationProperties.java:66) - p:learningdir= ../../out/learningdir/Math/20/b/
[INFO ] fr.inria.astor.core.setup.ConfigurationProperties.print(ConfigurationProperties.java:66) - p:jvm4evosuitetestexecution= /usr/local/jdk1.7.0_80/bin/
[INFO ] fr.inria.astor.core.setup.ConfigurationProperties.print(ConfigurationProperties.java:66) - p:filterfaultlocalization= true
[INFO ] fr.inria.astor.core.setup.ConfigurationProperties.print(ConfigurationProperties.java:66) - p:mutationrate= 1 
[INFO ] fr.inria.astor.core.setup.ConfigurationProperties.print(ConfigurationProperties.java:66) - p:pathToMVNRepository= 
[INFO ] fr.inria.astor.core.setup.ConfigurationProperties.print(ConfigurationProperties.java:66) - p:resourcesfolder= /src/main/resources:/src/test/resources:
[INFO ] fr.inria.astor.core.setup.ConfigurationProperties.print(ConfigurationProperties.java:66) - p:timezone= America/New_York
[INFO ] fr.inria.astor.core.setup.ConfigurationProperties.print(ConfigurationProperties.java:66) - p:classestoinstrument= org.apache.commons.math3.util.Precision:org.apache.commons.math3.exception.util.Localizable:org.apache.commons.math3.util.FastMathLiteralArrays:org.apache.commons.math3.util.CompositeFormat:org.apache.commons.math3.optimization.BaseMultivariateSimpleBoundsOptimizer:org.apache.commons.math3.exception.DimensionMismatchException:org.apache.commons.math3.analysis.MultivariateFunction:org.apache.commons.math3.linear.MatrixUtils:org.apache.commons.math3.linear.Array2DRowRealMatrix:org.apache.commons.math3.exception.TooManyEvaluationsException:org.apache.commons.math3.optimization.direct.BaseAbstractMultivariateSimpleBoundsOptimizer:org.apache.commons.math3.linear.AbstractFieldMatrix:org.apache.commons.math3.linear.ArrayRealVector:org.apache.commons.math3.linear.RealMatrixChangingVisitor:org.apache.commons.math3.linear.RealMatrix:org.apache.commons.math3.exception.NotStrictlyPositiveException:org.apache.commons.math3.linear.Array2DRowFieldMatrix:org.apache.commons.math3.exception.MathUnsupportedOperationException:org.apache.commons.math3.linear.OpenMapRealMatrix:org.apache.commons.math3.optimization.SimpleValueChecker:org.apache.commons.math3.optimization.MultivariateOptimizer:org.apache.commons.math3.linear.FieldVector:org.apache.commons.math3.exception.NullArgumentException:org.apache.commons.math3.optimization.direct.CMAESOptimizer:org.apache.commons.math3.linear.RealVectorFormat:org.apache.commons.math3.linear.DefaultRealMatrixPreservingVisitor:org.apache.commons.math3.util.MathArrays:org.apache.commons.math3.linear.BlockRealMatrix:org.apache.commons.math3.linear.SparseRealMatrix:org.apache.commons.math3.linear.BlockFieldMatrix:org.apache.commons.math3.exception.util.ExceptionContextProvider:org.apache.commons.math3.exception.NoDataException:org.apache.commons.math3.exception.NotPositiveException:org.apache.commons.math3.random.RandomGenerator:org.apache.commons.math3.exception.NonMonotonicSequenceException:org.apache.commons.math3.exception.MultiDimensionMismatchException:org.apache.commons.math3.exception.NotFiniteNumberException:org.apache.commons.math3.exception.ZeroException:org.apache.commons.math3.optimization.PointValuePair:org.apache.commons.math3.util.Pair:org.apache.commons.math3.random.MersenneTwister:org.apache.commons.math3.exception.MathInternalError:org.apache.commons.math3.linear.FieldMatrix:org.apache.commons.math3.exception.MathIllegalArgumentException:org.apache.commons.math3.linear.NonSymmetricMatrixException:org.apache.commons.math3.exception.NumberIsTooSmallException:org.apache.commons.math3.optimization.BaseOptimizer:org.apache.commons.math3.linear.NonSquareMatrixException:org.apache.commons.math3.exception.OutOfRangeException:org.apache.commons.math3.exception.MathArithmeticException:org.apache.commons.math3.linear.AbstractRealMatrix:org.apache.commons.math3.exception.MathParseException:org.apache.commons.math3.optimization.direct.BaseAbstractMultivariateOptimizer:org.apache.commons.math3.linear.TriDiagonalTransformer:org.apache.commons.math3.linear.DecompositionSolver:org.apache.commons.math3.optimization.AbstractConvergenceChecker:org.apache.commons.math3.linear.AnyMatrix:org.apache.commons.math3.linear.RealVector:org.apache.commons.math3.optimization.BaseMultivariateOptimizer:org.apache.commons.math3.exception.MathIllegalNumberException:org.apache.commons.math3.linear.MatrixDimensionMismatchException:org.apache.commons.math3.exception.MaxCountExceededException:org.apache.commons.math3.linear.FieldMatrixPreservingVisitor:org.apache.commons.math3.optimization.ConvergenceChecker:org.apache.commons.math3.analysis.BivariateFunction:org.apache.commons.math3.exception.MathIllegalStateException:org.apache.commons.math3.linear.RealMatrixPreservingVisitor:org.apache.commons.math3.util.FastMath:org.apache.commons.math3.random.BitsStreamGenerator:org.apache.commons.math3.util.MathUtils:org.apache.commons.math3.util.Incrementor:org.apache.commons.math3.optimization.GoalType:org.apache.commons.math3.linear.EigenDecomposition:org.apache.commons.math3.linear.RealMatrixFormat:org.apache.commons.math3.exception.NumberIsTooLargeException:org.apache.commons.math3.linear.RealLinearOperator:
[INFO ] fr.inria.astor.core.setup.ConfigurationProperties.print(ConfigurationProperties.java:66) - p:evoRunOnBuggyClass= true
[INFO ] fr.inria.astor.core.setup.ConfigurationProperties.print(ConfigurationProperties.java:66) - p:compiler= fr.inria.astor.core.manipulation.bytecode.compiler.SpoonClassCompiler
[INFO ] fr.inria.astor.core.setup.ConfigurationProperties.print(ConfigurationProperties.java:66) - p:dependenciespath= ../../dat/libs/Math/commons-discovery-0.5.jar
[INFO ] fr.inria.astor.core.setup.ConfigurationProperties.print(ConfigurationProperties.java:66) - p:skipfaultlocalization= false
[INFO ] fr.inria.astor.core.setup.ConfigurationProperties.print(ConfigurationProperties.java:66) - p:packageToInstrument= org.apache.commons
[INFO ] fr.inria.astor.core.setup.ConfigurationProperties.print(ConfigurationProperties.java:66) - p:scope= fr.inria.astor.core.loop.spaces.ingredients.scopes.ctscopes.CtGlobalIngredientScope
[INFO ] fr.inria.astor.core.setup.ConfigurationProperties.print(ConfigurationProperties.java:66) - p:transformingredient= false
[INFO ] fr.inria.astor.core.setup.ConfigurationProperties.print(ConfigurationProperties.java:66) - p:fitnessfunction= fr.inria.astor.core.loop.population.TestCaseFitnessFunction
[INFO ] fr.inria.astor.core.setup.ConfigurationProperties.print(ConfigurationProperties.java:66) - p:pvariantfoldername= variant-
[INFO ] fr.inria.astor.core.setup.ConfigurationProperties.print(ConfigurationProperties.java:66) - p:srcjavafolder= src/main/java/
[INFO ] fr.inria.astor.core.setup.ConfigurationProperties.print(ConfigurationProperties.java:66) - p:populationcontroller= fr.inria.astor.core.loop.population.TestCaseBasedFitnessPopulationController
[INFO ] fr.inria.astor.core.setup.ConfigurationProperties.print(ConfigurationProperties.java:66) - p:ignoreflakyinfl= false
[INFO ] fr.inria.astor.core.setup.ConfigurationProperties.print(ConfigurationProperties.java:66) - p:applyCrossover= false
[INFO ] fr.inria.astor.core.setup.ConfigurationProperties.print(ConfigurationProperties.java:66) - p:saveall= false
[INFO ] fr.inria.astor.core.setup.ConfigurationProperties.print(ConfigurationProperties.java:66) - p:seed= 2
[INFO ] fr.inria.astor.core.setup.ConfigurationProperties.print(ConfigurationProperties.java:66) - p:resetoperations= false
[INFO ] fr.inria.astor.core.setup.ConfigurationProperties.print(ConfigurationProperties.java:66) - p:location= ../../dat/defects4j/Math/20/b/
[INFO ] fr.inria.astor.core.setup.ConfigurationProperties.print(ConfigurationProperties.java:66) - p:ingredientstrategy= fr.inria.astor.core.loop.spaces.ingredients.ingredientSearch.EfficientIngredientStrategy
[INFO ] fr.inria.astor.core.setup.ConfigurationProperties.print(ConfigurationProperties.java:66) - p:allpoints= false
[INFO ] fr.inria.astor.core.setup.ConfigurationProperties.print(ConfigurationProperties.java:66) - p:bugId= 280
[INFO ] fr.inria.astor.core.setup.ConfigurationProperties.print(ConfigurationProperties.java:66) - p:evosuitetimeout= 120
[INFO ] fr.inria.astor.core.setup.ConfigurationProperties.print(ConfigurationProperties.java:68) - ----------------------------
[INFO ] fr.inria.astor.core.loop.AstorCoreEngine.startEvolution(AstorCoreEngine.java:119) - 
----Starting Solution Search
[INFO ] fr.inria.astor.core.loop.AstorCoreEngine.processCreatedVariant(AstorCoreEngine.java:404) - -Found Solution, child variant #140
[INFO ] fr.inria.astor.core.loop.AstorCoreEngine.processCreatedVariant(AstorCoreEngine.java:404) - -Found Solution, child variant #919
[INFO ] fr.inria.astor.core.loop.AstorCoreEngine.belowMaxTime(AstorCoreEngine.java:203) - 
 No more time for operating
[INFO ] fr.inria.astor.core.loop.AstorCoreEngine.startEvolution(AstorCoreEngine.java:143) - Time Repair Loop (s): 10867.706
[INFO ] fr.inria.astor.core.loop.AstorCoreEngine.showResults(AstorCoreEngine.java:165) - 
----SUMMARY_EXECUTION---
[INFO ] fr.inria.astor.core.loop.AstorCoreEngine.showResults(AstorCoreEngine.java:183) - 
Solution details
[INFO ] fr.inria.astor.core.loop.AstorCoreEngine.showResults(AstorCoreEngine.java:184) - 
 --SOLUTIONS DESCRIPTION--

 ----
ProgramVariant 140
 
time(sec)= 1113
operation: ReplaceOp
location= org.apache.commons.math3.optimization.direct.CMAESOptimizer
line= 911
lineSuspiciousness= 0.577
original statement= res[i] = ((x[i]) - (boundaries[0][i])) / diff
fixed statement= valueRange = 1.0
generation= 139
ingredientScope= LOCAL
validation=|true|0|4164|[]|
diffpatch=--- /local/scr/mtufano/Math/20/b/random-global-default/2/AstorMain-b/src/default/org/apache/commons/math3/optimization/direct/CMAESOptimizer.java	
+++ /local/scr/mtufano/Math/20/b/random-global-default/2/AstorMain-b/src/variant-140/org/apache/commons/math3/optimization/direct/CMAESOptimizer.java	
@@ -528,7 +528,7 @@
 			double[] res = new double[x.length];
 			for (int i = 0; i < (x.length); i++) {
 				double diff = (boundaries[1][i]) - (boundaries[0][i]);
-				res[i] = ((x[i]) - (boundaries[0][i])) / diff;
+				valueRange = 1.0;
 			}
 			return res;
 		}


 ----
ProgramVariant 919
 
time(sec)= 8038
operation: ReplaceOp
location= org.apache.commons.math3.optimization.direct.CMAESOptimizer
line= 911
lineSuspiciousness= 0.577
original statement= res[i] = ((x[i]) - (boundaries[0][i])) / diff
fixed statement= org.apache.commons.math3.optimization.direct.CMAESOptimizer.FitnessFunction.this.valueRange = valueRange
generation= 918
ingredientScope= LOCAL
validation=|true|0|4164|[]|
diffpatch=--- /local/scr/mtufano/Math/20/b/random-global-default/2/AstorMain-b/src/default/org/apache/commons/math3/optimization/direct/CMAESOptimizer.java	
+++ /local/scr/mtufano/Math/20/b/random-global-default/2/AstorMain-b/src/variant-919/org/apache/commons/math3/optimization/direct/CMAESOptimizer.java	
@@ -528,7 +528,7 @@
 			double[] res = new double[x.length];
 			for (int i = 0; i < (x.length); i++) {
 				double diff = (boundaries[1][i]) - (boundaries[0][i]);
-				res[i] = ((x[i]) - (boundaries[0][i])) / diff;
+				org.apache.commons.math3.optimization.direct.CMAESOptimizer.FitnessFunction.this.valueRange = valueRange;
 			}
 			return res;
 		}


[INFO ] fr.inria.astor.approaches.jgenprog.JGenProg.showResults(JGenProg.java:332) - 
successful_ing_attempts (#trials 2, totalAttps 218): [137, 81]
[INFO ] fr.inria.astor.approaches.jgenprog.JGenProg.showResults(JGenProg.java:334) - 
failing_ing_attempts (#trials 1232, totalAttps 13483): [7, 19, 15, 1, 15, 3, 8, 11, 2, 9, 3, 30, 2, 4, 3, 4, 3, 2, 1, 3, 9, 33, 25, 11, 12, 1, 4, 3, 1, 64, 2, 14, 11, 5, 8, 5, 6, 4, 2, 9, 75, 27, 12, 3, 2, 4, 11, 5, 1, 9, 8, 21, 4, 16, 2, 7, 3, 2, 8, 3, 6, 2, 4, 9, 4, 1, 59, 5, 5, 1, 4, 5, 4, 54, 7, 4, 4, 3, 3, 9, 1, 7, 3, 4, 1, 91, 62, 10, 13, 21, 3, 15, 19, 22, 11, 3, 2, 13, 4, 3, 3, 1, 1, 9, 27, 2, 78, 9, 5, 3, 3, 7, 8, 5, 4, 5, 1, 5, 22, 16, 1, 1, 15, 3, 6, 4, 2, 1, 7, 1, 2, 1, 3, 1, 3, 10, 1, 1, 3, 4, 7, 3, 13, 1, 1, 3, 9, 4, 3, 8, 3, 13, 1, 7, 4, 4, 25, 2, 1, 1, 25, 3, 95, 1, 2, 4, 2, 34, 21, 5, 3, 10, 7, 1, 3, 6, 3, 8, 2, 10, 21, 1, 71, 14, 4, 4, 6, 15, 6, 11, 5, 2, 2, 1, 8, 10, 6, 4, 2, 2, 4, 5, 2, 63, 4, 10, 18, 22, 14, 8, 136, 15, 17, 12, 6, 9, 4, 8, 1, 3, 4, 7, 8, 1, 14, 1, 7, 53, 6, 3, 3, 4, 2, 13, 5, 6, 4, 19, 158, 3, 1, 3, 44, 4, 3, 13, 3, 12, 2, 7, 6, 1, 1, 2, 64, 18, 4, 5, 7, 1, 33, 2, 1, 6, 6, 3, 22, 8, 26, 5, 22, 2, 4, 59, 2, 4, 16, 3, 5, 31, 19, 6, 22, 3, 2, 5, 1, 1, 8, 7, 3, 30, 13, 22, 7, 2, 1, 11, 7, 21, 7, 91, 5, 5, 17, 3, 17, 15, 17, 1, 3, 3, 293, 3, 3, 81, 21, 8, 1, 13, 3, 14, 31, 24, 9, 12, 6, 2, 1, 1, 2, 24, 2, 1, 11, 11, 1, 7, 2, 2, 9, 12, 5, 3, 10, 35, 2, 7, 12, 27, 4, 10, 12, 12, 12, 1, 27, 8, 10, 2, 1, 9, 17, 3, 1, 10, 25, 6, 7, 10, 6, 6, 8, 56, 5, 1, 6, 1, 2, 9, 32, 22, 1, 7, 14, 3, 14, 9, 5, 7, 11, 84, 2, 2, 9, 8, 11, 5, 27, 4, 4, 3, 11, 4, 15, 4, 7, 8, 14, 3, 35, 11, 15, 6, 7, 3, 12, 4, 6, 51, 3, 1, 30, 6, 7, 1, 6, 1, 11, 1, 9, 2, 9, 10, 2, 5, 3, 43, 39, 7, 4, 12, 1, 1, 3, 1, 1, 1, 22, 1, 2, 43, 1, 1, 2, 8, 55, 14, 21, 44, 7, 4, 2, 21, 10, 24, 1, 2, 1, 4, 7, 2, 1, 2, 12, 5, 3, 39, 2, 9, 4, 4, 6, 13, 9, 9, 18, 17, 4, 1, 5, 8, 1, 5, 1, 2, 1, 1, 26, 2, 9, 8, 4, 2, 11, 13, 3, 3, 1, 27, 1, 1, 4, 164, 9, 5, 1, 12, 3, 5, 2, 22, 9, 15, 19, 2, 3, 1, 10, 7, 2, 4, 5, 20, 3, 5, 17, 1, 4, 3, 29, 3, 2, 10, 46, 4, 2, 10, 2, 7, 8, 1, 1, 4, 3, 27, 14, 1, 2, 6, 3, 1, 2, 8, 3, 3, 5, 7, 28, 5, 1, 13, 6, 20, 9, 2, 16, 1, 7, 5, 1, 2, 6, 2, 6, 9, 10, 1, 3, 1, 14, 1, 9, 1, 38, 6, 4, 12, 4, 1, 9, 2, 6, 5, 14, 9, 41, 15, 3, 7, 1, 7, 9, 1, 6, 8, 5, 38, 5, 6, 3, 7, 6, 6, 9, 22, 8, 3, 3, 10, 14, 5, 5, 5, 1, 31, 12, 2, 2, 1, 3, 5, 5, 1, 15, 19, 3, 3, 4, 34, 4, 3, 7, 7, 2, 7, 1, 8, 2, 14, 12, 4, 12, 17, 30, 10, 3, 116, 20, 3, 1, 1, 7, 2, 1, 1, 2, 3, 19, 6, 17, 25, 3, 3, 1, 4, 6, 1, 12, 1, 3, 10, 12, 4, 4, 1, 1, 2, 15, 17, 12, 8, 5, 3, 12, 5, 3, 5, 2, 20, 1, 33, 5, 13, 9, 3, 2, 2, 15, 4, 5, 16, 1, 2, 10, 15, 3, 5, 9, 5, 115, 11, 13, 4, 3, 4, 28, 4, 20, 23, 3, 8, 13, 3, 24, 19, 29, 1, 4, 3, 2, 7, 1, 1, 3, 13, 4, 6, 1, 1, 3, 6, 2, 2, 13, 6, 16, 33, 13, 7, 3, 28, 2, 11, 10, 3, 4, 2, 10, 4, 1, 3, 1, 7, 9, 49, 12, 14, 26, 1, 3, 3, 2, 11, 3, 31, 2, 14, 5, 5, 12, 3, 5, 6, 9, 14, 6, 6, 6, 2, 1, 3, 2, 2, 2, 15, 2, 10, 2, 1, 9, 5, 1, 12, 25, 1, 15, 21, 17, 8, 9, 10, 3, 6, 4, 9, 5, 9, 3, 2, 12, 1, 5, 16, 1, 7, 20, 6, 1, 85, 1, 7, 2, 1, 128, 74, 2, 25, 1, 6, 7, 5, 8, 1, 1, 10, 7, 3, 4, 12, 18, 115, 8, 23, 1, 14, 1, 11, 10, 8, 2, 9, 4, 1, 3, 4, 19, 1, 14, 10, 6, 34, 1, 4, 7, 16, 22, 6, 19, 1, 1, 1, 4, 3, 1, 4, 4, 23, 2, 41, 4, 108, 12, 42, 1, 3, 14, 7, 2, 7, 3, 9, 11, 2, 4, 6, 7, 1, 4, 1, 4, 8, 1, 3, 1, 8, 1, 1, 5, 1, 1, 2, 8, 9, 4, 2, 7, 53, 1, 9, 16, 2, 11, 32, 1, 7, 7, 2, 2, 8, 2, 17, 14, 7, 1, 14, 16, 11, 19, 1, 11, 5, 11, 1, 3, 9, 1, 5, 2, 3, 8, 1, 4, 76, 9, 6, 3, 1, 7, 1, 8, 2, 22, 6, 26, 192, 2, 7, 14, 7, 8, 9, 2, 6, 11, 13, 28, 4, 12, 2, 1, 4, 1, 2, 22, 8, 23, 3, 8, 67, 1, 1, 6, 99, 7, 8, 7, 19, 4, 1, 2, 2, 5, 1, 10, 8, 33, 8, 3, 12, 18, 1, 23, 66, 5, 7, 3, 4, 1, 7, 2, 6, 1, 18, 12, 1, 25, 12, 16, 1, 36, 1, 11, 2, 2, 6, 1, 19, 2, 6, 1, 3, 1, 3, 16, 8, 2, 36, 7, 15, 11, 4, 1, 4, 2, 49, 1, 6, 24, 1, 3, 8, 1, 5, 8, 3, 2, 9, 14, 18, 19, 28, 2, 1, 12, 7, 23, 9, 4, 81, 17, 4, 3, 5, 3, 2, 6, 5, 3, 10, 13, 3, 7, 2, 43, 1, 12, 8, 17, 4, 2, 2, 1, 13, 1, 3, 32, 3, 8, 2, 12, 30, 5, 15, 9, 3, 6, 1, 5, 14, 4, 13, 9, 13, 1, 19, 4, 3, 11, 4, 2, 4, 1, 2, 8, 13, 4, 30, 2, 10, 1, 25, 149, 13, 2, 14, 22, 11, 2, 1, 9, 10, 18, 2, 6, 3, 15, 146, 5, 1, 15, 43, 4, 10, 1, 1, 5, 2, 75, 10, 20, 10, 2, 8, 9, 61, 2, 2, 45, 1, 1, 4, 4, 8, 13, 1, 4, 9, 87, 71, 1, 5, 11, 1, 5, 1, 1, 5, 2, 2, 23, 2]
[INFO ] fr.inria.astor.approaches.jgenprog.JGenProg.showResults(JGenProg.java:337) - 
total Patch Attempts (2): [1512, 8567]
[INFO ] fr.inria.astor.approaches.jgenprog.JGenProg.showResults(JGenProg.java:339) - 
successful_ing_attempts_by_patch: [(pv:140,at:137), (pv:919,at:81)]
[INFO ] fr.inria.astor.approaches.jgenprog.JGenProg.showResults(JGenProg.java:340) - 
failing_ing_attempts_by_patch: [(pv:2,at:7), (pv:3,at:19), (pv:4,at:15), (pv:5,at:1), (pv:6,at:15), (pv:7,at:3), (pv:8,at:8), (pv:9,at:11), (pv:10,at:2), (pv:11,at:9), (pv:12,at:3), (pv:13,at:30), (pv:14,at:2), (pv:15,at:4), (pv:16,at:3), (pv:17,at:4), (pv:18,at:3), (pv:19,at:2), (pv:20,at:1), (pv:21,at:3), (pv:22,at:9), (pv:23,at:33), (pv:24,at:25), (pv:25,at:11), (pv:26,at:12), (pv:27,at:1), (pv:28,at:4), (pv:29,at:3), (pv:30,at:1), (pv:31,at:64), (pv:32,at:2), (pv:33,at:14), (pv:34,at:11), (pv:35,at:5), (pv:36,at:8), (pv:37,at:5), (pv:38,at:6), (pv:39,at:4), (pv:40,at:2), (pv:41,at:9), (pv:42,at:75), (pv:43,at:27), (pv:44,at:12), (pv:45,at:3), (pv:46,at:2), (pv:47,at:4), (pv:48,at:11), (pv:49,at:5), (pv:50,at:1), (pv:51,at:9), (pv:52,at:8), (pv:53,at:21), (pv:54,at:4), (pv:55,at:16), (pv:56,at:2), (pv:57,at:7), (pv:58,at:3), (pv:59,at:2), (pv:60,at:8), (pv:61,at:3), (pv:62,at:6), (pv:63,at:2), (pv:64,at:4), (pv:65,at:9), (pv:66,at:4), (pv:67,at:1), (pv:68,at:59), (pv:69,at:5), (pv:70,at:5), (pv:71,at:1), (pv:72,at:4), (pv:73,at:5), (pv:74,at:4), (pv:75,at:54), (pv:76,at:7), (pv:77,at:4), (pv:78,at:4), (pv:79,at:3), (pv:80,at:3), (pv:81,at:9), (pv:82,at:1), (pv:83,at:7), (pv:84,at:3), (pv:85,at:4), (pv:86,at:1), (pv:87,at:91), (pv:88,at:62), (pv:89,at:10), (pv:90,at:13), (pv:91,at:21), (pv:92,at:3), (pv:93,at:15), (pv:94,at:19), (pv:95,at:22), (pv:96,at:11), (pv:97,at:3), (pv:98,at:2), (pv:99,at:13), (pv:100,at:4), (pv:101,at:3), (pv:102,at:3), (pv:103,at:1), (pv:104,at:1), (pv:105,at:9), (pv:106,at:27), (pv:107,at:2), (pv:108,at:78), (pv:109,at:9), (pv:110,at:5), (pv:111,at:3), (pv:112,at:3), (pv:113,at:7), (pv:114,at:8), (pv:115,at:5), (pv:116,at:4), (pv:117,at:5), (pv:118,at:1), (pv:119,at:5), (pv:120,at:22), (pv:121,at:16), (pv:122,at:1), (pv:123,at:1), (pv:124,at:15), (pv:125,at:3), (pv:126,at:6), (pv:127,at:4), (pv:128,at:2), (pv:129,at:1), (pv:130,at:7), (pv:131,at:1), (pv:132,at:2), (pv:133,at:1), (pv:134,at:3), (pv:135,at:1), (pv:136,at:3), (pv:137,at:10), (pv:138,at:1), (pv:139,at:1), (pv:141,at:3), (pv:142,at:4), (pv:143,at:7), (pv:144,at:3), (pv:145,at:13), (pv:146,at:1), (pv:147,at:1), (pv:148,at:3), (pv:149,at:9), (pv:150,at:4), (pv:151,at:3), (pv:152,at:8), (pv:153,at:3), (pv:154,at:13), (pv:155,at:1), (pv:156,at:7), (pv:157,at:4), (pv:158,at:4), (pv:159,at:25), (pv:160,at:2), (pv:161,at:1), (pv:162,at:1), (pv:163,at:25), (pv:164,at:3), (pv:165,at:95), (pv:166,at:1), (pv:167,at:2), (pv:168,at:4), (pv:169,at:2), (pv:170,at:34), (pv:171,at:21), (pv:172,at:5), (pv:173,at:3), (pv:174,at:10), (pv:175,at:7), (pv:176,at:1), (pv:177,at:3), (pv:178,at:6), (pv:179,at:3), (pv:180,at:8), (pv:181,at:2), (pv:182,at:10), (pv:183,at:21), (pv:184,at:1), (pv:185,at:71), (pv:186,at:14), (pv:187,at:4), (pv:188,at:4), (pv:189,at:6), (pv:190,at:15), (pv:191,at:6), (pv:192,at:11), (pv:193,at:5), (pv:194,at:2), (pv:195,at:2), (pv:196,at:1), (pv:197,at:8), (pv:198,at:10), (pv:199,at:6), (pv:200,at:4), (pv:201,at:2), (pv:202,at:2), (pv:203,at:4), (pv:204,at:5), (pv:205,at:2), (pv:206,at:63), (pv:207,at:4), (pv:208,at:10), (pv:209,at:18), (pv:210,at:22), (pv:211,at:14), (pv:212,at:8), (pv:213,at:136), (pv:214,at:15), (pv:215,at:17), (pv:216,at:12), (pv:217,at:6), (pv:218,at:9), (pv:219,at:4), (pv:220,at:8), (pv:221,at:1), (pv:222,at:3), (pv:223,at:4), (pv:224,at:7), (pv:225,at:8), (pv:226,at:1), (pv:227,at:14), (pv:228,at:1), (pv:229,at:7), (pv:230,at:53), (pv:231,at:6), (pv:232,at:3), (pv:233,at:3), (pv:234,at:4), (pv:235,at:2), (pv:236,at:13), (pv:237,at:5), (pv:238,at:6), (pv:239,at:4), (pv:240,at:19), (pv:241,at:158), (pv:242,at:3), (pv:243,at:1), (pv:244,at:3), (pv:245,at:44), (pv:246,at:4), (pv:247,at:3), (pv:248,at:13), (pv:249,at:3), (pv:250,at:12), (pv:251,at:2), (pv:252,at:7), (pv:253,at:6), (pv:254,at:1), (pv:255,at:1), (pv:256,at:2), (pv:257,at:64), (pv:258,at:18), (pv:259,at:4), (pv:260,at:5), (pv:261,at:7), (pv:262,at:1), (pv:263,at:33), (pv:264,at:2), (pv:265,at:1), (pv:266,at:6), (pv:267,at:6), (pv:268,at:3), (pv:269,at:22), (pv:270,at:8), (pv:271,at:26), (pv:272,at:5), (pv:273,at:22), (pv:274,at:2), (pv:275,at:4), (pv:276,at:59), (pv:277,at:2), (pv:278,at:4), (pv:279,at:16), (pv:280,at:3), (pv:281,at:5), (pv:282,at:31), (pv:283,at:19), (pv:284,at:6), (pv:285,at:22), (pv:286,at:3), (pv:287,at:2), (pv:288,at:5), (pv:289,at:1), (pv:290,at:1), (pv:291,at:8), (pv:292,at:7), (pv:293,at:3), (pv:294,at:30), (pv:295,at:13), (pv:296,at:22), (pv:297,at:7), (pv:298,at:2), (pv:299,at:1), (pv:300,at:11), (pv:301,at:7), (pv:302,at:21), (pv:303,at:7), (pv:304,at:91), (pv:305,at:5), (pv:306,at:5), (pv:307,at:17), (pv:308,at:3), (pv:309,at:17), (pv:310,at:15), (pv:311,at:17), (pv:312,at:1), (pv:313,at:3), (pv:314,at:3), (pv:315,at:293), (pv:316,at:3), (pv:317,at:3), (pv:318,at:81), (pv:319,at:21), (pv:320,at:8), (pv:321,at:1), (pv:322,at:13), (pv:323,at:3), (pv:324,at:14), (pv:325,at:31), (pv:326,at:24), (pv:327,at:9), (pv:328,at:12), (pv:329,at:6), (pv:330,at:2), (pv:331,at:1), (pv:332,at:1), (pv:333,at:2), (pv:334,at:24), (pv:335,at:2), (pv:336,at:1), (pv:337,at:11), (pv:338,at:11), (pv:339,at:1), (pv:340,at:7), (pv:341,at:2), (pv:342,at:2), (pv:343,at:9), (pv:344,at:12), (pv:345,at:5), (pv:346,at:3), (pv:347,at:10), (pv:348,at:35), (pv:349,at:2), (pv:350,at:7), (pv:351,at:12), (pv:352,at:27), (pv:353,at:4), (pv:354,at:10), (pv:355,at:12), (pv:356,at:12), (pv:357,at:12), (pv:358,at:1), (pv:359,at:27), (pv:360,at:8), (pv:361,at:10), (pv:362,at:2), (pv:363,at:1), (pv:364,at:9), (pv:365,at:17), (pv:366,at:3), (pv:367,at:1), (pv:368,at:10), (pv:369,at:25), (pv:370,at:6), (pv:371,at:7), (pv:372,at:10), (pv:373,at:6), (pv:374,at:6), (pv:375,at:8), (pv:376,at:56), (pv:377,at:5), (pv:378,at:1), (pv:379,at:6), (pv:380,at:1), (pv:381,at:2), (pv:382,at:9), (pv:383,at:32), (pv:384,at:22), (pv:385,at:1), (pv:386,at:7), (pv:387,at:14), (pv:388,at:3), (pv:389,at:14), (pv:390,at:9), (pv:391,at:5), (pv:392,at:7), (pv:393,at:11), (pv:394,at:84), (pv:395,at:2), (pv:396,at:2), (pv:397,at:9), (pv:398,at:8), (pv:399,at:11), (pv:400,at:5), (pv:401,at:27), (pv:402,at:4), (pv:403,at:4), (pv:404,at:3), (pv:405,at:11), (pv:406,at:4), (pv:407,at:15), (pv:408,at:4), (pv:409,at:7), (pv:410,at:8), (pv:411,at:14), (pv:412,at:3), (pv:413,at:35), (pv:414,at:11), (pv:415,at:15), (pv:416,at:6), (pv:417,at:7), (pv:418,at:3), (pv:419,at:12), (pv:420,at:4), (pv:421,at:6), (pv:422,at:51), (pv:423,at:3), (pv:424,at:1), (pv:425,at:30), (pv:426,at:6), (pv:427,at:7), (pv:428,at:1), (pv:429,at:6), (pv:430,at:1), (pv:431,at:11), (pv:432,at:1), (pv:433,at:9), (pv:434,at:2), (pv:435,at:9), (pv:436,at:10), (pv:437,at:2), (pv:438,at:5), (pv:439,at:3), (pv:440,at:43), (pv:441,at:39), (pv:442,at:7), (pv:443,at:4), (pv:444,at:12), (pv:445,at:1), (pv:446,at:1), (pv:447,at:3), (pv:448,at:1), (pv:449,at:1), (pv:450,at:1), (pv:451,at:22), (pv:452,at:1), (pv:453,at:2), (pv:454,at:43), (pv:455,at:1), (pv:456,at:1), (pv:457,at:2), (pv:458,at:8), (pv:459,at:55), (pv:460,at:14), (pv:461,at:21), (pv:462,at:44), (pv:463,at:7), (pv:464,at:4), (pv:465,at:2), (pv:466,at:21), (pv:467,at:10), (pv:468,at:24), (pv:469,at:1), (pv:470,at:2), (pv:471,at:1), (pv:472,at:4), (pv:473,at:7), (pv:474,at:2), (pv:475,at:1), (pv:476,at:2), (pv:477,at:12), (pv:478,at:5), (pv:479,at:3), (pv:480,at:39), (pv:481,at:2), (pv:482,at:9), (pv:483,at:4), (pv:484,at:4), (pv:485,at:6), (pv:486,at:13), (pv:487,at:9), (pv:488,at:9), (pv:489,at:18), (pv:490,at:17), (pv:491,at:4), (pv:492,at:1), (pv:493,at:5), (pv:494,at:8), (pv:495,at:1), (pv:496,at:5), (pv:497,at:1), (pv:498,at:2), (pv:499,at:1), (pv:500,at:1), (pv:501,at:26), (pv:502,at:2), (pv:503,at:9), (pv:504,at:8), (pv:505,at:4), (pv:506,at:2), (pv:507,at:11), (pv:508,at:13), (pv:509,at:3), (pv:510,at:3), (pv:511,at:1), (pv:512,at:27), (pv:513,at:1), (pv:514,at:1), (pv:515,at:4), (pv:516,at:164), (pv:517,at:9), (pv:518,at:5), (pv:519,at:1), (pv:520,at:12), (pv:521,at:3), (pv:522,at:5), (pv:523,at:2), (pv:524,at:22), (pv:525,at:9), (pv:526,at:15), (pv:527,at:19), (pv:528,at:2), (pv:529,at:3), (pv:530,at:1), (pv:531,at:10), (pv:532,at:7), (pv:533,at:2), (pv:534,at:4), (pv:535,at:5), (pv:536,at:20), (pv:537,at:3), (pv:538,at:5), (pv:539,at:17), (pv:540,at:1), (pv:541,at:4), (pv:542,at:3), (pv:543,at:29), (pv:544,at:3), (pv:545,at:2), (pv:546,at:10), (pv:547,at:46), (pv:548,at:4), (pv:549,at:2), (pv:550,at:10), (pv:551,at:2), (pv:552,at:7), (pv:553,at:8), (pv:554,at:1), (pv:555,at:1), (pv:556,at:4), (pv:557,at:3), (pv:558,at:27), (pv:559,at:14), (pv:560,at:1), (pv:561,at:2), (pv:562,at:6), (pv:563,at:3), (pv:564,at:1), (pv:565,at:2), (pv:566,at:8), (pv:567,at:3), (pv:568,at:3), (pv:569,at:5), (pv:570,at:7), (pv:571,at:28), (pv:572,at:5), (pv:573,at:1), (pv:574,at:13), (pv:575,at:6), (pv:576,at:20), (pv:577,at:9), (pv:578,at:2), (pv:579,at:16), (pv:580,at:1), (pv:581,at:7), (pv:582,at:5), (pv:583,at:1), (pv:584,at:2), (pv:585,at:6), (pv:586,at:2), (pv:587,at:6), (pv:588,at:9), (pv:589,at:10), (pv:590,at:1), (pv:591,at:3), (pv:592,at:1), (pv:593,at:14), (pv:594,at:1), (pv:595,at:9), (pv:596,at:1), (pv:597,at:38), (pv:598,at:6), (pv:599,at:4), (pv:600,at:12), (pv:601,at:4), (pv:602,at:1), (pv:603,at:9), (pv:604,at:2), (pv:605,at:6), (pv:606,at:5), (pv:607,at:14), (pv:608,at:9), (pv:609,at:41), (pv:610,at:15), (pv:611,at:3), (pv:612,at:7), (pv:613,at:1), (pv:614,at:7), (pv:615,at:9), (pv:616,at:1), (pv:617,at:6), (pv:618,at:8), (pv:619,at:5), (pv:620,at:38), (pv:621,at:5), (pv:622,at:6), (pv:623,at:3), (pv:624,at:7), (pv:625,at:6), (pv:626,at:6), (pv:627,at:9), (pv:628,at:22), (pv:629,at:8), (pv:630,at:3), (pv:631,at:3), (pv:632,at:10), (pv:633,at:14), (pv:634,at:5), (pv:635,at:5), (pv:636,at:5), (pv:637,at:1), (pv:638,at:31), (pv:639,at:12), (pv:640,at:2), (pv:641,at:2), (pv:642,at:1), (pv:643,at:3), (pv:644,at:5), (pv:645,at:5), (pv:646,at:1), (pv:647,at:15), (pv:648,at:19), (pv:649,at:3), (pv:650,at:3), (pv:651,at:4), (pv:652,at:34), (pv:653,at:4), (pv:654,at:3), (pv:655,at:7), (pv:656,at:7), (pv:657,at:2), (pv:658,at:7), (pv:659,at:1), (pv:660,at:8), (pv:661,at:2), (pv:662,at:14), (pv:663,at:12), (pv:664,at:4), (pv:665,at:12), (pv:666,at:17), (pv:667,at:30), (pv:668,at:10), (pv:669,at:3), (pv:670,at:116), (pv:671,at:20), (pv:672,at:3), (pv:673,at:1), (pv:674,at:1), (pv:675,at:7), (pv:676,at:2), (pv:677,at:1), (pv:678,at:1), (pv:679,at:2), (pv:680,at:3), (pv:681,at:19), (pv:682,at:6), (pv:683,at:17), (pv:684,at:25), (pv:685,at:3), (pv:686,at:3), (pv:687,at:1), (pv:688,at:4), (pv:689,at:6), (pv:690,at:1), (pv:691,at:12), (pv:692,at:1), (pv:693,at:3), (pv:694,at:10), (pv:695,at:12), (pv:696,at:4), (pv:697,at:4), (pv:698,at:1), (pv:699,at:1), (pv:700,at:2), (pv:701,at:15), (pv:702,at:17), (pv:703,at:12), (pv:704,at:8), (pv:705,at:5), (pv:706,at:3), (pv:707,at:12), (pv:708,at:5), (pv:709,at:3), (pv:710,at:5), (pv:711,at:2), (pv:712,at:20), (pv:713,at:1), (pv:714,at:33), (pv:715,at:5), (pv:716,at:13), (pv:717,at:9), (pv:718,at:3), (pv:719,at:2), (pv:720,at:2), (pv:721,at:15), (pv:722,at:4), (pv:723,at:5), (pv:724,at:16), (pv:725,at:1), (pv:726,at:2), (pv:727,at:10), (pv:728,at:15), (pv:729,at:3), (pv:730,at:5), (pv:731,at:9), (pv:732,at:5), (pv:733,at:115), (pv:734,at:11), (pv:735,at:13), (pv:736,at:4), (pv:737,at:3), (pv:738,at:4), (pv:739,at:28), (pv:740,at:4), (pv:741,at:20), (pv:742,at:23), (pv:743,at:3), (pv:744,at:8), (pv:745,at:13), (pv:746,at:3), (pv:747,at:24), (pv:748,at:19), (pv:749,at:29), (pv:750,at:1), (pv:751,at:4), (pv:752,at:3), (pv:753,at:2), (pv:754,at:7), (pv:755,at:1), (pv:756,at:1), (pv:757,at:3), (pv:758,at:13), (pv:759,at:4), (pv:760,at:6), (pv:761,at:1), (pv:762,at:1), (pv:763,at:3), (pv:764,at:6), (pv:765,at:2), (pv:766,at:2), (pv:767,at:13), (pv:768,at:6), (pv:769,at:16), (pv:770,at:33), (pv:771,at:13), (pv:772,at:7), (pv:773,at:3), (pv:774,at:28), (pv:775,at:2), (pv:776,at:11), (pv:777,at:10), (pv:778,at:3), (pv:779,at:4), (pv:780,at:2), (pv:781,at:10), (pv:782,at:4), (pv:783,at:1), (pv:784,at:3), (pv:785,at:1), (pv:786,at:7), (pv:787,at:9), (pv:788,at:49), (pv:789,at:12), (pv:790,at:14), (pv:791,at:26), (pv:792,at:1), (pv:793,at:3), (pv:794,at:3), (pv:795,at:2), (pv:796,at:11), (pv:797,at:3), (pv:798,at:31), (pv:799,at:2), (pv:800,at:14), (pv:801,at:5), (pv:802,at:5), (pv:803,at:12), (pv:804,at:3), (pv:805,at:5), (pv:806,at:6), (pv:807,at:9), (pv:808,at:14), (pv:809,at:6), (pv:810,at:6), (pv:811,at:6), (pv:812,at:2), (pv:813,at:1), (pv:814,at:3), (pv:815,at:2), (pv:816,at:2), (pv:817,at:2), (pv:818,at:15), (pv:819,at:2), (pv:820,at:10), (pv:821,at:2), (pv:822,at:1), (pv:823,at:9), (pv:824,at:5), (pv:825,at:1), (pv:826,at:12), (pv:827,at:25), (pv:828,at:1), (pv:829,at:15), (pv:830,at:21), (pv:831,at:17), (pv:832,at:8), (pv:833,at:9), (pv:834,at:10), (pv:835,at:3), (pv:836,at:6), (pv:837,at:4), (pv:838,at:9), (pv:839,at:5), (pv:840,at:9), (pv:841,at:3), (pv:842,at:2), (pv:843,at:12), (pv:844,at:1), (pv:845,at:5), (pv:846,at:16), (pv:847,at:1), (pv:848,at:7), (pv:849,at:20), (pv:850,at:6), (pv:851,at:1), (pv:852,at:85), (pv:853,at:1), (pv:854,at:7), (pv:855,at:2), (pv:856,at:1), (pv:857,at:128), (pv:858,at:74), (pv:859,at:2), (pv:860,at:25), (pv:861,at:1), (pv:862,at:6), (pv:863,at:7), (pv:864,at:5), (pv:865,at:8), (pv:866,at:1), (pv:867,at:1), (pv:868,at:10), (pv:869,at:7), (pv:870,at:3), (pv:871,at:4), (pv:872,at:12), (pv:873,at:18), (pv:874,at:115), (pv:875,at:8), (pv:876,at:23), (pv:877,at:1), (pv:878,at:14), (pv:879,at:1), (pv:880,at:11), (pv:881,at:10), (pv:882,at:8), (pv:883,at:2), (pv:884,at:9), (pv:885,at:4), (pv:886,at:1), (pv:887,at:3), (pv:888,at:4), (pv:889,at:19), (pv:890,at:1), (pv:891,at:14), (pv:892,at:10), (pv:893,at:6), (pv:894,at:34), (pv:895,at:1), (pv:896,at:4), (pv:897,at:7), (pv:898,at:16), (pv:899,at:22), (pv:900,at:6), (pv:901,at:19), (pv:902,at:1), (pv:903,at:1), (pv:904,at:1), (pv:905,at:4), (pv:906,at:3), (pv:907,at:1), (pv:908,at:4), (pv:909,at:4), (pv:910,at:23), (pv:911,at:2), (pv:912,at:41), (pv:913,at:4), (pv:914,at:108), (pv:915,at:12), (pv:916,at:42), (pv:917,at:1), (pv:918,at:3), (pv:920,at:14), (pv:921,at:7), (pv:922,at:2), (pv:923,at:7), (pv:924,at:3), (pv:925,at:9), (pv:926,at:11), (pv:927,at:2), (pv:928,at:4), (pv:929,at:6), (pv:930,at:7), (pv:931,at:1), (pv:932,at:4), (pv:933,at:1), (pv:934,at:4), (pv:935,at:8), (pv:936,at:1), (pv:937,at:3), (pv:938,at:1), (pv:939,at:8), (pv:940,at:1), (pv:941,at:1), (pv:942,at:5), (pv:943,at:1), (pv:944,at:1), (pv:945,at:2), (pv:946,at:8), (pv:947,at:9), (pv:948,at:4), (pv:949,at:2), (pv:950,at:7), (pv:951,at:53), (pv:952,at:1), (pv:953,at:9), (pv:954,at:16), (pv:955,at:2), (pv:956,at:11), (pv:957,at:32), (pv:958,at:1), (pv:959,at:7), (pv:960,at:7), (pv:961,at:2), (pv:962,at:2), (pv:963,at:8), (pv:964,at:2), (pv:965,at:17), (pv:966,at:14), (pv:967,at:7), (pv:968,at:1), (pv:969,at:14), (pv:970,at:16), (pv:971,at:11), (pv:972,at:19), (pv:973,at:1), (pv:974,at:11), (pv:975,at:5), (pv:976,at:11), (pv:977,at:1), (pv:978,at:3), (pv:979,at:9), (pv:980,at:1), (pv:981,at:5), (pv:982,at:2), (pv:983,at:3), (pv:984,at:8), (pv:985,at:1), (pv:986,at:4), (pv:987,at:76), (pv:988,at:9), (pv:989,at:6), (pv:990,at:3), (pv:991,at:1), (pv:992,at:7), (pv:993,at:1), (pv:994,at:8), (pv:995,at:2), (pv:996,at:22), (pv:997,at:6), (pv:998,at:26), (pv:999,at:192), (pv:1000,at:2), (pv:1001,at:7), (pv:1002,at:14), (pv:1003,at:7), (pv:1004,at:8), (pv:1005,at:9), (pv:1006,at:2), (pv:1007,at:6), (pv:1008,at:11), (pv:1009,at:13), (pv:1010,at:28), (pv:1011,at:4), (pv:1012,at:12), (pv:1013,at:2), (pv:1014,at:1), (pv:1015,at:4), (pv:1016,at:1), (pv:1017,at:2), (pv:1018,at:22), (pv:1019,at:8), (pv:1020,at:23), (pv:1021,at:3), (pv:1022,at:8), (pv:1023,at:67), (pv:1024,at:1), (pv:1025,at:1), (pv:1026,at:6), (pv:1027,at:99), (pv:1028,at:7), (pv:1029,at:8), (pv:1030,at:7), (pv:1031,at:19), (pv:1032,at:4), (pv:1033,at:1), (pv:1034,at:2), (pv:1035,at:2), (pv:1036,at:5), (pv:1037,at:1), (pv:1038,at:10), (pv:1039,at:8), (pv:1040,at:33), (pv:1041,at:8), (pv:1042,at:3), (pv:1043,at:12), (pv:1044,at:18), (pv:1045,at:1), (pv:1046,at:23), (pv:1047,at:66), (pv:1048,at:5), (pv:1049,at:7), (pv:1050,at:3), (pv:1051,at:4), (pv:1052,at:1), (pv:1053,at:7), (pv:1054,at:2), (pv:1055,at:6), (pv:1056,at:1), (pv:1057,at:18), (pv:1058,at:12), (pv:1059,at:1), (pv:1060,at:25), (pv:1061,at:12), (pv:1062,at:16), (pv:1063,at:1), (pv:1064,at:36), (pv:1065,at:1), (pv:1066,at:11), (pv:1067,at:2), (pv:1068,at:2), (pv:1069,at:6), (pv:1070,at:1), (pv:1071,at:19), (pv:1072,at:2), (pv:1073,at:6), (pv:1074,at:1), (pv:1075,at:3), (pv:1076,at:1), (pv:1077,at:3), (pv:1078,at:16), (pv:1079,at:8), (pv:1080,at:2), (pv:1081,at:36), (pv:1082,at:7), (pv:1083,at:15), (pv:1084,at:11), (pv:1085,at:4), (pv:1086,at:1), (pv:1087,at:4), (pv:1088,at:2), (pv:1089,at:49), (pv:1090,at:1), (pv:1091,at:6), (pv:1092,at:24), (pv:1093,at:1), (pv:1094,at:3), (pv:1095,at:8), (pv:1096,at:1), (pv:1097,at:5), (pv:1098,at:8), (pv:1099,at:3), (pv:1100,at:2), (pv:1101,at:9), (pv:1102,at:14), (pv:1103,at:18), (pv:1104,at:19), (pv:1105,at:28), (pv:1106,at:2), (pv:1107,at:1), (pv:1108,at:12), (pv:1109,at:7), (pv:1110,at:23), (pv:1111,at:9), (pv:1112,at:4), (pv:1113,at:81), (pv:1114,at:17), (pv:1115,at:4), (pv:1116,at:3), (pv:1117,at:5), (pv:1118,at:3), (pv:1119,at:2), (pv:1120,at:6), (pv:1121,at:5), (pv:1122,at:3), (pv:1123,at:10), (pv:1124,at:13), (pv:1125,at:3), (pv:1126,at:7), (pv:1127,at:2), (pv:1128,at:43), (pv:1129,at:1), (pv:1130,at:12), (pv:1131,at:8), (pv:1132,at:17), (pv:1133,at:4), (pv:1134,at:2), (pv:1135,at:2), (pv:1136,at:1), (pv:1137,at:13), (pv:1138,at:1), (pv:1139,at:3), (pv:1140,at:32), (pv:1141,at:3), (pv:1142,at:8), (pv:1143,at:2), (pv:1144,at:12), (pv:1145,at:30), (pv:1146,at:5), (pv:1147,at:15), (pv:1148,at:9), (pv:1149,at:3), (pv:1150,at:6), (pv:1151,at:1), (pv:1152,at:5), (pv:1153,at:14), (pv:1154,at:4), (pv:1155,at:13), (pv:1156,at:9), (pv:1157,at:13), (pv:1158,at:1), (pv:1159,at:19), (pv:1160,at:4), (pv:1161,at:3), (pv:1162,at:11), (pv:1163,at:4), (pv:1164,at:2), (pv:1165,at:4), (pv:1166,at:1), (pv:1167,at:2), (pv:1168,at:8), (pv:1169,at:13), (pv:1170,at:4), (pv:1171,at:30), (pv:1172,at:2), (pv:1173,at:10), (pv:1174,at:1), (pv:1175,at:25), (pv:1176,at:149), (pv:1177,at:13), (pv:1178,at:2), (pv:1179,at:14), (pv:1180,at:22), (pv:1181,at:11), (pv:1182,at:2), (pv:1183,at:1), (pv:1184,at:9), (pv:1185,at:10), (pv:1186,at:18), (pv:1187,at:2), (pv:1188,at:6), (pv:1189,at:3), (pv:1190,at:15), (pv:1191,at:146), (pv:1192,at:5), (pv:1193,at:1), (pv:1194,at:15), (pv:1195,at:43), (pv:1196,at:4), (pv:1197,at:10), (pv:1198,at:1), (pv:1199,at:1), (pv:1200,at:5), (pv:1201,at:2), (pv:1202,at:75), (pv:1203,at:10), (pv:1204,at:20), (pv:1205,at:10), (pv:1206,at:2), (pv:1207,at:8), (pv:1208,at:9), (pv:1209,at:61), (pv:1210,at:2), (pv:1211,at:2), (pv:1212,at:45), (pv:1213,at:1), (pv:1214,at:1), (pv:1215,at:4), (pv:1216,at:4), (pv:1217,at:8), (pv:1218,at:13), (pv:1219,at:1), (pv:1220,at:4), (pv:1221,at:9), (pv:1222,at:87), (pv:1223,at:71), (pv:1224,at:1), (pv:1225,at:5), (pv:1226,at:11), (pv:1227,at:1), (pv:1228,at:5), (pv:1229,at:1), (pv:1230,at:1), (pv:1231,at:5), (pv:1232,at:2), (pv:1233,at:2), (pv:1234,at:23), (pv:1235,at:2)]
[INFO ] fr.inria.astor.approaches.jgenprog.JGenProg.showResults(JGenProg.java:342) - 
pvariants_with_transformed_ingredients: [(pv:2,at:7), (pv:3,at:19), (pv:4,at:15), (pv:5,at:1), (pv:6,at:15), (pv:7,at:3), (pv:8,at:8), (pv:9,at:11), (pv:10,at:2), (pv:11,at:9), (pv:12,at:3), (pv:13,at:30), (pv:14,at:2), (pv:15,at:4), (pv:16,at:3), (pv:17,at:4), (pv:18,at:3), (pv:19,at:2), (pv:20,at:1), (pv:21,at:3), (pv:22,at:9), (pv:23,at:33), (pv:24,at:25), (pv:25,at:11), (pv:26,at:12), (pv:27,at:1), (pv:28,at:4), (pv:29,at:3), (pv:30,at:1), (pv:31,at:64), (pv:32,at:2), (pv:33,at:14), (pv:34,at:11), (pv:35,at:5), (pv:36,at:8), (pv:37,at:5), (pv:38,at:6), (pv:39,at:4), (pv:40,at:2), (pv:41,at:9), (pv:42,at:75), (pv:43,at:27), (pv:44,at:12), (pv:45,at:3), (pv:46,at:2), (pv:47,at:4), (pv:48,at:11), (pv:49,at:5), (pv:50,at:1), (pv:51,at:9), (pv:52,at:8), (pv:53,at:21), (pv:54,at:4), (pv:55,at:16), (pv:56,at:2), (pv:57,at:7), (pv:58,at:3), (pv:59,at:2), (pv:60,at:8), (pv:61,at:3), (pv:62,at:6), (pv:63,at:2), (pv:64,at:4), (pv:65,at:9), (pv:66,at:4), (pv:67,at:1), (pv:68,at:59), (pv:69,at:5), (pv:70,at:5), (pv:71,at:1), (pv:72,at:4), (pv:73,at:5), (pv:74,at:4), (pv:75,at:54), (pv:76,at:7), (pv:77,at:4), (pv:78,at:4), (pv:79,at:3), (pv:80,at:3), (pv:81,at:9), (pv:82,at:1), (pv:83,at:7), (pv:84,at:3), (pv:85,at:4), (pv:86,at:1), (pv:87,at:91), (pv:88,at:62), (pv:89,at:10), (pv:90,at:13), (pv:91,at:21), (pv:92,at:3), (pv:93,at:15), (pv:94,at:19), (pv:95,at:22), (pv:96,at:11), (pv:97,at:3), (pv:98,at:2), (pv:99,at:13), (pv:100,at:4), (pv:101,at:3), (pv:102,at:3), (pv:103,at:1), (pv:104,at:1), (pv:105,at:9), (pv:106,at:27), (pv:107,at:2), (pv:108,at:78), (pv:109,at:9), (pv:110,at:5), (pv:111,at:3), (pv:112,at:3), (pv:113,at:7), (pv:114,at:8), (pv:115,at:5), (pv:116,at:4), (pv:117,at:5), (pv:118,at:1), (pv:119,at:5), (pv:120,at:22), (pv:121,at:16), (pv:122,at:1), (pv:123,at:1), (pv:124,at:15), (pv:125,at:3), (pv:126,at:6), (pv:127,at:4), (pv:128,at:2), (pv:129,at:1), (pv:130,at:7), (pv:131,at:1), (pv:132,at:2), (pv:133,at:1), (pv:134,at:3), (pv:135,at:1), (pv:136,at:3), (pv:137,at:10), (pv:138,at:1), (pv:139,at:1), (pv:140,at:137), (pv:141,at:3), (pv:142,at:4), (pv:143,at:7), (pv:144,at:3), (pv:145,at:13), (pv:146,at:1), (pv:147,at:1), (pv:148,at:3), (pv:149,at:9), (pv:150,at:4), (pv:151,at:3), (pv:152,at:8), (pv:153,at:3), (pv:154,at:13), (pv:155,at:1), (pv:156,at:7), (pv:157,at:4), (pv:158,at:4), (pv:159,at:25), (pv:160,at:2), (pv:161,at:1), (pv:162,at:1), (pv:163,at:25), (pv:164,at:3), (pv:165,at:95), (pv:166,at:1), (pv:167,at:2), (pv:168,at:4), (pv:169,at:2), (pv:170,at:34), (pv:171,at:21), (pv:172,at:5), (pv:173,at:3), (pv:174,at:10), (pv:175,at:7), (pv:176,at:1), (pv:177,at:3), (pv:178,at:6), (pv:179,at:3), (pv:180,at:8), (pv:181,at:2), (pv:182,at:10), (pv:183,at:21), (pv:184,at:1), (pv:185,at:71), (pv:186,at:14), (pv:187,at:4), (pv:188,at:4), (pv:189,at:6), (pv:190,at:15), (pv:191,at:6), (pv:192,at:11), (pv:193,at:5), (pv:194,at:2), (pv:195,at:2), (pv:196,at:1), (pv:197,at:8), (pv:198,at:10), (pv:199,at:6), (pv:200,at:4), (pv:201,at:2), (pv:202,at:2), (pv:203,at:4), (pv:204,at:5), (pv:205,at:2), (pv:206,at:63), (pv:207,at:4), (pv:208,at:10), (pv:209,at:18), (pv:210,at:22), (pv:211,at:14), (pv:212,at:8), (pv:213,at:136), (pv:214,at:15), (pv:215,at:17), (pv:216,at:12), (pv:217,at:6), (pv:218,at:9), (pv:219,at:4), (pv:220,at:8), (pv:221,at:1), (pv:222,at:3), (pv:223,at:4), (pv:224,at:7), (pv:225,at:8), (pv:226,at:1), (pv:227,at:14), (pv:228,at:1), (pv:229,at:7), (pv:230,at:53), (pv:231,at:6), (pv:232,at:3), (pv:233,at:3), (pv:234,at:4), (pv:235,at:2), (pv:236,at:13), (pv:237,at:5), (pv:238,at:6), (pv:239,at:4), (pv:240,at:19), (pv:241,at:158), (pv:242,at:3), (pv:243,at:1), (pv:244,at:3), (pv:245,at:44), (pv:246,at:4), (pv:247,at:3), (pv:248,at:13), (pv:249,at:3), (pv:250,at:12), (pv:251,at:2), (pv:252,at:7), (pv:253,at:6), (pv:254,at:1), (pv:255,at:1), (pv:256,at:2), (pv:257,at:64), (pv:258,at:18), (pv:259,at:4), (pv:260,at:5), (pv:261,at:7), (pv:262,at:1), (pv:263,at:33), (pv:264,at:2), (pv:265,at:1), (pv:266,at:6), (pv:267,at:6), (pv:268,at:3), (pv:269,at:22), (pv:270,at:8), (pv:271,at:26), (pv:272,at:5), (pv:273,at:22), (pv:274,at:2), (pv:275,at:4), (pv:276,at:59), (pv:277,at:2), (pv:278,at:4), (pv:279,at:16), (pv:280,at:3), (pv:281,at:5), (pv:282,at:31), (pv:283,at:19), (pv:284,at:6), (pv:285,at:22), (pv:286,at:3), (pv:287,at:2), (pv:288,at:5), (pv:289,at:1), (pv:290,at:1), (pv:291,at:8), (pv:292,at:7), (pv:293,at:3), (pv:294,at:30), (pv:295,at:13), (pv:296,at:22), (pv:297,at:7), (pv:298,at:2), (pv:299,at:1), (pv:300,at:11), (pv:301,at:7), (pv:302,at:21), (pv:303,at:7), (pv:304,at:91), (pv:305,at:5), (pv:306,at:5), (pv:307,at:17), (pv:308,at:3), (pv:309,at:17), (pv:310,at:15), (pv:311,at:17), (pv:312,at:1), (pv:313,at:3), (pv:314,at:3), (pv:315,at:293), (pv:316,at:3), (pv:317,at:3), (pv:318,at:81), (pv:319,at:21), (pv:320,at:8), (pv:321,at:1), (pv:322,at:13), (pv:323,at:3), (pv:324,at:14), (pv:325,at:31), (pv:326,at:24), (pv:327,at:9), (pv:328,at:12), (pv:329,at:6), (pv:330,at:2), (pv:331,at:1), (pv:332,at:1), (pv:333,at:2), (pv:334,at:24), (pv:335,at:2), (pv:336,at:1), (pv:337,at:11), (pv:338,at:11), (pv:339,at:1), (pv:340,at:7), (pv:341,at:2), (pv:342,at:2), (pv:343,at:9), (pv:344,at:12), (pv:345,at:5), (pv:346,at:3), (pv:347,at:10), (pv:348,at:35), (pv:349,at:2), (pv:350,at:7), (pv:351,at:12), (pv:352,at:27), (pv:353,at:4), (pv:354,at:10), (pv:355,at:12), (pv:356,at:12), (pv:357,at:12), (pv:358,at:1), (pv:359,at:27), (pv:360,at:8), (pv:361,at:10), (pv:362,at:2), (pv:363,at:1), (pv:364,at:9), (pv:365,at:17), (pv:366,at:3), (pv:367,at:1), (pv:368,at:10), (pv:369,at:25), (pv:370,at:6), (pv:371,at:7), (pv:372,at:10), (pv:373,at:6), (pv:374,at:6), (pv:375,at:8), (pv:376,at:56), (pv:377,at:5), (pv:378,at:1), (pv:379,at:6), (pv:380,at:1), (pv:381,at:2), (pv:382,at:9), (pv:383,at:32), (pv:384,at:22), (pv:385,at:1), (pv:386,at:7), (pv:387,at:14), (pv:388,at:3), (pv:389,at:14), (pv:390,at:9), (pv:391,at:5), (pv:392,at:7), (pv:393,at:11), (pv:394,at:84), (pv:395,at:2), (pv:396,at:2), (pv:397,at:9), (pv:398,at:8), (pv:399,at:11), (pv:400,at:5), (pv:401,at:27), (pv:402,at:4), (pv:403,at:4), (pv:404,at:3), (pv:405,at:11), (pv:406,at:4), (pv:407,at:15), (pv:408,at:4), (pv:409,at:7), (pv:410,at:8), (pv:411,at:14), (pv:412,at:3), (pv:413,at:35), (pv:414,at:11), (pv:415,at:15), (pv:416,at:6), (pv:417,at:7), (pv:418,at:3), (pv:419,at:12), (pv:420,at:4), (pv:421,at:6), (pv:422,at:51), (pv:423,at:3), (pv:424,at:1), (pv:425,at:30), (pv:426,at:6), (pv:427,at:7), (pv:428,at:1), (pv:429,at:6), (pv:430,at:1), (pv:431,at:11), (pv:432,at:1), (pv:433,at:9), (pv:434,at:2), (pv:435,at:9), (pv:436,at:10), (pv:437,at:2), (pv:438,at:5), (pv:439,at:3), (pv:440,at:43), (pv:441,at:39), (pv:442,at:7), (pv:443,at:4), (pv:444,at:12), (pv:445,at:1), (pv:446,at:1), (pv:447,at:3), (pv:448,at:1), (pv:449,at:1), (pv:450,at:1), (pv:451,at:22), (pv:452,at:1), (pv:453,at:2), (pv:454,at:43), (pv:455,at:1), (pv:456,at:1), (pv:457,at:2), (pv:458,at:8), (pv:459,at:55), (pv:460,at:14), (pv:461,at:21), (pv:462,at:44), (pv:463,at:7), (pv:464,at:4), (pv:465,at:2), (pv:466,at:21), (pv:467,at:10), (pv:468,at:24), (pv:469,at:1), (pv:470,at:2), (pv:471,at:1), (pv:472,at:4), (pv:473,at:7), (pv:474,at:2), (pv:475,at:1), (pv:476,at:2), (pv:477,at:12), (pv:478,at:5), (pv:479,at:3), (pv:480,at:39), (pv:481,at:2), (pv:482,at:9), (pv:483,at:4), (pv:484,at:4), (pv:485,at:6), (pv:486,at:13), (pv:487,at:9), (pv:488,at:9), (pv:489,at:18), (pv:490,at:17), (pv:491,at:4), (pv:492,at:1), (pv:493,at:5), (pv:494,at:8), (pv:495,at:1), (pv:496,at:5), (pv:497,at:1), (pv:498,at:2), (pv:499,at:1), (pv:500,at:1), (pv:501,at:26), (pv:502,at:2), (pv:503,at:9), (pv:504,at:8), (pv:505,at:4), (pv:506,at:2), (pv:507,at:11), (pv:508,at:13), (pv:509,at:3), (pv:510,at:3), (pv:511,at:1), (pv:512,at:27), (pv:513,at:1), (pv:514,at:1), (pv:515,at:4), (pv:516,at:164), (pv:517,at:9), (pv:518,at:5), (pv:519,at:1), (pv:520,at:12), (pv:521,at:3), (pv:522,at:5), (pv:523,at:2), (pv:524,at:22), (pv:525,at:9), (pv:526,at:15), (pv:527,at:19), (pv:528,at:2), (pv:529,at:3), (pv:530,at:1), (pv:531,at:10), (pv:532,at:7), (pv:533,at:2), (pv:534,at:4), (pv:535,at:5), (pv:536,at:20), (pv:537,at:3), (pv:538,at:5), (pv:539,at:17), (pv:540,at:1), (pv:541,at:4), (pv:542,at:3), (pv:543,at:29), (pv:544,at:3), (pv:545,at:2), (pv:546,at:10), (pv:547,at:46), (pv:548,at:4), (pv:549,at:2), (pv:550,at:10), (pv:551,at:2), (pv:552,at:7), (pv:553,at:8), (pv:554,at:1), (pv:555,at:1), (pv:556,at:4), (pv:557,at:3), (pv:558,at:27), (pv:559,at:14), (pv:560,at:1), (pv:561,at:2), (pv:562,at:6), (pv:563,at:3), (pv:564,at:1), (pv:565,at:2), (pv:566,at:8), (pv:567,at:3), (pv:568,at:3), (pv:569,at:5), (pv:570,at:7), (pv:571,at:28), (pv:572,at:5), (pv:573,at:1), (pv:574,at:13), (pv:575,at:6), (pv:576,at:20), (pv:577,at:9), (pv:578,at:2), (pv:579,at:16), (pv:580,at:1), (pv:581,at:7), (pv:582,at:5), (pv:583,at:1), (pv:584,at:2), (pv:585,at:6), (pv:586,at:2), (pv:587,at:6), (pv:588,at:9), (pv:589,at:10), (pv:590,at:1), (pv:591,at:3), (pv:592,at:1), (pv:593,at:14), (pv:594,at:1), (pv:595,at:9), (pv:596,at:1), (pv:597,at:38), (pv:598,at:6), (pv:599,at:4), (pv:600,at:12), (pv:601,at:4), (pv:602,at:1), (pv:603,at:9), (pv:604,at:2), (pv:605,at:6), (pv:606,at:5), (pv:607,at:14), (pv:608,at:9), (pv:609,at:41), (pv:610,at:15), (pv:611,at:3), (pv:612,at:7), (pv:613,at:1), (pv:614,at:7), (pv:615,at:9), (pv:616,at:1), (pv:617,at:6), (pv:618,at:8), (pv:619,at:5), (pv:620,at:38), (pv:621,at:5), (pv:622,at:6), (pv:623,at:3), (pv:624,at:7), (pv:625,at:6), (pv:626,at:6), (pv:627,at:9), (pv:628,at:22), (pv:629,at:8), (pv:630,at:3), (pv:631,at:3), (pv:632,at:10), (pv:633,at:14), (pv:634,at:5), (pv:635,at:5), (pv:636,at:5), (pv:637,at:1), (pv:638,at:31), (pv:639,at:12), (pv:640,at:2), (pv:641,at:2), (pv:642,at:1), (pv:643,at:3), (pv:644,at:5), (pv:645,at:5), (pv:646,at:1), (pv:647,at:15), (pv:648,at:19), (pv:649,at:3), (pv:650,at:3), (pv:651,at:4), (pv:652,at:34), (pv:653,at:4), (pv:654,at:3), (pv:655,at:7), (pv:656,at:7), (pv:657,at:2), (pv:658,at:7), (pv:659,at:1), (pv:660,at:8), (pv:661,at:2), (pv:662,at:14), (pv:663,at:12), (pv:664,at:4), (pv:665,at:12), (pv:666,at:17), (pv:667,at:30), (pv:668,at:10), (pv:669,at:3), (pv:670,at:116), (pv:671,at:20), (pv:672,at:3), (pv:673,at:1), (pv:674,at:1), (pv:675,at:7), (pv:676,at:2), (pv:677,at:1), (pv:678,at:1), (pv:679,at:2), (pv:680,at:3), (pv:681,at:19), (pv:682,at:6), (pv:683,at:17), (pv:684,at:25), (pv:685,at:3), (pv:686,at:3), (pv:687,at:1), (pv:688,at:4), (pv:689,at:6), (pv:690,at:1), (pv:691,at:12), (pv:692,at:1), (pv:693,at:3), (pv:694,at:10), (pv:695,at:12), (pv:696,at:4), (pv:697,at:4), (pv:698,at:1), (pv:699,at:1), (pv:700,at:2), (pv:701,at:15), (pv:702,at:17), (pv:703,at:12), (pv:704,at:8), (pv:705,at:5), (pv:706,at:3), (pv:707,at:12), (pv:708,at:5), (pv:709,at:3), (pv:710,at:5), (pv:711,at:2), (pv:712,at:20), (pv:713,at:1), (pv:714,at:33), (pv:715,at:5), (pv:716,at:13), (pv:717,at:9), (pv:718,at:3), (pv:719,at:2), (pv:720,at:2), (pv:721,at:15), (pv:722,at:4), (pv:723,at:5), (pv:724,at:16), (pv:725,at:1), (pv:726,at:2), (pv:727,at:10), (pv:728,at:15), (pv:729,at:3), (pv:730,at:5), (pv:731,at:9), (pv:732,at:5), (pv:733,at:115), (pv:734,at:11), (pv:735,at:13), (pv:736,at:4), (pv:737,at:3), (pv:738,at:4), (pv:739,at:28), (pv:740,at:4), (pv:741,at:20), (pv:742,at:23), (pv:743,at:3), (pv:744,at:8), (pv:745,at:13), (pv:746,at:3), (pv:747,at:24), (pv:748,at:19), (pv:749,at:29), (pv:750,at:1), (pv:751,at:4), (pv:752,at:3), (pv:753,at:2), (pv:754,at:7), (pv:755,at:1), (pv:756,at:1), (pv:757,at:3), (pv:758,at:13), (pv:759,at:4), (pv:760,at:6), (pv:761,at:1), (pv:762,at:1), (pv:763,at:3), (pv:764,at:6), (pv:765,at:2), (pv:766,at:2), (pv:767,at:13), (pv:768,at:6), (pv:769,at:16), (pv:770,at:33), (pv:771,at:13), (pv:772,at:7), (pv:773,at:3), (pv:774,at:28), (pv:775,at:2), (pv:776,at:11), (pv:777,at:10), (pv:778,at:3), (pv:779,at:4), (pv:780,at:2), (pv:781,at:10), (pv:782,at:4), (pv:783,at:1), (pv:784,at:3), (pv:785,at:1), (pv:786,at:7), (pv:787,at:9), (pv:788,at:49), (pv:789,at:12), (pv:790,at:14), (pv:791,at:26), (pv:792,at:1), (pv:793,at:3), (pv:794,at:3), (pv:795,at:2), (pv:796,at:11), (pv:797,at:3), (pv:798,at:31), (pv:799,at:2), (pv:800,at:14), (pv:801,at:5), (pv:802,at:5), (pv:803,at:12), (pv:804,at:3), (pv:805,at:5), (pv:806,at:6), (pv:807,at:9), (pv:808,at:14), (pv:809,at:6), (pv:810,at:6), (pv:811,at:6), (pv:812,at:2), (pv:813,at:1), (pv:814,at:3), (pv:815,at:2), (pv:816,at:2), (pv:817,at:2), (pv:818,at:15), (pv:819,at:2), (pv:820,at:10), (pv:821,at:2), (pv:822,at:1), (pv:823,at:9), (pv:824,at:5), (pv:825,at:1), (pv:826,at:12), (pv:827,at:25), (pv:828,at:1), (pv:829,at:15), (pv:830,at:21), (pv:831,at:17), (pv:832,at:8), (pv:833,at:9), (pv:834,at:10), (pv:835,at:3), (pv:836,at:6), (pv:837,at:4), (pv:838,at:9), (pv:839,at:5), (pv:840,at:9), (pv:841,at:3), (pv:842,at:2), (pv:843,at:12), (pv:844,at:1), (pv:845,at:5), (pv:846,at:16), (pv:847,at:1), (pv:848,at:7), (pv:849,at:20), (pv:850,at:6), (pv:851,at:1), (pv:852,at:85), (pv:853,at:1), (pv:854,at:7), (pv:855,at:2), (pv:856,at:1), (pv:857,at:128), (pv:858,at:74), (pv:859,at:2), (pv:860,at:25), (pv:861,at:1), (pv:862,at:6), (pv:863,at:7), (pv:864,at:5), (pv:865,at:8), (pv:866,at:1), (pv:867,at:1), (pv:868,at:10), (pv:869,at:7), (pv:870,at:3), (pv:871,at:4), (pv:872,at:12), (pv:873,at:18), (pv:874,at:115), (pv:875,at:8), (pv:876,at:23), (pv:877,at:1), (pv:878,at:14), (pv:879,at:1), (pv:880,at:11), (pv:881,at:10), (pv:882,at:8), (pv:883,at:2), (pv:884,at:9), (pv:885,at:4), (pv:886,at:1), (pv:887,at:3), (pv:888,at:4), (pv:889,at:19), (pv:890,at:1), (pv:891,at:14), (pv:892,at:10), (pv:893,at:6), (pv:894,at:34), (pv:895,at:1), (pv:896,at:4), (pv:897,at:7), (pv:898,at:16), (pv:899,at:22), (pv:900,at:6), (pv:901,at:19), (pv:902,at:1), (pv:903,at:1), (pv:904,at:1), (pv:905,at:4), (pv:906,at:3), (pv:907,at:1), (pv:908,at:4), (pv:909,at:4), (pv:910,at:23), (pv:911,at:2), (pv:912,at:41), (pv:913,at:4), (pv:914,at:108), (pv:915,at:12), (pv:916,at:42), (pv:917,at:1), (pv:918,at:3), (pv:919,at:81), (pv:920,at:14), (pv:921,at:7), (pv:922,at:2), (pv:923,at:7), (pv:924,at:3), (pv:925,at:9), (pv:926,at:11), (pv:927,at:2), (pv:928,at:4), (pv:929,at:6), (pv:930,at:7), (pv:931,at:1), (pv:932,at:4), (pv:933,at:1), (pv:934,at:4), (pv:935,at:8), (pv:936,at:1), (pv:937,at:3), (pv:938,at:1), (pv:939,at:8), (pv:940,at:1), (pv:941,at:1), (pv:942,at:5), (pv:943,at:1), (pv:944,at:1), (pv:945,at:2), (pv:946,at:8), (pv:947,at:9), (pv:948,at:4), (pv:949,at:2), (pv:950,at:7), (pv:951,at:53), (pv:952,at:1), (pv:953,at:9), (pv:954,at:16), (pv:955,at:2), (pv:956,at:11), (pv:957,at:32), (pv:958,at:1), (pv:959,at:7), (pv:960,at:7), (pv:961,at:2), (pv:962,at:2), (pv:963,at:8), (pv:964,at:2), (pv:965,at:17), (pv:966,at:14), (pv:967,at:7), (pv:968,at:1), (pv:969,at:14), (pv:970,at:16), (pv:971,at:11), (pv:972,at:19), (pv:973,at:1), (pv:974,at:11), (pv:975,at:5), (pv:976,at:11), (pv:977,at:1), (pv:978,at:3), (pv:979,at:9), (pv:980,at:1), (pv:981,at:5), (pv:982,at:2), (pv:983,at:3), (pv:984,at:8), (pv:985,at:1), (pv:986,at:4), (pv:987,at:76), (pv:988,at:9), (pv:989,at:6), (pv:990,at:3), (pv:991,at:1), (pv:992,at:7), (pv:993,at:1), (pv:994,at:8), (pv:995,at:2), (pv:996,at:22), (pv:997,at:6), (pv:998,at:26), (pv:999,at:192), (pv:1000,at:2), (pv:1001,at:7), (pv:1002,at:14), (pv:1003,at:7), (pv:1004,at:8), (pv:1005,at:9), (pv:1006,at:2), (pv:1007,at:6), (pv:1008,at:11), (pv:1009,at:13), (pv:1010,at:28), (pv:1011,at:4), (pv:1012,at:12), (pv:1013,at:2), (pv:1014,at:1), (pv:1015,at:4), (pv:1016,at:1), (pv:1017,at:2), (pv:1018,at:22), (pv:1019,at:8), (pv:1020,at:23), (pv:1021,at:3), (pv:1022,at:8), (pv:1023,at:67), (pv:1024,at:1), (pv:1025,at:1), (pv:1026,at:6), (pv:1027,at:99), (pv:1028,at:7), (pv:1029,at:8), (pv:1030,at:7), (pv:1031,at:19), (pv:1032,at:4), (pv:1033,at:1), (pv:1034,at:2), (pv:1035,at:2), (pv:1036,at:5), (pv:1037,at:1), (pv:1038,at:10), (pv:1039,at:8), (pv:1040,at:33), (pv:1041,at:8), (pv:1042,at:3), (pv:1043,at:12), (pv:1044,at:18), (pv:1045,at:1), (pv:1046,at:23), (pv:1047,at:66), (pv:1048,at:5), (pv:1049,at:7), (pv:1050,at:3), (pv:1051,at:4), (pv:1052,at:1), (pv:1053,at:7), (pv:1054,at:2), (pv:1055,at:6), (pv:1056,at:1), (pv:1057,at:18), (pv:1058,at:12), (pv:1059,at:1), (pv:1060,at:25), (pv:1061,at:12), (pv:1062,at:16), (pv:1063,at:1), (pv:1064,at:36), (pv:1065,at:1), (pv:1066,at:11), (pv:1067,at:2), (pv:1068,at:2), (pv:1069,at:6), (pv:1070,at:1), (pv:1071,at:19), (pv:1072,at:2), (pv:1073,at:6), (pv:1074,at:1), (pv:1075,at:3), (pv:1076,at:1), (pv:1077,at:3), (pv:1078,at:16), (pv:1079,at:8), (pv:1080,at:2), (pv:1081,at:36), (pv:1082,at:7), (pv:1083,at:15), (pv:1084,at:11), (pv:1085,at:4), (pv:1086,at:1), (pv:1087,at:4), (pv:1088,at:2), (pv:1089,at:49), (pv:1090,at:1), (pv:1091,at:6), (pv:1092,at:24), (pv:1093,at:1), (pv:1094,at:3), (pv:1095,at:8), (pv:1096,at:1), (pv:1097,at:5), (pv:1098,at:8), (pv:1099,at:3), (pv:1100,at:2), (pv:1101,at:9), (pv:1102,at:14), (pv:1103,at:18), (pv:1104,at:19), (pv:1105,at:28), (pv:1106,at:2), (pv:1107,at:1), (pv:1108,at:12), (pv:1109,at:7), (pv:1110,at:23), (pv:1111,at:9), (pv:1112,at:4), (pv:1113,at:81), (pv:1114,at:17), (pv:1115,at:4), (pv:1116,at:3), (pv:1117,at:5), (pv:1118,at:3), (pv:1119,at:2), (pv:1120,at:6), (pv:1121,at:5), (pv:1122,at:3), (pv:1123,at:10), (pv:1124,at:13), (pv:1125,at:3), (pv:1126,at:7), (pv:1127,at:2), (pv:1128,at:43), (pv:1129,at:1), (pv:1130,at:12), (pv:1131,at:8), (pv:1132,at:17), (pv:1133,at:4), (pv:1134,at:2), (pv:1135,at:2), (pv:1136,at:1), (pv:1137,at:13), (pv:1138,at:1), (pv:1139,at:3), (pv:1140,at:32), (pv:1141,at:3), (pv:1142,at:8), (pv:1143,at:2), (pv:1144,at:12), (pv:1145,at:30), (pv:1146,at:5), (pv:1147,at:15), (pv:1148,at:9), (pv:1149,at:3), (pv:1150,at:6), (pv:1151,at:1), (pv:1152,at:5), (pv:1153,at:14), (pv:1154,at:4), (pv:1155,at:13), (pv:1156,at:9), (pv:1157,at:13), (pv:1158,at:1), (pv:1159,at:19), (pv:1160,at:4), (pv:1161,at:3), (pv:1162,at:11), (pv:1163,at:4), (pv:1164,at:2), (pv:1165,at:4), (pv:1166,at:1), (pv:1167,at:2), (pv:1168,at:8), (pv:1169,at:13), (pv:1170,at:4), (pv:1171,at:30), (pv:1172,at:2), (pv:1173,at:10), (pv:1174,at:1), (pv:1175,at:25), (pv:1176,at:149), (pv:1177,at:13), (pv:1178,at:2), (pv:1179,at:14), (pv:1180,at:22), (pv:1181,at:11), (pv:1182,at:2), (pv:1183,at:1), (pv:1184,at:9), (pv:1185,at:10), (pv:1186,at:18), (pv:1187,at:2), (pv:1188,at:6), (pv:1189,at:3), (pv:1190,at:15), (pv:1191,at:146), (pv:1192,at:5), (pv:1193,at:1), (pv:1194,at:15), (pv:1195,at:43), (pv:1196,at:4), (pv:1197,at:10), (pv:1198,at:1), (pv:1199,at:1), (pv:1200,at:5), (pv:1201,at:2), (pv:1202,at:75), (pv:1203,at:10), (pv:1204,at:20), (pv:1205,at:10), (pv:1206,at:2), (pv:1207,at:8), (pv:1208,at:9), (pv:1209,at:61), (pv:1210,at:2), (pv:1211,at:2), (pv:1212,at:45), (pv:1213,at:1), (pv:1214,at:1), (pv:1215,at:4), (pv:1216,at:4), (pv:1217,at:8), (pv:1218,at:13), (pv:1219,at:1), (pv:1220,at:4), (pv:1221,at:9), (pv:1222,at:87), (pv:1223,at:71), (pv:1224,at:1), (pv:1225,at:5), (pv:1226,at:11), (pv:1227,at:1), (pv:1228,at:5), (pv:1229,at:1), (pv:1230,at:1), (pv:1231,at:5), (pv:1232,at:2), (pv:1233,at:2), (pv:1234,at:23), (pv:1235,at:2)]
[INFO ] fr.inria.main.evolution.AstorMain.run(AstorMain.java:163) - Time Total(s): 11192.03
