Warning: no access to tty (Bad file descriptor).
Thus no job control in this shell.
tput: No value for $TERM and no -T specified
Node: hu05.sciclone.wm.edu
[INFO ] fr.inria.main.AbstractMain.processArguments(AbstractMain.java:295) - command line arguments: [-out  /local/scr/mtufano/Lang/14/b/similar-local-types-default/2  -jvm4testexecution  /usr/local/jdk1.7.0_80/bin/  -loglevel  INFO  -maxVarCombination  1000  -maxgen  1000000  -population  1  -maxtime  180  -timezone  America/New_York  -customop  fr.inria.astor.approaches.jgenprog.operators.InsertAfterOp:fr.inria.astor.approaches.jgenprog.operators.InsertBeforeOp:fr.inria.astor.approaches.jgenprog.operators.ReplaceOp  -seed  2  -javacompliancelevel  5  -package  org.apache.commons  -binjavafolder  target/classes/  -bintestfolder  target/tests/  -srcjavafolder  src/main/java/  -srctestfolder  src/test/java/  -learningdir  ../../out/learningdir/Lang/14/b/  -location  ../../dat/defects4j/Lang/14/b/  -failing  org.apache.commons.lang3.StringUtilsEqualsIndexOfTest  -dependencies  ../../dat/libs/Lang/cglib.jar:../../dat/libs/Lang/commons-io.jar:../../dat/libs/Lang/asm.jar:../../dat/libs/Lang/easymock.jar  -classestoinstrument  org.apache.commons.lang3.CharSequenceUtils:org.apache.commons.lang3.StringUtils  -regressiontestcases4fl  org.apache.commons.lang3.ArrayUtilsTest:org.apache.commons.lang3.CharSetUtilsTest:org.apache.commons.lang3.CharUtilsTest:org.apache.commons.lang3.ClassUtilsTest:org.apache.commons.lang3.StringEscapeUtilsTest:org.apache.commons.lang3.StringUtilsEqualsIndexOfTest:org.apache.commons.lang3.StringUtilsIsTest:org.apache.commons.lang3.StringUtilsStartsEndsWithTest:org.apache.commons.lang3.StringUtilsSubstringTest:org.apache.commons.lang3.StringUtilsTest:org.apache.commons.lang3.StringUtilsTrimEmptyTest:org.apache.commons.lang3.ValidateTest:org.apache.commons.lang3.exception.ContextedExceptionTest:org.apache.commons.lang3.exception.ContextedRuntimeExceptionTest:org.apache.commons.lang3.exception.DefaultExceptionContextTest:org.apache.commons.lang3.exception.ExceptionUtilsTest:org.apache.commons.lang3.math.NumberUtilsTest:org.apache.commons.lang3.text.StrBuilderTest:org.apache.commons.lang3.text.StrMatcherTest:org.apache.commons.lang3.text.StrSubstitutorTest:org.apache.commons.lang3.text.StrTokenizerTest:org.apache.commons.lang3.text.WordUtilsTest:org.apache.commons.lang3.time.DurationFormatUtilsTest:org.apache.commons.lang3.time.StopWatchTest  -scope  fr.inria.astor.core.loop.spaces.ingredients.scopes.ctscopes.CtClassIngredientSpace  -ingredientstrategy  fr.inria.astor.core.loop.spaces.ingredients.ingredientSearch.CloneIngredientSearchStrategy  -clonegranularity  spoon.reflect.declaration.CtType]
[INFO ] fr.inria.astor.core.manipulation.MutationSupporter.buildModel(MutationSupporter.java:76) - building model: /local/scr/mtufano/Lang/14/b/similar-local-types-default/2/AstorMain-b//src//default, compliance level: 5
[INFO ] fr.inria.astor.core.manipulation.MutationSupporter.buildModel(MutationSupporter.java:85) - Classpath for building SpoonModel [/sciclone/data20/mtufano/deeprepair/bin/eval/../../dat/libs/Lang/cglib.jar, /sciclone/data20/mtufano/deeprepair/bin/eval/../../dat/libs/Lang/commons-io.jar, /sciclone/data20/mtufano/deeprepair/bin/eval/../../dat/libs/Lang/asm.jar, /sciclone/data20/mtufano/deeprepair/bin/eval/../../dat/libs/Lang/easymock.jar]
[INFO ] fr.inria.astor.core.setup.ProjectRepairFacade.calculateSuspicious(ProjectRepairFacade.java:215) - -Executing Gzoltar classpath: /local/scr/mtufano/Lang/14/b/similar-local-types-default/2/AstorMain-b//bin//default from 24 classes with test cases
[INFO ] fr.inria.astor.core.faultlocalization.GZoltarFaultLocalization.searchSuspicious(GZoltarFaultLocalization.java:37) - Gzoltar fault localization: min susp value parameter: 0.1
[INFO ] fr.inria.astor.core.faultlocalization.GZoltarFaultLocalization.searchSuspicious(GZoltarFaultLocalization.java:57) - -gz-Adding classpath: [/local/scr/mtufano/Lang/14/b/similar-local-types-default/2/AstorMain-b//bin//default, /sciclone/data20/mtufano/deeprepair/bin/eval/../../dat/libs/Lang/cglib.jar, /sciclone/data20/mtufano/deeprepair/bin/eval/../../dat/libs/Lang/asm.jar, /sciclone/data20/mtufano/deeprepair/bin/eval/../../dat/libs/Lang/easymock.jar, /sciclone/data20/mtufano/deeprepair/bin/eval/../../dat/libs/Lang/commons-io.jar]
[INFO ] fr.inria.astor.core.faultlocalization.GZoltarFaultLocalization.searchSuspicious(GZoltarFaultLocalization.java:76) - Test failt: org.apache.commons.lang3.StringUtilsEqualsIndexOfTest#testEquals
[INFO ] fr.inria.astor.core.faultlocalization.GZoltarFaultLocalization.searchSuspicious(GZoltarFaultLocalization.java:81) - Gzoltar Test Result Total:834, fails: 1, GZoltar suspicious 5112
[INFO ] fr.inria.astor.core.faultlocalization.GZoltarFaultLocalization.searchSuspicious(GZoltarFaultLocalization.java:123) - Gzoltar found: 4 with susp > 0.1, we consider: 4
[INFO ] fr.inria.astor.approaches.jgenprog.JGenProg.initPopulation(JGenProg.java:80) - 
---- Initial suspicious size: 4
[INFO ] fr.inria.astor.core.loop.population.ProgramVariantFactory.createProgramInstance(ProgramVariantFactory.java:130) - Total suspicious from FL: 4,  4
[INFO ] fr.inria.astor.core.loop.population.ProgramVariantFactory.createProgramInstance(ProgramVariantFactory.java:138) - Total ModPoint created: 4
[INFO ] fr.inria.astor.core.loop.population.ProgramVariantFactory.createInitialPopulation(ProgramVariantFactory.java:82) - Creating program variant #1, [Variant id: 1, #gens: 4, #ops: 0, parent:-]
[INFO ] fr.inria.astor.core.setup.ConfigurationProperties.print(ConfigurationProperties.java:63) - ----------------------------
[INFO ] fr.inria.astor.core.setup.ConfigurationProperties.print(ConfigurationProperties.java:64) - ---Configuration properties:---Execution values
[INFO ] fr.inria.astor.core.setup.ConfigurationProperties.print(ConfigurationProperties.java:66) - p:lastJUnitVersion= ./examples/libs/junit-4.11.jar
[INFO ] fr.inria.astor.core.setup.ConfigurationProperties.print(ConfigurationProperties.java:66) - p:alternativecompliancelevel= 4
[INFO ] fr.inria.astor.core.setup.ConfigurationProperties.print(ConfigurationProperties.java:66) - p:ignoredTestCases= 
[INFO ] fr.inria.astor.core.setup.ConfigurationProperties.print(ConfigurationProperties.java:66) - p:workingDirectory= /local/scr/mtufano/Lang/14/b/similar-local-types-default/2
[INFO ] fr.inria.astor.core.setup.ConfigurationProperties.print(ConfigurationProperties.java:66) - p:manipulatesuper= false
[INFO ] fr.inria.astor.core.setup.ConfigurationProperties.print(ConfigurationProperties.java:66) - p:validation= process
[INFO ] fr.inria.astor.core.setup.ConfigurationProperties.print(ConfigurationProperties.java:66) - p:jvm4testexecution= /usr/local/jdk1.7.0_80/bin/
[INFO ] fr.inria.astor.core.setup.ConfigurationProperties.print(ConfigurationProperties.java:66) - p:binjavafolder= target/classes/
[INFO ] fr.inria.astor.core.setup.ConfigurationProperties.print(ConfigurationProperties.java:66) - p:evosuiteresultfolder= evosuite
[INFO ] fr.inria.astor.core.setup.ConfigurationProperties.print(ConfigurationProperties.java:66) - p:flthreshold= 0.1
[INFO ] fr.inria.astor.core.setup.ConfigurationProperties.print(ConfigurationProperties.java:66) - p:regressionforfaultlocalization= true
[INFO ] fr.inria.astor.core.setup.ConfigurationProperties.print(ConfigurationProperties.java:66) - p:tmax2= 960000
[INFO ] fr.inria.astor.core.setup.ConfigurationProperties.print(ConfigurationProperties.java:66) - p:tmax1= 120000
[INFO ] fr.inria.astor.core.setup.ConfigurationProperties.print(ConfigurationProperties.java:66) - p:probagenmutation= false
[INFO ] fr.inria.astor.core.setup.ConfigurationProperties.print(ConfigurationProperties.java:66) - p:srctestfolder= src/test/java/
[INFO ] fr.inria.astor.core.setup.ConfigurationProperties.print(ConfigurationProperties.java:66) - p:customop= fr.inria.astor.approaches.jgenprog.operators.InsertAfterOp:fr.inria.astor.approaches.jgenprog.operators.InsertBeforeOp:fr.inria.astor.approaches.jgenprog.operators.ReplaceOp
[INFO ] fr.inria.astor.core.setup.ConfigurationProperties.print(ConfigurationProperties.java:66) - p:forceExecuteRegression= false
[INFO ] fr.inria.astor.core.setup.ConfigurationProperties.print(ConfigurationProperties.java:66) - p:clusteringfilename= clustering.csv
[INFO ] fr.inria.astor.core.setup.ConfigurationProperties.print(ConfigurationProperties.java:66) - p:failing= org.apache.commons.lang3.StringUtilsEqualsIndexOfTest
[INFO ] fr.inria.astor.core.setup.ConfigurationProperties.print(ConfigurationProperties.java:66) - p:evo_buggy_class= true
[INFO ] fr.inria.astor.core.setup.ConfigurationProperties.print(ConfigurationProperties.java:66) - p:numberExecutions= 1
[INFO ] fr.inria.astor.core.setup.ConfigurationProperties.print(ConfigurationProperties.java:66) - p:evo_affected_by_op= true
[INFO ] fr.inria.astor.core.setup.ConfigurationProperties.print(ConfigurationProperties.java:66) - p:population= 1
[INFO ] fr.inria.astor.core.setup.ConfigurationProperties.print(ConfigurationProperties.java:66) - p:clonegranularity= spoon.reflect.declaration.CtType
[INFO ] fr.inria.astor.core.setup.ConfigurationProperties.print(ConfigurationProperties.java:66) - p:regressiontestcases4fl= org.apache.commons.lang3.ArrayUtilsTest:org.apache.commons.lang3.CharSetUtilsTest:org.apache.commons.lang3.CharUtilsTest:org.apache.commons.lang3.ClassUtilsTest:org.apache.commons.lang3.StringEscapeUtilsTest:org.apache.commons.lang3.StringUtilsEqualsIndexOfTest:org.apache.commons.lang3.StringUtilsIsTest:org.apache.commons.lang3.StringUtilsStartsEndsWithTest:org.apache.commons.lang3.StringUtilsSubstringTest:org.apache.commons.lang3.StringUtilsTest:org.apache.commons.lang3.StringUtilsTrimEmptyTest:org.apache.commons.lang3.ValidateTest:org.apache.commons.lang3.exception.ContextedExceptionTest:org.apache.commons.lang3.exception.ContextedRuntimeExceptionTest:org.apache.commons.lang3.exception.DefaultExceptionContextTest:org.apache.commons.lang3.exception.ExceptionUtilsTest:org.apache.commons.lang3.math.NumberUtilsTest:org.apache.commons.lang3.text.StrBuilderTest:org.apache.commons.lang3.text.StrMatcherTest:org.apache.commons.lang3.text.StrSubstitutorTest:org.apache.commons.lang3.text.StrTokenizerTest:org.apache.commons.lang3.text.WordUtilsTest:org.apache.commons.lang3.time.DurationFormatUtilsTest:org.apache.commons.lang3.time.StopWatchTest
[INFO ] fr.inria.astor.core.setup.ConfigurationProperties.print(ConfigurationProperties.java:66) - p:savesolution= true
[INFO ] fr.inria.astor.core.setup.ConfigurationProperties.print(ConfigurationProperties.java:66) - p:javacompliancelevel= 5
[INFO ] fr.inria.astor.core.setup.ConfigurationProperties.print(ConfigurationProperties.java:66) - p:uniqueoptogen= false
[INFO ] fr.inria.astor.core.setup.ConfigurationProperties.print(ConfigurationProperties.java:66) - p:projectIdentifier= 
[INFO ] fr.inria.astor.core.setup.ConfigurationProperties.print(ConfigurationProperties.java:66) - p:modificationpointnavigation= weight
[INFO ] fr.inria.astor.core.setup.ConfigurationProperties.print(ConfigurationProperties.java:66) - p:stopfirst= false
[INFO ] fr.inria.astor.core.setup.ConfigurationProperties.print(ConfigurationProperties.java:66) - p:multipointmodification= false
[INFO ] fr.inria.astor.core.setup.ConfigurationProperties.print(ConfigurationProperties.java:66) - p:elementsToMutate= 10
[INFO ] fr.inria.astor.core.setup.ConfigurationProperties.print(ConfigurationProperties.java:66) - p:evoDSE= false
[INFO ] fr.inria.astor.core.setup.ConfigurationProperties.print(ConfigurationProperties.java:66) - p:bintestfolder= target/tests/
[INFO ] fr.inria.astor.core.setup.ConfigurationProperties.print(ConfigurationProperties.java:66) - p:testbystep= false
[INFO ] fr.inria.astor.core.setup.ConfigurationProperties.print(ConfigurationProperties.java:66) - p:version-location= ./math-version/
[INFO ] fr.inria.astor.core.setup.ConfigurationProperties.print(ConfigurationProperties.java:66) - p:reintroduce= PARENTS
[INFO ] fr.inria.astor.core.setup.ConfigurationProperties.print(ConfigurationProperties.java:66) - p:maxGeneration= 1000000
[INFO ] fr.inria.astor.core.setup.ConfigurationProperties.print(ConfigurationProperties.java:66) - p:maxVarCombination= 1000
[INFO ] fr.inria.astor.core.setup.ConfigurationProperties.print(ConfigurationProperties.java:66) - p:maxtime= 180
[INFO ] fr.inria.astor.core.setup.ConfigurationProperties.print(ConfigurationProperties.java:66) - p:evosuitejar= ./lib/evosuite-master-1.0.4-SNAPSHOT.jar
[INFO ] fr.inria.astor.core.setup.ConfigurationProperties.print(ConfigurationProperties.java:66) - p:commandTrunk= 50000
[INFO ] fr.inria.astor.core.setup.ConfigurationProperties.print(ConfigurationProperties.java:66) - p:faultlocalization= fr.inria.astor.core.faultlocalization.GZoltarFaultLocalization
[INFO ] fr.inria.astor.core.setup.ConfigurationProperties.print(ConfigurationProperties.java:66) - p:maxsuspcandidates= 1000
[INFO ] fr.inria.astor.core.setup.ConfigurationProperties.print(ConfigurationProperties.java:66) - p:mode= statement
[INFO ] fr.inria.astor.core.setup.ConfigurationProperties.print(ConfigurationProperties.java:66) - p:learningdir= ../../out/learningdir/Lang/14/b/
[INFO ] fr.inria.astor.core.setup.ConfigurationProperties.print(ConfigurationProperties.java:66) - p:jvm4evosuitetestexecution= /usr/local/jdk1.7.0_80/bin/
[INFO ] fr.inria.astor.core.setup.ConfigurationProperties.print(ConfigurationProperties.java:66) - p:filterfaultlocalization= true
[INFO ] fr.inria.astor.core.setup.ConfigurationProperties.print(ConfigurationProperties.java:66) - p:mutationrate= 1 
[INFO ] fr.inria.astor.core.setup.ConfigurationProperties.print(ConfigurationProperties.java:66) - p:pathToMVNRepository= 
[INFO ] fr.inria.astor.core.setup.ConfigurationProperties.print(ConfigurationProperties.java:66) - p:resourcesfolder= /src/main/resources:/src/test/resources:
[INFO ] fr.inria.astor.core.setup.ConfigurationProperties.print(ConfigurationProperties.java:66) - p:timezone= America/New_York
[INFO ] fr.inria.astor.core.setup.ConfigurationProperties.print(ConfigurationProperties.java:66) - p:classestoinstrument= org.apache.commons.lang3.CharSequenceUtils:org.apache.commons.lang3.StringUtils
[INFO ] fr.inria.astor.core.setup.ConfigurationProperties.print(ConfigurationProperties.java:66) - p:evoRunOnBuggyClass= true
[INFO ] fr.inria.astor.core.setup.ConfigurationProperties.print(ConfigurationProperties.java:66) - p:compiler= fr.inria.astor.core.manipulation.bytecode.compiler.SpoonClassCompiler
[INFO ] fr.inria.astor.core.setup.ConfigurationProperties.print(ConfigurationProperties.java:66) - p:dependenciespath= ../../dat/libs/Lang/cglib.jar:../../dat/libs/Lang/commons-io.jar:../../dat/libs/Lang/asm.jar:../../dat/libs/Lang/easymock.jar
[INFO ] fr.inria.astor.core.setup.ConfigurationProperties.print(ConfigurationProperties.java:66) - p:skipfaultlocalization= false
[INFO ] fr.inria.astor.core.setup.ConfigurationProperties.print(ConfigurationProperties.java:66) - p:packageToInstrument= org.apache.commons
[INFO ] fr.inria.astor.core.setup.ConfigurationProperties.print(ConfigurationProperties.java:66) - p:scope= fr.inria.astor.core.loop.spaces.ingredients.scopes.ctscopes.CtClassIngredientSpace
[INFO ] fr.inria.astor.core.setup.ConfigurationProperties.print(ConfigurationProperties.java:66) - p:transformingredient= false
[INFO ] fr.inria.astor.core.setup.ConfigurationProperties.print(ConfigurationProperties.java:66) - p:fitnessfunction= fr.inria.astor.core.loop.population.TestCaseFitnessFunction
[INFO ] fr.inria.astor.core.setup.ConfigurationProperties.print(ConfigurationProperties.java:66) - p:pvariantfoldername= variant-
[INFO ] fr.inria.astor.core.setup.ConfigurationProperties.print(ConfigurationProperties.java:66) - p:srcjavafolder= src/main/java/
[INFO ] fr.inria.astor.core.setup.ConfigurationProperties.print(ConfigurationProperties.java:66) - p:populationcontroller= fr.inria.astor.core.loop.population.TestCaseBasedFitnessPopulationController
[INFO ] fr.inria.astor.core.setup.ConfigurationProperties.print(ConfigurationProperties.java:66) - p:ignoreflakyinfl= false
[INFO ] fr.inria.astor.core.setup.ConfigurationProperties.print(ConfigurationProperties.java:66) - p:applyCrossover= false
[INFO ] fr.inria.astor.core.setup.ConfigurationProperties.print(ConfigurationProperties.java:66) - p:saveall= false
[INFO ] fr.inria.astor.core.setup.ConfigurationProperties.print(ConfigurationProperties.java:66) - p:seed= 2
[INFO ] fr.inria.astor.core.setup.ConfigurationProperties.print(ConfigurationProperties.java:66) - p:resetoperations= false
[INFO ] fr.inria.astor.core.setup.ConfigurationProperties.print(ConfigurationProperties.java:66) - p:location= ../../dat/defects4j/Lang/14/b/
[INFO ] fr.inria.astor.core.setup.ConfigurationProperties.print(ConfigurationProperties.java:66) - p:ingredientstrategy= fr.inria.astor.core.loop.spaces.ingredients.ingredientSearch.CloneIngredientSearchStrategy
[INFO ] fr.inria.astor.core.setup.ConfigurationProperties.print(ConfigurationProperties.java:66) - p:allpoints= false
[INFO ] fr.inria.astor.core.setup.ConfigurationProperties.print(ConfigurationProperties.java:66) - p:bugId= 280
[INFO ] fr.inria.astor.core.setup.ConfigurationProperties.print(ConfigurationProperties.java:66) - p:evosuitetimeout= 120
[INFO ] fr.inria.astor.core.setup.ConfigurationProperties.print(ConfigurationProperties.java:68) - ----------------------------
[INFO ] fr.inria.astor.core.loop.AstorCoreEngine.startEvolution(AstorCoreEngine.java:119) - 
----Starting Solution Search
0-->2org.apache.commons.lang3.StringUtils
[INFO ] fr.inria.astor.core.loop.AstorCoreEngine.belowMaxTime(AstorCoreEngine.java:203) - 
 No more time for operating
[INFO ] fr.inria.astor.core.loop.AstorCoreEngine.startEvolution(AstorCoreEngine.java:143) - Time Repair Loop (s): 10860.11
[INFO ] fr.inria.astor.core.loop.AstorCoreEngine.showResults(AstorCoreEngine.java:165) - 
----SUMMARY_EXECUTION---
[INFO ] fr.inria.astor.approaches.jgenprog.JGenProg.showResults(JGenProg.java:332) - 
successful_ing_attempts (#trials 0, totalAttps 0): []
[INFO ] fr.inria.astor.approaches.jgenprog.JGenProg.showResults(JGenProg.java:334) - 
failing_ing_attempts (#trials 610, totalAttps 6678): [3, 3, 3, 3, 3, 3, 1, 15, 2, 6, 3, 2, 1, 3, 11, 1, 3, 15, 2, 1, 1, 3, 9, 3, 1, 1, 26, 9, 1, 9, 2, 10, 9, 7, 2, 1, 2, 1, 2, 10, 10, 9, 6, 13, 9, 2, 9, 7, 10, 10, 66, 1, 10, 9, 7, 9, 8, 7, 8, 3, 9, 195, 1, 26, 195, 10, 9, 8, 1, 25, 8, 7, 9, 3, 10, 8, 8, 3, 7, 9, 10, 1, 1, 3, 7, 8, 8, 10, 8, 3, 3, 1, 8, 9, 8, 1, 1, 1, 9, 66, 1, 25, 3, 8, 7, 9, 3, 3, 1, 1, 3, 1, 3, 1, 1, 8, 1, 1, 8, 3, 3, 1, 1, 3, 1, 3, 3, 1, 1, 1, 3, 1, 3, 8, 3, 1, 1, 1, 8, 3, 1, 1, 1, 1, 1, 1, 1, 1, 3, 1, 1, 1, 1, 1, 1, 1, 1, 3, 2, 3, 1, 1, 1, 2, 1, 3, 1, 1, 1, 1, 1, 1, 1, 1, 1, 3, 3, 1, 1, 1, 1, 1, 1, 2, 8, 8, 2, 1, 3, 1, 1, 1, 4, 2, 1, 2, 8, 3, 1, 2, 8, 1, 3, 3, 1, 8, 2, 1, 3, 1, 1, 4, 11, 68, 11, 1, 4, 68, 3, 11, 4, 4, 68, 31, 8, 8, 8, 1, 1, 4, 31, 1, 2, 31, 11, 8, 4, 68, 1, 1, 11, 9, 41, 1, 2, 68, 2, 31, 4, 8, 1, 31, 4, 2, 8, 1, 11, 11, 8, 9, 9, 68, 68, 31, 9, 11, 68, 41, 41, 31, 4, 1, 1, 2, 1, 2, 4, 8, 2, 41, 23, 4, 8, 1, 1, 1, 31, 2, 9, 1, 23, 41, 1, 2, 23, 4, 1, 1, 1, 1, 2, 2, 2, 23, 1, 9, 23, 17, 41, 1, 2, 4, 1, 1, 1, 1, 1, 1, 8, 17, 2, 9, 8, 1, 23, 1, 1, 1, 17, 1, 1, 1, 1, 17, 1, 1, 1, 1, 14, 17, 14, 41, 9, 14, 17, 17, 41, 17, 1, 4, 1, 1, 1, 33, 14, 1, 1, 17, 4, 33, 17, 1, 13, 41, 33, 2, 13, 1, 2, 41, 23, 13, 33, 41, 1, 1, 23, 7, 7, 14, 13, 1, 1, 1, 14, 17, 41, 10, 17, 33, 7, 26, 1, 1, 7, 112, 33, 1, 13, 1, 10, 1, 26, 112, 10, 26, 1, 2, 2, 112, 1, 13, 37, 1, 1, 41, 1, 17, 17, 37, 10, 7, 7, 1, 1, 26, 41, 1, 1, 14, 112, 14, 2, 17, 2, 37, 3, 37, 3, 17, 7, 7, 22, 22, 1, 33, 7, 1, 1, 1, 13, 7, 3, 33, 1, 1, 1, 10, 41, 10, 13, 22, 41, 1, 7, 1, 1, 3, 5, 26, 1, 5, 22, 26, 1, 112, 7, 1, 1, 112, 1, 1, 1, 2, 2, 2, 10, 2, 10, 26, 1, 1, 26, 37, 112, 7, 2, 37, 10, 3, 37, 5, 7, 3, 22, 112, 5, 7, 1, 2, 1, 1, 1, 22, 1, 3, 37, 5, 1, 2, 17, 2, 16, 1, 1, 7, 1, 10, 22, 5, 1, 1, 1, 10, 1, 2, 1, 13, 17, 2, 16, 1, 17, 16, 3, 1, 1, 22, 1, 1, 1, 1, 13, 10, 1, 17, 10, 1, 5, 1, 16, 1, 1, 5, 17, 1, 16, 2, 1, 1, 10, 2, 10, 13, 17, 13, 1, 1, 16, 1, 1, 1, 1, 1, 1, 13, 13, 17, 13, 10, 1, 17, 13, 13, 16, 1, 16, 1, 1, 13, 1, 13, 13, 1, 1, 13, 13, 1, 13, 13]
[INFO ] fr.inria.astor.approaches.jgenprog.JGenProg.showResults(JGenProg.java:337) - 
total Patch Attempts (0): []
[INFO ] fr.inria.astor.approaches.jgenprog.JGenProg.showResults(JGenProg.java:339) - 
successful_ing_attempts_by_patch: []
[INFO ] fr.inria.astor.approaches.jgenprog.JGenProg.showResults(JGenProg.java:340) - 
failing_ing_attempts_by_patch: [(pv:2,at:3), (pv:3,at:3), (pv:4,at:3), (pv:5,at:3), (pv:6,at:3), (pv:7,at:3), (pv:8,at:1), (pv:9,at:15), (pv:10,at:2), (pv:11,at:6), (pv:12,at:3), (pv:13,at:2), (pv:14,at:1), (pv:15,at:3), (pv:16,at:11), (pv:17,at:1), (pv:18,at:3), (pv:19,at:15), (pv:20,at:2), (pv:21,at:1), (pv:22,at:1), (pv:23,at:3), (pv:24,at:9), (pv:25,at:3), (pv:26,at:1), (pv:27,at:1), (pv:28,at:26), (pv:29,at:9), (pv:30,at:1), (pv:31,at:9), (pv:32,at:2), (pv:33,at:10), (pv:34,at:9), (pv:35,at:7), (pv:36,at:2), (pv:37,at:1), (pv:38,at:2), (pv:39,at:1), (pv:40,at:2), (pv:41,at:10), (pv:42,at:10), (pv:43,at:9), (pv:44,at:6), (pv:45,at:13), (pv:46,at:9), (pv:47,at:2), (pv:48,at:9), (pv:49,at:7), (pv:50,at:10), (pv:51,at:10), (pv:52,at:66), (pv:53,at:1), (pv:54,at:10), (pv:55,at:9), (pv:56,at:7), (pv:57,at:9), (pv:58,at:8), (pv:59,at:7), (pv:60,at:8), (pv:61,at:3), (pv:62,at:9), (pv:63,at:195), (pv:64,at:1), (pv:65,at:26), (pv:66,at:195), (pv:67,at:10), (pv:68,at:9), (pv:69,at:8), (pv:70,at:1), (pv:71,at:25), (pv:72,at:8), (pv:73,at:7), (pv:74,at:9), (pv:75,at:3), (pv:76,at:10), (pv:77,at:8), (pv:78,at:8), (pv:79,at:3), (pv:80,at:7), (pv:81,at:9), (pv:82,at:10), (pv:83,at:1), (pv:84,at:1), (pv:85,at:3), (pv:86,at:7), (pv:87,at:8), (pv:88,at:8), (pv:89,at:10), (pv:90,at:8), (pv:91,at:3), (pv:92,at:3), (pv:93,at:1), (pv:94,at:8), (pv:95,at:9), (pv:96,at:8), (pv:97,at:1), (pv:98,at:1), (pv:99,at:1), (pv:100,at:9), (pv:101,at:66), (pv:102,at:1), (pv:103,at:25), (pv:104,at:3), (pv:105,at:8), (pv:106,at:7), (pv:107,at:9), (pv:108,at:3), (pv:109,at:3), (pv:110,at:1), (pv:111,at:1), (pv:112,at:3), (pv:113,at:1), (pv:114,at:3), (pv:115,at:1), (pv:116,at:1), (pv:117,at:8), (pv:118,at:1), (pv:119,at:1), (pv:120,at:8), (pv:121,at:3), (pv:122,at:3), (pv:123,at:1), (pv:124,at:1), (pv:125,at:3), (pv:126,at:1), (pv:127,at:3), (pv:128,at:3), (pv:129,at:1), (pv:130,at:1), (pv:131,at:1), (pv:132,at:3), (pv:133,at:1), (pv:134,at:3), (pv:135,at:8), (pv:136,at:3), (pv:137,at:1), (pv:138,at:1), (pv:139,at:1), (pv:140,at:8), (pv:141,at:3), (pv:142,at:1), (pv:143,at:1), (pv:144,at:1), (pv:145,at:1), (pv:146,at:1), (pv:147,at:1), (pv:148,at:1), (pv:149,at:1), (pv:150,at:3), (pv:151,at:1), (pv:152,at:1), (pv:153,at:1), (pv:154,at:1), (pv:155,at:1), (pv:156,at:1), (pv:157,at:1), (pv:158,at:1), (pv:159,at:3), (pv:160,at:2), (pv:161,at:3), (pv:162,at:1), (pv:163,at:1), (pv:164,at:1), (pv:165,at:2), (pv:166,at:1), (pv:167,at:3), (pv:168,at:1), (pv:169,at:1), (pv:170,at:1), (pv:172,at:1), (pv:173,at:1), (pv:174,at:1), (pv:175,at:1), (pv:176,at:1), (pv:177,at:1), (pv:178,at:3), (pv:179,at:3), (pv:180,at:1), (pv:181,at:1), (pv:182,at:1), (pv:183,at:1), (pv:184,at:1), (pv:185,at:1), (pv:186,at:2), (pv:187,at:8), (pv:188,at:8), (pv:189,at:2), (pv:190,at:1), (pv:191,at:3), (pv:192,at:1), (pv:193,at:1), (pv:194,at:1), (pv:195,at:4), (pv:196,at:2), (pv:197,at:1), (pv:198,at:2), (pv:199,at:8), (pv:200,at:3), (pv:201,at:1), (pv:202,at:2), (pv:203,at:8), (pv:204,at:1), (pv:205,at:3), (pv:206,at:3), (pv:207,at:1), (pv:208,at:8), (pv:209,at:2), (pv:210,at:1), (pv:211,at:3), (pv:212,at:1), (pv:213,at:1), (pv:214,at:4), (pv:215,at:11), (pv:216,at:68), (pv:217,at:11), (pv:218,at:1), (pv:219,at:4), (pv:220,at:68), (pv:221,at:3), (pv:222,at:11), (pv:223,at:4), (pv:224,at:4), (pv:225,at:68), (pv:226,at:31), (pv:227,at:8), (pv:228,at:8), (pv:229,at:8), (pv:230,at:1), (pv:231,at:1), (pv:232,at:4), (pv:233,at:31), (pv:234,at:1), (pv:235,at:2), (pv:236,at:31), (pv:237,at:11), (pv:238,at:8), (pv:239,at:4), (pv:240,at:68), (pv:241,at:1), (pv:242,at:1), (pv:243,at:11), (pv:244,at:9), (pv:245,at:41), (pv:246,at:1), (pv:247,at:2), (pv:248,at:68), (pv:249,at:2), (pv:250,at:31), (pv:251,at:4), (pv:252,at:8), (pv:253,at:1), (pv:254,at:31), (pv:255,at:4), (pv:256,at:2), (pv:257,at:8), (pv:258,at:1), (pv:259,at:11), (pv:260,at:11), (pv:261,at:8), (pv:262,at:9), (pv:263,at:9), (pv:264,at:68), (pv:265,at:68), (pv:266,at:31), (pv:267,at:9), (pv:268,at:11), (pv:269,at:68), (pv:270,at:41), (pv:271,at:41), (pv:272,at:31), (pv:273,at:4), (pv:274,at:1), (pv:275,at:1), (pv:276,at:2), (pv:277,at:1), (pv:278,at:2), (pv:279,at:4), (pv:280,at:8), (pv:281,at:2), (pv:282,at:41), (pv:283,at:23), (pv:284,at:4), (pv:285,at:8), (pv:286,at:1), (pv:287,at:1), (pv:288,at:1), (pv:289,at:31), (pv:290,at:2), (pv:291,at:9), (pv:292,at:1), (pv:293,at:23), (pv:294,at:41), (pv:295,at:1), (pv:296,at:2), (pv:297,at:23), (pv:298,at:4), (pv:299,at:1), (pv:300,at:1), (pv:301,at:1), (pv:302,at:1), (pv:303,at:2), (pv:304,at:2), (pv:305,at:2), (pv:306,at:23), (pv:307,at:1), (pv:308,at:9), (pv:309,at:23), (pv:310,at:17), (pv:311,at:41), (pv:312,at:1), (pv:313,at:2), (pv:314,at:4), (pv:315,at:1), (pv:316,at:1), (pv:317,at:1), (pv:318,at:1), (pv:319,at:1), (pv:320,at:1), (pv:321,at:8), (pv:322,at:17), (pv:323,at:2), (pv:324,at:9), (pv:325,at:8), (pv:326,at:1), (pv:327,at:23), (pv:328,at:1), (pv:329,at:1), (pv:330,at:1), (pv:331,at:17), (pv:332,at:1), (pv:333,at:1), (pv:334,at:1), (pv:335,at:1), (pv:336,at:17), (pv:337,at:1), (pv:338,at:1), (pv:339,at:1), (pv:340,at:1), (pv:341,at:14), (pv:342,at:17), (pv:343,at:14), (pv:344,at:41), (pv:345,at:9), (pv:346,at:14), (pv:347,at:17), (pv:348,at:17), (pv:349,at:41), (pv:350,at:17), (pv:351,at:1), (pv:352,at:4), (pv:353,at:1), (pv:354,at:1), (pv:355,at:1), (pv:356,at:33), (pv:357,at:14), (pv:358,at:1), (pv:359,at:1), (pv:360,at:17), (pv:361,at:4), (pv:362,at:33), (pv:363,at:17), (pv:364,at:1), (pv:365,at:13), (pv:366,at:41), (pv:367,at:33), (pv:368,at:2), (pv:369,at:13), (pv:370,at:1), (pv:371,at:2), (pv:372,at:41), (pv:373,at:23), (pv:374,at:13), (pv:375,at:33), (pv:376,at:41), (pv:377,at:1), (pv:378,at:1), (pv:379,at:23), (pv:380,at:7), (pv:381,at:7), (pv:382,at:14), (pv:383,at:13), (pv:384,at:1), (pv:385,at:1), (pv:386,at:1), (pv:387,at:14), (pv:388,at:17), (pv:389,at:41), (pv:390,at:10), (pv:391,at:17), (pv:392,at:33), (pv:393,at:7), (pv:394,at:26), (pv:395,at:1), (pv:396,at:1), (pv:397,at:7), (pv:398,at:112), (pv:399,at:33), (pv:400,at:1), (pv:401,at:13), (pv:402,at:1), (pv:403,at:10), (pv:404,at:1), (pv:405,at:26), (pv:406,at:112), (pv:407,at:10), (pv:408,at:26), (pv:409,at:1), (pv:410,at:2), (pv:411,at:2), (pv:412,at:112), (pv:413,at:1), (pv:414,at:13), (pv:415,at:37), (pv:416,at:1), (pv:417,at:1), (pv:418,at:41), (pv:419,at:1), (pv:420,at:17), (pv:421,at:17), (pv:422,at:37), (pv:423,at:10), (pv:424,at:7), (pv:425,at:7), (pv:426,at:1), (pv:427,at:1), (pv:428,at:26), (pv:429,at:41), (pv:430,at:1), (pv:431,at:1), (pv:432,at:14), (pv:433,at:112), (pv:434,at:14), (pv:435,at:2), (pv:436,at:17), (pv:437,at:2), (pv:438,at:37), (pv:439,at:3), (pv:440,at:37), (pv:441,at:3), (pv:442,at:17), (pv:443,at:7), (pv:444,at:7), (pv:445,at:22), (pv:446,at:22), (pv:447,at:1), (pv:448,at:33), (pv:449,at:7), (pv:450,at:1), (pv:451,at:1), (pv:452,at:1), (pv:453,at:13), (pv:454,at:7), (pv:455,at:3), (pv:456,at:33), (pv:457,at:1), (pv:458,at:1), (pv:459,at:1), (pv:460,at:10), (pv:461,at:41), (pv:462,at:10), (pv:463,at:13), (pv:464,at:22), (pv:465,at:41), (pv:466,at:1), (pv:467,at:7), (pv:468,at:1), (pv:469,at:1), (pv:470,at:3), (pv:471,at:5), (pv:472,at:26), (pv:473,at:1), (pv:474,at:5), (pv:475,at:22), (pv:476,at:26), (pv:477,at:1), (pv:478,at:112), (pv:479,at:7), (pv:480,at:1), (pv:481,at:1), (pv:482,at:112), (pv:483,at:1), (pv:484,at:1), (pv:485,at:1), (pv:486,at:2), (pv:487,at:2), (pv:488,at:2), (pv:489,at:10), (pv:490,at:2), (pv:491,at:10), (pv:492,at:26), (pv:493,at:1), (pv:494,at:1), (pv:495,at:26), (pv:496,at:37), (pv:497,at:112), (pv:498,at:7), (pv:499,at:2), (pv:500,at:37), (pv:501,at:10), (pv:503,at:3), (pv:504,at:37), (pv:505,at:5), (pv:506,at:7), (pv:507,at:3), (pv:508,at:22), (pv:509,at:112), (pv:510,at:5), (pv:511,at:7), (pv:512,at:1), (pv:513,at:2), (pv:514,at:1), (pv:515,at:1), (pv:516,at:1), (pv:517,at:22), (pv:518,at:1), (pv:519,at:3), (pv:520,at:37), (pv:521,at:5), (pv:522,at:1), (pv:523,at:2), (pv:524,at:17), (pv:525,at:2), (pv:526,at:16), (pv:527,at:1), (pv:528,at:1), (pv:529,at:7), (pv:530,at:1), (pv:531,at:10), (pv:532,at:22), (pv:533,at:5), (pv:534,at:1), (pv:535,at:1), (pv:536,at:1), (pv:537,at:10), (pv:538,at:1), (pv:539,at:2), (pv:540,at:1), (pv:541,at:13), (pv:542,at:17), (pv:543,at:2), (pv:544,at:16), (pv:545,at:1), (pv:546,at:17), (pv:547,at:16), (pv:548,at:3), (pv:549,at:1), (pv:550,at:1), (pv:551,at:22), (pv:552,at:1), (pv:553,at:1), (pv:554,at:1), (pv:555,at:1), (pv:556,at:13), (pv:557,at:10), (pv:558,at:1), (pv:559,at:17), (pv:561,at:10), (pv:562,at:1), (pv:563,at:5), (pv:564,at:1), (pv:565,at:16), (pv:566,at:1), (pv:567,at:1), (pv:568,at:5), (pv:569,at:17), (pv:570,at:1), (pv:571,at:16), (pv:572,at:2), (pv:573,at:1), (pv:574,at:1), (pv:575,at:10), (pv:576,at:2), (pv:577,at:10), (pv:578,at:13), (pv:579,at:17), (pv:580,at:13), (pv:581,at:1), (pv:582,at:1), (pv:583,at:16), (pv:584,at:1), (pv:585,at:1), (pv:586,at:1), (pv:587,at:1), (pv:588,at:1), (pv:589,at:1), (pv:590,at:13), (pv:591,at:13), (pv:592,at:17), (pv:593,at:13), (pv:594,at:10), (pv:595,at:1), (pv:596,at:17), (pv:597,at:13), (pv:598,at:13), (pv:599,at:16), (pv:600,at:1), (pv:601,at:16), (pv:602,at:1), (pv:603,at:1), (pv:604,at:13), (pv:605,at:1), (pv:606,at:13), (pv:607,at:13), (pv:608,at:1), (pv:609,at:1), (pv:610,at:13), (pv:613,at:13), (pv:615,at:1), (pv:616,at:13), (pv:619,at:13)]
[INFO ] fr.inria.astor.approaches.jgenprog.JGenProg.showResults(JGenProg.java:342) - 
pvariants_with_transformed_ingredients: [(pv:2,at:3), (pv:3,at:3), (pv:4,at:3), (pv:5,at:3), (pv:6,at:3), (pv:7,at:3), (pv:8,at:1), (pv:9,at:15), (pv:10,at:2), (pv:11,at:6), (pv:12,at:3), (pv:13,at:2), (pv:14,at:1), (pv:15,at:3), (pv:16,at:11), (pv:17,at:1), (pv:18,at:3), (pv:19,at:15), (pv:20,at:2), (pv:21,at:1), (pv:22,at:1), (pv:23,at:3), (pv:24,at:9), (pv:25,at:3), (pv:26,at:1), (pv:27,at:1), (pv:28,at:26), (pv:29,at:9), (pv:30,at:1), (pv:31,at:9), (pv:32,at:2), (pv:33,at:10), (pv:34,at:9), (pv:35,at:7), (pv:36,at:2), (pv:37,at:1), (pv:38,at:2), (pv:39,at:1), (pv:40,at:2), (pv:41,at:10), (pv:42,at:10), (pv:43,at:9), (pv:44,at:6), (pv:45,at:13), (pv:46,at:9), (pv:47,at:2), (pv:48,at:9), (pv:49,at:7), (pv:50,at:10), (pv:51,at:10), (pv:52,at:66), (pv:53,at:1), (pv:54,at:10), (pv:55,at:9), (pv:56,at:7), (pv:57,at:9), (pv:58,at:8), (pv:59,at:7), (pv:60,at:8), (pv:61,at:3), (pv:62,at:9), (pv:63,at:195), (pv:64,at:1), (pv:65,at:26), (pv:66,at:195), (pv:67,at:10), (pv:68,at:9), (pv:69,at:8), (pv:70,at:1), (pv:71,at:25), (pv:72,at:8), (pv:73,at:7), (pv:74,at:9), (pv:75,at:3), (pv:76,at:10), (pv:77,at:8), (pv:78,at:8), (pv:79,at:3), (pv:80,at:7), (pv:81,at:9), (pv:82,at:10), (pv:83,at:1), (pv:84,at:1), (pv:85,at:3), (pv:86,at:7), (pv:87,at:8), (pv:88,at:8), (pv:89,at:10), (pv:90,at:8), (pv:91,at:3), (pv:92,at:3), (pv:93,at:1), (pv:94,at:8), (pv:95,at:9), (pv:96,at:8), (pv:97,at:1), (pv:98,at:1), (pv:99,at:1), (pv:100,at:9), (pv:101,at:66), (pv:102,at:1), (pv:103,at:25), (pv:104,at:3), (pv:105,at:8), (pv:106,at:7), (pv:107,at:9), (pv:108,at:3), (pv:109,at:3), (pv:110,at:1), (pv:111,at:1), (pv:112,at:3), (pv:113,at:1), (pv:114,at:3), (pv:115,at:1), (pv:116,at:1), (pv:117,at:8), (pv:118,at:1), (pv:119,at:1), (pv:120,at:8), (pv:121,at:3), (pv:122,at:3), (pv:123,at:1), (pv:124,at:1), (pv:125,at:3), (pv:126,at:1), (pv:127,at:3), (pv:128,at:3), (pv:129,at:1), (pv:130,at:1), (pv:131,at:1), (pv:132,at:3), (pv:133,at:1), (pv:134,at:3), (pv:135,at:8), (pv:136,at:3), (pv:137,at:1), (pv:138,at:1), (pv:139,at:1), (pv:140,at:8), (pv:141,at:3), (pv:142,at:1), (pv:143,at:1), (pv:144,at:1), (pv:145,at:1), (pv:146,at:1), (pv:147,at:1), (pv:148,at:1), (pv:149,at:1), (pv:150,at:3), (pv:151,at:1), (pv:152,at:1), (pv:153,at:1), (pv:154,at:1), (pv:155,at:1), (pv:156,at:1), (pv:157,at:1), (pv:158,at:1), (pv:159,at:3), (pv:160,at:2), (pv:161,at:3), (pv:162,at:1), (pv:163,at:1), (pv:164,at:1), (pv:165,at:2), (pv:166,at:1), (pv:167,at:3), (pv:168,at:1), (pv:169,at:1), (pv:170,at:1), (pv:172,at:1), (pv:173,at:1), (pv:174,at:1), (pv:175,at:1), (pv:176,at:1), (pv:177,at:1), (pv:178,at:3), (pv:179,at:3), (pv:180,at:1), (pv:181,at:1), (pv:182,at:1), (pv:183,at:1), (pv:184,at:1), (pv:185,at:1), (pv:186,at:2), (pv:187,at:8), (pv:188,at:8), (pv:189,at:2), (pv:190,at:1), (pv:191,at:3), (pv:192,at:1), (pv:193,at:1), (pv:194,at:1), (pv:195,at:4), (pv:196,at:2), (pv:197,at:1), (pv:198,at:2), (pv:199,at:8), (pv:200,at:3), (pv:201,at:1), (pv:202,at:2), (pv:203,at:8), (pv:204,at:1), (pv:205,at:3), (pv:206,at:3), (pv:207,at:1), (pv:208,at:8), (pv:209,at:2), (pv:210,at:1), (pv:211,at:3), (pv:212,at:1), (pv:213,at:1), (pv:214,at:4), (pv:215,at:11), (pv:216,at:68), (pv:217,at:11), (pv:218,at:1), (pv:219,at:4), (pv:220,at:68), (pv:221,at:3), (pv:222,at:11), (pv:223,at:4), (pv:224,at:4), (pv:225,at:68), (pv:226,at:31), (pv:227,at:8), (pv:228,at:8), (pv:229,at:8), (pv:230,at:1), (pv:231,at:1), (pv:232,at:4), (pv:233,at:31), (pv:234,at:1), (pv:235,at:2), (pv:236,at:31), (pv:237,at:11), (pv:238,at:8), (pv:239,at:4), (pv:240,at:68), (pv:241,at:1), (pv:242,at:1), (pv:243,at:11), (pv:244,at:9), (pv:245,at:41), (pv:246,at:1), (pv:247,at:2), (pv:248,at:68), (pv:249,at:2), (pv:250,at:31), (pv:251,at:4), (pv:252,at:8), (pv:253,at:1), (pv:254,at:31), (pv:255,at:4), (pv:256,at:2), (pv:257,at:8), (pv:258,at:1), (pv:259,at:11), (pv:260,at:11), (pv:261,at:8), (pv:262,at:9), (pv:263,at:9), (pv:264,at:68), (pv:265,at:68), (pv:266,at:31), (pv:267,at:9), (pv:268,at:11), (pv:269,at:68), (pv:270,at:41), (pv:271,at:41), (pv:272,at:31), (pv:273,at:4), (pv:274,at:1), (pv:275,at:1), (pv:276,at:2), (pv:277,at:1), (pv:278,at:2), (pv:279,at:4), (pv:280,at:8), (pv:281,at:2), (pv:282,at:41), (pv:283,at:23), (pv:284,at:4), (pv:285,at:8), (pv:286,at:1), (pv:287,at:1), (pv:288,at:1), (pv:289,at:31), (pv:290,at:2), (pv:291,at:9), (pv:292,at:1), (pv:293,at:23), (pv:294,at:41), (pv:295,at:1), (pv:296,at:2), (pv:297,at:23), (pv:298,at:4), (pv:299,at:1), (pv:300,at:1), (pv:301,at:1), (pv:302,at:1), (pv:303,at:2), (pv:304,at:2), (pv:305,at:2), (pv:306,at:23), (pv:307,at:1), (pv:308,at:9), (pv:309,at:23), (pv:310,at:17), (pv:311,at:41), (pv:312,at:1), (pv:313,at:2), (pv:314,at:4), (pv:315,at:1), (pv:316,at:1), (pv:317,at:1), (pv:318,at:1), (pv:319,at:1), (pv:320,at:1), (pv:321,at:8), (pv:322,at:17), (pv:323,at:2), (pv:324,at:9), (pv:325,at:8), (pv:326,at:1), (pv:327,at:23), (pv:328,at:1), (pv:329,at:1), (pv:330,at:1), (pv:331,at:17), (pv:332,at:1), (pv:333,at:1), (pv:334,at:1), (pv:335,at:1), (pv:336,at:17), (pv:337,at:1), (pv:338,at:1), (pv:339,at:1), (pv:340,at:1), (pv:341,at:14), (pv:342,at:17), (pv:343,at:14), (pv:344,at:41), (pv:345,at:9), (pv:346,at:14), (pv:347,at:17), (pv:348,at:17), (pv:349,at:41), (pv:350,at:17), (pv:351,at:1), (pv:352,at:4), (pv:353,at:1), (pv:354,at:1), (pv:355,at:1), (pv:356,at:33), (pv:357,at:14), (pv:358,at:1), (pv:359,at:1), (pv:360,at:17), (pv:361,at:4), (pv:362,at:33), (pv:363,at:17), (pv:364,at:1), (pv:365,at:13), (pv:366,at:41), (pv:367,at:33), (pv:368,at:2), (pv:369,at:13), (pv:370,at:1), (pv:371,at:2), (pv:372,at:41), (pv:373,at:23), (pv:374,at:13), (pv:375,at:33), (pv:376,at:41), (pv:377,at:1), (pv:378,at:1), (pv:379,at:23), (pv:380,at:7), (pv:381,at:7), (pv:382,at:14), (pv:383,at:13), (pv:384,at:1), (pv:385,at:1), (pv:386,at:1), (pv:387,at:14), (pv:388,at:17), (pv:389,at:41), (pv:390,at:10), (pv:391,at:17), (pv:392,at:33), (pv:393,at:7), (pv:394,at:26), (pv:395,at:1), (pv:396,at:1), (pv:397,at:7), (pv:398,at:112), (pv:399,at:33), (pv:400,at:1), (pv:401,at:13), (pv:402,at:1), (pv:403,at:10), (pv:404,at:1), (pv:405,at:26), (pv:406,at:112), (pv:407,at:10), (pv:408,at:26), (pv:409,at:1), (pv:410,at:2), (pv:411,at:2), (pv:412,at:112), (pv:413,at:1), (pv:414,at:13), (pv:415,at:37), (pv:416,at:1), (pv:417,at:1), (pv:418,at:41), (pv:419,at:1), (pv:420,at:17), (pv:421,at:17), (pv:422,at:37), (pv:423,at:10), (pv:424,at:7), (pv:425,at:7), (pv:426,at:1), (pv:427,at:1), (pv:428,at:26), (pv:429,at:41), (pv:430,at:1), (pv:431,at:1), (pv:432,at:14), (pv:433,at:112), (pv:434,at:14), (pv:435,at:2), (pv:436,at:17), (pv:437,at:2), (pv:438,at:37), (pv:439,at:3), (pv:440,at:37), (pv:441,at:3), (pv:442,at:17), (pv:443,at:7), (pv:444,at:7), (pv:445,at:22), (pv:446,at:22), (pv:447,at:1), (pv:448,at:33), (pv:449,at:7), (pv:450,at:1), (pv:451,at:1), (pv:452,at:1), (pv:453,at:13), (pv:454,at:7), (pv:455,at:3), (pv:456,at:33), (pv:457,at:1), (pv:458,at:1), (pv:459,at:1), (pv:460,at:10), (pv:461,at:41), (pv:462,at:10), (pv:463,at:13), (pv:464,at:22), (pv:465,at:41), (pv:466,at:1), (pv:467,at:7), (pv:468,at:1), (pv:469,at:1), (pv:470,at:3), (pv:471,at:5), (pv:472,at:26), (pv:473,at:1), (pv:474,at:5), (pv:475,at:22), (pv:476,at:26), (pv:477,at:1), (pv:478,at:112), (pv:479,at:7), (pv:480,at:1), (pv:481,at:1), (pv:482,at:112), (pv:483,at:1), (pv:484,at:1), (pv:485,at:1), (pv:486,at:2), (pv:487,at:2), (pv:488,at:2), (pv:489,at:10), (pv:490,at:2), (pv:491,at:10), (pv:492,at:26), (pv:493,at:1), (pv:494,at:1), (pv:495,at:26), (pv:496,at:37), (pv:497,at:112), (pv:498,at:7), (pv:499,at:2), (pv:500,at:37), (pv:501,at:10), (pv:503,at:3), (pv:504,at:37), (pv:505,at:5), (pv:506,at:7), (pv:507,at:3), (pv:508,at:22), (pv:509,at:112), (pv:510,at:5), (pv:511,at:7), (pv:512,at:1), (pv:513,at:2), (pv:514,at:1), (pv:515,at:1), (pv:516,at:1), (pv:517,at:22), (pv:518,at:1), (pv:519,at:3), (pv:520,at:37), (pv:521,at:5), (pv:522,at:1), (pv:523,at:2), (pv:524,at:17), (pv:525,at:2), (pv:526,at:16), (pv:527,at:1), (pv:528,at:1), (pv:529,at:7), (pv:530,at:1), (pv:531,at:10), (pv:532,at:22), (pv:533,at:5), (pv:534,at:1), (pv:535,at:1), (pv:536,at:1), (pv:537,at:10), (pv:538,at:1), (pv:539,at:2), (pv:540,at:1), (pv:541,at:13), (pv:542,at:17), (pv:543,at:2), (pv:544,at:16), (pv:545,at:1), (pv:546,at:17), (pv:547,at:16), (pv:548,at:3), (pv:549,at:1), (pv:550,at:1), (pv:551,at:22), (pv:552,at:1), (pv:553,at:1), (pv:554,at:1), (pv:555,at:1), (pv:556,at:13), (pv:557,at:10), (pv:558,at:1), (pv:559,at:17), (pv:561,at:10), (pv:562,at:1), (pv:563,at:5), (pv:564,at:1), (pv:565,at:16), (pv:566,at:1), (pv:567,at:1), (pv:568,at:5), (pv:569,at:17), (pv:570,at:1), (pv:571,at:16), (pv:572,at:2), (pv:573,at:1), (pv:574,at:1), (pv:575,at:10), (pv:576,at:2), (pv:577,at:10), (pv:578,at:13), (pv:579,at:17), (pv:580,at:13), (pv:581,at:1), (pv:582,at:1), (pv:583,at:16), (pv:584,at:1), (pv:585,at:1), (pv:586,at:1), (pv:587,at:1), (pv:588,at:1), (pv:589,at:1), (pv:590,at:13), (pv:591,at:13), (pv:592,at:17), (pv:593,at:13), (pv:594,at:10), (pv:595,at:1), (pv:596,at:17), (pv:597,at:13), (pv:598,at:13), (pv:599,at:16), (pv:600,at:1), (pv:601,at:16), (pv:602,at:1), (pv:603,at:1), (pv:604,at:13), (pv:605,at:1), (pv:606,at:13), (pv:607,at:13), (pv:608,at:1), (pv:609,at:1), (pv:610,at:13), (pv:613,at:13), (pv:615,at:1), (pv:616,at:13), (pv:619,at:13)]
[INFO ] fr.inria.main.evolution.AstorMain.run(AstorMain.java:163) - Time Total(s): 10894.67
