Warning: no access to tty (Bad file descriptor).
Thus no job control in this shell.
tput: No value for $TERM and no -T specified
Node: wh31.sciclone.wm.edu
[INFO ] fr.inria.main.AbstractMain.processArguments(AbstractMain.java:295) - command line arguments: [-out  /local/scr/mtufano/Math/59/b/similar-global-types-default/3  -jvm4testexecution  /usr/local/jdk1.7.0_80/bin/  -loglevel  INFO  -maxVarCombination  1000  -maxgen  1000000  -population  1  -maxtime  180  -timezone  America/New_York  -customop  fr.inria.astor.approaches.jgenprog.operators.InsertAfterOp:fr.inria.astor.approaches.jgenprog.operators.InsertBeforeOp:fr.inria.astor.approaches.jgenprog.operators.ReplaceOp  -seed  3  -javacompliancelevel  5  -package  org.apache.commons  -binjavafolder  target/classes/  -bintestfolder  target/test-classes/  -srcjavafolder  src/main/java/  -srctestfolder  src/test/java/  -learningdir  ../../out/learningdir/Math/59/b/  -location  ../../dat/defects4j/Math/59/b/  -failing  org.apache.commons.math.util.FastMathTest:org.apache.commons.math.distribution.FDistributionTest  -dependencies  ../../dat/libs/Math/commons-discovery-0.5.jar  -scope  fr.inria.astor.core.loop.spaces.ingredients.scopes.ctscopes.CtGlobalIngredientScope  -ingredientstrategy  fr.inria.astor.core.loop.spaces.ingredients.ingredientSearch.CloneIngredientSearchStrategy  -clonegranularity  spoon.reflect.declaration.CtType  -classestoinstrument  org.apache.commons.math.exception.NotStrictlyPositiveException:org.apache.commons.math.exception.NumberIsTooSmallException:org.apache.commons.math.exception.MathIllegalArgumentException:org.apache.commons.math.FieldElement:org.apache.commons.math.exception.MathRuntimeException:org.apache.commons.math.random.MersenneTwister:org.apache.commons.math.exception.MathThrowable:org.apache.commons.math.dfp.DfpField:org.apache.commons.math.Field:org.apache.commons.math.exception.MathIllegalNumberException:org.apache.commons.math.random.BitsStreamGenerator:org.apache.commons.math.util.FastMath:org.apache.commons.math.random.RandomGenerator:org.apache.commons.math.dfp.Dfp:  -regressiontestcases4fl  org.apache.commons.math.analysis.FunctionUtilsTest:org.apache.commons.math.analysis.integration.LegendreGaussIntegratorTest:org.apache.commons.math.analysis.integration.RombergIntegratorTest:org.apache.commons.math.analysis.integration.SimpsonIntegratorTest:org.apache.commons.math.analysis.integration.TrapezoidIntegratorTest:org.apache.commons.math.analysis.interpolation.DividedDifferenceInterpolatorTest:org.apache.commons.math.analysis.interpolation.LoessInterpolatorTest:org.apache.commons.math.analysis.interpolation.MicrosphereInterpolatorTest:org.apache.commons.math.analysis.interpolation.NevilleInterpolatorTest:org.apache.commons.math.analysis.interpolation.SmoothingPolynomialBicubicSplineInterpolatorTest:org.apache.commons.math.analysis.interpolation.SplineInterpolatorTest:org.apache.commons.math.analysis.interpolation.TricubicSplineInterpolatingFunctionTest:org.apache.commons.math.analysis.interpolation.TricubicSplineInterpolatorTest:org.apache.commons.math.analysis.polynomials.PolynomialFunctionLagrangeFormTest:org.apache.commons.math.analysis.polynomials.PolynomialFunctionTest:org.apache.commons.math.analysis.polynomials.PolynomialsUtilsTest:org.apache.commons.math.analysis.solvers.BisectionSolverTest:org.apache.commons.math.analysis.solvers.BrentSolverTest:org.apache.commons.math.analysis.solvers.LaguerreSolverTest:org.apache.commons.math.analysis.solvers.MullerSolver2Test:org.apache.commons.math.analysis.solvers.MullerSolverTest:org.apache.commons.math.analysis.solvers.NewtonSolverTest:org.apache.commons.math.analysis.solvers.RiddersSolverTest:org.apache.commons.math.analysis.solvers.SecantSolverTest:org.apache.commons.math.analysis.solvers.UnivariateRealSolverUtilsTest:org.apache.commons.math.complex.ComplexTest:org.apache.commons.math.complex.ComplexUtilsTest:org.apache.commons.math.distribution.BetaDistributionTest:org.apache.commons.math.distribution.BinomialDistributionTest:org.apache.commons.math.distribution.CauchyDistributionTest:org.apache.commons.math.distribution.ChiSquareDistributionTest:org.apache.commons.math.distribution.ExponentialDistributionTest:org.apache.commons.math.distribution.FDistributionTest:org.apache.commons.math.distribution.GammaDistributionTest:org.apache.commons.math.distribution.HypergeometricDistributionTest:org.apache.commons.math.distribution.NormalDistributionTest:org.apache.commons.math.distribution.PascalDistributionTest:org.apache.commons.math.distribution.PoissonDistributionTest:org.apache.commons.math.distribution.TDistributionTest:org.apache.commons.math.distribution.WeibullDistributionTest:org.apache.commons.math.distribution.ZipfDistributionTest:org.apache.commons.math.fraction.BigFractionTest:org.apache.commons.math.fraction.FractionFieldTest:org.apache.commons.math.fraction.FractionFormatTest:org.apache.commons.math.fraction.FractionTest:org.apache.commons.math.genetics.ElitisticListPopulationTest:org.apache.commons.math.genetics.FitnessCachingTest:org.apache.commons.math.genetics.GeneticAlgorithmTestBinary:org.apache.commons.math.genetics.GeneticAlgorithmTestPermutations:org.apache.commons.math.geometry.RotationTest:org.apache.commons.math.geometry.Vector3DTest:org.apache.commons.math.linear.Array2DRowRealMatrixTest:org.apache.commons.math.linear.ArrayFieldVectorTest:org.apache.commons.math.linear.ArrayRealVectorTest:org.apache.commons.math.linear.BiDiagonalTransformerTest:org.apache.commons.math.linear.BlockFieldMatrixTest:org.apache.commons.math.linear.BlockRealMatrixTest:org.apache.commons.math.linear.CholeskyDecompositionImplTest:org.apache.commons.math.linear.CholeskySolverTest:org.apache.commons.math.linear.EigenDecompositionImplTest:org.apache.commons.math.linear.EigenSolverTest:org.apache.commons.math.linear.FieldLUDecompositionImplTest:org.apache.commons.math.linear.FieldMatrixImplTest:org.apache.commons.math.linear.LUDecompositionImplTest:org.apache.commons.math.linear.LUSolverTest:org.apache.commons.math.linear.MatrixUtilsTest:org.apache.commons.math.linear.QRDecompositionImplTest:org.apache.commons.math.linear.QRSolverTest:org.apache.commons.math.linear.SingularValueDecompositionImplTest:org.apache.commons.math.linear.SingularValueSolverTest:org.apache.commons.math.linear.SparseFieldMatrixTest:org.apache.commons.math.linear.SparseFieldVectorTest:org.apache.commons.math.linear.SparseRealMatrixTest:org.apache.commons.math.linear.SparseRealVectorTest:org.apache.commons.math.linear.TriDiagonalTransformerTest:org.apache.commons.math.ode.ContinuousOutputModelTest:org.apache.commons.math.ode.FirstOrderConverterTest:org.apache.commons.math.ode.events.EventStateTest:org.apache.commons.math.ode.nonstiff.AdamsBashforthIntegratorTest:org.apache.commons.math.ode.nonstiff.AdamsMoultonIntegratorTest:org.apache.commons.math.ode.nonstiff.ClassicalRungeKuttaIntegratorTest:org.apache.commons.math.ode.nonstiff.ClassicalRungeKuttaStepInterpolatorTest:org.apache.commons.math.ode.nonstiff.DormandPrince54IntegratorTest:org.apache.commons.math.ode.nonstiff.DormandPrince54StepInterpolatorTest:org.apache.commons.math.ode.nonstiff.DormandPrince853IntegratorTest:org.apache.commons.math.ode.nonstiff.DormandPrince853StepInterpolatorTest:org.apache.commons.math.ode.nonstiff.EulerIntegratorTest:org.apache.commons.math.ode.nonstiff.EulerStepInterpolatorTest:org.apache.commons.math.ode.nonstiff.GillIntegratorTest:org.apache.commons.math.ode.nonstiff.GillStepInterpolatorTest:org.apache.commons.math.ode.nonstiff.GraggBulirschStoerIntegratorTest:org.apache.commons.math.ode.nonstiff.GraggBulirschStoerStepInterpolatorTest:org.apache.commons.math.ode.nonstiff.HighamHall54IntegratorTest:org.apache.commons.math.ode.nonstiff.HighamHall54StepInterpolatorTest:org.apache.commons.math.ode.nonstiff.MidpointIntegratorTest:org.apache.commons.math.ode.nonstiff.MidpointStepInterpolatorTest:org.apache.commons.math.ode.nonstiff.ThreeEighthesIntegratorTest:org.apache.commons.math.ode.nonstiff.ThreeEighthesStepInterpolatorTest:org.apache.commons.math.ode.sampling.DummyStepInterpolatorTest:org.apache.commons.math.ode.sampling.NordsieckStepInterpolatorTest:org.apache.commons.math.ode.sampling.StepNormalizerTest:org.apache.commons.math.optimization.MultiStartDifferentiableMultivariateRealOptimizerTest:org.apache.commons.math.optimization.MultiStartDifferentiableMultivariateVectorialOptimizerTest:org.apache.commons.math.optimization.MultiStartMultivariateRealOptimizerTest:org.apache.commons.math.optimization.direct.PowellOptimizerTest:org.apache.commons.math.optimization.direct.SimplexOptimizerMultiDirectionalTest:org.apache.commons.math.optimization.direct.SimplexOptimizerNelderMeadTest:org.apache.commons.math.optimization.fitting.CurveFitterTest:org.apache.commons.math.optimization.fitting.GaussianFitterTest:org.apache.commons.math.optimization.fitting.HarmonicFitterTest:org.apache.commons.math.optimization.fitting.ParametricGaussianFunctionTest:org.apache.commons.math.optimization.fitting.PolynomialFitterTest:org.apache.commons.math.optimization.general.GaussNewtonOptimizerTest:org.apache.commons.math.optimization.general.LevenbergMarquardtOptimizerTest:org.apache.commons.math.optimization.general.MinpackTest:org.apache.commons.math.optimization.general.NonLinearConjugateGradientOptimizerTest:org.apache.commons.math.optimization.linear.SimplexSolverTest:org.apache.commons.math.optimization.linear.SimplexTableauTest:org.apache.commons.math.optimization.univariate.BrentOptimizerTest:org.apache.commons.math.optimization.univariate.MultiStartUnivariateRealOptimizerTest:org.apache.commons.math.special.BetaTest:org.apache.commons.math.special.ErfTest:org.apache.commons.math.special.GammaTest:org.apache.commons.math.stat.CertifiedDataTest:org.apache.commons.math.stat.StatUtilsTest:org.apache.commons.math.stat.clustering.EuclideanIntegerPointTest:org.apache.commons.math.stat.clustering.KMeansPlusPlusClustererTest:org.apache.commons.math.stat.correlation.CovarianceTest:org.apache.commons.math.stat.correlation.PearsonsCorrelationTest:org.apache.commons.math.stat.correlation.SpearmansRankCorrelationTest:org.apache.commons.math.stat.data.LewTest:org.apache.commons.math.stat.data.LotteryTest:org.apache.commons.math.stat.descriptive.AggregateSummaryStatisticsTest:org.apache.commons.math.stat.descriptive.DescriptiveStatisticsTest:org.apache.commons.math.stat.descriptive.InteractionTest:org.apache.commons.math.stat.descriptive.ListUnivariateImplTest:org.apache.commons.math.stat.descriptive.MixedListUnivariateImplTest:org.apache.commons.math.stat.descriptive.MultivariateSummaryStatisticsTest:org.apache.commons.math.stat.descriptive.StatisticalSummaryValuesTest:org.apache.commons.math.stat.descriptive.SummaryStatisticsTest:org.apache.commons.math.stat.descriptive.SynchronizedDescriptiveStatisticsTest:org.apache.commons.math.stat.descriptive.SynchronizedMultivariateSummaryStatisticsTest:org.apache.commons.math.stat.descriptive.SynchronizedSummaryStatisticsTest:org.apache.commons.math.stat.descriptive.moment.FirstMomentTest:org.apache.commons.math.stat.descriptive.moment.FourthMomentTest:org.apache.commons.math.stat.descriptive.moment.GeometricMeanTest:org.apache.commons.math.stat.descriptive.moment.KurtosisTest:org.apache.commons.math.stat.descriptive.moment.MeanTest:org.apache.commons.math.stat.descriptive.moment.SecondMomentTest:org.apache.commons.math.stat.descriptive.moment.SkewnessTest:org.apache.commons.math.stat.descriptive.moment.StandardDeviationTest:org.apache.commons.math.stat.descriptive.moment.ThirdMomentTest:org.apache.commons.math.stat.descriptive.moment.VarianceTest:org.apache.commons.math.stat.descriptive.moment.VectorialMeanTest:org.apache.commons.math.stat.descriptive.rank.MaxTest:org.apache.commons.math.stat.descriptive.rank.MedianTest:org.apache.commons.math.stat.descriptive.rank.MinTest:org.apache.commons.math.stat.descriptive.rank.PercentileTest:org.apache.commons.math.stat.descriptive.summary.ProductTest:org.apache.commons.math.stat.descriptive.summary.SumLogTest:org.apache.commons.math.stat.descriptive.summary.SumSqTest:org.apache.commons.math.stat.descriptive.summary.SumTest:org.apache.commons.math.stat.inference.ChiSquareFactoryTest:org.apache.commons.math.stat.inference.ChiSquareTestTest:org.apache.commons.math.stat.inference.MannWhitneyUTestTest:org.apache.commons.math.stat.inference.OneWayAnovaTest:org.apache.commons.math.stat.inference.TTestFactoryTest:org.apache.commons.math.stat.inference.TTestTest:org.apache.commons.math.stat.inference.TestUtilsTest:org.apache.commons.math.stat.inference.WilcoxonSignedRankTestTest:org.apache.commons.math.stat.ranking.NaturalRankingTest:org.apache.commons.math.stat.regression.GLSMultipleLinearRegressionTest:org.apache.commons.math.stat.regression.OLSMultipleLinearRegressionTest:org.apache.commons.math.stat.regression.SimpleRegressionTest:org.apache.commons.math.transform.FastCosineTransformerTest:org.apache.commons.math.transform.FastFourierTransformerTest:org.apache.commons.math.transform.FastSineTransformerTest:org.apache.commons.math.util.ContinuedFractionTest:org.apache.commons.math.util.FastMathTest:org.apache.commons.math.util.MathUtilsTest:org.apache.commons.math.util.OpenIntToDoubleHashMapTest:org.apache.commons.math.util.OpenIntToFieldTest:org.apache.commons.math.util.ResizableDoubleArrayTest:]
[INFO ] fr.inria.astor.core.manipulation.MutationSupporter.buildModel(MutationSupporter.java:76) - building model: /local/scr/mtufano/Math/59/b/similar-global-types-default/3/AstorMain-b//src//default, compliance level: 5
[INFO ] fr.inria.astor.core.manipulation.MutationSupporter.buildModel(MutationSupporter.java:85) - Classpath for building SpoonModel [/sciclone/data20/mtufano/deeprepair/bin/eval/../../dat/libs/Math/commons-discovery-0.5.jar]
[INFO ] fr.inria.astor.core.setup.ProjectRepairFacade.calculateSuspicious(ProjectRepairFacade.java:215) - -Executing Gzoltar classpath: /local/scr/mtufano/Math/59/b/similar-global-types-default/3/AstorMain-b//bin//default from 183 classes with test cases
[INFO ] fr.inria.astor.core.faultlocalization.GZoltarFaultLocalization.searchSuspicious(GZoltarFaultLocalization.java:37) - Gzoltar fault localization: min susp value parameter: 0.1
[INFO ] fr.inria.astor.core.faultlocalization.GZoltarFaultLocalization.searchSuspicious(GZoltarFaultLocalization.java:57) - -gz-Adding classpath: [/local/scr/mtufano/Math/59/b/similar-global-types-default/3/AstorMain-b//bin//default, /sciclone/data20/mtufano/deeprepair/bin/eval/../../dat/libs/Math/commons-discovery-0.5.jar]
[INFO ] fr.inria.astor.core.faultlocalization.GZoltarFaultLocalization.searchSuspicious(GZoltarFaultLocalization.java:76) - Test failt: org.apache.commons.math.util.FastMathTest#testMinMaxFloat
[INFO ] fr.inria.astor.core.faultlocalization.GZoltarFaultLocalization.searchSuspicious(GZoltarFaultLocalization.java:81) - Gzoltar Test Result Total:1726, fails: 1, GZoltar suspicious 16678
[INFO ] fr.inria.astor.core.faultlocalization.GZoltarFaultLocalization.searchSuspicious(GZoltarFaultLocalization.java:123) - Gzoltar found: 84 with susp > 0.1, we consider: 84
[INFO ] fr.inria.astor.approaches.jgenprog.JGenProg.initPopulation(JGenProg.java:80) - 
---- Initial suspicious size: 84
[INFO ] fr.inria.astor.core.loop.population.ProgramVariantFactory.createProgramInstance(ProgramVariantFactory.java:126) - -any mod point created for suspicious Candidate [className=org.apache.commons.math.dfp.Dfp, methodName=org.apache.commons.math.dfp.Dfp{round(I)I 0.0, lineNumber=1350, susp=0.18569533817705186]
[INFO ] fr.inria.astor.core.loop.population.ProgramVariantFactory.createProgramInstance(ProgramVariantFactory.java:126) - -any mod point created for suspicious Candidate [className=org.apache.commons.math.dfp.Dfp, methodName=org.apache.commons.math.dfp.Dfp{round(I)I 0.0, lineNumber=1351, susp=0.18569533817705186]
[INFO ] fr.inria.astor.core.loop.population.ProgramVariantFactory.createProgramInstance(ProgramVariantFactory.java:126) - -any mod point created for suspicious Candidate [className=org.apache.commons.math.dfp.DfpField, methodName=org.apache.commons.math.dfp.DfpField{setIEEEFlagsBits(I)V 0.0, lineNumber=329, susp=0.18569533817705186]
[INFO ] fr.inria.astor.core.loop.population.ProgramVariantFactory.createProgramInstance(ProgramVariantFactory.java:126) - -any mod point created for suspicious Candidate [className=org.apache.commons.math.dfp.DfpField, methodName=org.apache.commons.math.dfp.DfpField{computeStringConstants(I)V 0.0, lineNumber=593, susp=0.18569533817705186]
[INFO ] fr.inria.astor.core.loop.population.ProgramVariantFactory.createProgramInstance(ProgramVariantFactory.java:126) - -any mod point created for suspicious Candidate [className=org.apache.commons.math.random.MersenneTwister, methodName=org.apache.commons.math.random.MersenneTwister{setSeed(I)V 0.0, lineNumber=152, susp=0.1796053020267749]
[INFO ] fr.inria.astor.core.loop.population.ProgramVariantFactory.createProgramInstance(ProgramVariantFactory.java:126) - -any mod point created for suspicious Candidate [className=org.apache.commons.math.random.MersenneTwister, methodName=org.apache.commons.math.random.MersenneTwister{setSeed([I)V 0.0, lineNumber=201, susp=0.1796053020267749]
[INFO ] fr.inria.astor.core.loop.population.ProgramVariantFactory.createProgramInstance(ProgramVariantFactory.java:126) - -any mod point created for suspicious Candidate [className=org.apache.commons.math.random.MersenneTwister, methodName=org.apache.commons.math.random.MersenneTwister{setSeed(J)V 0.0, lineNumber=211, susp=0.1796053020267749]
[INFO ] fr.inria.astor.core.loop.population.ProgramVariantFactory.createProgramInstance(ProgramVariantFactory.java:130) - Total suspicious from FL: 84,  78
[INFO ] fr.inria.astor.core.loop.population.ProgramVariantFactory.createProgramInstance(ProgramVariantFactory.java:138) - Total ModPoint created: 78
[INFO ] fr.inria.astor.core.loop.population.ProgramVariantFactory.createInitialPopulation(ProgramVariantFactory.java:82) - Creating program variant #1, [Variant id: 1, #gens: 78, #ops: 0, parent:-]
[INFO ] fr.inria.astor.core.setup.ConfigurationProperties.print(ConfigurationProperties.java:63) - ----------------------------
[INFO ] fr.inria.astor.core.setup.ConfigurationProperties.print(ConfigurationProperties.java:64) - ---Configuration properties:---Execution values
[INFO ] fr.inria.astor.core.setup.ConfigurationProperties.print(ConfigurationProperties.java:66) - p:lastJUnitVersion= ./examples/libs/junit-4.11.jar
[INFO ] fr.inria.astor.core.setup.ConfigurationProperties.print(ConfigurationProperties.java:66) - p:alternativecompliancelevel= 4
[INFO ] fr.inria.astor.core.setup.ConfigurationProperties.print(ConfigurationProperties.java:66) - p:ignoredTestCases= 
[INFO ] fr.inria.astor.core.setup.ConfigurationProperties.print(ConfigurationProperties.java:66) - p:workingDirectory= /local/scr/mtufano/Math/59/b/similar-global-types-default/3
[INFO ] fr.inria.astor.core.setup.ConfigurationProperties.print(ConfigurationProperties.java:66) - p:manipulatesuper= false
[INFO ] fr.inria.astor.core.setup.ConfigurationProperties.print(ConfigurationProperties.java:66) - p:validation= process
[INFO ] fr.inria.astor.core.setup.ConfigurationProperties.print(ConfigurationProperties.java:66) - p:jvm4testexecution= /usr/local/jdk1.7.0_80/bin/
[INFO ] fr.inria.astor.core.setup.ConfigurationProperties.print(ConfigurationProperties.java:66) - p:binjavafolder= target/classes/
[INFO ] fr.inria.astor.core.setup.ConfigurationProperties.print(ConfigurationProperties.java:66) - p:evosuiteresultfolder= evosuite
[INFO ] fr.inria.astor.core.setup.ConfigurationProperties.print(ConfigurationProperties.java:66) - p:flthreshold= 0.1
[INFO ] fr.inria.astor.core.setup.ConfigurationProperties.print(ConfigurationProperties.java:66) - p:regressionforfaultlocalization= true
[INFO ] fr.inria.astor.core.setup.ConfigurationProperties.print(ConfigurationProperties.java:66) - p:tmax2= 960000
[INFO ] fr.inria.astor.core.setup.ConfigurationProperties.print(ConfigurationProperties.java:66) - p:tmax1= 120000
[INFO ] fr.inria.astor.core.setup.ConfigurationProperties.print(ConfigurationProperties.java:66) - p:probagenmutation= false
[INFO ] fr.inria.astor.core.setup.ConfigurationProperties.print(ConfigurationProperties.java:66) - p:srctestfolder= src/test/java/
[INFO ] fr.inria.astor.core.setup.ConfigurationProperties.print(ConfigurationProperties.java:66) - p:customop= fr.inria.astor.approaches.jgenprog.operators.InsertAfterOp:fr.inria.astor.approaches.jgenprog.operators.InsertBeforeOp:fr.inria.astor.approaches.jgenprog.operators.ReplaceOp
[INFO ] fr.inria.astor.core.setup.ConfigurationProperties.print(ConfigurationProperties.java:66) - p:forceExecuteRegression= false
[INFO ] fr.inria.astor.core.setup.ConfigurationProperties.print(ConfigurationProperties.java:66) - p:clusteringfilename= clustering.csv
[INFO ] fr.inria.astor.core.setup.ConfigurationProperties.print(ConfigurationProperties.java:66) - p:failing= org.apache.commons.math.util.FastMathTest:org.apache.commons.math.distribution.FDistributionTest
[INFO ] fr.inria.astor.core.setup.ConfigurationProperties.print(ConfigurationProperties.java:66) - p:evo_buggy_class= true
[INFO ] fr.inria.astor.core.setup.ConfigurationProperties.print(ConfigurationProperties.java:66) - p:numberExecutions= 1
[INFO ] fr.inria.astor.core.setup.ConfigurationProperties.print(ConfigurationProperties.java:66) - p:evo_affected_by_op= true
[INFO ] fr.inria.astor.core.setup.ConfigurationProperties.print(ConfigurationProperties.java:66) - p:population= 1
[INFO ] fr.inria.astor.core.setup.ConfigurationProperties.print(ConfigurationProperties.java:66) - p:clonegranularity= spoon.reflect.declaration.CtType
[INFO ] fr.inria.astor.core.setup.ConfigurationProperties.print(ConfigurationProperties.java:66) - p:regressiontestcases4fl= org.apache.commons.math.analysis.FunctionUtilsTest:org.apache.commons.math.analysis.integration.LegendreGaussIntegratorTest:org.apache.commons.math.analysis.integration.RombergIntegratorTest:org.apache.commons.math.analysis.integration.SimpsonIntegratorTest:org.apache.commons.math.analysis.integration.TrapezoidIntegratorTest:org.apache.commons.math.analysis.interpolation.DividedDifferenceInterpolatorTest:org.apache.commons.math.analysis.interpolation.LoessInterpolatorTest:org.apache.commons.math.analysis.interpolation.MicrosphereInterpolatorTest:org.apache.commons.math.analysis.interpolation.NevilleInterpolatorTest:org.apache.commons.math.analysis.interpolation.SmoothingPolynomialBicubicSplineInterpolatorTest:org.apache.commons.math.analysis.interpolation.SplineInterpolatorTest:org.apache.commons.math.analysis.interpolation.TricubicSplineInterpolatingFunctionTest:org.apache.commons.math.analysis.interpolation.TricubicSplineInterpolatorTest:org.apache.commons.math.analysis.polynomials.PolynomialFunctionLagrangeFormTest:org.apache.commons.math.analysis.polynomials.PolynomialFunctionTest:org.apache.commons.math.analysis.polynomials.PolynomialsUtilsTest:org.apache.commons.math.analysis.solvers.BisectionSolverTest:org.apache.commons.math.analysis.solvers.BrentSolverTest:org.apache.commons.math.analysis.solvers.LaguerreSolverTest:org.apache.commons.math.analysis.solvers.MullerSolver2Test:org.apache.commons.math.analysis.solvers.MullerSolverTest:org.apache.commons.math.analysis.solvers.NewtonSolverTest:org.apache.commons.math.analysis.solvers.RiddersSolverTest:org.apache.commons.math.analysis.solvers.SecantSolverTest:org.apache.commons.math.analysis.solvers.UnivariateRealSolverUtilsTest:org.apache.commons.math.complex.ComplexTest:org.apache.commons.math.complex.ComplexUtilsTest:org.apache.commons.math.distribution.BetaDistributionTest:org.apache.commons.math.distribution.BinomialDistributionTest:org.apache.commons.math.distribution.CauchyDistributionTest:org.apache.commons.math.distribution.ChiSquareDistributionTest:org.apache.commons.math.distribution.ExponentialDistributionTest:org.apache.commons.math.distribution.FDistributionTest:org.apache.commons.math.distribution.GammaDistributionTest:org.apache.commons.math.distribution.HypergeometricDistributionTest:org.apache.commons.math.distribution.NormalDistributionTest:org.apache.commons.math.distribution.PascalDistributionTest:org.apache.commons.math.distribution.PoissonDistributionTest:org.apache.commons.math.distribution.TDistributionTest:org.apache.commons.math.distribution.WeibullDistributionTest:org.apache.commons.math.distribution.ZipfDistributionTest:org.apache.commons.math.fraction.BigFractionTest:org.apache.commons.math.fraction.FractionFieldTest:org.apache.commons.math.fraction.FractionFormatTest:org.apache.commons.math.fraction.FractionTest:org.apache.commons.math.genetics.ElitisticListPopulationTest:org.apache.commons.math.genetics.FitnessCachingTest:org.apache.commons.math.genetics.GeneticAlgorithmTestBinary:org.apache.commons.math.genetics.GeneticAlgorithmTestPermutations:org.apache.commons.math.geometry.RotationTest:org.apache.commons.math.geometry.Vector3DTest:org.apache.commons.math.linear.Array2DRowRealMatrixTest:org.apache.commons.math.linear.ArrayFieldVectorTest:org.apache.commons.math.linear.ArrayRealVectorTest:org.apache.commons.math.linear.BiDiagonalTransformerTest:org.apache.commons.math.linear.BlockFieldMatrixTest:org.apache.commons.math.linear.BlockRealMatrixTest:org.apache.commons.math.linear.CholeskyDecompositionImplTest:org.apache.commons.math.linear.CholeskySolverTest:org.apache.commons.math.linear.EigenDecompositionImplTest:org.apache.commons.math.linear.EigenSolverTest:org.apache.commons.math.linear.FieldLUDecompositionImplTest:org.apache.commons.math.linear.FieldMatrixImplTest:org.apache.commons.math.linear.LUDecompositionImplTest:org.apache.commons.math.linear.LUSolverTest:org.apache.commons.math.linear.MatrixUtilsTest:org.apache.commons.math.linear.QRDecompositionImplTest:org.apache.commons.math.linear.QRSolverTest:org.apache.commons.math.linear.SingularValueDecompositionImplTest:org.apache.commons.math.linear.SingularValueSolverTest:org.apache.commons.math.linear.SparseFieldMatrixTest:org.apache.commons.math.linear.SparseFieldVectorTest:org.apache.commons.math.linear.SparseRealMatrixTest:org.apache.commons.math.linear.SparseRealVectorTest:org.apache.commons.math.linear.TriDiagonalTransformerTest:org.apache.commons.math.ode.ContinuousOutputModelTest:org.apache.commons.math.ode.FirstOrderConverterTest:org.apache.commons.math.ode.events.EventStateTest:org.apache.commons.math.ode.nonstiff.AdamsBashforthIntegratorTest:org.apache.commons.math.ode.nonstiff.AdamsMoultonIntegratorTest:org.apache.commons.math.ode.nonstiff.ClassicalRungeKuttaIntegratorTest:org.apache.commons.math.ode.nonstiff.ClassicalRungeKuttaStepInterpolatorTest:org.apache.commons.math.ode.nonstiff.DormandPrince54IntegratorTest:org.apache.commons.math.ode.nonstiff.DormandPrince54StepInterpolatorTest:org.apache.commons.math.ode.nonstiff.DormandPrince853IntegratorTest:org.apache.commons.math.ode.nonstiff.DormandPrince853StepInterpolatorTest:org.apache.commons.math.ode.nonstiff.EulerIntegratorTest:org.apache.commons.math.ode.nonstiff.EulerStepInterpolatorTest:org.apache.commons.math.ode.nonstiff.GillIntegratorTest:org.apache.commons.math.ode.nonstiff.GillStepInterpolatorTest:org.apache.commons.math.ode.nonstiff.GraggBulirschStoerIntegratorTest:org.apache.commons.math.ode.nonstiff.GraggBulirschStoerStepInterpolatorTest:org.apache.commons.math.ode.nonstiff.HighamHall54IntegratorTest:org.apache.commons.math.ode.nonstiff.HighamHall54StepInterpolatorTest:org.apache.commons.math.ode.nonstiff.MidpointIntegratorTest:org.apache.commons.math.ode.nonstiff.MidpointStepInterpolatorTest:org.apache.commons.math.ode.nonstiff.ThreeEighthesIntegratorTest:org.apache.commons.math.ode.nonstiff.ThreeEighthesStepInterpolatorTest:org.apache.commons.math.ode.sampling.DummyStepInterpolatorTest:org.apache.commons.math.ode.sampling.NordsieckStepInterpolatorTest:org.apache.commons.math.ode.sampling.StepNormalizerTest:org.apache.commons.math.optimization.MultiStartDifferentiableMultivariateRealOptimizerTest:org.apache.commons.math.optimization.MultiStartDifferentiableMultivariateVectorialOptimizerTest:org.apache.commons.math.optimization.MultiStartMultivariateRealOptimizerTest:org.apache.commons.math.optimization.direct.PowellOptimizerTest:org.apache.commons.math.optimization.direct.SimplexOptimizerMultiDirectionalTest:org.apache.commons.math.optimization.direct.SimplexOptimizerNelderMeadTest:org.apache.commons.math.optimization.fitting.CurveFitterTest:org.apache.commons.math.optimization.fitting.GaussianFitterTest:org.apache.commons.math.optimization.fitting.HarmonicFitterTest:org.apache.commons.math.optimization.fitting.ParametricGaussianFunctionTest:org.apache.commons.math.optimization.fitting.PolynomialFitterTest:org.apache.commons.math.optimization.general.GaussNewtonOptimizerTest:org.apache.commons.math.optimization.general.LevenbergMarquardtOptimizerTest:org.apache.commons.math.optimization.general.MinpackTest:org.apache.commons.math.optimization.general.NonLinearConjugateGradientOptimizerTest:org.apache.commons.math.optimization.linear.SimplexSolverTest:org.apache.commons.math.optimization.linear.SimplexTableauTest:org.apache.commons.math.optimization.univariate.BrentOptimizerTest:org.apache.commons.math.optimization.univariate.MultiStartUnivariateRealOptimizerTest:org.apache.commons.math.special.BetaTest:org.apache.commons.math.special.ErfTest:org.apache.commons.math.special.GammaTest:org.apache.commons.math.stat.CertifiedDataTest:org.apache.commons.math.stat.StatUtilsTest:org.apache.commons.math.stat.clustering.EuclideanIntegerPointTest:org.apache.commons.math.stat.clustering.KMeansPlusPlusClustererTest:org.apache.commons.math.stat.correlation.CovarianceTest:org.apache.commons.math.stat.correlation.PearsonsCorrelationTest:org.apache.commons.math.stat.correlation.SpearmansRankCorrelationTest:org.apache.commons.math.stat.data.LewTest:org.apache.commons.math.stat.data.LotteryTest:org.apache.commons.math.stat.descriptive.AggregateSummaryStatisticsTest:org.apache.commons.math.stat.descriptive.DescriptiveStatisticsTest:org.apache.commons.math.stat.descriptive.InteractionTest:org.apache.commons.math.stat.descriptive.ListUnivariateImplTest:org.apache.commons.math.stat.descriptive.MixedListUnivariateImplTest:org.apache.commons.math.stat.descriptive.MultivariateSummaryStatisticsTest:org.apache.commons.math.stat.descriptive.StatisticalSummaryValuesTest:org.apache.commons.math.stat.descriptive.SummaryStatisticsTest:org.apache.commons.math.stat.descriptive.SynchronizedDescriptiveStatisticsTest:org.apache.commons.math.stat.descriptive.SynchronizedMultivariateSummaryStatisticsTest:org.apache.commons.math.stat.descriptive.SynchronizedSummaryStatisticsTest:org.apache.commons.math.stat.descriptive.moment.FirstMomentTest:org.apache.commons.math.stat.descriptive.moment.FourthMomentTest:org.apache.commons.math.stat.descriptive.moment.GeometricMeanTest:org.apache.commons.math.stat.descriptive.moment.KurtosisTest:org.apache.commons.math.stat.descriptive.moment.MeanTest:org.apache.commons.math.stat.descriptive.moment.SecondMomentTest:org.apache.commons.math.stat.descriptive.moment.SkewnessTest:org.apache.commons.math.stat.descriptive.moment.StandardDeviationTest:org.apache.commons.math.stat.descriptive.moment.ThirdMomentTest:org.apache.commons.math.stat.descriptive.moment.VarianceTest:org.apache.commons.math.stat.descriptive.moment.VectorialMeanTest:org.apache.commons.math.stat.descriptive.rank.MaxTest:org.apache.commons.math.stat.descriptive.rank.MedianTest:org.apache.commons.math.stat.descriptive.rank.MinTest:org.apache.commons.math.stat.descriptive.rank.PercentileTest:org.apache.commons.math.stat.descriptive.summary.ProductTest:org.apache.commons.math.stat.descriptive.summary.SumLogTest:org.apache.commons.math.stat.descriptive.summary.SumSqTest:org.apache.commons.math.stat.descriptive.summary.SumTest:org.apache.commons.math.stat.inference.ChiSquareFactoryTest:org.apache.commons.math.stat.inference.ChiSquareTestTest:org.apache.commons.math.stat.inference.MannWhitneyUTestTest:org.apache.commons.math.stat.inference.OneWayAnovaTest:org.apache.commons.math.stat.inference.TTestFactoryTest:org.apache.commons.math.stat.inference.TTestTest:org.apache.commons.math.stat.inference.TestUtilsTest:org.apache.commons.math.stat.inference.WilcoxonSignedRankTestTest:org.apache.commons.math.stat.ranking.NaturalRankingTest:org.apache.commons.math.stat.regression.GLSMultipleLinearRegressionTest:org.apache.commons.math.stat.regression.OLSMultipleLinearRegressionTest:org.apache.commons.math.stat.regression.SimpleRegressionTest:org.apache.commons.math.transform.FastCosineTransformerTest:org.apache.commons.math.transform.FastFourierTransformerTest:org.apache.commons.math.transform.FastSineTransformerTest:org.apache.commons.math.util.ContinuedFractionTest:org.apache.commons.math.util.FastMathTest:org.apache.commons.math.util.MathUtilsTest:org.apache.commons.math.util.OpenIntToDoubleHashMapTest:org.apache.commons.math.util.OpenIntToFieldTest:org.apache.commons.math.util.ResizableDoubleArrayTest:
[INFO ] fr.inria.astor.core.setup.ConfigurationProperties.print(ConfigurationProperties.java:66) - p:savesolution= true
[INFO ] fr.inria.astor.core.setup.ConfigurationProperties.print(ConfigurationProperties.java:66) - p:javacompliancelevel= 5
[INFO ] fr.inria.astor.core.setup.ConfigurationProperties.print(ConfigurationProperties.java:66) - p:uniqueoptogen= false
[INFO ] fr.inria.astor.core.setup.ConfigurationProperties.print(ConfigurationProperties.java:66) - p:projectIdentifier= 
[INFO ] fr.inria.astor.core.setup.ConfigurationProperties.print(ConfigurationProperties.java:66) - p:modificationpointnavigation= weight
[INFO ] fr.inria.astor.core.setup.ConfigurationProperties.print(ConfigurationProperties.java:66) - p:stopfirst= false
[INFO ] fr.inria.astor.core.setup.ConfigurationProperties.print(ConfigurationProperties.java:66) - p:multipointmodification= false
[INFO ] fr.inria.astor.core.setup.ConfigurationProperties.print(ConfigurationProperties.java:66) - p:elementsToMutate= 10
[INFO ] fr.inria.astor.core.setup.ConfigurationProperties.print(ConfigurationProperties.java:66) - p:evoDSE= false
[INFO ] fr.inria.astor.core.setup.ConfigurationProperties.print(ConfigurationProperties.java:66) - p:bintestfolder= target/test-classes/
[INFO ] fr.inria.astor.core.setup.ConfigurationProperties.print(ConfigurationProperties.java:66) - p:testbystep= false
[INFO ] fr.inria.astor.core.setup.ConfigurationProperties.print(ConfigurationProperties.java:66) - p:version-location= ./math-version/
[INFO ] fr.inria.astor.core.setup.ConfigurationProperties.print(ConfigurationProperties.java:66) - p:reintroduce= PARENTS
[INFO ] fr.inria.astor.core.setup.ConfigurationProperties.print(ConfigurationProperties.java:66) - p:maxGeneration= 1000000
[INFO ] fr.inria.astor.core.setup.ConfigurationProperties.print(ConfigurationProperties.java:66) - p:maxVarCombination= 1000
[INFO ] fr.inria.astor.core.setup.ConfigurationProperties.print(ConfigurationProperties.java:66) - p:maxtime= 180
[INFO ] fr.inria.astor.core.setup.ConfigurationProperties.print(ConfigurationProperties.java:66) - p:evosuitejar= ./lib/evosuite-master-1.0.4-SNAPSHOT.jar
[INFO ] fr.inria.astor.core.setup.ConfigurationProperties.print(ConfigurationProperties.java:66) - p:commandTrunk= 50000
[INFO ] fr.inria.astor.core.setup.ConfigurationProperties.print(ConfigurationProperties.java:66) - p:faultlocalization= fr.inria.astor.core.faultlocalization.GZoltarFaultLocalization
[INFO ] fr.inria.astor.core.setup.ConfigurationProperties.print(ConfigurationProperties.java:66) - p:maxsuspcandidates= 1000
[INFO ] fr.inria.astor.core.setup.ConfigurationProperties.print(ConfigurationProperties.java:66) - p:mode= statement
[INFO ] fr.inria.astor.core.setup.ConfigurationProperties.print(ConfigurationProperties.java:66) - p:learningdir= ../../out/learningdir/Math/59/b/
[INFO ] fr.inria.astor.core.setup.ConfigurationProperties.print(ConfigurationProperties.java:66) - p:jvm4evosuitetestexecution= /usr/local/jdk1.7.0_80/bin/
[INFO ] fr.inria.astor.core.setup.ConfigurationProperties.print(ConfigurationProperties.java:66) - p:filterfaultlocalization= true
[INFO ] fr.inria.astor.core.setup.ConfigurationProperties.print(ConfigurationProperties.java:66) - p:mutationrate= 1 
[INFO ] fr.inria.astor.core.setup.ConfigurationProperties.print(ConfigurationProperties.java:66) - p:pathToMVNRepository= 
[INFO ] fr.inria.astor.core.setup.ConfigurationProperties.print(ConfigurationProperties.java:66) - p:resourcesfolder= /src/main/resources:/src/test/resources:
[INFO ] fr.inria.astor.core.setup.ConfigurationProperties.print(ConfigurationProperties.java:66) - p:timezone= America/New_York
[INFO ] fr.inria.astor.core.setup.ConfigurationProperties.print(ConfigurationProperties.java:66) - p:classestoinstrument= org.apache.commons.math.exception.NotStrictlyPositiveException:org.apache.commons.math.exception.NumberIsTooSmallException:org.apache.commons.math.exception.MathIllegalArgumentException:org.apache.commons.math.FieldElement:org.apache.commons.math.exception.MathRuntimeException:org.apache.commons.math.random.MersenneTwister:org.apache.commons.math.exception.MathThrowable:org.apache.commons.math.dfp.DfpField:org.apache.commons.math.Field:org.apache.commons.math.exception.MathIllegalNumberException:org.apache.commons.math.random.BitsStreamGenerator:org.apache.commons.math.util.FastMath:org.apache.commons.math.random.RandomGenerator:org.apache.commons.math.dfp.Dfp:
[INFO ] fr.inria.astor.core.setup.ConfigurationProperties.print(ConfigurationProperties.java:66) - p:evoRunOnBuggyClass= true
[INFO ] fr.inria.astor.core.setup.ConfigurationProperties.print(ConfigurationProperties.java:66) - p:compiler= fr.inria.astor.core.manipulation.bytecode.compiler.SpoonClassCompiler
[INFO ] fr.inria.astor.core.setup.ConfigurationProperties.print(ConfigurationProperties.java:66) - p:dependenciespath= ../../dat/libs/Math/commons-discovery-0.5.jar
[INFO ] fr.inria.astor.core.setup.ConfigurationProperties.print(ConfigurationProperties.java:66) - p:skipfaultlocalization= false
[INFO ] fr.inria.astor.core.setup.ConfigurationProperties.print(ConfigurationProperties.java:66) - p:packageToInstrument= org.apache.commons
[INFO ] fr.inria.astor.core.setup.ConfigurationProperties.print(ConfigurationProperties.java:66) - p:scope= fr.inria.astor.core.loop.spaces.ingredients.scopes.ctscopes.CtGlobalIngredientScope
[INFO ] fr.inria.astor.core.setup.ConfigurationProperties.print(ConfigurationProperties.java:66) - p:transformingredient= false
[INFO ] fr.inria.astor.core.setup.ConfigurationProperties.print(ConfigurationProperties.java:66) - p:fitnessfunction= fr.inria.astor.core.loop.population.TestCaseFitnessFunction
[INFO ] fr.inria.astor.core.setup.ConfigurationProperties.print(ConfigurationProperties.java:66) - p:pvariantfoldername= variant-
[INFO ] fr.inria.astor.core.setup.ConfigurationProperties.print(ConfigurationProperties.java:66) - p:srcjavafolder= src/main/java/
[INFO ] fr.inria.astor.core.setup.ConfigurationProperties.print(ConfigurationProperties.java:66) - p:populationcontroller= fr.inria.astor.core.loop.population.TestCaseBasedFitnessPopulationController
[INFO ] fr.inria.astor.core.setup.ConfigurationProperties.print(ConfigurationProperties.java:66) - p:ignoreflakyinfl= false
[INFO ] fr.inria.astor.core.setup.ConfigurationProperties.print(ConfigurationProperties.java:66) - p:applyCrossover= false
[INFO ] fr.inria.astor.core.setup.ConfigurationProperties.print(ConfigurationProperties.java:66) - p:saveall= false
[INFO ] fr.inria.astor.core.setup.ConfigurationProperties.print(ConfigurationProperties.java:66) - p:seed= 3
[INFO ] fr.inria.astor.core.setup.ConfigurationProperties.print(ConfigurationProperties.java:66) - p:resetoperations= false
[INFO ] fr.inria.astor.core.setup.ConfigurationProperties.print(ConfigurationProperties.java:66) - p:location= ../../dat/defects4j/Math/59/b/
[INFO ] fr.inria.astor.core.setup.ConfigurationProperties.print(ConfigurationProperties.java:66) - p:ingredientstrategy= fr.inria.astor.core.loop.spaces.ingredients.ingredientSearch.CloneIngredientSearchStrategy
[INFO ] fr.inria.astor.core.setup.ConfigurationProperties.print(ConfigurationProperties.java:66) - p:allpoints= false
[INFO ] fr.inria.astor.core.setup.ConfigurationProperties.print(ConfigurationProperties.java:66) - p:bugId= 280
[INFO ] fr.inria.astor.core.setup.ConfigurationProperties.print(ConfigurationProperties.java:66) - p:evosuitetimeout= 120
[INFO ] fr.inria.astor.core.setup.ConfigurationProperties.print(ConfigurationProperties.java:68) - ----------------------------
[INFO ] fr.inria.astor.core.loop.AstorCoreEngine.startEvolution(AstorCoreEngine.java:119) - 
----Starting Solution Search
0-->2org.apache.commons.math.ode.nonstiff.AdamsBashforthIntegrator
1-->2org.apache.commons.math.stat.correlation.PearsonsCorrelation
2-->2org.apache.commons.math.linear.SingularValueDecompositionImpl
3-->2org.apache.commons.math.MathException
4-->2org.apache.commons.math.stat.descriptive.moment.ThirdMoment
5-->2org.apache.commons.math.exception.NonMonotonousSequenceException
6-->2org.apache.commons.math.stat.descriptive.SummaryStatistics
7-->2org.apache.commons.math.stat.descriptive.moment.GeometricMean
8-->2org.apache.commons.math.distribution.WeibullDistribution
9-->2org.apache.commons.math.util.FastMath
10-->2org.apache.commons.math.util.MathUtils
11-->2org.apache.commons.math.linear.EigenDecompositionImpl
12-->2org.apache.commons.math.analysis.UnivariateVectorialFunction
13-->2org.apache.commons.math.ode.nonstiff.GillIntegrator
14-->2org.apache.commons.math.fraction.ProperFractionFormat
15-->2org.apache.commons.math.linear.QRDecompositionImpl
16-->2org.apache.commons.math.ode.events.EventException
17-->2org.apache.commons.math.exception.NotPositiveException
18-->2org.apache.commons.math.stat.descriptive.moment.Variance
19-->2org.apache.commons.math.dfp.DfpField
20-->2org.apache.commons.math.genetics.StoppingCondition
21-->2org.apache.commons.math.analysis.solvers.MullerSolver2
22-->2org.apache.commons.math.distribution.FDistributionImpl
23-->2org.apache.commons.math.analysis.polynomials.PolynomialFunction
24-->2org.apache.commons.math.analysis.interpolation.SplineInterpolator
25-->2org.apache.commons.math.stat.regression.AbstractMultipleLinearRegression
26-->2org.apache.commons.math.exception.MathUserException
27-->2org.apache.commons.math.ConvergingAlgorithm
28-->2org.apache.commons.math.linear.DefaultFieldMatrixPreservingVisitor
29-->2org.apache.commons.math.MathRuntimeException
30-->2org.apache.commons.math.random.CorrelatedRandomVectorGenerator
31-->2org.apache.commons.math.ode.FirstOrderDifferentialEquations
32-->2org.apache.commons.math.exception.NonSquareMatrixException
33-->2org.apache.commons.math.random.AbstractRandomGenerator
34-->2org.apache.commons.math.geometry.Rotation
35-->2org.apache.commons.math.stat.inference.OneWayAnova
36-->2org.apache.commons.math.random.MersenneTwister
37-->2org.apache.commons.math.optimization.univariate.BaseUnivariateRealOptimizer
38-->2org.apache.commons.math.random.AbstractWell
39-->2org.apache.commons.math.random.EmpiricalDistribution
40-->2org.apache.commons.math.exception.SingularMatrixException
41-->2org.apache.commons.math.exception.OutOfRangeException
42-->2org.apache.commons.math.analysis.DifferentiableUnivariateVectorialFunction
43-->2org.apache.commons.math.distribution.CauchyDistribution
44-->2org.apache.commons.math.stat.descriptive.moment.Skewness
45-->2org.apache.commons.math.optimization.fitting.ParametricGaussianFunction
46-->2org.apache.commons.math.special.Gamma
47-->2org.apache.commons.math.analysis.interpolation.MultivariateRealInterpolator
48-->2org.apache.commons.math.stat.descriptive.moment.Mean
49-->2org.apache.commons.math.optimization.general.LevenbergMarquardtOptimizer
50-->2org.apache.commons.math.linear.LUDecompositionImpl
51-->2org.apache.commons.math.linear.SparseRealMatrix
52-->2org.apache.commons.math.linear.FieldMatrixPreservingVisitor
53-->2org.apache.commons.math.genetics.FixedGenerationCount
54-->2org.apache.commons.math.ode.nonstiff.HighamHall54StepInterpolator
55-->2org.apache.commons.math.analysis.interpolation.TricubicSplineInterpolatingFunction
56-->2org.apache.commons.math.analysis.integration.UnivariateRealIntegrator
57-->2org.apache.commons.math.stat.correlation.SpearmansCorrelation
58-->2org.apache.commons.math.random.BitsStreamGenerator
59-->2org.apache.commons.math.analysis.function.Log10
60-->2org.apache.commons.math.complex.ComplexUtils
61-->2org.apache.commons.math.ConvergingAlgorithmImpl
62-->2org.apache.commons.math.analysis.solvers.AbstractPolynomialSolver
63-->2org.apache.commons.math.genetics.GeneticAlgorithm
64-->2org.apache.commons.math.analysis.function.Identity
65-->2org.apache.commons.math.optimization.fitting.GaussianParametersGuesser
66-->2org.apache.commons.math.linear.OpenMapRealMatrix
67-->2org.apache.commons.math.stat.descriptive.SynchronizedMultivariateSummaryStatistics
68-->2org.apache.commons.math.ode.SecondOrderIntegrator
69-->2org.apache.commons.math.genetics.ChromosomePair
70-->2org.apache.commons.math.exception.NoBracketingException
71-->2org.apache.commons.math.optimization.general.Preconditioner
72-->2org.apache.commons.math.distribution.ChiSquaredDistribution
73-->2org.apache.commons.math.ode.nonstiff.DormandPrince853Integrator
74-->2org.apache.commons.math.special.Beta
75-->2org.apache.commons.math.genetics.Fitness
76-->2org.apache.commons.math.Field
77-->2org.apache.commons.math.analysis.solvers.UnivariateRealSolver
78-->2org.apache.commons.math.transform.FastSineTransformer
79-->2org.apache.commons.math.exception.NotStrictlyPositiveException
80-->2org.apache.commons.math.analysis.integration.LegendreGaussIntegrator
81-->2org.apache.commons.math.ode.sampling.DummyStepHandler
82-->2org.apache.commons.math.linear.RealMatrix
83-->2org.apache.commons.math.ode.nonstiff.DormandPrince853StepInterpolator
84-->2org.apache.commons.math.ode.events.EventHandler
85-->2org.apache.commons.math.random.RandomGenerator
86-->2org.apache.commons.math.analysis.function.Sin
87-->2org.apache.commons.math.linear.SparseFieldVector
88-->2org.apache.commons.math.ode.ExtendedFirstOrderDifferentialEquations
89-->2org.apache.commons.math.genetics.Population
90-->2org.apache.commons.math.genetics.ElitisticListPopulation
91-->2org.apache.commons.math.exception.MathIllegalNumberException
92-->2org.apache.commons.math.analysis.solvers.PolynomialSolver
93-->2org.apache.commons.math.analysis.integration.TrapezoidIntegrator
94-->2org.apache.commons.math.analysis.function.Signum
95-->2org.apache.commons.math.ode.nonstiff.ThreeEighthesIntegrator
96-->2org.apache.commons.math.analysis.solvers.MullerSolver
97-->2org.apache.commons.math.analysis.BivariateRealFunction
98-->2org.apache.commons.math.analysis.function.Ulp
99-->2org.apache.commons.math.optimization.SimpleVectorialValueChecker
100-->2org.apache.commons.math.analysis.function.Add
101-->2org.apache.commons.math.analysis.solvers.SecantSolver
102-->2org.apache.commons.math.optimization.ConvergenceChecker
103-->2org.apache.commons.math.distribution.PascalDistributionImpl
104-->2org.apache.commons.math.MaxEvaluationsExceededException
105-->2org.apache.commons.math.exception.NumberIsTooLargeException
106-->2org.apache.commons.math.analysis.polynomials.PolynomialSplineFunction
107-->2org.apache.commons.math.exception.TooManyEvaluationsException
108-->2org.apache.commons.math.analysis.solvers.BaseUnivariateRealSolver
109-->2org.apache.commons.math.analysis.function.Floor
110-->2org.apache.commons.math.analysis.UnivariateMatrixFunction
111-->2org.apache.commons.math.optimization.fitting.HarmonicFunction
112-->2org.apache.commons.math.stat.descriptive.StatisticalSummaryValues
113-->2org.apache.commons.math.linear.DefaultRealMatrixPreservingVisitor
114-->2org.apache.commons.math.stat.clustering.Cluster
115-->2org.apache.commons.math.stat.inference.ChiSquareTest
116-->2org.apache.commons.math.analysis.function.Expm1
117-->2org.apache.commons.math.analysis.function.Abs
118-->2org.apache.commons.math.distribution.PoissonDistributionImpl
119-->2org.apache.commons.math.linear.FieldLUDecompositionImpl
120-->2org.apache.commons.math.optimization.fitting.GaussianFunction
121-->2org.apache.commons.math.optimization.linear.LinearOptimizer
122-->2org.apache.commons.math.exception.NonPositiveDefiniteMatrixException
123-->2org.apache.commons.math.optimization.linear.SimplexSolver
124-->2org.apache.commons.math.analysis.function.Asinh
125-->2org.apache.commons.math.ode.nonstiff.ClassicalRungeKuttaIntegrator
126-->2org.apache.commons.math.exception.NumberIsTooSmallException
127-->2org.apache.commons.math.stat.regression.MultipleLinearRegression
128-->2org.apache.commons.math.analysis.MultivariateVectorialFunction
129-->2org.apache.commons.math.analysis.function.Max
130-->2org.apache.commons.math.exception.NullArgumentException
131-->2org.apache.commons.math.optimization.general.AbstractScalarDifferentiableOptimizer
132-->2org.apache.commons.math.stat.clustering.KMeansPlusPlusClusterer
133-->2org.apache.commons.math.analysis.polynomials.PolynomialFunctionLagrangeForm
134-->2org.apache.commons.math.optimization.SimpleScalarValueChecker
135-->2org.apache.commons.math.optimization.linear.Relationship
136-->2org.apache.commons.math.util.OpenIntToDoubleHashMap
137-->2org.apache.commons.math.distribution.WeibullDistributionImpl
138-->2org.apache.commons.math.optimization.univariate.MultiStartUnivariateRealOptimizer
139-->2org.apache.commons.math.linear.FieldMatrixChangingVisitor
140-->2org.apache.commons.math.ode.sampling.DummyStepInterpolator
141-->2org.apache.commons.math.analysis.function.Ceil
142-->2org.apache.commons.math.linear.DefaultRealMatrixChangingVisitor
143-->2org.apache.commons.math.genetics.ListPopulation
144-->2org.apache.commons.math.distribution.Distribution
145-->2org.apache.commons.math.ode.MultistepIntegrator
146-->2org.apache.commons.math.analysis.function.Tanh
147-->2org.apache.commons.math.analysis.function.Asin
148-->2org.apache.commons.math.exception.DimensionMismatchException
149-->2org.apache.commons.math.stat.Frequency
150-->2org.apache.commons.math.stat.descriptive.StatisticalMultivariateSummary
151-->2org.apache.commons.math.random.UniformRandomGenerator
152-->2org.apache.commons.math.optimization.direct.PowellOptimizer
153-->2org.apache.commons.math.analysis.interpolation.NevilleInterpolator
154-->2org.apache.commons.math.transform.FastHadamardTransformer
155-->2org.apache.commons.math.random.Well44497b
156-->2org.apache.commons.math.random.Well44497a
157-->2org.apache.commons.math.stat.inference.TTestImpl
158-->2org.apache.commons.math.ode.FirstOrderIntegrator
159-->2org.apache.commons.math.stat.descriptive.moment.Kurtosis
160-->2org.apache.commons.math.optimization.fitting.PolynomialFitter
161-->2org.apache.commons.math.linear.DecompositionSolver
162-->2org.apache.commons.math.util.BigReal
163-->2org.apache.commons.math.analysis.solvers.DifferentiableUnivariateRealSolver
164-->2org.apache.commons.math.geometry.CardanEulerSingularityException
165-->2org.apache.commons.math.geometry.NotARotationMatrixException
166-->2org.apache.commons.math.stat.descriptive.AbstractStorelessUnivariateStatistic
167-->2org.apache.commons.math.analysis.FunctionUtils
168-->2org.apache.commons.math.FieldElement
169-->2org.apache.commons.math.ode.nonstiff.ClassicalRungeKuttaStepInterpolator
170-->2org.apache.commons.math.linear.RealMatrixPreservingVisitor
171-->2org.apache.commons.math.ode.sampling.AbstractStepInterpolator
172-->2org.apache.commons.math.ode.FirstOrderConverter
173-->2org.apache.commons.math.optimization.BaseOptimizer
174-->2org.apache.commons.math.ode.nonstiff.DormandPrince54StepInterpolator
175-->2org.apache.commons.math.stat.descriptive.SynchronizedDescriptiveStatistics
176-->2org.apache.commons.math.distribution.TDistribution
177-->2org.apache.commons.math.stat.descriptive.summary.Sum
178-->2org.apache.commons.math.stat.descriptive.rank.Min
179-->2org.apache.commons.math.geometry.Vector3D
180-->2org.apache.commons.math.distribution.BinomialDistributionImpl
181-->2org.apache.commons.math.genetics.TournamentSelection
182-->2org.apache.commons.math.distribution.AbstractContinuousDistribution
183-->2org.apache.commons.math.linear.AbstractRealVector
184-->2org.apache.commons.math.fraction.FractionField
185-->2org.apache.commons.math.linear.RealMatrixChangingVisitor
186-->2org.apache.commons.math.fraction.Fraction
187-->2org.apache.commons.math.optimization.general.NonLinearConjugateGradientOptimizer
188-->2org.apache.commons.math.ode.nonstiff.EulerIntegrator
189-->2org.apache.commons.math.util.DefaultTransformer
190-->2org.apache.commons.math.analysis.function.Sqrt
191-->2org.apache.commons.math.ode.nonstiff.RungeKuttaIntegrator
192-->2org.apache.commons.math.exception.MathIllegalStateException
193-->2org.apache.commons.math.linear.BlockFieldMatrix
194-->2org.apache.commons.math.optimization.linear.UnboundedSolutionException
195-->2org.apache.commons.math.analysis.function.Inverse
196-->2org.apache.commons.math.analysis.integration.UnivariateRealIntegratorImpl
197-->2org.apache.commons.math.optimization.DifferentiableMultivariateVectorialOptimizer
198-->2org.apache.commons.math.distribution.IntegerDistribution
199-->2org.apache.commons.math.stat.StatUtils
200-->2org.apache.commons.math.analysis.solvers.BisectionSolver
201-->2org.apache.commons.math.ode.AbstractIntegrator
202-->2org.apache.commons.math.stat.descriptive.StatisticalSummary
203-->2org.apache.commons.math.util.ResizableDoubleArray
204-->2org.apache.commons.math.stat.inference.TTest
205-->2org.apache.commons.math.analysis.MultivariateMatrixFunction
206-->2org.apache.commons.math.analysis.MultivariateRealFunction
207-->2org.apache.commons.math.analysis.function.Acos
208-->2org.apache.commons.math.optimization.MultivariateRealOptimizer
209-->2org.apache.commons.math.optimization.univariate.BrentOptimizer
210-->2org.apache.commons.math.optimization.MultiStartDifferentiableMultivariateVectorialOptimizer
211-->2org.apache.commons.math.genetics.Chromosome
212-->2org.apache.commons.math.analysis.DifferentiableMultivariateRealFunction
213-->2org.apache.commons.math.optimization.fitting.WeightedObservedPoint
214-->2org.apache.commons.math.linear.AbstractFieldMatrix
215-->2org.apache.commons.math.analysis.interpolation.BicubicSplineInterpolator
216-->2org.apache.commons.math.distribution.SaddlePointExpansion
217-->2org.apache.commons.math.ode.sampling.StepInterpolator
218-->2org.apache.commons.math.optimization.fitting.GaussianFitter
219-->2org.apache.commons.math.stat.clustering.Clusterable
220-->2org.apache.commons.math.stat.descriptive.summary.SumOfLogs
221-->2org.apache.commons.math.DimensionMismatchException
222-->2org.apache.commons.math.random.UncorrelatedRandomVectorGenerator
223-->2org.apache.commons.math.stat.inference.ChiSquareTestImpl
224-->2org.apache.commons.math.optimization.BaseMultiStartMultivariateVectorialOptimizer
225-->2org.apache.commons.math.fraction.AbstractFormat
226-->2org.apache.commons.math.random.RandomData
227-->2org.apache.commons.math.exception.MathRuntimeException
228-->2org.apache.commons.math.random.RandomDataImpl
229-->2org.apache.commons.math.distribution.BetaDistributionImpl
230-->2org.apache.commons.math.ode.nonstiff.MidpointIntegrator
231-->2org.apache.commons.math.exception.MatrixDimensionMismatchException
232-->2org.apache.commons.math.stat.clustering.EuclideanIntegerPoint
233-->2org.apache.commons.math.analysis.function.Acosh
234-->2org.apache.commons.math.stat.descriptive.SynchronizedSummaryStatistics
235-->2org.apache.commons.math.linear.AnyMatrix
236-->2org.apache.commons.math.optimization.univariate.UnivariateRealPointValuePair
237-->2org.apache.commons.math.linear.FieldDecompositionSolver
238-->2org.apache.commons.math.exception.MathThrowable
239-->2org.apache.commons.math.optimization.fitting.GaussianDerivativeFunction
240-->2org.apache.commons.math.linear.CholeskyDecomposition
241-->2org.apache.commons.math.linear.EigenDecomposition
242-->2org.apache.commons.math.stat.correlation.Covariance
243-->2org.apache.commons.math.transform.FastCosineTransformer
244-->2org.apache.commons.math.random.Well1024a
245-->2org.apache.commons.math.ode.ODEIntegrator
246-->2org.apache.commons.math.analysis.integration.SimpsonIntegrator
247-->2org.apache.commons.math.distribution.DiscreteDistribution
248-->2org.apache.commons.math.analysis.solvers.BrentSolver
249-->2org.apache.commons.math.genetics.BinaryMutation
250-->2org.apache.commons.math.exception.MathArithmeticException
251-->2org.apache.commons.math.stat.descriptive.DescriptiveStatistics
252-->2org.apache.commons.math.linear.Array2DRowFieldMatrix
253-->2org.apache.commons.math.analysis.function.Cos
254-->2org.apache.commons.math.analysis.polynomials.PolynomialFunctionNewtonForm
255-->2org.apache.commons.math.exception.util.LocalizedFormats
256-->2org.apache.commons.math.stat.inference.TestUtils
257-->2org.apache.commons.math.distribution.ZipfDistribution
258-->2org.apache.commons.math.ode.sampling.FixedStepHandler
259-->2org.apache.commons.math.complex.ComplexFormat
260-->2org.apache.commons.math.stat.ranking.NaturalRanking
261-->2org.apache.commons.math.ode.sampling.StepHandler
262-->2org.apache.commons.math.linear.TriDiagonalTransformer
263-->2org.apache.commons.math.analysis.function.Min
264-->2org.apache.commons.math.stat.descriptive.WeightedEvaluation
265-->2org.apache.commons.math.optimization.SimpleVectorialPointChecker
266-->2org.apache.commons.math.optimization.MultiStartDifferentiableMultivariateRealOptimizer
267-->2org.apache.commons.math.analysis.UnivariateRealFunction
268-->2org.apache.commons.math.optimization.VectorialConvergenceChecker
269-->2org.apache.commons.math.ode.nonstiff.AdamsNordsieckTransformer
270-->2org.apache.commons.math.stat.descriptive.summary.Product
271-->2org.apache.commons.math.linear.CholeskyDecompositionImpl
272-->2org.apache.commons.math.analysis.function.Pow
273-->2org.apache.commons.math.stat.descriptive.moment.FirstMoment
274-->2org.apache.commons.math.stat.descriptive.AbstractUnivariateStatistic
275-->2org.apache.commons.math.linear.LUDecomposition
276-->2org.apache.commons.math.util.CompositeFormat
277-->2org.apache.commons.math.optimization.direct.SimplexOptimizer
278-->2org.apache.commons.math.analysis.solvers.BaseAbstractUnivariateRealSolver
279-->2org.apache.commons.math.optimization.BaseMultivariateVectorialOptimizer
280-->2org.apache.commons.math.stat.descriptive.MultivariateSummaryStatistics
281-->2org.apache.commons.math.analysis.solvers.AbstractDifferentiableUnivariateRealSolver
282-->2org.apache.commons.math.distribution.ZipfDistributionImpl
283-->2org.apache.commons.math.ode.SecondOrderDifferentialEquations
284-->2org.apache.commons.math.util.MultidimensionalCounter
285-->2org.apache.commons.math.optimization.MultiStartMultivariateRealOptimizer
286-->2org.apache.commons.math.analysis.DifferentiableUnivariateMatrixFunction
287-->2org.apache.commons.math.stat.descriptive.moment.StandardDeviation
288-->2org.apache.commons.math.linear.RealVectorFormat
289-->2org.apache.commons.math.analysis.interpolation.MicrosphereInterpolator
290-->2org.apache.commons.math.util.NumberTransformer
291-->2org.apache.commons.math.stat.descriptive.UnivariateStatistic
292-->2org.apache.commons.math.exception.ConvergenceException
293-->2org.apache.commons.math.fraction.BigFractionFormat
294-->2org.apache.commons.math.ode.sampling.NordsieckStepInterpolator
295-->2org.apache.commons.math.exception.NonSymmetricMatrixException
296-->2org.apache.commons.math.MaxIterationsExceededException
297-->2org.apache.commons.math.analysis.function.Exp
298-->2org.apache.commons.math.analysis.function.Rint
299-->2org.apache.commons.math.geometry.RotationOrder
300-->2org.apache.commons.math.exception.util.Localizable
301-->2org.apache.commons.math.genetics.RandomKey
302-->2org.apache.commons.math.genetics.InvalidRepresentationException
303-->2org.apache.commons.math.optimization.direct.AbstractSimplex
304-->2org.apache.commons.math.optimization.fitting.HarmonicCoefficientsGuesser
305-->2org.apache.commons.math.optimization.VectorialPointValuePair
306-->2org.apache.commons.math.exception.MaxCountExceededException
307-->2org.apache.commons.math.optimization.fitting.ParametricRealFunction
308-->2org.apache.commons.math.analysis.integration.RombergIntegrator
309-->2org.apache.commons.math.util.BigRealField
310-->2org.apache.commons.math.linear.OpenMapRealVector
311-->2org.apache.commons.math.linear.BlockRealMatrix
312-->2org.apache.commons.math.stat.descriptive.rank.Max
313-->2org.apache.commons.math.distribution.ChiSquaredDistributionImpl
314-->2org.apache.commons.math.analysis.polynomials.PolynomialsUtils
315-->2org.apache.commons.math.optimization.univariate.UnivariateRealOptimizer
316-->2org.apache.commons.math.stat.regression.OLSMultipleLinearRegression
317-->2org.apache.commons.math.exception.util.ArgUtils
318-->2org.apache.commons.math.random.JDKRandomGenerator
319-->2org.apache.commons.math.stat.inference.UnknownDistributionChiSquareTest
320-->2org.apache.commons.math.optimization.direct.BaseAbstractVectorialOptimizer
321-->2org.apache.commons.math.analysis.function.Sinc
322-->2org.apache.commons.math.distribution.ContinuousDistribution
323-->2org.apache.commons.math.genetics.SelectionPolicy
324-->2org.apache.commons.math.linear.SingularValueDecomposition
325-->2org.apache.commons.math.analysis.function.Sinh
326-->2org.apache.commons.math.distribution.PoissonDistribution
327-->2org.apache.commons.math.exception.NotFiniteNumberException
328-->2org.apache.commons.math.distribution.PascalDistribution
329-->2org.apache.commons.math.util.ContinuedFraction
330-->2org.apache.commons.math.ode.nonstiff.RungeKuttaStepInterpolator
331-->2org.apache.commons.math.MathConfigurationException
332-->2org.apache.commons.math.genetics.PermutationChromosome
333-->2org.apache.commons.math.stat.descriptive.moment.SemiVariance
334-->2org.apache.commons.math.analysis.function.Subtract
335-->2org.apache.commons.math.ode.sampling.StepNormalizer
336-->2org.apache.commons.math.dfp.DfpDec
337-->2org.apache.commons.math.analysis.interpolation.BicubicSplineInterpolatingFunction
338-->2org.apache.commons.math.linear.SparseRealVector
339-->2org.apache.commons.math.util.Pair
340-->2org.apache.commons.math.optimization.SimpleRealPointChecker
341-->2org.apache.commons.math.ode.nonstiff.GraggBulirschStoerIntegrator
342-->2org.apache.commons.math.fraction.ProperBigFractionFormat
343-->2org.apache.commons.math.stat.inference.MannWhitneyUTest
344-->2org.apache.commons.math.ode.nonstiff.AdaptiveStepsizeIntegrator
345-->2org.apache.commons.math.analysis.function.Divide
346-->2org.apache.commons.math.ode.nonstiff.EmbeddedRungeKuttaIntegrator
347-->2org.apache.commons.math.linear.DefaultFieldMatrixChangingVisitor
348-->2org.apache.commons.math.distribution.AbstractIntegerDistribution
349-->2org.apache.commons.math.random.EmpiricalDistributionImpl
350-->2org.apache.commons.math.fraction.BigFractionField
351-->2org.apache.commons.math.distribution.HypergeometricDistribution
352-->2org.apache.commons.math.optimization.OptimizationException
353-->2org.apache.commons.math.util.DoubleArray
354-->2org.apache.commons.math.analysis.interpolation.MicrosphereInterpolatingFunction
355-->2org.apache.commons.math.optimization.linear.NoFeasibleSolutionException
356-->2org.apache.commons.math.exception.NoDataException
357-->2org.apache.commons.math.exception.util.MessageFactory
358-->2org.apache.commons.math.optimization.LeastSquaresConverter
359-->2org.apache.commons.math.optimization.direct.BaseAbstractScalarOptimizer
360-->2org.apache.commons.math.analysis.interpolation.TrivariateRealGridInterpolator
361-->2org.apache.commons.math.optimization.univariate.AbstractUnivariateRealOptimizer
362-->2org.apache.commons.math.analysis.interpolation.BicubicSplineFunction
363-->2org.apache.commons.math.optimization.direct.MultiDirectionalSimplex
364-->2org.apache.commons.math.ode.nonstiff.AdamsMoultonIntegrator
365-->2org.apache.commons.math.optimization.RealPointValuePair
366-->2org.apache.commons.math.stat.ranking.RankingAlgorithm
367-->2org.apache.commons.math.stat.descriptive.rank.Percentile
368-->2org.apache.commons.math.linear.FieldMatrix
369-->2org.apache.commons.math.analysis.interpolation.LinearInterpolator
370-->2org.apache.commons.math.random.RandomAdaptor
371-->2org.apache.commons.math.optimization.linear.AbstractLinearOptimizer
372-->2org.apache.commons.math.exception.MathUnsupportedOperationException
373-->2org.apache.commons.math.distribution.AbstractDistribution
374-->2org.apache.commons.math.analysis.function.Constant
375-->2org.apache.commons.math.optimization.univariate.BracketFinder
376-->2org.apache.commons.math.optimization.general.ConjugateGradientFormula
377-->2org.apache.commons.math.genetics.OnePointCrossover
378-->2org.apache.commons.math.analysis.solvers.LaguerreSolver
379-->2org.apache.commons.math.dfp.Dfp
380-->2org.apache.commons.math.analysis.solvers.RiddersSolver
381-->2org.apache.commons.math.optimization.AbstractConvergenceChecker
382-->2org.apache.commons.math.linear.MatrixUtils
383-->2org.apache.commons.math.random.Well19937c
384-->2org.apache.commons.math.genetics.CrossoverPolicy
385-->2org.apache.commons.math.genetics.BinaryChromosome
386-->2org.apache.commons.math.stat.inference.OneWayAnovaImpl
387-->2org.apache.commons.math.random.Well19937a
388-->2org.apache.commons.math.analysis.interpolation.TricubicSplineFunction
389-->2org.apache.commons.math.optimization.direct.NelderMeadSimplex
390-->2org.apache.commons.math.optimization.DifferentiableMultivariateRealOptimizer
391-->2org.apache.commons.math.ode.nonstiff.GraggBulirschStoerStepInterpolator
392-->2org.apache.commons.math.linear.FieldLUDecomposition
393-->2org.apache.commons.math.ode.nonstiff.AdamsIntegrator
394-->2org.apache.commons.math.analysis.function.Log
395-->2org.apache.commons.math.exception.MathIllegalArgumentException
396-->2org.apache.commons.math.analysis.function.Cbrt
397-->2org.apache.commons.math.analysis.function.Atan2
398-->2org.apache.commons.math.distribution.NormalDistribution
399-->2org.apache.commons.math.analysis.solvers.AbstractUnivariateRealSolver
400-->2org.apache.commons.math.complex.Complex
401-->2org.apache.commons.math.transform.RealTransformer
402-->2org.apache.commons.math.analysis.interpolation.DividedDifferenceInterpolator
403-->2org.apache.commons.math.distribution.BinomialDistribution
404-->2org.apache.commons.math.stat.inference.WilcoxonSignedRankTestImpl
405-->2org.apache.commons.math.linear.ArrayRealVector
406-->2org.apache.commons.math.fraction.FractionConversionException
407-->2org.apache.commons.math.distribution.NormalDistributionImpl
408-->2org.apache.commons.math.ode.nonstiff.EulerStepInterpolator
409-->2org.apache.commons.math.optimization.BaseMultiStartMultivariateRealOptimizer
410-->2org.apache.commons.math.ode.nonstiff.HighamHall54Integrator
411-->2org.apache.commons.math.ode.events.CombinedEventsManager
412-->2org.apache.commons.math.analysis.function.Power
413-->2org.apache.commons.math.util.OpenIntToFieldHashMap
414-->2org.apache.commons.math.special.Erf
415-->2org.apache.commons.math.ode.nonstiff.MidpointStepInterpolator
416-->2org.apache.commons.math.stat.descriptive.summary.SumOfSquares
417-->2org.apache.commons.math.stat.descriptive.moment.SecondMoment
418-->2org.apache.commons.math.stat.descriptive.rank.Median
419-->2org.apache.commons.math.random.ValueServer
420-->2org.apache.commons.math.ode.nonstiff.ThreeEighthesStepInterpolator
421-->2org.apache.commons.math.distribution.CauchyDistributionImpl
422-->2org.apache.commons.math.analysis.function.Atanh
423-->2org.apache.commons.math.analysis.interpolation.BivariateRealGridInterpolator
424-->2org.apache.commons.math.distribution.FDistribution
425-->2org.apache.commons.math.optimization.linear.SimplexTableau
426-->2org.apache.commons.math.optimization.general.GaussNewtonOptimizer
427-->2org.apache.commons.math.random.Well512a
428-->2org.apache.commons.math.random.RandomVectorGenerator
429-->2org.apache.commons.math.stat.descriptive.StorelessUnivariateStatistic
430-->2org.apache.commons.math.linear.AbstractRealMatrix
431-->2org.apache.commons.math.random.NormalizedRandomGenerator
432-->2org.apache.commons.math.genetics.RandomKeyMutation
433-->2org.apache.commons.math.distribution.ExponentialDistributionImpl
434-->2org.apache.commons.math.stat.descriptive.moment.FourthMoment
435-->2org.apache.commons.math.distribution.TDistributionImpl
436-->2org.apache.commons.math.exception.util.DummyLocalizable
437-->2org.apache.commons.math.random.GaussianRandomGenerator
438-->2org.apache.commons.math.linear.RealVector
439-->2org.apache.commons.math.analysis.interpolation.UnivariateRealInterpolator
440-->2org.apache.commons.math.analysis.interpolation.TricubicSplineInterpolator
441-->2org.apache.commons.math.stat.regression.SimpleRegression
442-->2org.apache.commons.math.genetics.AbstractListChromosome
443-->2org.apache.commons.math.linear.BiDiagonalTransformer
444-->2org.apache.commons.math.optimization.GoalType
445-->2org.apache.commons.math.ode.nonstiff.DormandPrince54Integrator
446-->2org.apache.commons.math.util.Incrementor
447-->2org.apache.commons.math.analysis.solvers.UnivariateRealSolverUtils
448-->2org.apache.commons.math.genetics.MutationPolicy
449-->2org.apache.commons.math.analysis.interpolation.LoessInterpolator
450-->2org.apache.commons.math.ConvergenceException
451-->2org.apache.commons.math.random.UnitSphereRandomVectorGenerator
452-->2org.apache.commons.math.optimization.BaseMultivariateRealOptimizer
453-->2org.apache.commons.math.analysis.DifferentiableUnivariateRealFunction
454-->2org.apache.commons.math.ode.ContinuousOutputModel
455-->2org.apache.commons.math.distribution.GammaDistribution
456-->2org.apache.commons.math.geometry.Vector3DFormat
457-->2org.apache.commons.math.optimization.fitting.HarmonicFitter
458-->2org.apache.commons.math.analysis.function.Minus
459-->2org.apache.commons.math.optimization.linear.LinearObjectiveFunction
460-->2org.apache.commons.math.exception.MultiDimensionMismatchException
461-->2org.apache.commons.math.fraction.FractionFormat
462-->2org.apache.commons.math.exception.MathParseException
463-->2org.apache.commons.math.optimization.linear.LinearConstraint
464-->2org.apache.commons.math.analysis.function.Log1p
465-->2org.apache.commons.math.ode.nonstiff.GillStepInterpolator
466-->2org.apache.commons.math.distribution.HypergeometricDistributionImpl
467-->2org.apache.commons.math.linear.ArrayFieldVector
468-->2org.apache.commons.math.linear.SparseFieldMatrix
469-->2org.apache.commons.math.linear.QRDecomposition
470-->2org.apache.commons.math.dfp.DfpMath
471-->2org.apache.commons.math.distribution.ExponentialDistribution
472-->2org.apache.commons.math.distribution.GammaDistributionImpl
473-->2org.apache.commons.math.stat.inference.MannWhitneyUTestImpl
474-->2org.apache.commons.math.analysis.function.Cosh
475-->2org.apache.commons.math.analysis.function.Tan
476-->2org.apache.commons.math.optimization.general.AbstractLeastSquaresOptimizer
477-->2org.apache.commons.math.util.TransformerMap
478-->2org.apache.commons.math.distribution.BetaDistribution
479-->2org.apache.commons.math.exception.ZeroException
480-->2org.apache.commons.math.linear.Array2DRowRealMatrix
481-->2org.apache.commons.math.ode.events.EventState
482-->2org.apache.commons.math.stat.descriptive.moment.VectorialMean
483-->2org.apache.commons.math.analysis.DifferentiableMultivariateVectorialFunction
484-->2org.apache.commons.math.stat.descriptive.moment.VectorialCovariance
485-->2org.apache.commons.math.analysis.TrivariateRealFunction
486-->2org.apache.commons.math.analysis.function.Atan
487-->2org.apache.commons.math.optimization.fitting.CurveFitter
488-->2org.apache.commons.math.linear.FieldVector
489-->2org.apache.commons.math.analysis.interpolation.SmoothingPolynomialBicubicSplineInterpolator
490-->2org.apache.commons.math.stat.regression.GLSMultipleLinearRegression
491-->2org.apache.commons.math.stat.ranking.TiesStrategy
492-->2org.apache.commons.math.stat.ranking.NaNStrategy
493-->2org.apache.commons.math.stat.descriptive.AggregateSummaryStatistics
494-->2org.apache.commons.math.complex.ComplexField
495-->2org.apache.commons.math.ode.IntegratorException
496-->2org.apache.commons.math.fraction.BigFraction
497-->2org.apache.commons.math.analysis.solvers.NewtonSolver
498-->2org.apache.commons.math.analysis.function.Multiply
499-->2org.apache.commons.math.stat.inference.WilcoxonSignedRankTest
500-->2org.apache.commons.math.transform.FastFourierTransformer
[INFO ] fr.inria.astor.core.validation.executors.JUnitExecutorProcess.execute(JUnitExecutorProcess.java:120) - The Process that runs JUnit test cases had problems: process hasn't exited
[INFO ] fr.inria.astor.core.validation.executors.JUnitExecutorProcess.execute(JUnitExecutorProcess.java:120) - The Process that runs JUnit test cases had problems: process hasn't exited
[INFO ] fr.inria.astor.core.validation.executors.JUnitExecutorProcess.execute(JUnitExecutorProcess.java:120) - The Process that runs JUnit test cases had problems: process hasn't exited
[INFO ] fr.inria.astor.core.validation.executors.JUnitExecutorProcess.execute(JUnitExecutorProcess.java:120) - The Process that runs JUnit test cases had problems: process hasn't exited
[INFO ] fr.inria.astor.core.validation.executors.JUnitExecutorProcess.execute(JUnitExecutorProcess.java:120) - The Process that runs JUnit test cases had problems: process hasn't exited
[INFO ] fr.inria.astor.core.validation.executors.JUnitExecutorProcess.execute(JUnitExecutorProcess.java:120) - The Process that runs JUnit test cases had problems: process hasn't exited
[INFO ] fr.inria.astor.core.validation.executors.JUnitExecutorProcess.execute(JUnitExecutorProcess.java:120) - The Process that runs JUnit test cases had problems: process hasn't exited
[INFO ] fr.inria.astor.core.validation.executors.JUnitExecutorProcess.execute(JUnitExecutorProcess.java:120) - The Process that runs JUnit test cases had problems: process hasn't exited
[INFO ] fr.inria.astor.core.validation.executors.JUnitExecutorProcess.execute(JUnitExecutorProcess.java:120) - The Process that runs JUnit test cases had problems: process hasn't exited
[INFO ] fr.inria.astor.core.validation.executors.JUnitExecutorProcess.execute(JUnitExecutorProcess.java:120) - The Process that runs JUnit test cases had problems: process hasn't exited
[INFO ] fr.inria.astor.core.validation.executors.JUnitExecutorProcess.execute(JUnitExecutorProcess.java:120) - The Process that runs JUnit test cases had problems: process hasn't exited
[INFO ] fr.inria.astor.core.validation.executors.JUnitExecutorProcess.execute(JUnitExecutorProcess.java:120) - The Process that runs JUnit test cases had problems: process hasn't exited
[INFO ] fr.inria.astor.core.validation.executors.JUnitExecutorProcess.execute(JUnitExecutorProcess.java:120) - The Process that runs JUnit test cases had problems: process hasn't exited
[INFO ] fr.inria.astor.core.validation.executors.JUnitExecutorProcess.execute(JUnitExecutorProcess.java:120) - The Process that runs JUnit test cases had problems: process hasn't exited
[INFO ] fr.inria.astor.core.validation.executors.JUnitExecutorProcess.execute(JUnitExecutorProcess.java:120) - The Process that runs JUnit test cases had problems: process hasn't exited
[INFO ] fr.inria.astor.core.validation.executors.JUnitExecutorProcess.execute(JUnitExecutorProcess.java:120) - The Process that runs JUnit test cases had problems: process hasn't exited
[INFO ] fr.inria.astor.core.validation.executors.JUnitExecutorProcess.execute(JUnitExecutorProcess.java:120) - The Process that runs JUnit test cases had problems: process hasn't exited
[INFO ] fr.inria.astor.core.validation.executors.JUnitExecutorProcess.execute(JUnitExecutorProcess.java:120) - The Process that runs JUnit test cases had problems: process hasn't exited
[INFO ] fr.inria.astor.core.validation.executors.JUnitExecutorProcess.execute(JUnitExecutorProcess.java:120) - The Process that runs JUnit test cases had problems: process hasn't exited
[INFO ] fr.inria.astor.core.validation.executors.JUnitExecutorProcess.execute(JUnitExecutorProcess.java:120) - The Process that runs JUnit test cases had problems: process hasn't exited
[INFO ] fr.inria.astor.core.validation.executors.JUnitExecutorProcess.execute(JUnitExecutorProcess.java:120) - The Process that runs JUnit test cases had problems: process hasn't exited
[INFO ] fr.inria.astor.core.validation.executors.JUnitExecutorProcess.execute(JUnitExecutorProcess.java:120) - The Process that runs JUnit test cases had problems: process hasn't exited
[INFO ] fr.inria.astor.core.validation.executors.JUnitExecutorProcess.execute(JUnitExecutorProcess.java:120) - The Process that runs JUnit test cases had problems: process hasn't exited
[INFO ] fr.inria.astor.core.loop.AstorCoreEngine.belowMaxTime(AstorCoreEngine.java:203) - 
 No more time for operating
[INFO ] fr.inria.astor.core.loop.AstorCoreEngine.startEvolution(AstorCoreEngine.java:143) - Time Repair Loop (s): 10877.844
[INFO ] fr.inria.astor.core.loop.AstorCoreEngine.showResults(AstorCoreEngine.java:165) - 
----SUMMARY_EXECUTION---
[INFO ] fr.inria.astor.approaches.jgenprog.JGenProg.showResults(JGenProg.java:332) - 
successful_ing_attempts (#trials 0, totalAttps 0): []
[INFO ] fr.inria.astor.approaches.jgenprog.JGenProg.showResults(JGenProg.java:334) - 
failing_ing_attempts (#trials 440, totalAttps 4169): [1, 1, 3, 1, 1, 1, 2, 1, 1, 1, 7, 2, 1, 120, 4, 1, 1, 4, 1, 1, 4, 1, 1, 4, 1, 1, 4, 1, 4, 59, 3, 1, 1, 4, 1, 1, 1, 4, 1, 59, 4, 1, 1, 1063, 2, 4, 4, 1, 59, 1, 1, 4, 3, 1, 1, 1, 1, 4, 1, 1, 4, 1, 1, 59, 1, 1, 1, 1, 1, 1, 7, 1, 4, 4, 2, 1, 1, 3, 1, 1, 6, 4, 1, 1, 1, 4, 1, 1, 3, 1, 4, 4, 4, 1, 1, 1, 4, 1, 1, 1, 4, 1, 1, 6, 1, 1, 1, 4, 1, 1, 1, 120, 4, 1, 1, 59, 2, 7, 1, 1, 1, 3, 1, 1, 1, 1, 1, 1, 4, 1, 120, 1, 1, 4, 1, 1, 6, 1, 1, 1, 81, 1, 1, 1, 127, 4, 1, 1, 81, 1, 2, 1, 1, 1, 2, 1, 1, 1, 1, 3, 1, 1, 1, 1, 1, 1, 1, 3, 1, 14, 1, 1, 4, 4, 1, 1, 1, 1, 1, 1, 7, 1, 1, 4, 1, 1, 1, 1, 1, 1, 1, 16, 1, 1, 1, 8, 1, 1, 1, 7, 2, 1, 1, 1, 1, 4, 1, 1, 23, 1, 1, 1, 1, 1, 1, 1, 1, 1, 81, 754, 6, 1, 1, 1, 1, 1, 1, 7, 1, 4, 1, 1, 1, 1, 1, 4, 1, 25, 1, 1, 16, 1, 1, 1, 2, 1, 4, 1, 1, 8, 1, 1, 2, 7, 1, 4, 1, 1, 1, 1, 120, 6, 1, 1, 1, 2, 1, 1, 1, 1, 1, 4, 120, 1, 1, 1, 7, 1, 1, 1, 1, 1, 16, 4, 1, 23, 8, 1, 1, 2, 1, 1, 1, 4, 1, 1, 1, 1, 6, 4, 1, 1, 1, 4, 2, 1, 1, 4, 1, 23, 1, 2, 1, 1, 1, 8, 1, 1, 1, 1, 3, 1, 7, 1, 1, 4, 8, 7, 5, 1, 1, 1, 1, 4, 1, 1, 1, 7, 1, 6, 1, 1, 1, 1, 32, 1, 1, 1, 1, 1, 1, 1, 1, 1, 1, 1, 1, 1, 1, 1, 1, 2, 5, 1, 1, 1, 2, 7, 7, 1, 1, 1, 1, 1, 1, 1, 1, 2, 4, 1, 1, 3, 1, 1, 1, 1, 1, 1, 7, 3, 1, 1, 7, 1, 1, 1, 4, 1, 7, 1, 1, 1, 2, 4, 4, 1, 7, 1, 12, 1, 1, 1, 1, 1, 2, 25, 32, 1, 1, 1, 1, 1, 1, 6, 1, 7, 1, 7, 4, 1, 13, 16, 1, 1, 1, 5, 2, 2, 1, 1]
[INFO ] fr.inria.astor.approaches.jgenprog.JGenProg.showResults(JGenProg.java:337) - 
total Patch Attempts (0): []
[INFO ] fr.inria.astor.approaches.jgenprog.JGenProg.showResults(JGenProg.java:339) - 
successful_ing_attempts_by_patch: []
[INFO ] fr.inria.astor.approaches.jgenprog.JGenProg.showResults(JGenProg.java:340) - 
failing_ing_attempts_by_patch: [(pv:2,at:1), (pv:3,at:1), (pv:4,at:3), (pv:5,at:1), (pv:6,at:1), (pv:7,at:1), (pv:8,at:2), (pv:9,at:1), (pv:10,at:1), (pv:11,at:1), (pv:12,at:7), (pv:13,at:2), (pv:14,at:1), (pv:15,at:120), (pv:16,at:4), (pv:17,at:1), (pv:18,at:1), (pv:19,at:4), (pv:20,at:1), (pv:21,at:1), (pv:22,at:4), (pv:23,at:1), (pv:24,at:1), (pv:25,at:4), (pv:26,at:1), (pv:27,at:1), (pv:28,at:4), (pv:29,at:1), (pv:30,at:4), (pv:31,at:59), (pv:32,at:3), (pv:33,at:1), (pv:34,at:1), (pv:35,at:4), (pv:36,at:1), (pv:37,at:1), (pv:38,at:1), (pv:39,at:4), (pv:40,at:1), (pv:41,at:59), (pv:42,at:4), (pv:43,at:1), (pv:44,at:1), (pv:45,at:1063), (pv:46,at:2), (pv:47,at:4), (pv:48,at:4), (pv:49,at:1), (pv:50,at:59), (pv:51,at:1), (pv:52,at:1), (pv:53,at:4), (pv:54,at:3), (pv:55,at:1), (pv:56,at:1), (pv:57,at:1), (pv:58,at:1), (pv:59,at:4), (pv:60,at:1), (pv:61,at:1), (pv:62,at:4), (pv:63,at:1), (pv:64,at:1), (pv:65,at:59), (pv:66,at:1), (pv:67,at:1), (pv:68,at:1), (pv:69,at:1), (pv:70,at:1), (pv:71,at:1), (pv:72,at:7), (pv:73,at:1), (pv:74,at:4), (pv:75,at:4), (pv:76,at:2), (pv:77,at:1), (pv:78,at:1), (pv:79,at:3), (pv:80,at:1), (pv:81,at:1), (pv:82,at:6), (pv:83,at:4), (pv:84,at:1), (pv:85,at:1), (pv:86,at:1), (pv:87,at:4), (pv:88,at:1), (pv:89,at:1), (pv:90,at:3), (pv:91,at:1), (pv:92,at:4), (pv:93,at:4), (pv:94,at:4), (pv:95,at:1), (pv:96,at:1), (pv:97,at:1), (pv:98,at:4), (pv:99,at:1), (pv:100,at:1), (pv:101,at:1), (pv:102,at:4), (pv:103,at:1), (pv:104,at:1), (pv:105,at:6), (pv:106,at:1), (pv:107,at:1), (pv:108,at:1), (pv:109,at:4), (pv:110,at:1), (pv:111,at:1), (pv:112,at:1), (pv:113,at:120), (pv:114,at:4), (pv:115,at:1), (pv:116,at:1), (pv:117,at:59), (pv:118,at:2), (pv:119,at:7), (pv:120,at:1), (pv:121,at:1), (pv:122,at:1), (pv:123,at:3), (pv:124,at:1), (pv:125,at:1), (pv:126,at:1), (pv:127,at:1), (pv:128,at:1), (pv:129,at:1), (pv:130,at:4), (pv:131,at:1), (pv:132,at:120), (pv:133,at:1), (pv:134,at:1), (pv:135,at:4), (pv:136,at:1), (pv:137,at:1), (pv:138,at:6), (pv:139,at:1), (pv:140,at:1), (pv:141,at:1), (pv:142,at:81), (pv:143,at:1), (pv:144,at:1), (pv:145,at:1), (pv:146,at:127), (pv:147,at:4), (pv:148,at:1), (pv:149,at:1), (pv:150,at:81), (pv:151,at:1), (pv:152,at:2), (pv:153,at:1), (pv:154,at:1), (pv:155,at:1), (pv:156,at:2), (pv:157,at:1), (pv:158,at:1), (pv:159,at:1), (pv:160,at:1), (pv:161,at:3), (pv:162,at:1), (pv:163,at:1), (pv:164,at:1), (pv:165,at:1), (pv:166,at:1), (pv:167,at:1), (pv:168,at:1), (pv:169,at:3), (pv:170,at:1), (pv:171,at:14), (pv:172,at:1), (pv:173,at:1), (pv:174,at:4), (pv:175,at:4), (pv:176,at:1), (pv:177,at:1), (pv:178,at:1), (pv:179,at:1), (pv:180,at:1), (pv:181,at:1), (pv:182,at:7), (pv:183,at:1), (pv:184,at:1), (pv:185,at:4), (pv:186,at:1), (pv:187,at:1), (pv:188,at:1), (pv:189,at:1), (pv:190,at:1), (pv:191,at:1), (pv:192,at:1), (pv:193,at:16), (pv:194,at:1), (pv:195,at:1), (pv:196,at:1), (pv:197,at:8), (pv:198,at:1), (pv:199,at:1), (pv:200,at:1), (pv:201,at:7), (pv:202,at:2), (pv:203,at:1), (pv:204,at:1), (pv:205,at:1), (pv:206,at:1), (pv:207,at:4), (pv:208,at:1), (pv:209,at:1), (pv:210,at:23), (pv:211,at:1), (pv:212,at:1), (pv:213,at:1), (pv:214,at:1), (pv:215,at:1), (pv:216,at:1), (pv:217,at:1), (pv:218,at:1), (pv:219,at:1), (pv:220,at:81), (pv:221,at:754), (pv:222,at:6), (pv:223,at:1), (pv:224,at:1), (pv:225,at:1), (pv:226,at:1), (pv:227,at:1), (pv:228,at:1), (pv:229,at:7), (pv:230,at:1), (pv:231,at:4), (pv:232,at:1), (pv:233,at:1), (pv:234,at:1), (pv:235,at:1), (pv:236,at:1), (pv:237,at:4), (pv:238,at:1), (pv:239,at:25), (pv:240,at:1), (pv:241,at:1), (pv:242,at:16), (pv:243,at:1), (pv:244,at:1), (pv:245,at:1), (pv:246,at:2), (pv:247,at:1), (pv:248,at:4), (pv:249,at:1), (pv:250,at:1), (pv:251,at:8), (pv:252,at:1), (pv:253,at:1), (pv:254,at:2), (pv:255,at:7), (pv:256,at:1), (pv:257,at:4), (pv:258,at:1), (pv:259,at:1), (pv:260,at:1), (pv:261,at:1), (pv:262,at:120), (pv:263,at:6), (pv:264,at:1), (pv:265,at:1), (pv:266,at:1), (pv:267,at:2), (pv:268,at:1), (pv:269,at:1), (pv:270,at:1), (pv:271,at:1), (pv:272,at:1), (pv:273,at:4), (pv:274,at:120), (pv:275,at:1), (pv:276,at:1), (pv:277,at:1), (pv:278,at:7), (pv:279,at:1), (pv:280,at:1), (pv:281,at:1), (pv:282,at:1), (pv:283,at:1), (pv:284,at:16), (pv:285,at:4), (pv:286,at:1), (pv:287,at:23), (pv:288,at:8), (pv:289,at:1), (pv:290,at:1), (pv:291,at:2), (pv:292,at:1), (pv:293,at:1), (pv:294,at:1), (pv:295,at:4), (pv:296,at:1), (pv:297,at:1), (pv:298,at:1), (pv:299,at:1), (pv:300,at:6), (pv:301,at:4), (pv:302,at:1), (pv:303,at:1), (pv:304,at:1), (pv:305,at:4), (pv:306,at:2), (pv:307,at:1), (pv:308,at:1), (pv:309,at:4), (pv:310,at:1), (pv:311,at:23), (pv:312,at:1), (pv:313,at:2), (pv:314,at:1), (pv:315,at:1), (pv:316,at:1), (pv:317,at:8), (pv:318,at:1), (pv:319,at:1), (pv:320,at:1), (pv:321,at:1), (pv:322,at:3), (pv:323,at:1), (pv:324,at:7), (pv:325,at:1), (pv:326,at:1), (pv:327,at:4), (pv:328,at:8), (pv:329,at:7), (pv:330,at:5), (pv:331,at:1), (pv:332,at:1), (pv:333,at:1), (pv:334,at:1), (pv:335,at:4), (pv:336,at:1), (pv:337,at:1), (pv:338,at:1), (pv:339,at:7), (pv:340,at:1), (pv:341,at:6), (pv:342,at:1), (pv:343,at:1), (pv:344,at:1), (pv:345,at:1), (pv:346,at:32), (pv:347,at:1), (pv:348,at:1), (pv:349,at:1), (pv:350,at:1), (pv:351,at:1), (pv:352,at:1), (pv:353,at:1), (pv:354,at:1), (pv:355,at:1), (pv:356,at:1), (pv:357,at:1), (pv:358,at:1), (pv:359,at:1), (pv:360,at:1), (pv:361,at:1), (pv:362,at:1), (pv:363,at:2), (pv:364,at:5), (pv:365,at:1), (pv:366,at:1), (pv:367,at:1), (pv:368,at:2), (pv:369,at:7), (pv:370,at:7), (pv:371,at:1), (pv:372,at:1), (pv:373,at:1), (pv:374,at:1), (pv:375,at:1), (pv:376,at:1), (pv:377,at:1), (pv:378,at:1), (pv:379,at:2), (pv:380,at:4), (pv:381,at:1), (pv:382,at:1), (pv:383,at:3), (pv:384,at:1), (pv:385,at:1), (pv:386,at:1), (pv:387,at:1), (pv:388,at:1), (pv:389,at:1), (pv:390,at:7), (pv:391,at:3), (pv:392,at:1), (pv:393,at:1), (pv:394,at:7), (pv:395,at:1), (pv:396,at:1), (pv:397,at:1), (pv:398,at:4), (pv:399,at:1), (pv:400,at:7), (pv:401,at:1), (pv:402,at:1), (pv:403,at:1), (pv:404,at:2), (pv:405,at:4), (pv:406,at:4), (pv:407,at:1), (pv:408,at:7), (pv:409,at:1), (pv:410,at:12), (pv:411,at:1), (pv:412,at:1), (pv:413,at:1), (pv:414,at:1), (pv:415,at:1), (pv:416,at:2), (pv:417,at:25), (pv:418,at:32), (pv:419,at:1), (pv:420,at:1), (pv:421,at:1), (pv:422,at:1), (pv:423,at:1), (pv:424,at:1), (pv:425,at:6), (pv:426,at:1), (pv:427,at:7), (pv:428,at:1), (pv:429,at:7), (pv:430,at:4), (pv:431,at:1), (pv:432,at:13), (pv:433,at:16), (pv:434,at:1), (pv:435,at:1), (pv:436,at:1), (pv:437,at:5), (pv:438,at:2), (pv:439,at:2), (pv:440,at:1), (pv:441,at:1)]
[INFO ] fr.inria.astor.approaches.jgenprog.JGenProg.showResults(JGenProg.java:342) - 
pvariants_with_transformed_ingredients: [(pv:2,at:1), (pv:3,at:1), (pv:4,at:3), (pv:5,at:1), (pv:6,at:1), (pv:7,at:1), (pv:8,at:2), (pv:9,at:1), (pv:10,at:1), (pv:11,at:1), (pv:12,at:7), (pv:13,at:2), (pv:14,at:1), (pv:15,at:120), (pv:16,at:4), (pv:17,at:1), (pv:18,at:1), (pv:19,at:4), (pv:20,at:1), (pv:21,at:1), (pv:22,at:4), (pv:23,at:1), (pv:24,at:1), (pv:25,at:4), (pv:26,at:1), (pv:27,at:1), (pv:28,at:4), (pv:29,at:1), (pv:30,at:4), (pv:31,at:59), (pv:32,at:3), (pv:33,at:1), (pv:34,at:1), (pv:35,at:4), (pv:36,at:1), (pv:37,at:1), (pv:38,at:1), (pv:39,at:4), (pv:40,at:1), (pv:41,at:59), (pv:42,at:4), (pv:43,at:1), (pv:44,at:1), (pv:45,at:1063), (pv:46,at:2), (pv:47,at:4), (pv:48,at:4), (pv:49,at:1), (pv:50,at:59), (pv:51,at:1), (pv:52,at:1), (pv:53,at:4), (pv:54,at:3), (pv:55,at:1), (pv:56,at:1), (pv:57,at:1), (pv:58,at:1), (pv:59,at:4), (pv:60,at:1), (pv:61,at:1), (pv:62,at:4), (pv:63,at:1), (pv:64,at:1), (pv:65,at:59), (pv:66,at:1), (pv:67,at:1), (pv:68,at:1), (pv:69,at:1), (pv:70,at:1), (pv:71,at:1), (pv:72,at:7), (pv:73,at:1), (pv:74,at:4), (pv:75,at:4), (pv:76,at:2), (pv:77,at:1), (pv:78,at:1), (pv:79,at:3), (pv:80,at:1), (pv:81,at:1), (pv:82,at:6), (pv:83,at:4), (pv:84,at:1), (pv:85,at:1), (pv:86,at:1), (pv:87,at:4), (pv:88,at:1), (pv:89,at:1), (pv:90,at:3), (pv:91,at:1), (pv:92,at:4), (pv:93,at:4), (pv:94,at:4), (pv:95,at:1), (pv:96,at:1), (pv:97,at:1), (pv:98,at:4), (pv:99,at:1), (pv:100,at:1), (pv:101,at:1), (pv:102,at:4), (pv:103,at:1), (pv:104,at:1), (pv:105,at:6), (pv:106,at:1), (pv:107,at:1), (pv:108,at:1), (pv:109,at:4), (pv:110,at:1), (pv:111,at:1), (pv:112,at:1), (pv:113,at:120), (pv:114,at:4), (pv:115,at:1), (pv:116,at:1), (pv:117,at:59), (pv:118,at:2), (pv:119,at:7), (pv:120,at:1), (pv:121,at:1), (pv:122,at:1), (pv:123,at:3), (pv:124,at:1), (pv:125,at:1), (pv:126,at:1), (pv:127,at:1), (pv:128,at:1), (pv:129,at:1), (pv:130,at:4), (pv:131,at:1), (pv:132,at:120), (pv:133,at:1), (pv:134,at:1), (pv:135,at:4), (pv:136,at:1), (pv:137,at:1), (pv:138,at:6), (pv:139,at:1), (pv:140,at:1), (pv:141,at:1), (pv:142,at:81), (pv:143,at:1), (pv:144,at:1), (pv:145,at:1), (pv:146,at:127), (pv:147,at:4), (pv:148,at:1), (pv:149,at:1), (pv:150,at:81), (pv:151,at:1), (pv:152,at:2), (pv:153,at:1), (pv:154,at:1), (pv:155,at:1), (pv:156,at:2), (pv:157,at:1), (pv:158,at:1), (pv:159,at:1), (pv:160,at:1), (pv:161,at:3), (pv:162,at:1), (pv:163,at:1), (pv:164,at:1), (pv:165,at:1), (pv:166,at:1), (pv:167,at:1), (pv:168,at:1), (pv:169,at:3), (pv:170,at:1), (pv:171,at:14), (pv:172,at:1), (pv:173,at:1), (pv:174,at:4), (pv:175,at:4), (pv:176,at:1), (pv:177,at:1), (pv:178,at:1), (pv:179,at:1), (pv:180,at:1), (pv:181,at:1), (pv:182,at:7), (pv:183,at:1), (pv:184,at:1), (pv:185,at:4), (pv:186,at:1), (pv:187,at:1), (pv:188,at:1), (pv:189,at:1), (pv:190,at:1), (pv:191,at:1), (pv:192,at:1), (pv:193,at:16), (pv:194,at:1), (pv:195,at:1), (pv:196,at:1), (pv:197,at:8), (pv:198,at:1), (pv:199,at:1), (pv:200,at:1), (pv:201,at:7), (pv:202,at:2), (pv:203,at:1), (pv:204,at:1), (pv:205,at:1), (pv:206,at:1), (pv:207,at:4), (pv:208,at:1), (pv:209,at:1), (pv:210,at:23), (pv:211,at:1), (pv:212,at:1), (pv:213,at:1), (pv:214,at:1), (pv:215,at:1), (pv:216,at:1), (pv:217,at:1), (pv:218,at:1), (pv:219,at:1), (pv:220,at:81), (pv:221,at:754), (pv:222,at:6), (pv:223,at:1), (pv:224,at:1), (pv:225,at:1), (pv:226,at:1), (pv:227,at:1), (pv:228,at:1), (pv:229,at:7), (pv:230,at:1), (pv:231,at:4), (pv:232,at:1), (pv:233,at:1), (pv:234,at:1), (pv:235,at:1), (pv:236,at:1), (pv:237,at:4), (pv:238,at:1), (pv:239,at:25), (pv:240,at:1), (pv:241,at:1), (pv:242,at:16), (pv:243,at:1), (pv:244,at:1), (pv:245,at:1), (pv:246,at:2), (pv:247,at:1), (pv:248,at:4), (pv:249,at:1), (pv:250,at:1), (pv:251,at:8), (pv:252,at:1), (pv:253,at:1), (pv:254,at:2), (pv:255,at:7), (pv:256,at:1), (pv:257,at:4), (pv:258,at:1), (pv:259,at:1), (pv:260,at:1), (pv:261,at:1), (pv:262,at:120), (pv:263,at:6), (pv:264,at:1), (pv:265,at:1), (pv:266,at:1), (pv:267,at:2), (pv:268,at:1), (pv:269,at:1), (pv:270,at:1), (pv:271,at:1), (pv:272,at:1), (pv:273,at:4), (pv:274,at:120), (pv:275,at:1), (pv:276,at:1), (pv:277,at:1), (pv:278,at:7), (pv:279,at:1), (pv:280,at:1), (pv:281,at:1), (pv:282,at:1), (pv:283,at:1), (pv:284,at:16), (pv:285,at:4), (pv:286,at:1), (pv:287,at:23), (pv:288,at:8), (pv:289,at:1), (pv:290,at:1), (pv:291,at:2), (pv:292,at:1), (pv:293,at:1), (pv:294,at:1), (pv:295,at:4), (pv:296,at:1), (pv:297,at:1), (pv:298,at:1), (pv:299,at:1), (pv:300,at:6), (pv:301,at:4), (pv:302,at:1), (pv:303,at:1), (pv:304,at:1), (pv:305,at:4), (pv:306,at:2), (pv:307,at:1), (pv:308,at:1), (pv:309,at:4), (pv:310,at:1), (pv:311,at:23), (pv:312,at:1), (pv:313,at:2), (pv:314,at:1), (pv:315,at:1), (pv:316,at:1), (pv:317,at:8), (pv:318,at:1), (pv:319,at:1), (pv:320,at:1), (pv:321,at:1), (pv:322,at:3), (pv:323,at:1), (pv:324,at:7), (pv:325,at:1), (pv:326,at:1), (pv:327,at:4), (pv:328,at:8), (pv:329,at:7), (pv:330,at:5), (pv:331,at:1), (pv:332,at:1), (pv:333,at:1), (pv:334,at:1), (pv:335,at:4), (pv:336,at:1), (pv:337,at:1), (pv:338,at:1), (pv:339,at:7), (pv:340,at:1), (pv:341,at:6), (pv:342,at:1), (pv:343,at:1), (pv:344,at:1), (pv:345,at:1), (pv:346,at:32), (pv:347,at:1), (pv:348,at:1), (pv:349,at:1), (pv:350,at:1), (pv:351,at:1), (pv:352,at:1), (pv:353,at:1), (pv:354,at:1), (pv:355,at:1), (pv:356,at:1), (pv:357,at:1), (pv:358,at:1), (pv:359,at:1), (pv:360,at:1), (pv:361,at:1), (pv:362,at:1), (pv:363,at:2), (pv:364,at:5), (pv:365,at:1), (pv:366,at:1), (pv:367,at:1), (pv:368,at:2), (pv:369,at:7), (pv:370,at:7), (pv:371,at:1), (pv:372,at:1), (pv:373,at:1), (pv:374,at:1), (pv:375,at:1), (pv:376,at:1), (pv:377,at:1), (pv:378,at:1), (pv:379,at:2), (pv:380,at:4), (pv:381,at:1), (pv:382,at:1), (pv:383,at:3), (pv:384,at:1), (pv:385,at:1), (pv:386,at:1), (pv:387,at:1), (pv:388,at:1), (pv:389,at:1), (pv:390,at:7), (pv:391,at:3), (pv:392,at:1), (pv:393,at:1), (pv:394,at:7), (pv:395,at:1), (pv:396,at:1), (pv:397,at:1), (pv:398,at:4), (pv:399,at:1), (pv:400,at:7), (pv:401,at:1), (pv:402,at:1), (pv:403,at:1), (pv:404,at:2), (pv:405,at:4), (pv:406,at:4), (pv:407,at:1), (pv:408,at:7), (pv:409,at:1), (pv:410,at:12), (pv:411,at:1), (pv:412,at:1), (pv:413,at:1), (pv:414,at:1), (pv:415,at:1), (pv:416,at:2), (pv:417,at:25), (pv:418,at:32), (pv:419,at:1), (pv:420,at:1), (pv:421,at:1), (pv:422,at:1), (pv:423,at:1), (pv:424,at:1), (pv:425,at:6), (pv:426,at:1), (pv:427,at:7), (pv:428,at:1), (pv:429,at:7), (pv:430,at:4), (pv:431,at:1), (pv:432,at:13), (pv:433,at:16), (pv:434,at:1), (pv:435,at:1), (pv:436,at:1), (pv:437,at:5), (pv:438,at:2), (pv:439,at:2), (pv:440,at:1), (pv:441,at:1)]
[INFO ] fr.inria.main.evolution.AstorMain.run(AstorMain.java:163) - Time Total(s): 10973.118
