Warning: no access to tty (Bad file descriptor).
Thus no job control in this shell.
tput: No value for $TERM and no -T specified
Node: wh35.sciclone.wm.edu
2017-03-29 10:55:07,184 INFO main - command line arguments: [-out  /local/scr/mtufano/Math/18/b/similar-package-types-embeddings/1  -jvm4testexecution  /usr/local/jdk1.7.0_80/bin/  -loglevel  INFO  -maxgen  1000000  -population  1  -maxtime  180  -timezone  America/New_York  -customop  fr.inria.astor.approaches.jgenprog.operators.InsertAfterOp:fr.inria.astor.approaches.jgenprog.operators.InsertBeforeOp:fr.inria.astor.approaches.jgenprog.operators.ReplaceOp  -seed  1  -javacompliancelevel  5  -package  org.apache.commons  -binjavafolder  target/classes/  -bintestfolder  target/test-classes/  -srcjavafolder  src/main/java/  -srctestfolder  src/test/java/  -learningdir  ../../out/learningdir/Math/18/b/  -location  ../../dat/defects4j/Math/18/b/  -failing  org.apache.commons.math3.optimization.direct.CMAESOptimizerTest  -dependencies  ../../dat/libs/Math/commons-discovery-0.5.jar  -scope  fr.inria.astor.core.loop.spaces.ingredients.scopes.ctscopes.CtPackageIngredientScope  -ingredientstrategy  fr.inria.astor.core.loop.spaces.ingredients.ingredientSearch.CloneIngredientSearchStrategy  -clonegranularity  spoon.reflect.declaration.CtType  -transformingredient  -classestoinstrument  org.apache.commons.math3.util.Precision:org.apache.commons.math3.exception.util.Localizable:org.apache.commons.math3.util.FastMathLiteralArrays:org.apache.commons.math3.util.CompositeFormat:org.apache.commons.math3.optimization.BaseMultivariateSimpleBoundsOptimizer:org.apache.commons.math3.exception.DimensionMismatchException:org.apache.commons.math3.analysis.MultivariateFunction:org.apache.commons.math3.linear.MatrixUtils:org.apache.commons.math3.linear.Array2DRowRealMatrix:org.apache.commons.math3.exception.TooManyEvaluationsException:org.apache.commons.math3.optimization.direct.BaseAbstractMultivariateSimpleBoundsOptimizer:org.apache.commons.math3.linear.AbstractFieldMatrix:org.apache.commons.math3.linear.ArrayRealVector:org.apache.commons.math3.linear.RealMatrixChangingVisitor:org.apache.commons.math3.linear.RealMatrix:org.apache.commons.math3.exception.NotStrictlyPositiveException:org.apache.commons.math3.linear.Array2DRowFieldMatrix:org.apache.commons.math3.exception.MathUnsupportedOperationException:org.apache.commons.math3.linear.OpenMapRealMatrix:org.apache.commons.math3.optimization.SimpleValueChecker:org.apache.commons.math3.optimization.MultivariateOptimizer:org.apache.commons.math3.linear.FieldVector:org.apache.commons.math3.optimization.direct.CMAESOptimizer:org.apache.commons.math3.exception.NullArgumentException:org.apache.commons.math3.linear.RealVectorFormat:org.apache.commons.math3.linear.DefaultRealMatrixPreservingVisitor:org.apache.commons.math3.util.MathArrays:org.apache.commons.math3.linear.BlockRealMatrix:org.apache.commons.math3.linear.SparseRealMatrix:org.apache.commons.math3.linear.BlockFieldMatrix:org.apache.commons.math3.exception.util.ExceptionContextProvider:org.apache.commons.math3.exception.NoDataException:org.apache.commons.math3.exception.NotPositiveException:org.apache.commons.math3.random.RandomGenerator:org.apache.commons.math3.exception.NonMonotonicSequenceException:org.apache.commons.math3.exception.MultiDimensionMismatchException:org.apache.commons.math3.exception.NotFiniteNumberException:org.apache.commons.math3.exception.ZeroException:org.apache.commons.math3.optimization.PointValuePair:org.apache.commons.math3.util.Pair:org.apache.commons.math3.random.MersenneTwister:org.apache.commons.math3.exception.MathInternalError:org.apache.commons.math3.linear.FieldMatrix:org.apache.commons.math3.exception.MathIllegalArgumentException:org.apache.commons.math3.linear.NonSymmetricMatrixException:org.apache.commons.math3.exception.NumberIsTooSmallException:org.apache.commons.math3.optimization.BaseOptimizer:org.apache.commons.math3.linear.NonSquareMatrixException:org.apache.commons.math3.exception.OutOfRangeException:org.apache.commons.math3.exception.MathArithmeticException:org.apache.commons.math3.linear.AbstractRealMatrix:org.apache.commons.math3.exception.MathParseException:org.apache.commons.math3.optimization.direct.BaseAbstractMultivariateOptimizer:org.apache.commons.math3.linear.TriDiagonalTransformer:org.apache.commons.math3.linear.DecompositionSolver:org.apache.commons.math3.optimization.AbstractConvergenceChecker:org.apache.commons.math3.linear.AnyMatrix:org.apache.commons.math3.optimization.BaseMultivariateOptimizer:org.apache.commons.math3.linear.RealVector:org.apache.commons.math3.exception.MathIllegalNumberException:org.apache.commons.math3.linear.MatrixDimensionMismatchException:org.apache.commons.math3.exception.MaxCountExceededException:org.apache.commons.math3.linear.FieldMatrixPreservingVisitor:org.apache.commons.math3.optimization.ConvergenceChecker:org.apache.commons.math3.analysis.BivariateFunction:org.apache.commons.math3.exception.MathIllegalStateException:org.apache.commons.math3.linear.RealMatrixPreservingVisitor:org.apache.commons.math3.random.BitsStreamGenerator:org.apache.commons.math3.util.FastMath:org.apache.commons.math3.util.MathUtils:org.apache.commons.math3.util.Incrementor:org.apache.commons.math3.optimization.GoalType:org.apache.commons.math3.linear.EigenDecomposition:org.apache.commons.math3.linear.RealMatrixFormat:org.apache.commons.math3.exception.NumberIsTooLargeException:org.apache.commons.math3.linear.RealLinearOperator:  -regressiontestcases4fl  org.apache.commons.math3.optimization.direct.CMAESOptimizerTest:]
2017-03-29 10:55:09,612 INFO main - building model: /local/scr/mtufano/Math/18/b/similar-package-types-embeddings/1/AstorMain-b//src//default, compliance level: 5
2017-03-29 10:55:09,701 INFO main - Classpath for building SpoonModel [/sciclone/data20/mtufano/deeprepair/bin/eval/../../dat/libs/Math/commons-discovery-0.5.jar]
2017-03-29 10:55:48,158 INFO main - -Executing Gzoltar classpath: /local/scr/mtufano/Math/18/b/similar-package-types-embeddings/1/AstorMain-b//bin//default from 1 classes with test cases
2017-03-29 10:55:48,159 INFO fr.inria.astor.core.faultlocalization.GZoltarFaultLocalization - Gzoltar fault localization: min susp value parameter: 0.1
2017-03-29 10:55:48,895 INFO fr.inria.astor.core.faultlocalization.GZoltarFaultLocalization - -gz-Adding classpath: [/local/scr/mtufano/Math/18/b/similar-package-types-embeddings/1/AstorMain-b//bin//default, /sciclone/data20/mtufano/deeprepair/bin/eval/../../dat/libs/Math/commons-discovery-0.5.jar]
2017-03-29 10:56:00,902 INFO fr.inria.astor.core.faultlocalization.GZoltarFaultLocalization - Test failt: org.apache.commons.math3.optimization.direct.CMAESOptimizerTest#testFitAccuracyDependsOnBoundary
2017-03-29 10:56:00,902 INFO fr.inria.astor.core.faultlocalization.GZoltarFaultLocalization - Gzoltar Test Result Total:26, fails: 1, GZoltar suspicious 1094
2017-03-29 10:56:00,956 INFO fr.inria.astor.core.faultlocalization.GZoltarFaultLocalization - Gzoltar found: 874 with susp > 0.1, we consider: 874
2017-03-29 10:56:00,957 INFO main - 
---- Initial suspicious size: 874
2017-03-29 10:56:01,384 INFO main - -any mod point created for suspicious Candidate [className=org.apache.commons.math3.optimization.direct.CMAESOptimizer$FitnessFunction, methodName=org.apache.commons.math3.optimization.direct.CMAESOptimizer$FitnessFunction{value([D)D 0.0, lineNumber=974, susp=0.5]
2017-03-29 10:56:02,435 INFO main - -any mod point created for suspicious Candidate [className=org.apache.commons.math3.optimization.direct.CMAESOptimizer, methodName=org.apache.commons.math3.optimization.direct.CMAESOptimizer{updateCovariance(ZLorg/apache/commons/math3/linear/RealMatrix;Lorg/apache/commons/math3/linear/RealMatrix;[ILorg/apache/commons/math3/linear/RealMatrix;)V 0.0, lineNumber=769, susp=0.25]
2017-03-29 10:56:02,442 INFO main - -any mod point created for suspicious Candidate [className=org.apache.commons.math3.optimization.direct.CMAESOptimizer, methodName=org.apache.commons.math3.optimization.direct.CMAESOptimizer{updateCovariance(ZLorg/apache/commons/math3/linear/RealMatrix;Lorg/apache/commons/math3/linear/RealMatrix;[ILorg/apache/commons/math3/linear/RealMatrix;)V 0.0, lineNumber=781, susp=0.25]
2017-03-29 10:56:02,505 INFO main - -any mod point created for suspicious Candidate [className=org.apache.commons.math3.optimization.direct.CMAESOptimizer, methodName=org.apache.commons.math3.optimization.direct.CMAESOptimizer{updateBD(D)V 0.0, lineNumber=817, susp=0.25]
2017-03-29 10:56:02,887 INFO main - -any mod point created for suspicious Candidate [className=org.apache.commons.math3.linear.EigenDecomposition, methodName=org.apache.commons.math3.linear.EigenDecomposition{transformToTridiagonal(Lorg/apache/commons/math3/linear/RealMatrix;)V 0.0, lineNumber=558, susp=0.25]
2017-03-29 10:56:02,997 INFO main - -any mod point created for suspicious Candidate [className=org.apache.commons.math3.linear.EigenDecomposition, methodName=org.apache.commons.math3.linear.EigenDecomposition{findEigenVectors([[D)V 0.0, lineNumber=668, susp=0.25]
2017-03-29 10:56:03,041 INFO main - -any mod point created for suspicious Candidate [className=org.apache.commons.math3.linear.EigenDecomposition, methodName=org.apache.commons.math3.linear.EigenDecomposition{findEigenVectors([[D)V 0.0, lineNumber=715, susp=0.25]
2017-03-29 10:56:03,087 INFO main - -any mod point created for suspicious Candidate [className=org.apache.commons.math3.linear.Array2DRowRealMatrix, methodName=org.apache.commons.math3.linear.Array2DRowRealMatrix{setSubMatrix([[DII)V 0.0, lineNumber=296, susp=0.25]
2017-03-29 10:56:03,088 INFO main - -any mod point created for suspicious Candidate [className=org.apache.commons.math3.linear.Array2DRowRealMatrix, methodName=org.apache.commons.math3.linear.Array2DRowRealMatrix{setSubMatrix([[DII)V 0.0, lineNumber=300, susp=0.25]
2017-03-29 10:56:03,096 INFO main - -any mod point created for suspicious Candidate [className=org.apache.commons.math3.linear.Array2DRowRealMatrix, methodName=org.apache.commons.math3.linear.Array2DRowRealMatrix{copyIn([[D)V 0.0, lineNumber=548, susp=0.25]
2017-03-29 10:56:03,141 INFO main - -any mod point created for suspicious Candidate [className=org.apache.commons.math3.linear.TriDiagonalTransformer, methodName=org.apache.commons.math3.linear.TriDiagonalTransformer{transform()V 0.0, lineNumber=253, susp=0.25]
2017-03-29 10:56:03,143 INFO main - -any mod point created for suspicious Candidate [className=org.apache.commons.math3.util.MathUtils, methodName=org.apache.commons.math3.util.MathUtils{checkNotNull(Ljava/lang/Object;)V 0.0, lineNumber=267, susp=0.25]
2017-03-29 10:56:03,165 INFO main - -any mod point created for suspicious Candidate [className=org.apache.commons.math3.linear.AbstractRealMatrix, methodName=org.apache.commons.math3.linear.AbstractRealMatrix{setColumnVector(ILorg/apache/commons/math3/linear/RealVector;)V 0.0, lineNumber=530, susp=0.25]
2017-03-29 10:56:03,308 INFO main - -any mod point created for suspicious Candidate [className=org.apache.commons.math3.linear.DefaultRealMatrixPreservingVisitor, methodName=org.apache.commons.math3.linear.DefaultRealMatrixPreservingVisitor{start(IIIIII)V 0.0, lineNumber=34, susp=0.24253562503633297]
2017-03-29 10:56:03,383 INFO main - -any mod point created for suspicious Candidate [className=org.apache.commons.math3.util.FastMath$lnMant, methodName=org.apache.commons.math3.util.FastMath$lnMant{access$400()[[D 0.0, lineNumber=3752, susp=0.24253562503633297]
2017-03-29 10:56:03,392 INFO main - -any mod point created for suspicious Candidate [className=org.apache.commons.math3.linear.AbstractRealMatrix$2, methodName=org.apache.commons.math3.linear.AbstractRealMatrix$2{start(IIIIII)V 0.0, lineNumber=290, susp=0.24253562503633297]
2017-03-29 10:56:03,401 INFO main - -any mod point created for suspicious Candidate [className=org.apache.commons.math3.linear.AbstractRealMatrix$2, methodName=org.apache.commons.math3.linear.AbstractRealMatrix$2{visit(IID)V 0.0, lineNumber=295, susp=0.24253562503633297]
2017-03-29 10:56:03,411 INFO main - -any mod point created for suspicious Candidate [className=org.apache.commons.math3.linear.AbstractRealMatrix$5, methodName=org.apache.commons.math3.linear.AbstractRealMatrix$5{visit(IID)V 0.0, lineNumber=607, susp=0.24253562503633297]
2017-03-29 10:56:03,415 INFO main - -any mod point created for suspicious Candidate [className=org.apache.commons.math3.optimization.direct.BaseAbstractMultivariateOptimizer, methodName=org.apache.commons.math3.optimization.direct.BaseAbstractMultivariateOptimizer{computeObjectiveValue([D)D 0.0, lineNumber=98, susp=0.24253562503633297]
2017-03-29 10:56:03,595 INFO main - -any mod point created for suspicious Candidate [className=org.apache.commons.math3.optimization.direct.CMAESOptimizer, methodName=org.apache.commons.math3.optimization.direct.CMAESOptimizer{doOptimize()Lorg/apache/commons/math3/optimization/PointValuePair; 0.0, lineNumber=401, susp=0.24253562503633297]
2017-03-29 10:56:03,796 INFO main - -any mod point created for suspicious Candidate [className=org.apache.commons.math3.optimization.direct.CMAESOptimizer, methodName=org.apache.commons.math3.optimization.direct.CMAESOptimizer{checkParameters()V 0.0, lineNumber=574, susp=0.24253562503633297]
2017-03-29 10:56:04,000 INFO main - -any mod point created for suspicious Candidate [className=org.apache.commons.math3.optimization.direct.CMAESOptimizer, methodName=org.apache.commons.math3.optimization.direct.CMAESOptimizer{initializeCMA([D)V 0.0, lineNumber=648, susp=0.24253562503633297]
2017-03-29 10:56:04,066 INFO main - -any mod point created for suspicious Candidate [className=org.apache.commons.math3.optimization.direct.CMAESOptimizer, methodName=org.apache.commons.math3.optimization.direct.CMAESOptimizer{push([DD)V 0.0, lineNumber=830, susp=0.24253562503633297]
2017-03-29 10:56:04,351 INFO main - -any mod point created for suspicious Candidate [className=org.apache.commons.math3.optimization.direct.CMAESOptimizer, methodName=org.apache.commons.math3.optimization.direct.CMAESOptimizer{copyColumn(Lorg/apache/commons/math3/linear/RealMatrix;ILorg/apache/commons/math3/linear/RealMatrix;I)V 0.0, lineNumber=1197, susp=0.24253562503633297]
2017-03-29 10:56:04,938 INFO main - -any mod point created for suspicious Candidate [className=org.apache.commons.math3.optimization.direct.CMAESOptimizer, methodName=org.apache.commons.math3.optimization.direct.CMAESOptimizer{access$100(Lorg/apache/commons/math3/optimization/direct/CMAESOptimizer;)[[D 0.0, lineNumber=91, susp=0.24253562503633297]
2017-03-29 10:56:05,204 INFO main - -any mod point created for suspicious Candidate [className=org.apache.commons.math3.optimization.direct.CMAESOptimizer, methodName=org.apache.commons.math3.optimization.direct.CMAESOptimizer{access$200(Lorg/apache/commons/math3/optimization/direct/CMAESOptimizer;)Z 0.0, lineNumber=91, susp=0.24253562503633297]
2017-03-29 10:56:06,100 INFO main - -any mod point created for suspicious Candidate [className=org.apache.commons.math3.util.FastMath, methodName=org.apache.commons.math3.util.FastMath{sin(D)D 0.0, lineNumber=2249, susp=0.24253562503633297]
2017-03-29 10:56:06,113 INFO main - -any mod point created for suspicious Candidate [className=org.apache.commons.math3.util.FastMath, methodName=org.apache.commons.math3.util.FastMath{sin(D)D 0.0, lineNumber=2251, susp=0.24253562503633297]
2017-03-29 10:56:06,119 INFO main - -any mod point created for suspicious Candidate [className=org.apache.commons.math3.util.FastMath, methodName=org.apache.commons.math3.util.FastMath{sin(D)D 0.0, lineNumber=2253, susp=0.24253562503633297]
2017-03-29 10:56:06,125 INFO main - -any mod point created for suspicious Candidate [className=org.apache.commons.math3.util.FastMath, methodName=org.apache.commons.math3.util.FastMath{sin(D)D 0.0, lineNumber=2255, susp=0.24253562503633297]
2017-03-29 10:56:06,356 INFO main - -any mod point created for suspicious Candidate [className=org.apache.commons.math3.util.FastMath, methodName=org.apache.commons.math3.util.FastMath{cos(D)D 0.0, lineNumber=2303, susp=0.24253562503633297]
2017-03-29 10:56:06,362 INFO main - -any mod point created for suspicious Candidate [className=org.apache.commons.math3.util.FastMath, methodName=org.apache.commons.math3.util.FastMath{cos(D)D 0.0, lineNumber=2305, susp=0.24253562503633297]
2017-03-29 10:56:06,367 INFO main - -any mod point created for suspicious Candidate [className=org.apache.commons.math3.util.FastMath, methodName=org.apache.commons.math3.util.FastMath{cos(D)D 0.0, lineNumber=2307, susp=0.24253562503633297]
2017-03-29 10:56:06,372 INFO main - -any mod point created for suspicious Candidate [className=org.apache.commons.math3.util.FastMath, methodName=org.apache.commons.math3.util.FastMath{cos(D)D 0.0, lineNumber=2309, susp=0.24253562503633297]
2017-03-29 10:56:06,499 INFO main - -any mod point created for suspicious Candidate [className=org.apache.commons.math3.optimization.direct.CMAESOptimizer$FitnessFunction, methodName=org.apache.commons.math3.optimization.direct.CMAESOptimizer$FitnessFunction{setValueRange(D)V 0.0, lineNumber=1007, susp=0.24253562503633297]
2017-03-29 10:56:06,503 INFO main - -any mod point created for suspicious Candidate [className=org.apache.commons.math3.optimization.SimpleValueChecker, methodName=org.apache.commons.math3.optimization.SimpleValueChecker{converged(ILjava/lang/Object;Ljava/lang/Object;)Z 0.0, lineNumber=34, susp=0.24253562503633297]
2017-03-29 10:56:06,519 INFO main - -any mod point created for suspicious Candidate [className=org.apache.commons.math3.random.BitsStreamGenerator, methodName=org.apache.commons.math3.random.BitsStreamGenerator{nextGaussian()D 0.0, lineNumber=107, susp=0.24253562503633297]
2017-03-29 10:56:06,542 INFO main - -any mod point created for suspicious Candidate [className=org.apache.commons.math3.linear.MatrixUtils, methodName=org.apache.commons.math3.linear.MatrixUtils{checkMatrixIndex(Lorg/apache/commons/math3/linear/AnyMatrix;II)V 0.0, lineNumber=391, susp=0.24253562503633297]
2017-03-29 10:56:06,544 INFO main - -any mod point created for suspicious Candidate [className=org.apache.commons.math3.linear.MatrixUtils, methodName=org.apache.commons.math3.linear.MatrixUtils{checkRowIndex(Lorg/apache/commons/math3/linear/AnyMatrix;I)V 0.0, lineNumber=407, susp=0.24253562503633297]
2017-03-29 10:56:06,546 INFO main - -any mod point created for suspicious Candidate [className=org.apache.commons.math3.linear.MatrixUtils, methodName=org.apache.commons.math3.linear.MatrixUtils{checkColumnIndex(Lorg/apache/commons/math3/linear/AnyMatrix;I)V 0.0, lineNumber=422, susp=0.24253562503633297]
2017-03-29 10:56:06,548 INFO main - -any mod point created for suspicious Candidate [className=org.apache.commons.math3.linear.MatrixUtils, methodName=org.apache.commons.math3.linear.MatrixUtils{checkAdditionCompatible(Lorg/apache/commons/math3/linear/AnyMatrix;Lorg/apache/commons/math3/linear/AnyMatrix;)V 0.0, lineNumber=511, susp=0.24253562503633297]
2017-03-29 10:56:06,550 INFO main - -any mod point created for suspicious Candidate [className=org.apache.commons.math3.linear.MatrixUtils, methodName=org.apache.commons.math3.linear.MatrixUtils{checkSubtractionCompatible(Lorg/apache/commons/math3/linear/AnyMatrix;Lorg/apache/commons/math3/linear/AnyMatrix;)V 0.0, lineNumber=528, susp=0.24253562503633297]
2017-03-29 10:56:06,553 INFO main - -any mod point created for suspicious Candidate [className=org.apache.commons.math3.linear.MatrixUtils, methodName=org.apache.commons.math3.linear.MatrixUtils{checkMultiplicationCompatible(Lorg/apache/commons/math3/linear/AnyMatrix;Lorg/apache/commons/math3/linear/AnyMatrix;)V 0.0, lineNumber=545, susp=0.24253562503633297]
2017-03-29 10:56:06,555 INFO main - -any mod point created for suspicious Candidate [className=org.apache.commons.math3.util.Incrementor, methodName=org.apache.commons.math3.util.Incrementor{incrementCount()V 0.0, lineNumber=158, susp=0.24253562503633297]
2017-03-29 10:56:06,561 INFO main - -any mod point created for suspicious Candidate [className=org.apache.commons.math3.linear.Array2DRowRealMatrix, methodName=org.apache.commons.math3.linear.Array2DRowRealMatrix{setEntry(IID)V 0.0, lineNumber=316, susp=0.24253562503633297]
2017-03-29 10:56:06,807 INFO main - -any mod point created for suspicious Candidate [className=org.apache.commons.math3.optimization.direct.CMAESOptimizer$DoubleIndex, methodName=org.apache.commons.math3.optimization.direct.CMAESOptimizer$DoubleIndex{compareTo(Ljava/lang/Object;)I 0.0, lineNumber=855, susp=0.24253562503633297]
2017-03-29 10:56:06,855 INFO main - -any mod point created for suspicious Candidate [className=org.apache.commons.math3.optimization.direct.CMAESOptimizer$DoubleIndex, methodName=org.apache.commons.math3.optimization.direct.CMAESOptimizer$DoubleIndex{access$000(Lorg/apache/commons/math3/optimization/direct/CMAESOptimizer$DoubleIndex;)I 0.0, lineNumber=855, susp=0.24253562503633297]
2017-03-29 10:56:06,918 INFO main - -any mod point created for suspicious Candidate [className=org.apache.commons.math3.util.Incrementor, methodName=org.apache.commons.math3.util.Incrementor{setMaximalCount(I)V 0.0, lineNumber=97, susp=0.20851441405707477]
2017-03-29 10:56:06,918 INFO main - -any mod point created for suspicious Candidate [className=org.apache.commons.math3.util.Incrementor, methodName=org.apache.commons.math3.util.Incrementor{resetCount()V 0.0, lineNumber=165, susp=0.20851441405707477]
2017-03-29 10:56:06,922 INFO main -  Not ctClass for suspicious code Candidate [className=org.apache.commons.math3.RetryRunner$1, methodName=org.apache.commons.math3.RetryRunner$1{evaluate()V 0.0, lineNumber=60, susp=0.20412414523193154]
2017-03-29 10:56:06,922 INFO main - -any mod point created for suspicious Candidate [className=org.apache.commons.math3.RetryRunner$1, methodName=org.apache.commons.math3.RetryRunner$1{evaluate()V 0.0, lineNumber=60, susp=0.20412414523193154]
2017-03-29 10:56:06,924 INFO main -  Not ctClass for suspicious code Candidate [className=org.apache.commons.math3.RetryRunner$1, methodName=org.apache.commons.math3.RetryRunner$1{evaluate()V 0.0, lineNumber=55, susp=0.19611613513818404]
2017-03-29 10:56:06,924 INFO main - -any mod point created for suspicious Candidate [className=org.apache.commons.math3.RetryRunner$1, methodName=org.apache.commons.math3.RetryRunner$1{evaluate()V 0.0, lineNumber=55, susp=0.19611613513818404]
2017-03-29 10:56:06,924 INFO main -  Not ctClass for suspicious code Candidate [className=org.apache.commons.math3.RetryRunner$1, methodName=org.apache.commons.math3.RetryRunner$1{evaluate()V 0.0, lineNumber=57, susp=0.19611613513818404]
2017-03-29 10:56:06,924 INFO main - -any mod point created for suspicious Candidate [className=org.apache.commons.math3.RetryRunner$1, methodName=org.apache.commons.math3.RetryRunner$1{evaluate()V 0.0, lineNumber=57, susp=0.19611613513818404]
2017-03-29 10:56:06,924 INFO main -  Not ctClass for suspicious code Candidate [className=org.apache.commons.math3.RetryRunner$1, methodName=org.apache.commons.math3.RetryRunner$1{evaluate()V 0.0, lineNumber=58, susp=0.19611613513818404]
2017-03-29 10:56:06,924 INFO main - -any mod point created for suspicious Candidate [className=org.apache.commons.math3.RetryRunner$1, methodName=org.apache.commons.math3.RetryRunner$1{evaluate()V 0.0, lineNumber=58, susp=0.19611613513818404]
2017-03-29 10:56:06,924 INFO main -  Not ctClass for suspicious code Candidate [className=org.apache.commons.math3.RetryRunner, methodName=org.apache.commons.math3.RetryRunner{methodInvoker(Lorg/junit/runners/model/FrameworkMethod;Ljava/lang/Object;)Lorg/junit/runners/model/Statement; 0.0, lineNumber=45, susp=0.19611613513818404]
2017-03-29 10:56:06,924 INFO main - -any mod point created for suspicious Candidate [className=org.apache.commons.math3.RetryRunner, methodName=org.apache.commons.math3.RetryRunner{methodInvoker(Lorg/junit/runners/model/FrameworkMethod;Ljava/lang/Object;)Lorg/junit/runners/model/Statement; 0.0, lineNumber=45, susp=0.19611613513818404]
2017-03-29 10:56:06,924 INFO main -  Not ctClass for suspicious code Candidate [className=org.apache.commons.math3.RetryRunner, methodName=org.apache.commons.math3.RetryRunner{methodInvoker(Lorg/junit/runners/model/FrameworkMethod;Ljava/lang/Object;)Lorg/junit/runners/model/Statement; 0.0, lineNumber=46, susp=0.19611613513818404]
2017-03-29 10:56:06,924 INFO main - -any mod point created for suspicious Candidate [className=org.apache.commons.math3.RetryRunner, methodName=org.apache.commons.math3.RetryRunner{methodInvoker(Lorg/junit/runners/model/FrameworkMethod;Ljava/lang/Object;)Lorg/junit/runners/model/Statement; 0.0, lineNumber=46, susp=0.19611613513818404]
2017-03-29 10:56:06,926 INFO main - Total suspicious from FL: 874,  819
2017-03-29 10:56:06,926 INFO main - Total ModPoint created: 819
2017-03-29 10:56:06,926 INFO main - Creating program variant #1, [Variant id: 1, #gens: 819, #ops: 0, parent:-]
2017-03-29 11:00:05,568 INFO fr.inria.astor.core.setup.ConfigurationProperties - ----------------------------
2017-03-29 11:00:05,568 INFO fr.inria.astor.core.setup.ConfigurationProperties - ---Configuration properties:---Execution values
2017-03-29 11:00:05,569 INFO fr.inria.astor.core.setup.ConfigurationProperties - p:lastJUnitVersion= ./examples/libs/junit-4.11.jar
2017-03-29 11:00:05,569 INFO fr.inria.astor.core.setup.ConfigurationProperties - p:alternativecompliancelevel= 4
2017-03-29 11:00:05,569 INFO fr.inria.astor.core.setup.ConfigurationProperties - p:ignoredTestCases= 
2017-03-29 11:00:05,569 INFO fr.inria.astor.core.setup.ConfigurationProperties - p:workingDirectory= /local/scr/mtufano/Math/18/b/similar-package-types-embeddings/1
2017-03-29 11:00:05,569 INFO fr.inria.astor.core.setup.ConfigurationProperties - p:manipulatesuper= false
2017-03-29 11:00:05,569 INFO fr.inria.astor.core.setup.ConfigurationProperties - p:validation= process
2017-03-29 11:00:05,569 INFO fr.inria.astor.core.setup.ConfigurationProperties - p:jvm4testexecution= /usr/local/jdk1.7.0_80/bin/
2017-03-29 11:00:05,569 INFO fr.inria.astor.core.setup.ConfigurationProperties - p:binjavafolder= target/classes/
2017-03-29 11:00:05,569 INFO fr.inria.astor.core.setup.ConfigurationProperties - p:evosuiteresultfolder= evosuite
2017-03-29 11:00:05,569 INFO fr.inria.astor.core.setup.ConfigurationProperties - p:flthreshold= 0.1
2017-03-29 11:00:05,569 INFO fr.inria.astor.core.setup.ConfigurationProperties - p:regressionforfaultlocalization= true
2017-03-29 11:00:05,569 INFO fr.inria.astor.core.setup.ConfigurationProperties - p:tmax2= 960000
2017-03-29 11:00:05,569 INFO fr.inria.astor.core.setup.ConfigurationProperties - p:tmax1= 120000
2017-03-29 11:00:05,569 INFO fr.inria.astor.core.setup.ConfigurationProperties - p:probagenmutation= false
2017-03-29 11:00:05,569 INFO fr.inria.astor.core.setup.ConfigurationProperties - p:srctestfolder= src/test/java/
2017-03-29 11:00:05,569 INFO fr.inria.astor.core.setup.ConfigurationProperties - p:customop= fr.inria.astor.approaches.jgenprog.operators.InsertAfterOp:fr.inria.astor.approaches.jgenprog.operators.InsertBeforeOp:fr.inria.astor.approaches.jgenprog.operators.ReplaceOp
2017-03-29 11:00:05,569 INFO fr.inria.astor.core.setup.ConfigurationProperties - p:forceExecuteRegression= false
2017-03-29 11:00:05,569 INFO fr.inria.astor.core.setup.ConfigurationProperties - p:clusteringfilename= clustering.csv
2017-03-29 11:00:05,569 INFO fr.inria.astor.core.setup.ConfigurationProperties - p:failing= org.apache.commons.math3.optimization.direct.CMAESOptimizerTest
2017-03-29 11:00:05,570 INFO fr.inria.astor.core.setup.ConfigurationProperties - p:evo_buggy_class= true
2017-03-29 11:00:05,570 INFO fr.inria.astor.core.setup.ConfigurationProperties - p:numberExecutions= 1
2017-03-29 11:00:05,570 INFO fr.inria.astor.core.setup.ConfigurationProperties - p:evo_affected_by_op= true
2017-03-29 11:00:05,570 INFO fr.inria.astor.core.setup.ConfigurationProperties - p:population= 1
2017-03-29 11:00:05,570 INFO fr.inria.astor.core.setup.ConfigurationProperties - p:clonegranularity= spoon.reflect.declaration.CtType
2017-03-29 11:00:05,570 INFO fr.inria.astor.core.setup.ConfigurationProperties - p:regressiontestcases4fl= org.apache.commons.math3.optimization.direct.CMAESOptimizerTest:
2017-03-29 11:00:05,570 INFO fr.inria.astor.core.setup.ConfigurationProperties - p:savesolution= true
2017-03-29 11:00:05,570 INFO fr.inria.astor.core.setup.ConfigurationProperties - p:javacompliancelevel= 5
2017-03-29 11:00:05,570 INFO fr.inria.astor.core.setup.ConfigurationProperties - p:uniqueoptogen= false
2017-03-29 11:00:05,570 INFO fr.inria.astor.core.setup.ConfigurationProperties - p:projectIdentifier= 
2017-03-29 11:00:05,570 INFO fr.inria.astor.core.setup.ConfigurationProperties - p:modificationpointnavigation= weight
2017-03-29 11:00:05,570 INFO fr.inria.astor.core.setup.ConfigurationProperties - p:stopfirst= false
2017-03-29 11:00:05,570 INFO fr.inria.astor.core.setup.ConfigurationProperties - p:multipointmodification= false
2017-03-29 11:00:05,570 INFO fr.inria.astor.core.setup.ConfigurationProperties - p:elementsToMutate= 10
2017-03-29 11:00:05,570 INFO fr.inria.astor.core.setup.ConfigurationProperties - p:evoDSE= false
2017-03-29 11:00:05,570 INFO fr.inria.astor.core.setup.ConfigurationProperties - p:bintestfolder= target/test-classes/
2017-03-29 11:00:05,570 INFO fr.inria.astor.core.setup.ConfigurationProperties - p:testbystep= false
2017-03-29 11:00:05,570 INFO fr.inria.astor.core.setup.ConfigurationProperties - p:version-location= ./math-version/
2017-03-29 11:00:05,570 INFO fr.inria.astor.core.setup.ConfigurationProperties - p:reintroduce= parents
2017-03-29 11:00:05,570 INFO fr.inria.astor.core.setup.ConfigurationProperties - p:maxGeneration= 1000000
2017-03-29 11:00:05,570 INFO fr.inria.astor.core.setup.ConfigurationProperties - p:maxtime= 180
2017-03-29 11:00:05,570 INFO fr.inria.astor.core.setup.ConfigurationProperties - p:evosuitejar= ./lib/evosuite-master-1.0.4-SNAPSHOT.jar
2017-03-29 11:00:05,570 INFO fr.inria.astor.core.setup.ConfigurationProperties - p:commandTrunk= 50000
2017-03-29 11:00:05,570 INFO fr.inria.astor.core.setup.ConfigurationProperties - p:faultlocalization= fr.inria.astor.core.faultlocalization.GZoltarFaultLocalization
2017-03-29 11:00:05,570 INFO fr.inria.astor.core.setup.ConfigurationProperties - p:maxsuspcandidates= 1000
2017-03-29 11:00:05,571 INFO fr.inria.astor.core.setup.ConfigurationProperties - p:mode= statement
2017-03-29 11:00:05,571 INFO fr.inria.astor.core.setup.ConfigurationProperties - p:learningdir= ../../out/learningdir/Math/18/b/
2017-03-29 11:00:05,571 INFO fr.inria.astor.core.setup.ConfigurationProperties - p:jvm4evosuitetestexecution= /usr/local/jdk1.7.0_80/bin/
2017-03-29 11:00:05,571 INFO fr.inria.astor.core.setup.ConfigurationProperties - p:filterfaultlocalization= true
2017-03-29 11:00:05,571 INFO fr.inria.astor.core.setup.ConfigurationProperties - p:mutationrate= 1 
2017-03-29 11:00:05,571 INFO fr.inria.astor.core.setup.ConfigurationProperties - p:pathToMVNRepository= 
2017-03-29 11:00:05,571 INFO fr.inria.astor.core.setup.ConfigurationProperties - p:resourcesfolder= /src/main/resources:/src/test/resources:
2017-03-29 11:00:05,571 INFO fr.inria.astor.core.setup.ConfigurationProperties - p:timezone= America/New_York
2017-03-29 11:00:05,571 INFO fr.inria.astor.core.setup.ConfigurationProperties - p:classestoinstrument= org.apache.commons.math3.util.Precision:org.apache.commons.math3.exception.util.Localizable:org.apache.commons.math3.util.FastMathLiteralArrays:org.apache.commons.math3.util.CompositeFormat:org.apache.commons.math3.optimization.BaseMultivariateSimpleBoundsOptimizer:org.apache.commons.math3.exception.DimensionMismatchException:org.apache.commons.math3.analysis.MultivariateFunction:org.apache.commons.math3.linear.MatrixUtils:org.apache.commons.math3.linear.Array2DRowRealMatrix:org.apache.commons.math3.exception.TooManyEvaluationsException:org.apache.commons.math3.optimization.direct.BaseAbstractMultivariateSimpleBoundsOptimizer:org.apache.commons.math3.linear.AbstractFieldMatrix:org.apache.commons.math3.linear.ArrayRealVector:org.apache.commons.math3.linear.RealMatrixChangingVisitor:org.apache.commons.math3.linear.RealMatrix:org.apache.commons.math3.exception.NotStrictlyPositiveException:org.apache.commons.math3.linear.Array2DRowFieldMatrix:org.apache.commons.math3.exception.MathUnsupportedOperationException:org.apache.commons.math3.linear.OpenMapRealMatrix:org.apache.commons.math3.optimization.SimpleValueChecker:org.apache.commons.math3.optimization.MultivariateOptimizer:org.apache.commons.math3.linear.FieldVector:org.apache.commons.math3.optimization.direct.CMAESOptimizer:org.apache.commons.math3.exception.NullArgumentException:org.apache.commons.math3.linear.RealVectorFormat:org.apache.commons.math3.linear.DefaultRealMatrixPreservingVisitor:org.apache.commons.math3.util.MathArrays:org.apache.commons.math3.linear.BlockRealMatrix:org.apache.commons.math3.linear.SparseRealMatrix:org.apache.commons.math3.linear.BlockFieldMatrix:org.apache.commons.math3.exception.util.ExceptionContextProvider:org.apache.commons.math3.exception.NoDataException:org.apache.commons.math3.exception.NotPositiveException:org.apache.commons.math3.random.RandomGenerator:org.apache.commons.math3.exception.NonMonotonicSequenceException:org.apache.commons.math3.exception.MultiDimensionMismatchException:org.apache.commons.math3.exception.NotFiniteNumberException:org.apache.commons.math3.exception.ZeroException:org.apache.commons.math3.optimization.PointValuePair:org.apache.commons.math3.util.Pair:org.apache.commons.math3.random.MersenneTwister:org.apache.commons.math3.exception.MathInternalError:org.apache.commons.math3.linear.FieldMatrix:org.apache.commons.math3.exception.MathIllegalArgumentException:org.apache.commons.math3.linear.NonSymmetricMatrixException:org.apache.commons.math3.exception.NumberIsTooSmallException:org.apache.commons.math3.optimization.BaseOptimizer:org.apache.commons.math3.linear.NonSquareMatrixException:org.apache.commons.math3.exception.OutOfRangeException:org.apache.commons.math3.exception.MathArithmeticException:org.apache.commons.math3.linear.AbstractRealMatrix:org.apache.commons.math3.exception.MathParseException:org.apache.commons.math3.optimization.direct.BaseAbstractMultivariateOptimizer:org.apache.commons.math3.linear.TriDiagonalTransformer:org.apache.commons.math3.linear.DecompositionSolver:org.apache.commons.math3.optimization.AbstractConvergenceChecker:org.apache.commons.math3.linear.AnyMatrix:org.apache.commons.math3.optimization.BaseMultivariateOptimizer:org.apache.commons.math3.linear.RealVector:org.apache.commons.math3.exception.MathIllegalNumberException:org.apache.commons.math3.linear.MatrixDimensionMismatchException:org.apache.commons.math3.exception.MaxCountExceededException:org.apache.commons.math3.linear.FieldMatrixPreservingVisitor:org.apache.commons.math3.optimization.ConvergenceChecker:org.apache.commons.math3.analysis.BivariateFunction:org.apache.commons.math3.exception.MathIllegalStateException:org.apache.commons.math3.linear.RealMatrixPreservingVisitor:org.apache.commons.math3.random.BitsStreamGenerator:org.apache.commons.math3.util.FastMath:org.apache.commons.math3.util.MathUtils:org.apache.commons.math3.util.Incrementor:org.apache.commons.math3.optimization.GoalType:org.apache.commons.math3.linear.EigenDecomposition:org.apache.commons.math3.linear.RealMatrixFormat:org.apache.commons.math3.exception.NumberIsTooLargeException:org.apache.commons.math3.linear.RealLinearOperator:
2017-03-29 11:00:05,571 INFO fr.inria.astor.core.setup.ConfigurationProperties - p:evoRunOnBuggyClass= true
2017-03-29 11:00:05,571 INFO fr.inria.astor.core.setup.ConfigurationProperties - p:compiler= fr.inria.astor.core.manipulation.bytecode.compiler.SpoonClassCompiler
2017-03-29 11:00:05,571 INFO fr.inria.astor.core.setup.ConfigurationProperties - p:dependenciespath= ../../dat/libs/Math/commons-discovery-0.5.jar
2017-03-29 11:00:05,571 INFO fr.inria.astor.core.setup.ConfigurationProperties - p:skipfaultlocalization= false
2017-03-29 11:00:05,571 INFO fr.inria.astor.core.setup.ConfigurationProperties - p:packageToInstrument= org.apache.commons
2017-03-29 11:00:05,571 INFO fr.inria.astor.core.setup.ConfigurationProperties - p:scope= fr.inria.astor.core.loop.spaces.ingredients.scopes.ctscopes.CtPackageIngredientScope
2017-03-29 11:00:05,571 INFO fr.inria.astor.core.setup.ConfigurationProperties - p:transformingredient= true
2017-03-29 11:00:05,571 INFO fr.inria.astor.core.setup.ConfigurationProperties - p:fitnessfunction= fr.inria.astor.core.loop.population.TestCaseFitnessFunction
2017-03-29 11:00:05,571 INFO fr.inria.astor.core.setup.ConfigurationProperties - p:pvariantfoldername= variant-
2017-03-29 11:00:05,571 INFO fr.inria.astor.core.setup.ConfigurationProperties - p:srcjavafolder= src/main/java/
2017-03-29 11:00:05,572 INFO fr.inria.astor.core.setup.ConfigurationProperties - p:populationcontroller= fr.inria.astor.core.loop.population.TestCaseBasedFitnessPopulationController
2017-03-29 11:00:05,572 INFO fr.inria.astor.core.setup.ConfigurationProperties - p:ignoreflakyinfl= false
2017-03-29 11:00:05,572 INFO fr.inria.astor.core.setup.ConfigurationProperties - p:applyCrossover= false
2017-03-29 11:00:05,572 INFO fr.inria.astor.core.setup.ConfigurationProperties - p:saveall= false
2017-03-29 11:00:05,572 INFO fr.inria.astor.core.setup.ConfigurationProperties - p:seed= 1
2017-03-29 11:00:05,572 INFO fr.inria.astor.core.setup.ConfigurationProperties - p:resetoperations= false
2017-03-29 11:00:05,572 INFO fr.inria.astor.core.setup.ConfigurationProperties - p:location= ../../dat/defects4j/Math/18/b/
2017-03-29 11:00:05,572 INFO fr.inria.astor.core.setup.ConfigurationProperties - p:ingredientstrategy= fr.inria.astor.core.loop.spaces.ingredients.ingredientSearch.CloneIngredientSearchStrategy
2017-03-29 11:00:05,572 INFO fr.inria.astor.core.setup.ConfigurationProperties - p:allpoints= false
2017-03-29 11:00:05,572 INFO fr.inria.astor.core.setup.ConfigurationProperties - p:bugId= 280
2017-03-29 11:00:05,572 INFO fr.inria.astor.core.setup.ConfigurationProperties - p:evosuitetimeout= 120
2017-03-29 11:00:05,572 INFO fr.inria.astor.core.setup.ConfigurationProperties - ----------------------------
2017-03-29 11:00:05,572 INFO main - 
----Starting Solution Search
0-->2org.apache.commons.math3.random.NormalizedRandomGenerator
1-->2org.apache.commons.math3.linear.DefaultRealMatrixChangingVisitor
2-->2org.apache.commons.math3.optimization.general.AbstractDifferentiableOptimizer
3-->2org.apache.commons.math3.optimization.direct.SimplexOptimizer
4-->2org.apache.commons.math3.linear.RealVectorFormat
5-->2org.apache.commons.math3.optimization.univariate.SimpleUnivariateValueChecker
6-->2org.apache.commons.math3.linear.FieldDecompositionSolver
7-->2org.apache.commons.math3.linear.FieldVector
8-->2org.apache.commons.math3.linear.SparseFieldVector
9-->2org.apache.commons.math3.linear.DefaultRealMatrixPreservingVisitor
10-->2org.apache.commons.math3.optimization.general.AbstractLeastSquaresOptimizer
11-->2org.apache.commons.math3.linear.RealVector
12-->2org.apache.commons.math3.linear.SingularValueDecomposition
13-->2org.apache.commons.math3.optimization.GoalType
14-->2org.apache.commons.math3.util.DefaultTransformer
15-->2org.apache.commons.math3.linear.IterativeLinearSolver
16-->2org.apache.commons.math3.optimization.univariate.BracketFinder
17-->2org.apache.commons.math3.linear.NonPositiveDefiniteMatrixException
18-->2org.apache.commons.math3.linear.SparseFieldMatrix
19-->2org.apache.commons.math3.linear.FieldMatrix
20-->2org.apache.commons.math3.linear.CholeskyDecomposition
21-->2org.apache.commons.math3.random.CorrelatedRandomVectorGenerator
22-->2org.apache.commons.math3.optimization.linear.AbstractLinearOptimizer
23-->2org.apache.commons.math3.linear.Array2DRowFieldMatrix
24-->2org.apache.commons.math3.optimization.DifferentiableMultivariateMultiStartOptimizer
25-->2org.apache.commons.math3.optimization.direct.CMAESOptimizer
26-->2org.apache.commons.math3.optimization.AbstractConvergenceChecker
27-->2org.apache.commons.math3.util.FastMath
28-->2org.apache.commons.math3.random.RandomVectorGenerator
29-->2org.apache.commons.math3.optimization.direct.MultiDirectionalSimplex
30-->2org.apache.commons.math3.optimization.linear.LinearObjectiveFunction
31-->2org.apache.commons.math3.linear.FieldLUDecomposition
32-->2org.apache.commons.math3.linear.SymmLQ
33-->2org.apache.commons.math3.util.Decimal64
34-->2org.apache.commons.math3.linear.BiDiagonalTransformer
35-->2org.apache.commons.math3.random.MersenneTwister
36-->2org.apache.commons.math3.optimization.MultivariateDifferentiableVectorMultiStartOptimizer
37-->2org.apache.commons.math3.util.ContinuedFraction
38-->2org.apache.commons.math3.optimization.general.NonLinearConjugateGradientOptimizer
39-->2org.apache.commons.math3.util.ResizableDoubleArray
40-->2org.apache.commons.math3.linear.RealMatrix
41-->2org.apache.commons.math3.optimization.PointValuePair
42-->2org.apache.commons.math3.util.NumberTransformer
43-->2org.apache.commons.math3.util.IterationListener
44-->2org.apache.commons.math3.util.IterationManager
45-->2org.apache.commons.math3.optimization.general.GaussNewtonOptimizer
46-->2org.apache.commons.math3.linear.BlockRealMatrix
47-->2org.apache.commons.math3.linear.NonSelfAdjointOperatorException
48-->2org.apache.commons.math3.optimization.linear.UnboundedSolutionException
49-->2org.apache.commons.math3.util.MathArrays
50-->2org.apache.commons.math3.linear.BlockFieldMatrix
51-->2org.apache.commons.math3.random.ISAACRandom
52-->2org.apache.commons.math3.optimization.BaseMultivariateSimpleBoundsOptimizer
53-->2org.apache.commons.math3.util.BigRealField
54-->2org.apache.commons.math3.optimization.linear.LinearOptimizer
55-->2org.apache.commons.math3.linear.NonSquareMatrixException
56-->2org.apache.commons.math3.linear.SingularOperatorException
57-->2org.apache.commons.math3.linear.MatrixUtils
58-->2org.apache.commons.math3.random.UncorrelatedRandomVectorGenerator
59-->2org.apache.commons.math3.linear.NonSymmetricMatrixException
60-->2org.apache.commons.math3.optimization.MultivariateMultiStartOptimizer
61-->2org.apache.commons.math3.linear.DefaultFieldMatrixChangingVisitor
62-->2org.apache.commons.math3.linear.Array2DRowRealMatrix
63-->2org.apache.commons.math3.optimization.MultivariateOptimizer
64-->2org.apache.commons.math3.optimization.direct.PowellOptimizer
65-->2org.apache.commons.math3.util.MathUtils
66-->2org.apache.commons.math3.util.Pair
67-->2org.apache.commons.math3.util.CompositeFormat
68-->2org.apache.commons.math3.linear.IterativeLinearSolverEvent
69-->2org.apache.commons.math3.linear.AbstractRealMatrix
70-->2org.apache.commons.math3.linear.RectangularCholeskyDecomposition
71-->2org.apache.commons.math3.optimization.univariate.UnivariateOptimizer
72-->2org.apache.commons.math3.optimization.univariate.BaseUnivariateOptimizer
73-->2org.apache.commons.math3.random.GaussianRandomGenerator
74-->2org.apache.commons.math3.util.DoubleArray
75-->2org.apache.commons.math3.random.RandomDataGenerator
76-->2org.apache.commons.math3.optimization.fitting.CurveFitter
77-->2org.apache.commons.math3.util.BigReal
78-->2org.apache.commons.math3.optimization.MultivariateDifferentiableOptimizer
79-->2org.apache.commons.math3.optimization.BaseMultivariateOptimizer
80-->2org.apache.commons.math3.util.ArithmeticUtils
81-->2org.apache.commons.math3.optimization.linear.SimplexTableau
82-->2org.apache.commons.math3.linear.RealVectorPreservingVisitor
83-->2org.apache.commons.math3.linear.RealVectorChangingVisitor
84-->2org.apache.commons.math3.linear.DefaultIterativeLinearSolverEvent
85-->2org.apache.commons.math3.random.Well512a
86-->2org.apache.commons.math3.linear.NonPositiveDefiniteOperatorException
87-->2org.apache.commons.math3.optimization.DifferentiableMultivariateVectorOptimizer
88-->2org.apache.commons.math3.optimization.BaseMultivariateMultiStartOptimizer
89-->2org.apache.commons.math3.util.Precision
90-->2org.apache.commons.math3.optimization.univariate.UnivariateMultiStartOptimizer
91-->2org.apache.commons.math3.optimization.univariate.BrentOptimizer
92-->2org.apache.commons.math3.optimization.direct.MultivariateFunctionMappingAdapter
93-->2org.apache.commons.math3.random.RandomDataImpl
94-->2org.apache.commons.math3.optimization.BaseMultivariateVectorOptimizer
95-->2org.apache.commons.math3.random.AbstractWell
96-->2org.apache.commons.math3.optimization.univariate.UnivariatePointValuePair
97-->2org.apache.commons.math3.random.UnitSphereRandomVectorGenerator
98-->2org.apache.commons.math3.optimization.general.ConjugateGradientFormula
99-->2org.apache.commons.math3.random.ValueServer
100-->2org.apache.commons.math3.optimization.direct.BOBYQAOptimizer
101-->2org.apache.commons.math3.random.EmpiricalDistribution
102-->2org.apache.commons.math3.linear.ArrayRealVector
103-->2org.apache.commons.math3.util.TransformerMap
104-->2org.apache.commons.math3.optimization.fitting.GaussianFitter
105-->2org.apache.commons.math3.optimization.direct.BaseAbstractMultivariateOptimizer
106-->2org.apache.commons.math3.linear.RealMatrixFormat
107-->2org.apache.commons.math3.optimization.MultivariateDifferentiableVectorOptimizer
108-->2org.apache.commons.math3.optimization.direct.AbstractSimplex
109-->2org.apache.commons.math3.linear.AbstractFieldMatrix
110-->2org.apache.commons.math3.optimization.univariate.BaseAbstractUnivariateOptimizer
111-->2org.apache.commons.math3.optimization.ConvergenceChecker
112-->2org.apache.commons.math3.random.StableRandomGenerator
113-->2org.apache.commons.math3.linear.SparseRealMatrix
114-->2org.apache.commons.math3.linear.HessenbergTransformer
115-->2org.apache.commons.math3.random.UniformRandomGenerator
116-->2org.apache.commons.math3.random.Well19937c
117-->2org.apache.commons.math3.linear.ArrayFieldVector
118-->2org.apache.commons.math3.linear.FieldMatrixChangingVisitor
119-->2org.apache.commons.math3.optimization.fitting.HarmonicFitter
120-->2org.apache.commons.math3.random.AbstractRandomGenerator
121-->2org.apache.commons.math3.linear.EigenDecomposition
122-->2org.apache.commons.math3.linear.SparseRealVector
123-->2org.apache.commons.math3.linear.PreconditionedIterativeLinearSolver
124-->2org.apache.commons.math3.linear.RealLinearOperator
125-->2org.apache.commons.math3.random.Well1024a
126-->2org.apache.commons.math3.optimization.general.LevenbergMarquardtOptimizer
127-->2org.apache.commons.math3.random.Well19937a
128-->2org.apache.commons.math3.random.JDKRandomGenerator
129-->2org.apache.commons.math3.optimization.PointVectorValuePair
130-->2org.apache.commons.math3.linear.RealMatrixPreservingVisitor
131-->2org.apache.commons.math3.optimization.BaseOptimizer
132-->2org.apache.commons.math3.optimization.direct.MultivariateFunctionPenaltyAdapter
133-->2org.apache.commons.math3.random.Well44497b
134-->2org.apache.commons.math3.util.OpenIntToDoubleHashMap
135-->2org.apache.commons.math3.random.Well44497a
136-->2org.apache.commons.math3.optimization.SimpleValueChecker
137-->2org.apache.commons.math3.random.RandomAdaptor
138-->2org.apache.commons.math3.optimization.MultivariateDifferentiableMultiStartOptimizer
139-->2org.apache.commons.math3.linear.OpenMapRealMatrix
140-->2org.apache.commons.math3.optimization.DifferentiableMultivariateVectorMultiStartOptimizer
141-->2org.apache.commons.math3.optimization.fitting.WeightedObservedPoint
142-->2org.apache.commons.math3.optimization.fitting.PolynomialFitter
143-->2org.apache.commons.math3.linear.SingularMatrixException
144-->2org.apache.commons.math3.optimization.linear.NoFeasibleSolutionException
145-->2org.apache.commons.math3.random.RandomData
146-->2org.apache.commons.math3.util.OpenIntToFieldHashMap
147-->2org.apache.commons.math3.linear.ConjugateGradient
148-->2org.apache.commons.math3.optimization.general.AbstractScalarDifferentiableOptimizer
149-->2org.apache.commons.math3.linear.SchurTransformer
150-->2org.apache.commons.math3.linear.OpenMapRealVector
151-->2org.apache.commons.math3.linear.MatrixDimensionMismatchException
152-->2org.apache.commons.math3.linear.FieldMatrixPreservingVisitor
153-->2org.apache.commons.math3.random.BitsStreamGenerator
154-->2org.apache.commons.math3.optimization.general.Preconditioner
155-->2org.apache.commons.math3.linear.DecompositionSolver
156-->2org.apache.commons.math3.optimization.linear.SimplexSolver
157-->2org.apache.commons.math3.linear.NonSquareOperatorException
158-->2org.apache.commons.math3.linear.DefaultFieldMatrixPreservingVisitor
159-->2org.apache.commons.math3.optimization.linear.LinearConstraint
160-->2org.apache.commons.math3.util.Incrementor
161-->2org.apache.commons.math3.linear.IllConditionedOperatorException
162-->2org.apache.commons.math3.optimization.SimpleVectorValueChecker
163-->2org.apache.commons.math3.linear.TriDiagonalTransformer
164-->2org.apache.commons.math3.optimization.direct.BaseAbstractMultivariateSimpleBoundsOptimizer
165-->2org.apache.commons.math3.linear.JacobiPreconditioner
166-->2org.apache.commons.math3.linear.AnyMatrix
167-->2org.apache.commons.math3.util.Decimal64Field
168-->2org.apache.commons.math3.linear.QRDecomposition
169-->2org.apache.commons.math3.optimization.linear.Relationship
170-->2org.apache.commons.math3.optimization.BaseMultivariateVectorMultiStartOptimizer
171-->2org.apache.commons.math3.linear.LUDecomposition
172-->2org.apache.commons.math3.optimization.direct.BaseAbstractMultivariateVectorOptimizer
173-->2org.apache.commons.math3.random.RandomGenerator
174-->2org.apache.commons.math3.optimization.SimplePointChecker
175-->2org.apache.commons.math3.util.MultidimensionalCounter
176-->2org.apache.commons.math3.optimization.LeastSquaresConverter
177-->2org.apache.commons.math3.util.FastMathCalc
178-->2org.apache.commons.math3.optimization.direct.NelderMeadSimplex
179-->2org.apache.commons.math3.util.FastMathLiteralArrays
180-->2org.apache.commons.math3.linear.RealMatrixChangingVisitor
181-->2org.apache.commons.math3.optimization.DifferentiableMultivariateOptimizer
182-->2org.apache.commons.math3.util.IterationEvent
2017-03-29 14:07:56,883 INFO main - 
 No more time for operating
2017-03-29 14:07:56,884 INFO main - Time Repair Loop (s): 11271.312
2017-03-29 14:07:56,884 INFO main - 
----SUMMARY_EXECUTION---
2017-03-29 14:07:56,886 INFO main - 
successful_ing_attempts (#trials 0, totalAttps 0): []
2017-03-29 14:07:56,896 INFO main - 
failing_ing_attempts (#trials 634, totalAttps 2076): [1, 4, 1, 1, 1, 5, 1, 8, 4, 1, 4, 3, 4, 2, 4, 1, 1, 1, 2, 1, 1, 1, 1, 1, 1, 1, 1, 1, 1, 7, 1, 1, 1, 1, 1, 1, 1, 1, 1, 1, 1, 1, 4, 1, 1, 1, 4, 2, 4, 1, 1, 1, 1, 1, 1, 4, 2, 1, 1, 1, 2, 1, 4, 1, 1, 1, 4, 1, 1, 4, 1, 1, 1, 1, 1, 1, 16, 1, 1, 13, 1, 1, 1, 1, 1, 4, 1, 7, 1, 1, 1, 4, 4, 1, 1, 1, 1, 3, 2, 1, 1, 1, 1, 1, 1, 4, 1, 2, 1, 1, 1, 10, 4, 1, 1, 1, 1, 1, 4, 4, 1, 7, 1, 1, 23, 1, 1, 1, 1, 1, 1, 1, 1, 4, 4, 1, 1, 4, 1, 4, 7, 1, 5, 4, 1, 8, 4, 1, 7, 1, 1, 1, 4, 1, 7, 1, 1, 1, 3, 1, 3, 3, 3, 4, 1, 1, 1, 4, 3, 1, 7, 1, 1, 1, 1, 3, 1, 4, 1, 1, 2, 1, 1, 1, 1, 1, 3, 1, 1, 7, 1, 1, 1, 1, 4, 1, 1, 1, 3, 1, 3, 1, 1, 7, 1, 1, 1, 1, 1, 1, 4, 5, 1, 1, 1, 1, 1, 1, 1, 9, 1, 1, 341, 5, 1, 1, 1, 1, 1, 2, 1, 1, 4, 1, 1, 1, 1, 9, 1, 4, 5, 1, 2, 1, 1, 1, 1, 3, 3, 5, 3, 1, 2, 3, 4, 1, 1, 1, 1, 1, 1, 1, 1, 1, 1, 1, 1, 1, 1, 2, 1, 7, 4, 2, 2, 1, 1, 1, 1, 5, 4, 1, 1, 1, 1, 1, 1, 3, 1, 7, 1, 2, 5, 1, 1, 4, 3, 2, 1, 6, 1, 5, 1, 1, 1, 1, 2, 1, 1, 1, 1, 1, 1, 2, 1, 9, 3, 1, 1, 1, 1, 1, 1, 1, 17, 4, 1, 1, 1, 1, 2, 1, 4, 1, 1, 1, 1, 1, 2, 4, 4, 1, 4, 1, 1, 1, 1, 1, 1, 1, 7, 1, 1, 2, 4, 1, 4, 3, 1, 22, 1, 1, 1, 1, 1, 4, 1, 1, 4, 1, 1, 1, 1, 1, 7, 4, 4, 1, 1, 4, 2, 4, 1, 1, 2, 1, 2, 1, 4, 1, 1, 7, 1, 3, 25, 4, 1, 1, 1, 1, 2, 13, 1, 1, 1, 2, 2, 1, 1, 1, 1, 1, 1, 7, 1, 1, 1, 1, 1, 1, 1, 1, 1, 1, 1, 1, 4, 1, 1, 1, 2, 1, 1, 1, 1, 1, 2, 1, 1, 1, 2, 1, 1, 1, 1, 1, 1, 325, 4, 1, 1, 4, 32, 1, 1, 7, 1, 7, 1, 4, 1, 1, 1, 1, 4, 1, 1, 1, 1, 1, 3, 1, 1, 1, 1, 1, 1, 1, 1, 5, 1, 1, 2, 1, 1, 2, 1, 1, 1, 1, 1, 1, 4, 1, 1, 1, 2, 1, 1, 1, 1, 1, 1, 1, 3, 63, 1, 2, 1, 1, 5, 1, 3, 1, 1, 2, 1, 4, 5, 2, 1, 1, 3, 1, 1, 1, 5, 1, 1, 1, 2, 2, 1, 1, 4, 4, 1, 1, 5, 1, 1, 1, 1, 5, 4, 1, 1, 1, 1, 1, 4, 1, 2, 1, 1, 1, 3, 1, 2, 2, 1, 2, 4, 7, 1, 1, 1, 2, 2, 1, 3, 1, 1, 1, 1, 1, 1, 1, 4, 5, 1, 1, 21, 3, 1, 1, 1, 1, 7, 1, 1, 1, 1, 1, 1, 1, 2, 1, 1, 1, 1, 1, 1, 7, 1, 1, 4, 1, 1, 1, 1, 1, 1, 1, 1, 1, 1, 4, 1, 1, 1, 1, 1, 1, 1, 1, 5, 1, 1, 1, 1, 1, 1, 4]
2017-03-29 14:07:56,897 INFO main - 
total Patch Attempts (0): []
2017-03-29 14:07:56,897 INFO main - 
successful_ing_attempts_by_patch: []
2017-03-29 14:07:56,897 INFO main - 
failing_ing_attempts_by_patch: [(pv:2,at:1), (pv:3,at:4), (pv:4,at:1), (pv:5,at:1), (pv:6,at:1), (pv:7,at:5), (pv:8,at:1), (pv:9,at:8), (pv:10,at:4), (pv:11,at:1), (pv:12,at:4), (pv:13,at:3), (pv:14,at:4), (pv:15,at:2), (pv:16,at:4), (pv:17,at:1), (pv:18,at:1), (pv:19,at:1), (pv:20,at:2), (pv:21,at:1), (pv:22,at:1), (pv:23,at:1), (pv:24,at:1), (pv:25,at:1), (pv:26,at:1), (pv:27,at:1), (pv:28,at:1), (pv:29,at:1), (pv:30,at:1), (pv:31,at:7), (pv:32,at:1), (pv:33,at:1), (pv:34,at:1), (pv:35,at:1), (pv:36,at:1), (pv:37,at:1), (pv:38,at:1), (pv:39,at:1), (pv:40,at:1), (pv:41,at:1), (pv:42,at:1), (pv:43,at:1), (pv:44,at:4), (pv:45,at:1), (pv:46,at:1), (pv:47,at:1), (pv:48,at:4), (pv:49,at:2), (pv:50,at:4), (pv:51,at:1), (pv:52,at:1), (pv:53,at:1), (pv:54,at:1), (pv:55,at:1), (pv:56,at:1), (pv:57,at:4), (pv:58,at:2), (pv:59,at:1), (pv:60,at:1), (pv:61,at:1), (pv:62,at:2), (pv:63,at:1), (pv:64,at:4), (pv:65,at:1), (pv:66,at:1), (pv:67,at:1), (pv:68,at:4), (pv:69,at:1), (pv:70,at:1), (pv:71,at:4), (pv:72,at:1), (pv:73,at:1), (pv:74,at:1), (pv:75,at:1), (pv:76,at:1), (pv:77,at:1), (pv:78,at:16), (pv:79,at:1), (pv:80,at:1), (pv:81,at:13), (pv:82,at:1), (pv:83,at:1), (pv:84,at:1), (pv:85,at:1), (pv:86,at:1), (pv:87,at:4), (pv:88,at:1), (pv:89,at:7), (pv:90,at:1), (pv:91,at:1), (pv:92,at:1), (pv:93,at:4), (pv:94,at:4), (pv:95,at:1), (pv:96,at:1), (pv:97,at:1), (pv:98,at:1), (pv:99,at:3), (pv:100,at:2), (pv:101,at:1), (pv:102,at:1), (pv:103,at:1), (pv:104,at:1), (pv:105,at:1), (pv:106,at:1), (pv:107,at:4), (pv:108,at:1), (pv:109,at:2), (pv:110,at:1), (pv:111,at:1), (pv:112,at:1), (pv:113,at:10), (pv:114,at:4), (pv:115,at:1), (pv:116,at:1), (pv:117,at:1), (pv:118,at:1), (pv:119,at:1), (pv:120,at:4), (pv:121,at:4), (pv:122,at:1), (pv:123,at:7), (pv:124,at:1), (pv:125,at:1), (pv:126,at:23), (pv:127,at:1), (pv:128,at:1), (pv:129,at:1), (pv:130,at:1), (pv:131,at:1), (pv:132,at:1), (pv:133,at:1), (pv:134,at:1), (pv:135,at:4), (pv:136,at:4), (pv:137,at:1), (pv:138,at:1), (pv:139,at:4), (pv:140,at:1), (pv:141,at:4), (pv:142,at:7), (pv:143,at:1), (pv:144,at:5), (pv:145,at:4), (pv:146,at:1), (pv:147,at:8), (pv:148,at:4), (pv:149,at:1), (pv:150,at:7), (pv:151,at:1), (pv:152,at:1), (pv:153,at:1), (pv:154,at:4), (pv:155,at:1), (pv:156,at:7), (pv:157,at:1), (pv:158,at:1), (pv:159,at:1), (pv:160,at:3), (pv:161,at:1), (pv:162,at:3), (pv:163,at:3), (pv:164,at:3), (pv:165,at:4), (pv:166,at:1), (pv:167,at:1), (pv:168,at:1), (pv:169,at:4), (pv:170,at:3), (pv:171,at:1), (pv:172,at:7), (pv:173,at:1), (pv:174,at:1), (pv:175,at:1), (pv:176,at:1), (pv:177,at:3), (pv:178,at:1), (pv:179,at:4), (pv:180,at:1), (pv:181,at:1), (pv:182,at:2), (pv:183,at:1), (pv:184,at:1), (pv:185,at:1), (pv:186,at:1), (pv:187,at:1), (pv:188,at:3), (pv:189,at:1), (pv:190,at:1), (pv:191,at:7), (pv:192,at:1), (pv:193,at:1), (pv:194,at:1), (pv:195,at:1), (pv:196,at:4), (pv:197,at:1), (pv:198,at:1), (pv:199,at:1), (pv:200,at:3), (pv:201,at:1), (pv:202,at:3), (pv:203,at:1), (pv:204,at:1), (pv:205,at:7), (pv:206,at:1), (pv:207,at:1), (pv:208,at:1), (pv:209,at:1), (pv:210,at:1), (pv:211,at:1), (pv:212,at:4), (pv:213,at:5), (pv:214,at:1), (pv:215,at:1), (pv:216,at:1), (pv:217,at:1), (pv:218,at:1), (pv:219,at:1), (pv:220,at:1), (pv:221,at:9), (pv:222,at:1), (pv:223,at:1), (pv:224,at:341), (pv:225,at:5), (pv:226,at:1), (pv:227,at:1), (pv:228,at:1), (pv:229,at:1), (pv:230,at:1), (pv:231,at:2), (pv:232,at:1), (pv:233,at:1), (pv:234,at:4), (pv:235,at:1), (pv:236,at:1), (pv:237,at:1), (pv:238,at:1), (pv:239,at:9), (pv:240,at:1), (pv:241,at:4), (pv:242,at:5), (pv:243,at:1), (pv:244,at:2), (pv:245,at:1), (pv:246,at:1), (pv:247,at:1), (pv:248,at:1), (pv:249,at:3), (pv:250,at:3), (pv:251,at:5), (pv:252,at:3), (pv:253,at:1), (pv:254,at:2), (pv:255,at:3), (pv:256,at:4), (pv:257,at:1), (pv:258,at:1), (pv:259,at:1), (pv:260,at:1), (pv:261,at:1), (pv:262,at:1), (pv:263,at:1), (pv:264,at:1), (pv:265,at:1), (pv:266,at:1), (pv:267,at:1), (pv:268,at:1), (pv:269,at:1), (pv:270,at:1), (pv:271,at:2), (pv:272,at:1), (pv:273,at:7), (pv:274,at:4), (pv:275,at:2), (pv:276,at:2), (pv:277,at:1), (pv:278,at:1), (pv:279,at:1), (pv:280,at:1), (pv:281,at:5), (pv:282,at:4), (pv:283,at:1), (pv:284,at:1), (pv:285,at:1), (pv:286,at:1), (pv:287,at:1), (pv:288,at:1), (pv:289,at:3), (pv:290,at:1), (pv:291,at:7), (pv:292,at:1), (pv:293,at:2), (pv:294,at:5), (pv:295,at:1), (pv:296,at:1), (pv:297,at:4), (pv:298,at:3), (pv:299,at:2), (pv:300,at:1), (pv:301,at:6), (pv:302,at:1), (pv:303,at:5), (pv:304,at:1), (pv:305,at:1), (pv:306,at:1), (pv:307,at:1), (pv:308,at:2), (pv:309,at:1), (pv:310,at:1), (pv:311,at:1), (pv:312,at:1), (pv:313,at:1), (pv:314,at:1), (pv:315,at:2), (pv:316,at:1), (pv:317,at:9), (pv:318,at:3), (pv:319,at:1), (pv:320,at:1), (pv:321,at:1), (pv:322,at:1), (pv:323,at:1), (pv:324,at:1), (pv:325,at:1), (pv:326,at:17), (pv:327,at:4), (pv:328,at:1), (pv:329,at:1), (pv:330,at:1), (pv:331,at:1), (pv:332,at:2), (pv:333,at:1), (pv:334,at:4), (pv:335,at:1), (pv:336,at:1), (pv:337,at:1), (pv:338,at:1), (pv:339,at:1), (pv:340,at:2), (pv:341,at:4), (pv:342,at:4), (pv:343,at:1), (pv:344,at:4), (pv:345,at:1), (pv:346,at:1), (pv:347,at:1), (pv:348,at:1), (pv:349,at:1), (pv:350,at:1), (pv:351,at:1), (pv:352,at:7), (pv:353,at:1), (pv:354,at:1), (pv:355,at:2), (pv:356,at:4), (pv:357,at:1), (pv:358,at:4), (pv:359,at:3), (pv:360,at:1), (pv:361,at:22), (pv:362,at:1), (pv:363,at:1), (pv:364,at:1), (pv:365,at:1), (pv:366,at:1), (pv:367,at:4), (pv:368,at:1), (pv:369,at:1), (pv:370,at:4), (pv:371,at:1), (pv:372,at:1), (pv:373,at:1), (pv:374,at:1), (pv:375,at:1), (pv:376,at:7), (pv:377,at:4), (pv:378,at:4), (pv:379,at:1), (pv:380,at:1), (pv:381,at:4), (pv:382,at:2), (pv:383,at:4), (pv:384,at:1), (pv:385,at:1), (pv:386,at:2), (pv:387,at:1), (pv:388,at:2), (pv:389,at:1), (pv:390,at:4), (pv:391,at:1), (pv:392,at:1), (pv:393,at:7), (pv:394,at:1), (pv:395,at:3), (pv:396,at:25), (pv:397,at:4), (pv:398,at:1), (pv:399,at:1), (pv:400,at:1), (pv:401,at:1), (pv:402,at:2), (pv:403,at:13), (pv:404,at:1), (pv:405,at:1), (pv:406,at:1), (pv:407,at:2), (pv:408,at:2), (pv:409,at:1), (pv:410,at:1), (pv:411,at:1), (pv:412,at:1), (pv:413,at:1), (pv:414,at:1), (pv:415,at:7), (pv:416,at:1), (pv:417,at:1), (pv:418,at:1), (pv:419,at:1), (pv:420,at:1), (pv:421,at:1), (pv:422,at:1), (pv:423,at:1), (pv:424,at:1), (pv:425,at:1), (pv:426,at:1), (pv:427,at:1), (pv:428,at:4), (pv:429,at:1), (pv:430,at:1), (pv:431,at:1), (pv:432,at:2), (pv:433,at:1), (pv:434,at:1), (pv:435,at:1), (pv:436,at:1), (pv:437,at:1), (pv:438,at:2), (pv:439,at:1), (pv:440,at:1), (pv:441,at:1), (pv:442,at:2), (pv:443,at:1), (pv:444,at:1), (pv:445,at:1), (pv:446,at:1), (pv:447,at:1), (pv:448,at:1), (pv:449,at:325), (pv:450,at:4), (pv:451,at:1), (pv:452,at:1), (pv:453,at:4), (pv:454,at:32), (pv:455,at:1), (pv:456,at:1), (pv:457,at:7), (pv:458,at:1), (pv:459,at:7), (pv:460,at:1), (pv:461,at:4), (pv:462,at:1), (pv:463,at:1), (pv:464,at:1), (pv:465,at:1), (pv:466,at:4), (pv:467,at:1), (pv:468,at:1), (pv:469,at:1), (pv:470,at:1), (pv:471,at:1), (pv:472,at:3), (pv:473,at:1), (pv:474,at:1), (pv:475,at:1), (pv:476,at:1), (pv:477,at:1), (pv:478,at:1), (pv:479,at:1), (pv:480,at:1), (pv:481,at:5), (pv:482,at:1), (pv:483,at:1), (pv:484,at:2), (pv:485,at:1), (pv:486,at:1), (pv:487,at:2), (pv:488,at:1), (pv:489,at:1), (pv:490,at:1), (pv:491,at:1), (pv:492,at:1), (pv:493,at:1), (pv:494,at:4), (pv:495,at:1), (pv:496,at:1), (pv:497,at:1), (pv:498,at:2), (pv:499,at:1), (pv:500,at:1), (pv:501,at:1), (pv:502,at:1), (pv:503,at:1), (pv:504,at:1), (pv:505,at:1), (pv:506,at:3), (pv:507,at:63), (pv:508,at:1), (pv:509,at:2), (pv:510,at:1), (pv:511,at:1), (pv:512,at:5), (pv:513,at:1), (pv:514,at:3), (pv:515,at:1), (pv:516,at:1), (pv:517,at:2), (pv:518,at:1), (pv:519,at:4), (pv:520,at:5), (pv:521,at:2), (pv:522,at:1), (pv:523,at:1), (pv:524,at:3), (pv:525,at:1), (pv:526,at:1), (pv:527,at:1), (pv:528,at:5), (pv:529,at:1), (pv:530,at:1), (pv:531,at:1), (pv:532,at:2), (pv:533,at:2), (pv:534,at:1), (pv:535,at:1), (pv:536,at:4), (pv:537,at:4), (pv:538,at:1), (pv:539,at:1), (pv:540,at:5), (pv:541,at:1), (pv:542,at:1), (pv:543,at:1), (pv:544,at:1), (pv:545,at:5), (pv:546,at:4), (pv:547,at:1), (pv:548,at:1), (pv:549,at:1), (pv:550,at:1), (pv:551,at:1), (pv:552,at:4), (pv:553,at:1), (pv:554,at:2), (pv:555,at:1), (pv:556,at:1), (pv:557,at:1), (pv:558,at:3), (pv:559,at:1), (pv:560,at:2), (pv:561,at:2), (pv:562,at:1), (pv:563,at:2), (pv:564,at:4), (pv:565,at:7), (pv:566,at:1), (pv:567,at:1), (pv:568,at:1), (pv:569,at:2), (pv:570,at:2), (pv:571,at:1), (pv:572,at:3), (pv:573,at:1), (pv:574,at:1), (pv:575,at:1), (pv:576,at:1), (pv:577,at:1), (pv:578,at:1), (pv:579,at:1), (pv:580,at:4), (pv:581,at:5), (pv:582,at:1), (pv:583,at:1), (pv:584,at:21), (pv:585,at:3), (pv:586,at:1), (pv:587,at:1), (pv:588,at:1), (pv:589,at:1), (pv:590,at:7), (pv:591,at:1), (pv:592,at:1), (pv:593,at:1), (pv:594,at:1), (pv:595,at:1), (pv:596,at:1), (pv:597,at:1), (pv:598,at:2), (pv:599,at:1), (pv:600,at:1), (pv:601,at:1), (pv:602,at:1), (pv:603,at:1), (pv:604,at:1), (pv:605,at:7), (pv:606,at:1), (pv:607,at:1), (pv:608,at:4), (pv:609,at:1), (pv:610,at:1), (pv:611,at:1), (pv:612,at:1), (pv:613,at:1), (pv:614,at:1), (pv:615,at:1), (pv:616,at:1), (pv:617,at:1), (pv:618,at:1), (pv:619,at:4), (pv:620,at:1), (pv:621,at:1), (pv:622,at:1), (pv:623,at:1), (pv:624,at:1), (pv:625,at:1), (pv:626,at:1), (pv:627,at:1), (pv:628,at:5), (pv:629,at:1), (pv:630,at:1), (pv:631,at:1), (pv:632,at:1), (pv:633,at:1), (pv:634,at:1), (pv:635,at:4)]
2017-03-29 14:07:56,898 INFO main - 
pvariants_with_transformed_ingredients: [(pv:2,at:1), (pv:3,at:4), (pv:4,at:1), (pv:5,at:1), (pv:6,at:1), (pv:7,at:5), (pv:8,at:1), (pv:9,at:8), (pv:10,at:4), (pv:11,at:1), (pv:12,at:4), (pv:13,at:3), (pv:14,at:4), (pv:15,at:2), (pv:16,at:4), (pv:17,at:1), (pv:18,at:1), (pv:19,at:1), (pv:20,at:2), (pv:21,at:1), (pv:22,at:1), (pv:23,at:1), (pv:24,at:1), (pv:25,at:1), (pv:26,at:1), (pv:27,at:1), (pv:28,at:1), (pv:29,at:1), (pv:30,at:1), (pv:31,at:7), (pv:32,at:1), (pv:33,at:1), (pv:34,at:1), (pv:35,at:1), (pv:36,at:1), (pv:37,at:1), (pv:38,at:1), (pv:39,at:1), (pv:40,at:1), (pv:41,at:1), (pv:42,at:1), (pv:43,at:1), (pv:44,at:4), (pv:45,at:1), (pv:46,at:1), (pv:47,at:1), (pv:48,at:4), (pv:49,at:2), (pv:50,at:4), (pv:51,at:1), (pv:52,at:1), (pv:53,at:1), (pv:54,at:1), (pv:55,at:1), (pv:56,at:1), (pv:57,at:4), (pv:58,at:2), (pv:59,at:1), (pv:60,at:1), (pv:61,at:1), (pv:62,at:2), (pv:63,at:1), (pv:64,at:4), (pv:65,at:1), (pv:66,at:1), (pv:67,at:1), (pv:68,at:4), (pv:69,at:1), (pv:70,at:1), (pv:71,at:4), (pv:72,at:1), (pv:73,at:1), (pv:74,at:1), (pv:75,at:1), (pv:76,at:1), (pv:77,at:1), (pv:78,at:16), (pv:79,at:1), (pv:80,at:1), (pv:81,at:13), (pv:82,at:1), (pv:83,at:1), (pv:84,at:1), (pv:85,at:1), (pv:86,at:1), (pv:87,at:4), (pv:88,at:1), (pv:89,at:7), (pv:90,at:1), (pv:91,at:1), (pv:92,at:1), (pv:93,at:4), (pv:94,at:4), (pv:95,at:1), (pv:96,at:1), (pv:97,at:1), (pv:98,at:1), (pv:99,at:3), (pv:100,at:2), (pv:101,at:1), (pv:102,at:1), (pv:103,at:1), (pv:104,at:1), (pv:105,at:1), (pv:106,at:1), (pv:107,at:4), (pv:108,at:1), (pv:109,at:2), (pv:110,at:1), (pv:111,at:1), (pv:112,at:1), (pv:113,at:10), (pv:114,at:4), (pv:115,at:1), (pv:116,at:1), (pv:117,at:1), (pv:118,at:1), (pv:119,at:1), (pv:120,at:4), (pv:121,at:4), (pv:122,at:1), (pv:123,at:7), (pv:124,at:1), (pv:125,at:1), (pv:126,at:23), (pv:127,at:1), (pv:128,at:1), (pv:129,at:1), (pv:130,at:1), (pv:131,at:1), (pv:132,at:1), (pv:133,at:1), (pv:134,at:1), (pv:135,at:4), (pv:136,at:4), (pv:137,at:1), (pv:138,at:1), (pv:139,at:4), (pv:140,at:1), (pv:141,at:4), (pv:142,at:7), (pv:143,at:1), (pv:144,at:5), (pv:145,at:4), (pv:146,at:1), (pv:147,at:8), (pv:148,at:4), (pv:149,at:1), (pv:150,at:7), (pv:151,at:1), (pv:152,at:1), (pv:153,at:1), (pv:154,at:4), (pv:155,at:1), (pv:156,at:7), (pv:157,at:1), (pv:158,at:1), (pv:159,at:1), (pv:160,at:3), (pv:161,at:1), (pv:162,at:3), (pv:163,at:3), (pv:164,at:3), (pv:165,at:4), (pv:166,at:1), (pv:167,at:1), (pv:168,at:1), (pv:169,at:4), (pv:170,at:3), (pv:171,at:1), (pv:172,at:7), (pv:173,at:1), (pv:174,at:1), (pv:175,at:1), (pv:176,at:1), (pv:177,at:3), (pv:178,at:1), (pv:179,at:4), (pv:180,at:1), (pv:181,at:1), (pv:182,at:2), (pv:183,at:1), (pv:184,at:1), (pv:185,at:1), (pv:186,at:1), (pv:187,at:1), (pv:188,at:3), (pv:189,at:1), (pv:190,at:1), (pv:191,at:7), (pv:192,at:1), (pv:193,at:1), (pv:194,at:1), (pv:195,at:1), (pv:196,at:4), (pv:197,at:1), (pv:198,at:1), (pv:199,at:1), (pv:200,at:3), (pv:201,at:1), (pv:202,at:3), (pv:203,at:1), (pv:204,at:1), (pv:205,at:7), (pv:206,at:1), (pv:207,at:1), (pv:208,at:1), (pv:209,at:1), (pv:210,at:1), (pv:211,at:1), (pv:212,at:4), (pv:213,at:5), (pv:214,at:1), (pv:215,at:1), (pv:216,at:1), (pv:217,at:1), (pv:218,at:1), (pv:219,at:1), (pv:220,at:1), (pv:221,at:9), (pv:222,at:1), (pv:223,at:1), (pv:224,at:341), (pv:225,at:5), (pv:226,at:1), (pv:227,at:1), (pv:228,at:1), (pv:229,at:1), (pv:230,at:1), (pv:231,at:2), (pv:232,at:1), (pv:233,at:1), (pv:234,at:4), (pv:235,at:1), (pv:236,at:1), (pv:237,at:1), (pv:238,at:1), (pv:239,at:9), (pv:240,at:1), (pv:241,at:4), (pv:242,at:5), (pv:243,at:1), (pv:244,at:2), (pv:245,at:1), (pv:246,at:1), (pv:247,at:1), (pv:248,at:1), (pv:249,at:3), (pv:250,at:3), (pv:251,at:5), (pv:252,at:3), (pv:253,at:1), (pv:254,at:2), (pv:255,at:3), (pv:256,at:4), (pv:257,at:1), (pv:258,at:1), (pv:259,at:1), (pv:260,at:1), (pv:261,at:1), (pv:262,at:1), (pv:263,at:1), (pv:264,at:1), (pv:265,at:1), (pv:266,at:1), (pv:267,at:1), (pv:268,at:1), (pv:269,at:1), (pv:270,at:1), (pv:271,at:2), (pv:272,at:1), (pv:273,at:7), (pv:274,at:4), (pv:275,at:2), (pv:276,at:2), (pv:277,at:1), (pv:278,at:1), (pv:279,at:1), (pv:280,at:1), (pv:281,at:5), (pv:282,at:4), (pv:283,at:1), (pv:284,at:1), (pv:285,at:1), (pv:286,at:1), (pv:287,at:1), (pv:288,at:1), (pv:289,at:3), (pv:290,at:1), (pv:291,at:7), (pv:292,at:1), (pv:293,at:2), (pv:294,at:5), (pv:295,at:1), (pv:296,at:1), (pv:297,at:4), (pv:298,at:3), (pv:299,at:2), (pv:300,at:1), (pv:301,at:6), (pv:302,at:1), (pv:303,at:5), (pv:304,at:1), (pv:305,at:1), (pv:306,at:1), (pv:307,at:1), (pv:308,at:2), (pv:309,at:1), (pv:310,at:1), (pv:311,at:1), (pv:312,at:1), (pv:313,at:1), (pv:314,at:1), (pv:315,at:2), (pv:316,at:1), (pv:317,at:9), (pv:318,at:3), (pv:319,at:1), (pv:320,at:1), (pv:321,at:1), (pv:322,at:1), (pv:323,at:1), (pv:324,at:1), (pv:325,at:1), (pv:326,at:17), (pv:327,at:4), (pv:328,at:1), (pv:329,at:1), (pv:330,at:1), (pv:331,at:1), (pv:332,at:2), (pv:333,at:1), (pv:334,at:4), (pv:335,at:1), (pv:336,at:1), (pv:337,at:1), (pv:338,at:1), (pv:339,at:1), (pv:340,at:2), (pv:341,at:4), (pv:342,at:4), (pv:343,at:1), (pv:344,at:4), (pv:345,at:1), (pv:346,at:1), (pv:347,at:1), (pv:348,at:1), (pv:349,at:1), (pv:350,at:1), (pv:351,at:1), (pv:352,at:7), (pv:353,at:1), (pv:354,at:1), (pv:355,at:2), (pv:356,at:4), (pv:357,at:1), (pv:358,at:4), (pv:359,at:3), (pv:360,at:1), (pv:361,at:22), (pv:362,at:1), (pv:363,at:1), (pv:364,at:1), (pv:365,at:1), (pv:366,at:1), (pv:367,at:4), (pv:368,at:1), (pv:369,at:1), (pv:370,at:4), (pv:371,at:1), (pv:372,at:1), (pv:373,at:1), (pv:374,at:1), (pv:375,at:1), (pv:376,at:7), (pv:377,at:4), (pv:378,at:4), (pv:379,at:1), (pv:380,at:1), (pv:381,at:4), (pv:382,at:2), (pv:383,at:4), (pv:384,at:1), (pv:385,at:1), (pv:386,at:2), (pv:387,at:1), (pv:388,at:2), (pv:389,at:1), (pv:390,at:4), (pv:391,at:1), (pv:392,at:1), (pv:393,at:7), (pv:394,at:1), (pv:395,at:3), (pv:396,at:25), (pv:397,at:4), (pv:398,at:1), (pv:399,at:1), (pv:400,at:1), (pv:401,at:1), (pv:402,at:2), (pv:403,at:13), (pv:404,at:1), (pv:405,at:1), (pv:406,at:1), (pv:407,at:2), (pv:408,at:2), (pv:409,at:1), (pv:410,at:1), (pv:411,at:1), (pv:412,at:1), (pv:413,at:1), (pv:414,at:1), (pv:415,at:7), (pv:416,at:1), (pv:417,at:1), (pv:418,at:1), (pv:419,at:1), (pv:420,at:1), (pv:421,at:1), (pv:422,at:1), (pv:423,at:1), (pv:424,at:1), (pv:425,at:1), (pv:426,at:1), (pv:427,at:1), (pv:428,at:4), (pv:429,at:1), (pv:430,at:1), (pv:431,at:1), (pv:432,at:2), (pv:433,at:1), (pv:434,at:1), (pv:435,at:1), (pv:436,at:1), (pv:437,at:1), (pv:438,at:2), (pv:439,at:1), (pv:440,at:1), (pv:441,at:1), (pv:442,at:2), (pv:443,at:1), (pv:444,at:1), (pv:445,at:1), (pv:446,at:1), (pv:447,at:1), (pv:448,at:1), (pv:449,at:325), (pv:450,at:4), (pv:451,at:1), (pv:452,at:1), (pv:453,at:4), (pv:454,at:32), (pv:455,at:1), (pv:456,at:1), (pv:457,at:7), (pv:458,at:1), (pv:459,at:7), (pv:460,at:1), (pv:461,at:4), (pv:462,at:1), (pv:463,at:1), (pv:464,at:1), (pv:465,at:1), (pv:466,at:4), (pv:467,at:1), (pv:468,at:1), (pv:469,at:1), (pv:470,at:1), (pv:471,at:1), (pv:472,at:3), (pv:473,at:1), (pv:474,at:1), (pv:475,at:1), (pv:476,at:1), (pv:477,at:1), (pv:478,at:1), (pv:479,at:1), (pv:480,at:1), (pv:481,at:5), (pv:482,at:1), (pv:483,at:1), (pv:484,at:2), (pv:485,at:1), (pv:486,at:1), (pv:487,at:2), (pv:488,at:1), (pv:489,at:1), (pv:490,at:1), (pv:491,at:1), (pv:492,at:1), (pv:493,at:1), (pv:494,at:4), (pv:495,at:1), (pv:496,at:1), (pv:497,at:1), (pv:498,at:2), (pv:499,at:1), (pv:500,at:1), (pv:501,at:1), (pv:502,at:1), (pv:503,at:1), (pv:504,at:1), (pv:505,at:1), (pv:506,at:3), (pv:507,at:63), (pv:508,at:1), (pv:509,at:2), (pv:510,at:1), (pv:511,at:1), (pv:512,at:5), (pv:513,at:1), (pv:514,at:3), (pv:515,at:1), (pv:516,at:1), (pv:517,at:2), (pv:518,at:1), (pv:519,at:4), (pv:520,at:5), (pv:521,at:2), (pv:522,at:1), (pv:523,at:1), (pv:524,at:3), (pv:525,at:1), (pv:526,at:1), (pv:527,at:1), (pv:528,at:5), (pv:529,at:1), (pv:530,at:1), (pv:531,at:1), (pv:532,at:2), (pv:533,at:2), (pv:534,at:1), (pv:535,at:1), (pv:536,at:4), (pv:537,at:4), (pv:538,at:1), (pv:539,at:1), (pv:540,at:5), (pv:541,at:1), (pv:542,at:1), (pv:543,at:1), (pv:544,at:1), (pv:545,at:5), (pv:546,at:4), (pv:547,at:1), (pv:548,at:1), (pv:549,at:1), (pv:550,at:1), (pv:551,at:1), (pv:552,at:4), (pv:553,at:1), (pv:554,at:2), (pv:555,at:1), (pv:556,at:1), (pv:557,at:1), (pv:558,at:3), (pv:559,at:1), (pv:560,at:2), (pv:561,at:2), (pv:562,at:1), (pv:563,at:2), (pv:564,at:4), (pv:565,at:7), (pv:566,at:1), (pv:567,at:1), (pv:568,at:1), (pv:569,at:2), (pv:570,at:2), (pv:571,at:1), (pv:572,at:3), (pv:573,at:1), (pv:574,at:1), (pv:575,at:1), (pv:576,at:1), (pv:577,at:1), (pv:578,at:1), (pv:579,at:1), (pv:580,at:4), (pv:581,at:5), (pv:582,at:1), (pv:583,at:1), (pv:584,at:21), (pv:585,at:3), (pv:586,at:1), (pv:587,at:1), (pv:588,at:1), (pv:589,at:1), (pv:590,at:7), (pv:591,at:1), (pv:592,at:1), (pv:593,at:1), (pv:594,at:1), (pv:595,at:1), (pv:596,at:1), (pv:597,at:1), (pv:598,at:2), (pv:599,at:1), (pv:600,at:1), (pv:601,at:1), (pv:602,at:1), (pv:603,at:1), (pv:604,at:1), (pv:605,at:7), (pv:606,at:1), (pv:607,at:1), (pv:608,at:4), (pv:609,at:1), (pv:610,at:1), (pv:611,at:1), (pv:612,at:1), (pv:613,at:1), (pv:614,at:1), (pv:615,at:1), (pv:616,at:1), (pv:617,at:1), (pv:618,at:1), (pv:619,at:4), (pv:620,at:1), (pv:621,at:1), (pv:622,at:1), (pv:623,at:1), (pv:624,at:1), (pv:625,at:1), (pv:626,at:1), (pv:627,at:1), (pv:628,at:5), (pv:629,at:1), (pv:630,at:1), (pv:631,at:1), (pv:632,at:1), (pv:633,at:1), (pv:634,at:1), (pv:635,at:4)]
2017-03-29 14:07:56,898 INFO fr.inria.main.evolution.AstorMain - Time Total(s): 11569.707
