Warning: no access to tty (Bad file descriptor).
Thus no job control in this shell.
tput: No value for $TERM and no -T specified
Node: wh28.sciclone.wm.edu
[INFO ] fr.inria.main.AbstractMain.processArguments(AbstractMain.java:295) - command line arguments: [-out  /local/scr/mtufano/Math/81/b/random-global-default/2  -jvm4testexecution  /usr/local/jdk1.7.0_80/bin/  -loglevel  INFO  -maxVarCombination  1000  -maxgen  1000000  -population  1  -maxtime  180  -timezone  America/New_York  -customop  fr.inria.astor.approaches.jgenprog.operators.InsertAfterOp:fr.inria.astor.approaches.jgenprog.operators.InsertBeforeOp:fr.inria.astor.approaches.jgenprog.operators.ReplaceOp  -seed  2  -javacompliancelevel  5  -package  org.apache.commons  -binjavafolder  target/classes/  -bintestfolder  target/test-classes/  -srcjavafolder  src/main/java/  -srctestfolder  src/test/java/  -learningdir  ../../out/learningdir/Math/81/b/  -location  ../../dat/defects4j/Math/81/b/  -failing  org.apache.commons.math.linear.EigenDecompositionImplTest  -dependencies  ../../dat/libs/Math/commons-discovery-0.5.jar  -scope  fr.inria.astor.core.loop.spaces.ingredients.scopes.ctscopes.CtGlobalIngredientScope  -ingredientstrategy  fr.inria.astor.core.loop.spaces.ingredients.ingredientSearch.EfficientIngredientStrategy  -classestoinstrument  org.apache.commons.math.linear.AbstractFieldMatrix:org.apache.commons.math.linear.BlockRealMatrix:org.apache.commons.math.linear.BigMatrix:org.apache.commons.math.linear.BlockFieldMatrix:org.apache.commons.math.MaxIterationsExceededException:org.apache.commons.math.linear.EigenDecomposition:org.apache.commons.math.linear.DefaultRealMatrixPreservingVisitor:org.apache.commons.math.linear.MatrixUtils:org.apache.commons.math.linear.FieldMatrix:org.apache.commons.math.linear.RealVectorFormat:org.apache.commons.math.linear.InvalidMatrixException:org.apache.commons.math.linear.AbstractRealMatrix:org.apache.commons.math.linear.MatrixIndexException:org.apache.commons.math.linear.Array2DRowFieldMatrix:org.apache.commons.math.linear.RealMatrixPreservingVisitor:org.apache.commons.math.linear.RealVector:org.apache.commons.math.MathRuntimeException:org.apache.commons.math.linear.RealMatrixChangingVisitor:org.apache.commons.math.MathException:org.apache.commons.math.linear.EigenDecompositionImpl:org.apache.commons.math.linear.NonSquareMatrixException:org.apache.commons.math.linear.ArrayRealVector:org.apache.commons.math.ConvergenceException:org.apache.commons.math.linear.DecompositionSolver:org.apache.commons.math.linear.AnyMatrix:org.apache.commons.math.util.CompositeFormat:org.apache.commons.math.linear.RealMatrix:org.apache.commons.math.linear.Array2DRowRealMatrix:org.apache.commons.math.linear.FieldMatrixPreservingVisitor:org.apache.commons.math.linear.FieldVector:  -regressiontestcases4fl  org.apache.commons.math.linear.EigenDecompositionImplTest:org.apache.commons.math.linear.EigenSolverTest:org.apache.commons.math.linear.SingularValueDecompositionImplTest:org.apache.commons.math.linear.SingularValueSolverTest:]
[INFO ] fr.inria.astor.core.manipulation.MutationSupporter.buildModel(MutationSupporter.java:76) - building model: /local/scr/mtufano/Math/81/b/random-global-default/2/AstorMain-b//src//default, compliance level: 5
[INFO ] fr.inria.astor.core.manipulation.MutationSupporter.buildModel(MutationSupporter.java:85) - Classpath for building SpoonModel [/sciclone/data20/mtufano/deeprepair/bin/eval/../../dat/libs/Math/commons-discovery-0.5.jar]
[INFO ] fr.inria.astor.core.setup.ProjectRepairFacade.calculateSuspicious(ProjectRepairFacade.java:215) - -Executing Gzoltar classpath: /local/scr/mtufano/Math/81/b/random-global-default/2/AstorMain-b//bin//default from 4 classes with test cases
[INFO ] fr.inria.astor.core.faultlocalization.GZoltarFaultLocalization.searchSuspicious(GZoltarFaultLocalization.java:37) - Gzoltar fault localization: min susp value parameter: 0.1
[INFO ] fr.inria.astor.core.faultlocalization.GZoltarFaultLocalization.searchSuspicious(GZoltarFaultLocalization.java:57) - -gz-Adding classpath: [/local/scr/mtufano/Math/81/b/random-global-default/2/AstorMain-b//bin//default, /sciclone/data20/mtufano/deeprepair/bin/eval/../../dat/libs/Math/commons-discovery-0.5.jar]
[INFO ] fr.inria.astor.core.faultlocalization.GZoltarFaultLocalization.searchSuspicious(GZoltarFaultLocalization.java:76) - Test failt: org.apache.commons.math.linear.EigenDecompositionImplTest#testMath308
[INFO ] fr.inria.astor.core.faultlocalization.GZoltarFaultLocalization.searchSuspicious(GZoltarFaultLocalization.java:81) - Gzoltar Test Result Total:35, fails: 1, GZoltar suspicious 1355
[INFO ] fr.inria.astor.core.faultlocalization.GZoltarFaultLocalization.searchSuspicious(GZoltarFaultLocalization.java:123) - Gzoltar found: 401 with susp > 0.1, we consider: 401
[INFO ] fr.inria.astor.approaches.jgenprog.JGenProg.initPopulation(JGenProg.java:80) - 
---- Initial suspicious size: 401
[INFO ] fr.inria.astor.core.loop.population.ProgramVariantFactory.createProgramInstance(ProgramVariantFactory.java:126) - -any mod point created for suspicious Candidate [className=org.apache.commons.math.linear.EigenDecompositionImpl, methodName=org.apache.commons.math.linear.EigenDecompositionImpl{computeShiftIncrement(III)V 0.0, lineNumber=1627, susp=0.5773502691896258]
[INFO ] fr.inria.astor.core.loop.population.ProgramVariantFactory.createProgramInstance(ProgramVariantFactory.java:126) - -any mod point created for suspicious Candidate [className=org.apache.commons.math.linear.EigenDecompositionImpl, methodName=org.apache.commons.math.linear.EigenDecompositionImpl{computeShiftIncrement(III)V 0.0, lineNumber=1586, susp=0.5]
[INFO ] fr.inria.astor.core.loop.population.ProgramVariantFactory.createProgramInstance(ProgramVariantFactory.java:126) - -any mod point created for suspicious Candidate [className=org.apache.commons.math.linear.EigenDecompositionImpl, methodName=org.apache.commons.math.linear.EigenDecompositionImpl{findEigenvalues()V 0.0, lineNumber=643, susp=0.25]
[INFO ] fr.inria.astor.core.loop.population.ProgramVariantFactory.createProgramInstance(ProgramVariantFactory.java:126) - -any mod point created for suspicious Candidate [className=org.apache.commons.math.linear.EigenDecompositionImpl, methodName=org.apache.commons.math.linear.EigenDecompositionImpl{findEigenvalues()V 0.0, lineNumber=644, susp=0.25]
[INFO ] fr.inria.astor.core.loop.population.ProgramVariantFactory.createProgramInstance(ProgramVariantFactory.java:126) - -any mod point created for suspicious Candidate [className=org.apache.commons.math.linear.EigenDecompositionImpl, methodName=org.apache.commons.math.linear.EigenDecompositionImpl{findEigenvalues()V 0.0, lineNumber=645, susp=0.25]
[INFO ] fr.inria.astor.core.loop.population.ProgramVariantFactory.createProgramInstance(ProgramVariantFactory.java:126) - -any mod point created for suspicious Candidate [className=org.apache.commons.math.linear.EigenDecompositionImpl, methodName=org.apache.commons.math.linear.EigenDecompositionImpl{findEigenvalues()V 0.0, lineNumber=646, susp=0.25]
[INFO ] fr.inria.astor.core.loop.population.ProgramVariantFactory.createProgramInstance(ProgramVariantFactory.java:126) - -any mod point created for suspicious Candidate [className=org.apache.commons.math.linear.EigenDecompositionImpl, methodName=org.apache.commons.math.linear.EigenDecompositionImpl{findEigenvalues()V 0.0, lineNumber=647, susp=0.25]
[INFO ] fr.inria.astor.core.loop.population.ProgramVariantFactory.createProgramInstance(ProgramVariantFactory.java:126) - -any mod point created for suspicious Candidate [className=org.apache.commons.math.linear.EigenDecompositionImpl, methodName=org.apache.commons.math.linear.EigenDecompositionImpl{findEigenvalues()V 0.0, lineNumber=648, susp=0.25]
[INFO ] fr.inria.astor.core.loop.population.ProgramVariantFactory.createProgramInstance(ProgramVariantFactory.java:126) - -any mod point created for suspicious Candidate [className=org.apache.commons.math.linear.EigenDecompositionImpl, methodName=org.apache.commons.math.linear.EigenDecompositionImpl{findEigenvalues()V 0.0, lineNumber=649, susp=0.25]
[INFO ] fr.inria.astor.core.loop.population.ProgramVariantFactory.createProgramInstance(ProgramVariantFactory.java:126) - -any mod point created for suspicious Candidate [className=org.apache.commons.math.linear.EigenDecompositionImpl, methodName=org.apache.commons.math.linear.EigenDecompositionImpl{findEigenvalues()V 0.0, lineNumber=651, susp=0.25]
[INFO ] fr.inria.astor.core.loop.population.ProgramVariantFactory.createProgramInstance(ProgramVariantFactory.java:126) - -any mod point created for suspicious Candidate [className=org.apache.commons.math.linear.EigenDecompositionImpl, methodName=org.apache.commons.math.linear.EigenDecompositionImpl{findEigenvalues()V 0.0, lineNumber=654, susp=0.25]
[INFO ] fr.inria.astor.core.loop.population.ProgramVariantFactory.createProgramInstance(ProgramVariantFactory.java:126) - -any mod point created for suspicious Candidate [className=org.apache.commons.math.linear.EigenDecompositionImpl, methodName=org.apache.commons.math.linear.EigenDecompositionImpl{findEigenvalues()V 0.0, lineNumber=657, susp=0.25]
[INFO ] fr.inria.astor.core.loop.population.ProgramVariantFactory.createProgramInstance(ProgramVariantFactory.java:126) - -any mod point created for suspicious Candidate [className=org.apache.commons.math.linear.EigenDecompositionImpl, methodName=org.apache.commons.math.linear.EigenDecompositionImpl{initialSplits(I)V 0.0, lineNumber=965, susp=0.25]
[INFO ] fr.inria.astor.core.loop.population.ProgramVariantFactory.createProgramInstance(ProgramVariantFactory.java:126) - -any mod point created for suspicious Candidate [className=org.apache.commons.math.linear.EigenDecompositionImpl, methodName=org.apache.commons.math.linear.EigenDecompositionImpl{initialSplits(I)V 0.0, lineNumber=977, susp=0.25]
[INFO ] fr.inria.astor.core.loop.population.ProgramVariantFactory.createProgramInstance(ProgramVariantFactory.java:126) - -any mod point created for suspicious Candidate [className=org.apache.commons.math.linear.EigenDecompositionImpl, methodName=org.apache.commons.math.linear.EigenDecompositionImpl{goodStep(II)I 0.0, lineNumber=1047, susp=0.25]
[INFO ] fr.inria.astor.core.loop.population.ProgramVariantFactory.createProgramInstance(ProgramVariantFactory.java:126) - -any mod point created for suspicious Candidate [className=org.apache.commons.math.linear.EigenDecompositionImpl, methodName=org.apache.commons.math.linear.EigenDecompositionImpl{ldlTDecomposition(DII)V 0.0, lineNumber=1263, susp=0.25]
[INFO ] fr.inria.astor.core.loop.population.ProgramVariantFactory.createProgramInstance(ProgramVariantFactory.java:126) - -any mod point created for suspicious Candidate [className=org.apache.commons.math.linear.EigenDecompositionImpl, methodName=org.apache.commons.math.linear.EigenDecompositionImpl{dqds(II)V 0.0, lineNumber=1319, susp=0.25]
[INFO ] fr.inria.astor.core.loop.population.ProgramVariantFactory.createProgramInstance(ProgramVariantFactory.java:126) - -any mod point created for suspicious Candidate [className=org.apache.commons.math.linear.EigenDecompositionImpl, methodName=org.apache.commons.math.linear.EigenDecompositionImpl{dqd(II)V 0.0, lineNumber=1347, susp=0.25]
[INFO ] fr.inria.astor.core.loop.population.ProgramVariantFactory.createProgramInstance(ProgramVariantFactory.java:126) - -any mod point created for suspicious Candidate [className=org.apache.commons.math.linear.EigenDecompositionImpl, methodName=org.apache.commons.math.linear.EigenDecompositionImpl{dqd(II)V 0.0, lineNumber=1392, susp=0.25]
[INFO ] fr.inria.astor.core.loop.population.ProgramVariantFactory.createProgramInstance(ProgramVariantFactory.java:126) - -any mod point created for suspicious Candidate [className=org.apache.commons.math.linear.EigenDecompositionImpl, methodName=org.apache.commons.math.linear.EigenDecompositionImpl{dqd(II)V 0.0, lineNumber=1412, susp=0.25]
[INFO ] fr.inria.astor.core.loop.population.ProgramVariantFactory.createProgramInstance(ProgramVariantFactory.java:126) - -any mod point created for suspicious Candidate [className=org.apache.commons.math.linear.EigenDecompositionImpl, methodName=org.apache.commons.math.linear.EigenDecompositionImpl{dqd(II)V 0.0, lineNumber=1421, susp=0.25]
[INFO ] fr.inria.astor.core.loop.population.ProgramVariantFactory.createProgramInstance(ProgramVariantFactory.java:126) - -any mod point created for suspicious Candidate [className=org.apache.commons.math.linear.EigenDecompositionImpl, methodName=org.apache.commons.math.linear.EigenDecompositionImpl{computeShiftIncrement(III)V 0.0, lineNumber=1448, susp=0.25]
[INFO ] fr.inria.astor.core.loop.population.ProgramVariantFactory.createProgramInstance(ProgramVariantFactory.java:126) - -any mod point created for suspicious Candidate [className=org.apache.commons.math.linear.EigenDecompositionImpl, methodName=org.apache.commons.math.linear.EigenDecompositionImpl{computeShiftIncrement(III)V 0.0, lineNumber=1472, susp=0.25]
[INFO ] fr.inria.astor.core.loop.population.ProgramVariantFactory.createProgramInstance(ProgramVariantFactory.java:126) - -any mod point created for suspicious Candidate [className=org.apache.commons.math.linear.EigenDecompositionImpl, methodName=org.apache.commons.math.linear.EigenDecompositionImpl{computeShiftIncrement(III)V 0.0, lineNumber=1672, susp=0.25]
[INFO ] fr.inria.astor.core.loop.population.ProgramVariantFactory.createProgramInstance(ProgramVariantFactory.java:126) - -any mod point created for suspicious Candidate [className=org.apache.commons.math.linear.EigenDecompositionImpl, methodName=org.apache.commons.math.linear.EigenDecompositionImpl{updateSigma(D)V 0.0, lineNumber=1687, susp=0.25]
[INFO ] fr.inria.astor.core.loop.population.ProgramVariantFactory.createProgramInstance(ProgramVariantFactory.java:126) - -any mod point created for suspicious Candidate [className=org.apache.commons.math.linear.EigenDecompositionImpl, methodName=org.apache.commons.math.linear.EigenDecompositionImpl{updateSigma(D)V 0.0, lineNumber=1692, susp=0.25]
[INFO ] fr.inria.astor.core.loop.population.ProgramVariantFactory.createProgramInstance(ProgramVariantFactory.java:126) - -any mod point created for suspicious Candidate [className=org.apache.commons.math.linear.DefaultRealMatrixPreservingVisitor, methodName=org.apache.commons.math.linear.DefaultRealMatrixPreservingVisitor{start(IIIIII)V 0.0, lineNumber=35, susp=0.1889822365046136]
[INFO ] fr.inria.astor.core.loop.population.ProgramVariantFactory.createProgramInstance(ProgramVariantFactory.java:126) - -any mod point created for suspicious Candidate [className=org.apache.commons.math.linear.AbstractRealMatrix$5, methodName=org.apache.commons.math.linear.AbstractRealMatrix$5{visit(IID)V 0.0, lineNumber=612, susp=0.1889822365046136]
[INFO ] fr.inria.astor.core.loop.population.ProgramVariantFactory.createProgramInstance(ProgramVariantFactory.java:126) - -any mod point created for suspicious Candidate [className=org.apache.commons.math.linear.Array2DRowRealMatrix, methodName=org.apache.commons.math.linear.Array2DRowRealMatrix{setEntry(IID)V 0.0, lineNumber=372, susp=0.1796053020267749]
[INFO ] fr.inria.astor.core.loop.population.ProgramVariantFactory.createProgramInstance(ProgramVariantFactory.java:126) - -any mod point created for suspicious Candidate [className=org.apache.commons.math.linear.Array2DRowRealMatrix, methodName=org.apache.commons.math.linear.Array2DRowRealMatrix{setEntry(IID)V 0.0, lineNumber=373, susp=0.1796053020267749]
[INFO ] fr.inria.astor.core.loop.population.ProgramVariantFactory.createProgramInstance(ProgramVariantFactory.java:126) - -any mod point created for suspicious Candidate [className=org.apache.commons.math.linear.MatrixUtils, methodName=org.apache.commons.math.linear.MatrixUtils{checkMultiplicationCompatible(Lorg/apache/commons/math/linear/AnyMatrix;Lorg/apache/commons/math/linear/AnyMatrix;)V 0.0, lineNumber=656, susp=0.17407765595569785]
[INFO ] fr.inria.astor.core.loop.population.ProgramVariantFactory.createProgramInstance(ProgramVariantFactory.java:126) - -any mod point created for suspicious Candidate [className=org.apache.commons.math.linear.Array2DRowRealMatrix, methodName=org.apache.commons.math.linear.Array2DRowRealMatrix{setSubMatrix([[DII)V 0.0, lineNumber=343, susp=0.17149858514250882]
[INFO ] fr.inria.astor.core.loop.population.ProgramVariantFactory.createProgramInstance(ProgramVariantFactory.java:126) - -any mod point created for suspicious Candidate [className=org.apache.commons.math.linear.Array2DRowRealMatrix, methodName=org.apache.commons.math.linear.Array2DRowRealMatrix{setSubMatrix([[DII)V 0.0, lineNumber=347, susp=0.17149858514250882]
[INFO ] fr.inria.astor.core.loop.population.ProgramVariantFactory.createProgramInstance(ProgramVariantFactory.java:126) - -any mod point created for suspicious Candidate [className=org.apache.commons.math.linear.Array2DRowRealMatrix, methodName=org.apache.commons.math.linear.Array2DRowRealMatrix{copyIn([[D)V 0.0, lineNumber=623, susp=0.17149858514250882]
[INFO ] fr.inria.astor.core.loop.population.ProgramVariantFactory.createProgramInstance(ProgramVariantFactory.java:126) - -any mod point created for suspicious Candidate [className=org.apache.commons.math.linear.EigenDecompositionImpl, methodName=org.apache.commons.math.linear.EigenDecompositionImpl{computeGershgorinCircles()V 0.0, lineNumber=605, susp=0.1690308509457033]
[INFO ] fr.inria.astor.core.loop.population.ProgramVariantFactory.createProgramInstance(ProgramVariantFactory.java:130) - Total suspicious from FL: 401,  366
[INFO ] fr.inria.astor.core.loop.population.ProgramVariantFactory.createProgramInstance(ProgramVariantFactory.java:138) - Total ModPoint created: 366
[INFO ] fr.inria.astor.core.loop.population.ProgramVariantFactory.createInitialPopulation(ProgramVariantFactory.java:82) - Creating program variant #1, [Variant id: 1, #gens: 366, #ops: 0, parent:-]
[INFO ] fr.inria.astor.core.setup.ConfigurationProperties.print(ConfigurationProperties.java:63) - ----------------------------
[INFO ] fr.inria.astor.core.setup.ConfigurationProperties.print(ConfigurationProperties.java:64) - ---Configuration properties:---Execution values
[INFO ] fr.inria.astor.core.setup.ConfigurationProperties.print(ConfigurationProperties.java:66) - p:lastJUnitVersion= ./examples/libs/junit-4.11.jar
[INFO ] fr.inria.astor.core.setup.ConfigurationProperties.print(ConfigurationProperties.java:66) - p:alternativecompliancelevel= 4
[INFO ] fr.inria.astor.core.setup.ConfigurationProperties.print(ConfigurationProperties.java:66) - p:ignoredTestCases= 
[INFO ] fr.inria.astor.core.setup.ConfigurationProperties.print(ConfigurationProperties.java:66) - p:workingDirectory= /local/scr/mtufano/Math/81/b/random-global-default/2
[INFO ] fr.inria.astor.core.setup.ConfigurationProperties.print(ConfigurationProperties.java:66) - p:manipulatesuper= false
[INFO ] fr.inria.astor.core.setup.ConfigurationProperties.print(ConfigurationProperties.java:66) - p:validation= process
[INFO ] fr.inria.astor.core.setup.ConfigurationProperties.print(ConfigurationProperties.java:66) - p:jvm4testexecution= /usr/local/jdk1.7.0_80/bin/
[INFO ] fr.inria.astor.core.setup.ConfigurationProperties.print(ConfigurationProperties.java:66) - p:binjavafolder= target/classes/
[INFO ] fr.inria.astor.core.setup.ConfigurationProperties.print(ConfigurationProperties.java:66) - p:evosuiteresultfolder= evosuite
[INFO ] fr.inria.astor.core.setup.ConfigurationProperties.print(ConfigurationProperties.java:66) - p:flthreshold= 0.1
[INFO ] fr.inria.astor.core.setup.ConfigurationProperties.print(ConfigurationProperties.java:66) - p:regressionforfaultlocalization= true
[INFO ] fr.inria.astor.core.setup.ConfigurationProperties.print(ConfigurationProperties.java:66) - p:tmax2= 960000
[INFO ] fr.inria.astor.core.setup.ConfigurationProperties.print(ConfigurationProperties.java:66) - p:tmax1= 120000
[INFO ] fr.inria.astor.core.setup.ConfigurationProperties.print(ConfigurationProperties.java:66) - p:probagenmutation= false
[INFO ] fr.inria.astor.core.setup.ConfigurationProperties.print(ConfigurationProperties.java:66) - p:srctestfolder= src/test/java/
[INFO ] fr.inria.astor.core.setup.ConfigurationProperties.print(ConfigurationProperties.java:66) - p:customop= fr.inria.astor.approaches.jgenprog.operators.InsertAfterOp:fr.inria.astor.approaches.jgenprog.operators.InsertBeforeOp:fr.inria.astor.approaches.jgenprog.operators.ReplaceOp
[INFO ] fr.inria.astor.core.setup.ConfigurationProperties.print(ConfigurationProperties.java:66) - p:forceExecuteRegression= false
[INFO ] fr.inria.astor.core.setup.ConfigurationProperties.print(ConfigurationProperties.java:66) - p:clusteringfilename= clustering.csv
[INFO ] fr.inria.astor.core.setup.ConfigurationProperties.print(ConfigurationProperties.java:66) - p:failing= org.apache.commons.math.linear.EigenDecompositionImplTest
[INFO ] fr.inria.astor.core.setup.ConfigurationProperties.print(ConfigurationProperties.java:66) - p:evo_buggy_class= true
[INFO ] fr.inria.astor.core.setup.ConfigurationProperties.print(ConfigurationProperties.java:66) - p:numberExecutions= 1
[INFO ] fr.inria.astor.core.setup.ConfigurationProperties.print(ConfigurationProperties.java:66) - p:evo_affected_by_op= true
[INFO ] fr.inria.astor.core.setup.ConfigurationProperties.print(ConfigurationProperties.java:66) - p:population= 1
[INFO ] fr.inria.astor.core.setup.ConfigurationProperties.print(ConfigurationProperties.java:66) - p:clonegranularity= types
[INFO ] fr.inria.astor.core.setup.ConfigurationProperties.print(ConfigurationProperties.java:66) - p:regressiontestcases4fl= org.apache.commons.math.linear.EigenDecompositionImplTest:org.apache.commons.math.linear.EigenSolverTest:org.apache.commons.math.linear.SingularValueDecompositionImplTest:org.apache.commons.math.linear.SingularValueSolverTest:
[INFO ] fr.inria.astor.core.setup.ConfigurationProperties.print(ConfigurationProperties.java:66) - p:savesolution= true
[INFO ] fr.inria.astor.core.setup.ConfigurationProperties.print(ConfigurationProperties.java:66) - p:javacompliancelevel= 5
[INFO ] fr.inria.astor.core.setup.ConfigurationProperties.print(ConfigurationProperties.java:66) - p:uniqueoptogen= false
[INFO ] fr.inria.astor.core.setup.ConfigurationProperties.print(ConfigurationProperties.java:66) - p:projectIdentifier= 
[INFO ] fr.inria.astor.core.setup.ConfigurationProperties.print(ConfigurationProperties.java:66) - p:modificationpointnavigation= weight
[INFO ] fr.inria.astor.core.setup.ConfigurationProperties.print(ConfigurationProperties.java:66) - p:stopfirst= false
[INFO ] fr.inria.astor.core.setup.ConfigurationProperties.print(ConfigurationProperties.java:66) - p:multipointmodification= false
[INFO ] fr.inria.astor.core.setup.ConfigurationProperties.print(ConfigurationProperties.java:66) - p:elementsToMutate= 10
[INFO ] fr.inria.astor.core.setup.ConfigurationProperties.print(ConfigurationProperties.java:66) - p:evoDSE= false
[INFO ] fr.inria.astor.core.setup.ConfigurationProperties.print(ConfigurationProperties.java:66) - p:bintestfolder= target/test-classes/
[INFO ] fr.inria.astor.core.setup.ConfigurationProperties.print(ConfigurationProperties.java:66) - p:testbystep= false
[INFO ] fr.inria.astor.core.setup.ConfigurationProperties.print(ConfigurationProperties.java:66) - p:version-location= ./math-version/
[INFO ] fr.inria.astor.core.setup.ConfigurationProperties.print(ConfigurationProperties.java:66) - p:reintroduce= PARENTS
[INFO ] fr.inria.astor.core.setup.ConfigurationProperties.print(ConfigurationProperties.java:66) - p:maxGeneration= 1000000
[INFO ] fr.inria.astor.core.setup.ConfigurationProperties.print(ConfigurationProperties.java:66) - p:maxVarCombination= 1000
[INFO ] fr.inria.astor.core.setup.ConfigurationProperties.print(ConfigurationProperties.java:66) - p:maxtime= 180
[INFO ] fr.inria.astor.core.setup.ConfigurationProperties.print(ConfigurationProperties.java:66) - p:evosuitejar= ./lib/evosuite-master-1.0.4-SNAPSHOT.jar
[INFO ] fr.inria.astor.core.setup.ConfigurationProperties.print(ConfigurationProperties.java:66) - p:commandTrunk= 50000
[INFO ] fr.inria.astor.core.setup.ConfigurationProperties.print(ConfigurationProperties.java:66) - p:faultlocalization= fr.inria.astor.core.faultlocalization.GZoltarFaultLocalization
[INFO ] fr.inria.astor.core.setup.ConfigurationProperties.print(ConfigurationProperties.java:66) - p:maxsuspcandidates= 1000
[INFO ] fr.inria.astor.core.setup.ConfigurationProperties.print(ConfigurationProperties.java:66) - p:mode= statement
[INFO ] fr.inria.astor.core.setup.ConfigurationProperties.print(ConfigurationProperties.java:66) - p:learningdir= ../../out/learningdir/Math/81/b/
[INFO ] fr.inria.astor.core.setup.ConfigurationProperties.print(ConfigurationProperties.java:66) - p:jvm4evosuitetestexecution= /usr/local/jdk1.7.0_80/bin/
[INFO ] fr.inria.astor.core.setup.ConfigurationProperties.print(ConfigurationProperties.java:66) - p:filterfaultlocalization= true
[INFO ] fr.inria.astor.core.setup.ConfigurationProperties.print(ConfigurationProperties.java:66) - p:mutationrate= 1 
[INFO ] fr.inria.astor.core.setup.ConfigurationProperties.print(ConfigurationProperties.java:66) - p:pathToMVNRepository= 
[INFO ] fr.inria.astor.core.setup.ConfigurationProperties.print(ConfigurationProperties.java:66) - p:resourcesfolder= /src/main/resources:/src/test/resources:
[INFO ] fr.inria.astor.core.setup.ConfigurationProperties.print(ConfigurationProperties.java:66) - p:timezone= America/New_York
[INFO ] fr.inria.astor.core.setup.ConfigurationProperties.print(ConfigurationProperties.java:66) - p:classestoinstrument= org.apache.commons.math.linear.AbstractFieldMatrix:org.apache.commons.math.linear.BlockRealMatrix:org.apache.commons.math.linear.BigMatrix:org.apache.commons.math.linear.BlockFieldMatrix:org.apache.commons.math.MaxIterationsExceededException:org.apache.commons.math.linear.EigenDecomposition:org.apache.commons.math.linear.DefaultRealMatrixPreservingVisitor:org.apache.commons.math.linear.MatrixUtils:org.apache.commons.math.linear.FieldMatrix:org.apache.commons.math.linear.RealVectorFormat:org.apache.commons.math.linear.InvalidMatrixException:org.apache.commons.math.linear.AbstractRealMatrix:org.apache.commons.math.linear.MatrixIndexException:org.apache.commons.math.linear.Array2DRowFieldMatrix:org.apache.commons.math.linear.RealMatrixPreservingVisitor:org.apache.commons.math.linear.RealVector:org.apache.commons.math.MathRuntimeException:org.apache.commons.math.linear.RealMatrixChangingVisitor:org.apache.commons.math.MathException:org.apache.commons.math.linear.EigenDecompositionImpl:org.apache.commons.math.linear.NonSquareMatrixException:org.apache.commons.math.linear.ArrayRealVector:org.apache.commons.math.ConvergenceException:org.apache.commons.math.linear.DecompositionSolver:org.apache.commons.math.linear.AnyMatrix:org.apache.commons.math.util.CompositeFormat:org.apache.commons.math.linear.RealMatrix:org.apache.commons.math.linear.Array2DRowRealMatrix:org.apache.commons.math.linear.FieldMatrixPreservingVisitor:org.apache.commons.math.linear.FieldVector:
[INFO ] fr.inria.astor.core.setup.ConfigurationProperties.print(ConfigurationProperties.java:66) - p:evoRunOnBuggyClass= true
[INFO ] fr.inria.astor.core.setup.ConfigurationProperties.print(ConfigurationProperties.java:66) - p:compiler= fr.inria.astor.core.manipulation.bytecode.compiler.SpoonClassCompiler
[INFO ] fr.inria.astor.core.setup.ConfigurationProperties.print(ConfigurationProperties.java:66) - p:dependenciespath= ../../dat/libs/Math/commons-discovery-0.5.jar
[INFO ] fr.inria.astor.core.setup.ConfigurationProperties.print(ConfigurationProperties.java:66) - p:skipfaultlocalization= false
[INFO ] fr.inria.astor.core.setup.ConfigurationProperties.print(ConfigurationProperties.java:66) - p:packageToInstrument= org.apache.commons
[INFO ] fr.inria.astor.core.setup.ConfigurationProperties.print(ConfigurationProperties.java:66) - p:scope= fr.inria.astor.core.loop.spaces.ingredients.scopes.ctscopes.CtGlobalIngredientScope
[INFO ] fr.inria.astor.core.setup.ConfigurationProperties.print(ConfigurationProperties.java:66) - p:transformingredient= false
[INFO ] fr.inria.astor.core.setup.ConfigurationProperties.print(ConfigurationProperties.java:66) - p:fitnessfunction= fr.inria.astor.core.loop.population.TestCaseFitnessFunction
[INFO ] fr.inria.astor.core.setup.ConfigurationProperties.print(ConfigurationProperties.java:66) - p:pvariantfoldername= variant-
[INFO ] fr.inria.astor.core.setup.ConfigurationProperties.print(ConfigurationProperties.java:66) - p:srcjavafolder= src/main/java/
[INFO ] fr.inria.astor.core.setup.ConfigurationProperties.print(ConfigurationProperties.java:66) - p:populationcontroller= fr.inria.astor.core.loop.population.TestCaseBasedFitnessPopulationController
[INFO ] fr.inria.astor.core.setup.ConfigurationProperties.print(ConfigurationProperties.java:66) - p:ignoreflakyinfl= false
[INFO ] fr.inria.astor.core.setup.ConfigurationProperties.print(ConfigurationProperties.java:66) - p:applyCrossover= false
[INFO ] fr.inria.astor.core.setup.ConfigurationProperties.print(ConfigurationProperties.java:66) - p:saveall= false
[INFO ] fr.inria.astor.core.setup.ConfigurationProperties.print(ConfigurationProperties.java:66) - p:seed= 2
[INFO ] fr.inria.astor.core.setup.ConfigurationProperties.print(ConfigurationProperties.java:66) - p:resetoperations= false
[INFO ] fr.inria.astor.core.setup.ConfigurationProperties.print(ConfigurationProperties.java:66) - p:location= ../../dat/defects4j/Math/81/b/
[INFO ] fr.inria.astor.core.setup.ConfigurationProperties.print(ConfigurationProperties.java:66) - p:ingredientstrategy= fr.inria.astor.core.loop.spaces.ingredients.ingredientSearch.EfficientIngredientStrategy
[INFO ] fr.inria.astor.core.setup.ConfigurationProperties.print(ConfigurationProperties.java:66) - p:allpoints= false
[INFO ] fr.inria.astor.core.setup.ConfigurationProperties.print(ConfigurationProperties.java:66) - p:bugId= 280
[INFO ] fr.inria.astor.core.setup.ConfigurationProperties.print(ConfigurationProperties.java:66) - p:evosuitetimeout= 120
[INFO ] fr.inria.astor.core.setup.ConfigurationProperties.print(ConfigurationProperties.java:68) - ----------------------------
[INFO ] fr.inria.astor.core.loop.AstorCoreEngine.startEvolution(AstorCoreEngine.java:119) - 
----Starting Solution Search
[INFO ] fr.inria.astor.core.loop.AstorCoreEngine.processCreatedVariant(AstorCoreEngine.java:404) - -Found Solution, child variant #16
[INFO ] fr.inria.astor.core.validation.executors.JUnitExecutorProcess.execute(JUnitExecutorProcess.java:120) - The Process that runs JUnit test cases had problems: process hasn't exited
[INFO ] fr.inria.astor.core.validation.executors.JUnitExecutorProcess.execute(JUnitExecutorProcess.java:120) - The Process that runs JUnit test cases had problems: process hasn't exited
[INFO ] fr.inria.astor.core.validation.executors.JUnitExecutorProcess.execute(JUnitExecutorProcess.java:120) - The Process that runs JUnit test cases had problems: process hasn't exited
[INFO ] fr.inria.astor.core.validation.executors.JUnitExecutorProcess.execute(JUnitExecutorProcess.java:120) - The Process that runs JUnit test cases had problems: process hasn't exited
[INFO ] fr.inria.astor.core.validation.executors.JUnitExecutorProcess.execute(JUnitExecutorProcess.java:120) - The Process that runs JUnit test cases had problems: process hasn't exited
[INFO ] fr.inria.astor.core.validation.executors.JUnitExecutorProcess.execute(JUnitExecutorProcess.java:120) - The Process that runs JUnit test cases had problems: process hasn't exited
[INFO ] fr.inria.astor.core.validation.executors.JUnitExecutorProcess.execute(JUnitExecutorProcess.java:120) - The Process that runs JUnit test cases had problems: process hasn't exited
[INFO ] fr.inria.astor.core.loop.AstorCoreEngine.processCreatedVariant(AstorCoreEngine.java:404) - -Found Solution, child variant #167
[INFO ] fr.inria.astor.core.validation.executors.JUnitExecutorProcess.execute(JUnitExecutorProcess.java:120) - The Process that runs JUnit test cases had problems: process hasn't exited
[INFO ] fr.inria.astor.core.validation.executors.JUnitExecutorProcess.execute(JUnitExecutorProcess.java:120) - The Process that runs JUnit test cases had problems: process hasn't exited
[INFO ] fr.inria.astor.core.validation.executors.JUnitExecutorProcess.execute(JUnitExecutorProcess.java:120) - The Process that runs JUnit test cases had problems: process hasn't exited
[INFO ] fr.inria.astor.core.validation.executors.JUnitExecutorProcess.execute(JUnitExecutorProcess.java:120) - The Process that runs JUnit test cases had problems: process hasn't exited
[INFO ] fr.inria.astor.core.validation.executors.JUnitExecutorProcess.execute(JUnitExecutorProcess.java:120) - The Process that runs JUnit test cases had problems: process hasn't exited
[INFO ] fr.inria.astor.core.validation.executors.JUnitExecutorProcess.execute(JUnitExecutorProcess.java:120) - The Process that runs JUnit test cases had problems: process hasn't exited
[INFO ] fr.inria.astor.core.validation.executors.JUnitExecutorProcess.execute(JUnitExecutorProcess.java:120) - The Process that runs JUnit test cases had problems: process hasn't exited
[INFO ] fr.inria.astor.core.validation.executors.JUnitExecutorProcess.execute(JUnitExecutorProcess.java:120) - The Process that runs JUnit test cases had problems: process hasn't exited
[INFO ] fr.inria.astor.core.validation.executors.JUnitExecutorProcess.execute(JUnitExecutorProcess.java:120) - The Process that runs JUnit test cases had problems: process hasn't exited
[INFO ] fr.inria.astor.core.validation.executors.JUnitExecutorProcess.execute(JUnitExecutorProcess.java:120) - The Process that runs JUnit test cases had problems: process hasn't exited
[INFO ] fr.inria.astor.core.validation.executors.JUnitExecutorProcess.execute(JUnitExecutorProcess.java:120) - The Process that runs JUnit test cases had problems: process hasn't exited
[INFO ] fr.inria.astor.core.loop.AstorCoreEngine.processCreatedVariant(AstorCoreEngine.java:404) - -Found Solution, child variant #383
[INFO ] fr.inria.astor.core.validation.executors.JUnitExecutorProcess.execute(JUnitExecutorProcess.java:120) - The Process that runs JUnit test cases had problems: process hasn't exited
[INFO ] fr.inria.astor.core.validation.executors.JUnitExecutorProcess.execute(JUnitExecutorProcess.java:120) - The Process that runs JUnit test cases had problems: process hasn't exited
[INFO ] fr.inria.astor.core.validation.executors.JUnitExecutorProcess.execute(JUnitExecutorProcess.java:120) - The Process that runs JUnit test cases had problems: process hasn't exited
[INFO ] fr.inria.astor.core.loop.AstorCoreEngine.processCreatedVariant(AstorCoreEngine.java:404) - -Found Solution, child variant #457
[INFO ] fr.inria.astor.core.validation.executors.JUnitExecutorProcess.execute(JUnitExecutorProcess.java:120) - The Process that runs JUnit test cases had problems: process hasn't exited
[INFO ] fr.inria.astor.core.validation.executors.JUnitExecutorProcess.execute(JUnitExecutorProcess.java:120) - The Process that runs JUnit test cases had problems: process hasn't exited
[INFO ] fr.inria.astor.core.validation.executors.JUnitExecutorProcess.execute(JUnitExecutorProcess.java:120) - The Process that runs JUnit test cases had problems: process hasn't exited
[INFO ] fr.inria.astor.core.loop.AstorCoreEngine.processCreatedVariant(AstorCoreEngine.java:404) - -Found Solution, child variant #490
[INFO ] fr.inria.astor.core.validation.executors.JUnitExecutorProcess.execute(JUnitExecutorProcess.java:120) - The Process that runs JUnit test cases had problems: process hasn't exited
[INFO ] fr.inria.astor.core.validation.executors.JUnitExecutorProcess.execute(JUnitExecutorProcess.java:120) - The Process that runs JUnit test cases had problems: process hasn't exited
[INFO ] fr.inria.astor.core.validation.executors.JUnitExecutorProcess.execute(JUnitExecutorProcess.java:120) - The Process that runs JUnit test cases had problems: process hasn't exited
[INFO ] fr.inria.astor.core.loop.AstorCoreEngine.processCreatedVariant(AstorCoreEngine.java:404) - -Found Solution, child variant #608
[INFO ] fr.inria.astor.core.validation.executors.JUnitExecutorProcess.execute(JUnitExecutorProcess.java:120) - The Process that runs JUnit test cases had problems: process hasn't exited
[INFO ] fr.inria.astor.core.validation.executors.JUnitExecutorProcess.execute(JUnitExecutorProcess.java:120) - The Process that runs JUnit test cases had problems: process hasn't exited
[INFO ] fr.inria.astor.core.validation.executors.JUnitExecutorProcess.execute(JUnitExecutorProcess.java:120) - The Process that runs JUnit test cases had problems: process hasn't exited
[INFO ] fr.inria.astor.core.loop.AstorCoreEngine.processCreatedVariant(AstorCoreEngine.java:404) - -Found Solution, child variant #782
[INFO ] fr.inria.astor.core.validation.executors.JUnitExecutorProcess.execute(JUnitExecutorProcess.java:120) - The Process that runs JUnit test cases had problems: process hasn't exited
[INFO ] fr.inria.astor.core.validation.executors.JUnitExecutorProcess.execute(JUnitExecutorProcess.java:120) - The Process that runs JUnit test cases had problems: process hasn't exited
[INFO ] fr.inria.astor.core.validation.executors.JUnitExecutorProcess.execute(JUnitExecutorProcess.java:120) - The Process that runs JUnit test cases had problems: process hasn't exited
[INFO ] fr.inria.astor.core.validation.executors.JUnitExecutorProcess.execute(JUnitExecutorProcess.java:120) - The Process that runs JUnit test cases had problems: process hasn't exited
[INFO ] fr.inria.astor.core.validation.executors.JUnitExecutorProcess.execute(JUnitExecutorProcess.java:120) - The Process that runs JUnit test cases had problems: process hasn't exited
[INFO ] fr.inria.astor.core.loop.AstorCoreEngine.belowMaxTime(AstorCoreEngine.java:203) - 
 No more time for operating
[INFO ] fr.inria.astor.core.loop.AstorCoreEngine.startEvolution(AstorCoreEngine.java:143) - Time Repair Loop (s): 10866.097
[INFO ] fr.inria.astor.core.loop.AstorCoreEngine.showResults(AstorCoreEngine.java:165) - 
----SUMMARY_EXECUTION---
[INFO ] fr.inria.astor.core.loop.AstorCoreEngine.showResults(AstorCoreEngine.java:183) - 
Solution details
[INFO ] fr.inria.astor.core.loop.AstorCoreEngine.showResults(AstorCoreEngine.java:184) - 
 --SOLUTIONS DESCRIPTION--

 ----
ProgramVariant 16
 
time(sec)= 29
operation: ReplaceOp
location= org.apache.commons.math.linear.EigenDecompositionImpl
line= 1294
lineSuspiciousness= 0.25
original statement= eMin = java.lang.Math.min(work[(j4 - 1)], eMin)
fixed statement= dMin = d
generation= 15
ingredientScope= LOCAL
validation=|true|0|2101|[]|
diffpatch=--- /local/scr/mtufano/Math/81/b/random-global-default/2/AstorMain-b/src/default/org/apache/commons/math/linear/EigenDecompositionImpl.java	
+++ /local/scr/mtufano/Math/81/b/random-global-default/2/AstorMain-b/src/variant-16/org/apache/commons/math/linear/EigenDecompositionImpl.java	
@@ -780,7 +780,7 @@
 				d = (d * tmp) - (tau);
 				dMin = java.lang.Math.min(dMin, d);
 				work[(j4 - 1)] = (work[j4]) * tmp;
-				eMin = java.lang.Math.min(work[(j4 - 1)], eMin);
+				dMin = d;
 			}
 		}
 		dN2 = d;


 ----
ProgramVariant 167
 
time(sec)= 1093
operation: InsertBeforeOp
location= org.apache.commons.math.linear.EigenDecompositionImpl
line= 1536
lineSuspiciousness= 0.577
original statement= final double gam = dN2
fixed statement= for (int i4 = ((4 * end) - 9) + (pingPong); i4 >= (((4 * start) + 2) + (pingPong)); i4 -= 4) {
	if ((work[i4]) > (work[(i4 - 2)])) {
		return ;
	}
	b1 *= (work[i4]) / (work[(i4 - 2)]);
	b2 += b1;
	if ((100 * b1) < b2) {
		break;
	}
}
generation= 166
ingredientScope= LOCAL
validation=|true|0|2101|[]|
diffpatch=--- /local/scr/mtufano/Math/81/b/random-global-default/2/AstorMain-b/src/default/org/apache/commons/math/linear/EigenDecompositionImpl.java	
+++ /local/scr/mtufano/Math/81/b/random-global-default/2/AstorMain-b/src/variant-167/org/apache/commons/math/linear/EigenDecompositionImpl.java	
@@ -982,6 +982,16 @@
 						final int np = nn - (2 * (pingPong));
 						double b1 = work[(np - 2)];
 						double b2 = work[(np - 6)];
+						for (int i4 = ((4 * end) - 9) + (pingPong); i4 >= (((4 * start) + 2) + (pingPong)); i4 -= 4) {
+							if ((work[i4]) > (work[(i4 - 2)])) {
+								return ;
+							}
+							b1 *= (work[i4]) / (work[(i4 - 2)]);
+							b2 += b1;
+							if ((100 * b1) < b2) {
+								break;
+							}
+						}
 						final double gam = dN2;
 						if (((work[(np - 8)]) > b2) || ((work[(np - 4)]) > b1)) {
 							return ;


 ----
ProgramVariant 383
 
time(sec)= 3374
operation: ReplaceOp
location= org.apache.commons.math.linear.EigenDecompositionImpl
line= 1544
lineSuspiciousness= 0.577
original statement= b2 = (work[(nn - 13)]) / (work[(nn - 15)])
fixed statement= s = (dN) - b1
generation= 382
ingredientScope= LOCAL
validation=|true|0|2101|[]|
diffpatch=--- /local/scr/mtufano/Math/81/b/random-global-default/2/AstorMain-b/src/default/org/apache/commons/math/linear/EigenDecompositionImpl.java	
+++ /local/scr/mtufano/Math/81/b/random-global-default/2/AstorMain-b/src/variant-383/org/apache/commons/math/linear/EigenDecompositionImpl.java	
@@ -988,7 +988,7 @@
 						}
 						double a2 = ((work[(np - 8)]) / b2) * (1 + ((work[(np - 4)]) / b1));
 						if ((end - start) > 2) {
-							b2 = (work[(nn - 13)]) / (work[(nn - 15)]);
+							s = (dN) - b1;
 							a2 = a2 + b2;
 							for (int i4 = nn - 17; i4 >= (((4 * start) + 2) + (pingPong)); i4 -= 4) {
 								if (b2 == 0.0) {


 ----
ProgramVariant 457
 
time(sec)= 4267
operation: ReplaceOp
location= org.apache.commons.math.linear.EigenDecompositionImpl
line= 1543
lineSuspiciousness= 0.577
original statement= if ((end - start) > 2) {
	b2 = (work[(nn - 13)]) / (work[(nn - 15)]);
	a2 = a2 + b2;
	for (int i4 = nn - 17; i4 >= (((4 * start) + 2) + (pingPong)); i4 -= 4) {
		if (b2 == 0.0) {
			break;
		}
		b1 = b2;
		if ((work[i4]) > (work[(i4 - 2)])) {
			return ;
		}
		b2 = b2 * ((work[i4]) / (work[(i4 - 2)]));
		a2 = a2 + b2;
		if (((100 * (java.lang.Math.max(b2, b1))) < a2) || (cnst1 < a2)) {
			break;
		}
	}
	a2 = cnst3 * a2;
}
fixed statement= if (((work[(np - 8)]) > b2) || ((work[(np - 4)]) > b1)) {
	return ;
}
generation= 456
ingredientScope= LOCAL
validation=|true|0|2101|[]|
diffpatch=--- /local/scr/mtufano/Math/81/b/random-global-default/2/AstorMain-b/src/default/org/apache/commons/math/linear/EigenDecompositionImpl.java	
+++ /local/scr/mtufano/Math/81/b/random-global-default/2/AstorMain-b/src/variant-457/org/apache/commons/math/linear/EigenDecompositionImpl.java	
@@ -987,25 +987,9 @@
 							return ;
 						}
 						double a2 = ((work[(np - 8)]) / b2) * (1 + ((work[(np - 4)]) / b1));
-						if ((end - start) > 2) {
-							b2 = (work[(nn - 13)]) / (work[(nn - 15)]);
-							a2 = a2 + b2;
-							for (int i4 = nn - 17; i4 >= (((4 * start) + 2) + (pingPong)); i4 -= 4) {
-								if (b2 == 0.0) {
-									break;
-								}
-								b1 = b2;
-								if ((work[i4]) > (work[(i4 - 2)])) {
+						if (((work[(np - 8)]) > b2) || ((work[(np - 4)]) > b1)) {
 									return ;
 								}
-								b2 = b2 * ((work[i4]) / (work[(i4 - 2)]));
-								a2 = a2 + b2;
-								if (((100 * (java.lang.Math.max(b2, b1))) < a2) || (cnst1 < a2)) {
-									break;
-								}
-							}
-							a2 = cnst3 * a2;
-						}
 						if (a2 < cnst1) {
 							tau = (gam * (1 - (java.lang.Math.sqrt(a2)))) / (1 + a2);
 						}else {


 ----
ProgramVariant 490
 
time(sec)= 5025
operation: ReplaceOp
location= org.apache.commons.math.linear.EigenDecompositionImpl
line= 1480
lineSuspiciousness= 0.5
original statement= a2 = 0.0
fixed statement= dMin2 = dMin
generation= 489
ingredientScope= LOCAL
validation=|true|0|2101|[]|
diffpatch=--- /local/scr/mtufano/Math/81/b/random-global-default/2/AstorMain-b/src/default/org/apache/commons/math/linear/EigenDecompositionImpl.java	
+++ /local/scr/mtufano/Math/81/b/random-global-default/2/AstorMain-b/src/variant-490/org/apache/commons/math/linear/EigenDecompositionImpl.java	
@@ -934,7 +934,7 @@
 						int np;
 						if ((dMin) == (dN)) {
 							gam = dN;
-							a2 = 0.0;
+							dMin2 = dMin;
 							if ((work[(nn - 5)]) > (work[(nn - 7)])) {
 								return ;
 							}


 ----
ProgramVariant 608
 
time(sec)= 6337
operation: ReplaceOp
location= org.apache.commons.math.linear.EigenDecompositionImpl
line= 1543
lineSuspiciousness= 0.577
original statement= if ((end - start) > 2) {
	b2 = (work[(nn - 13)]) / (work[(nn - 15)]);
	a2 = a2 + b2;
	for (int i4 = nn - 17; i4 >= (((4 * start) + 2) + (pingPong)); i4 -= 4) {
		if (b2 == 0.0) {
			break;
		}
		b1 = b2;
		if ((work[i4]) > (work[(i4 - 2)])) {
			return ;
		}
		b2 = b2 * ((work[i4]) / (work[(i4 - 2)]));
		a2 = a2 + b2;
		if (((100 * (java.lang.Math.max(b2, b1))) < a2) || (cnst1 < a2)) {
			break;
		}
	}
	a2 = cnst3 * a2;
}
fixed statement= if ((dMin1) == (dN1)) {
	tau = 0.5 * (dMin1);
}
generation= 607
ingredientScope= LOCAL
validation=|true|0|2101|[]|
diffpatch=--- /local/scr/mtufano/Math/81/b/random-global-default/2/AstorMain-b/src/default/org/apache/commons/math/linear/EigenDecompositionImpl.java	
+++ /local/scr/mtufano/Math/81/b/random-global-default/2/AstorMain-b/src/variant-608/org/apache/commons/math/linear/EigenDecompositionImpl.java	
@@ -987,24 +987,8 @@
 							return ;
 						}
 						double a2 = ((work[(np - 8)]) / b2) * (1 + ((work[(np - 4)]) / b1));
-						if ((end - start) > 2) {
-							b2 = (work[(nn - 13)]) / (work[(nn - 15)]);
-							a2 = a2 + b2;
-							for (int i4 = nn - 17; i4 >= (((4 * start) + 2) + (pingPong)); i4 -= 4) {
-								if (b2 == 0.0) {
-									break;
-								}
-								b1 = b2;
-								if ((work[i4]) > (work[(i4 - 2)])) {
-									return ;
-								}
-								b2 = b2 * ((work[i4]) / (work[(i4 - 2)]));
-								a2 = a2 + b2;
-								if (((100 * (java.lang.Math.max(b2, b1))) < a2) || (cnst1 < a2)) {
-									break;
-								}
-							}
-							a2 = cnst3 * a2;
+						if ((dMin1) == (dN1)) {
+							tau = 0.5 * (dMin1);
 						}
 						if (a2 < cnst1) {
 							tau = (gam * (1 - (java.lang.Math.sqrt(a2)))) / (1 + a2);


 ----
ProgramVariant 782
 
time(sec)= 8442
operation: ReplaceOp
location= org.apache.commons.math.linear.EigenDecompositionImpl
line= 1484
lineSuspiciousness= 0.5
original statement= b2 = (work[(nn - 5)]) / (work[(nn - 7)])
fixed statement= cachedD = null
generation= 781
ingredientScope= LOCAL
validation=|true|0|2101|[]|
diffpatch=--- /local/scr/mtufano/Math/81/b/random-global-default/2/AstorMain-b/src/default/org/apache/commons/math/linear/EigenDecompositionImpl.java	
+++ /local/scr/mtufano/Math/81/b/random-global-default/2/AstorMain-b/src/variant-782/org/apache/commons/math/linear/EigenDecompositionImpl.java	
@@ -938,7 +938,7 @@
 							if ((work[(nn - 5)]) > (work[(nn - 7)])) {
 								return ;
 							}
-							b2 = (work[(nn - 5)]) / (work[(nn - 7)]);
+							cachedD = null;
 							np = nn - 9;
 						}else {
 							np = nn - (2 * (pingPong));


[INFO ] fr.inria.astor.approaches.jgenprog.JGenProg.showResults(JGenProg.java:332) - 
successful_ing_attempts (#trials 7, totalAttps 32): [2, 11, 3, 1, 8, 3, 4]
[INFO ] fr.inria.astor.approaches.jgenprog.JGenProg.showResults(JGenProg.java:334) - 
failing_ing_attempts (#trials 978, totalAttps 4905): [2, 1, 6, 7, 5, 4, 1, 1, 7, 1, 9, 3, 11, 3, 6, 4, 3, 15, 2, 8, 25, 2, 2, 2, 2, 1, 7, 3, 16, 1, 23, 1, 6, 1, 4, 8, 8, 1, 3, 25, 3, 1, 1, 2, 4, 3, 5, 1, 2, 4, 2, 2, 11, 9, 15, 2, 5, 6, 1, 2, 4, 1, 16, 4, 7, 4, 4, 4, 4, 6, 1, 1, 5, 2, 1, 1, 10, 5, 1, 5, 6, 4, 6, 3, 11, 18, 2, 4, 3, 2, 5, 2, 3, 2, 4, 1, 10, 4, 6, 8, 1, 1, 3, 4, 2, 1, 5, 1, 3, 2, 5, 1, 2, 7, 16, 1, 5, 3, 3, 1, 4, 1, 1, 1, 3, 6, 1, 3, 1, 2, 8, 7, 4, 10, 3, 2, 3, 11, 5, 2, 10, 3, 12, 4, 2, 1, 6, 8, 1, 10, 3, 11, 1, 12, 1, 7, 7, 1, 9, 2, 3, 9, 2, 1, 3, 8, 4, 1, 1, 3, 3, 1, 1, 1, 2, 6, 29, 5, 2, 2, 2, 5, 5, 2, 2, 1, 1, 3, 1, 4, 4, 5, 12, 7, 1, 9, 12, 1, 2, 2, 7, 10, 5, 7, 13, 6, 1, 22, 3, 5, 1, 1, 2, 3, 5, 1, 11, 4, 1, 20, 9, 18, 4, 2, 6, 1, 2, 2, 2, 10, 2, 1, 3, 1, 4, 17, 11, 1, 2, 2, 7, 3, 5, 3, 1, 3, 5, 2, 1, 3, 4, 3, 18, 2, 1, 4, 14, 3, 13, 10, 3, 9, 6, 14, 6, 3, 1, 1, 3, 2, 2, 9, 23, 2, 2, 1, 29, 3, 2, 5, 3, 4, 7, 4, 11, 2, 3, 4, 2, 4, 21, 2, 5, 14, 1, 12, 5, 18, 1, 1, 4, 5, 2, 1, 9, 6, 11, 8, 5, 10, 1, 12, 3, 5, 2, 1, 1, 10, 1, 4, 3, 1, 6, 1, 3, 10, 4, 3, 3, 4, 3, 2, 4, 1, 2, 1, 7, 1, 11, 1, 2, 1, 3, 4, 2, 4, 2, 5, 4, 6, 5, 10, 2, 9, 1, 2, 3, 22, 8, 10, 1, 9, 2, 8, 2, 6, 1, 2, 14, 1, 1, 1, 10, 120, 1, 4, 2, 1, 3, 1, 2, 1, 1, 11, 1, 5, 2, 16, 4, 2, 2, 9, 3, 2, 3, 13, 8, 9, 7, 1, 2, 6, 1, 5, 1, 2, 5, 11, 8, 11, 1, 3, 3, 7, 5, 2, 14, 1, 2, 1, 2, 4, 6, 1, 1, 1, 5, 5, 10, 1, 11, 2, 4, 2, 3, 5, 2, 2, 4, 9, 2, 4, 1, 2, 2, 6, 4, 3, 3, 4, 4, 7, 1, 1, 2, 6, 11, 3, 2, 9, 10, 4, 6, 7, 5, 8, 5, 2, 5, 5, 1, 3, 19, 1, 1, 4, 9, 1, 6, 2, 1, 3, 7, 1, 5, 4, 3, 1, 13, 4, 2, 3, 1, 5, 3, 7, 1, 1, 1, 1, 2, 5, 14, 6, 9, 6, 4, 1, 12, 24, 3, 1, 1, 4, 3, 6, 12, 8, 8, 1, 2, 2, 7, 1, 2, 7, 1, 3, 4, 9, 4, 2, 4, 7, 3, 7, 1, 1, 1, 1, 35, 3, 5, 4, 1, 3, 3, 14, 3, 5, 17, 6, 6, 5, 1, 3, 5, 2, 14, 1, 3, 8, 1, 4, 4, 2, 1, 8, 1, 2, 6, 1, 1, 1, 1, 3, 4, 1, 1, 4, 6, 5, 4, 1, 1, 8, 1, 1, 5, 1, 2, 4, 3, 5, 7, 11, 7, 4, 1, 1, 1, 7, 6, 2, 3, 3, 1, 3, 3, 3, 2, 6, 12, 21, 1, 3, 1, 3, 2, 1, 2, 52, 16, 5, 10, 5, 2, 1, 1, 3, 5, 5, 15, 1, 5, 7, 5, 2, 1, 2, 3, 7, 2, 9, 6, 7, 2, 1, 2, 4, 1, 1, 1, 2, 2, 4, 4, 16, 1, 5, 23, 1, 19, 1, 6, 1, 88, 4, 1, 2, 1, 3, 9, 8, 2, 6, 2, 2, 5, 3, 1, 3, 5, 2, 4, 2, 2, 2, 5, 2, 6, 2, 6, 3, 8, 3, 7, 5, 6, 6, 1, 5, 11, 4, 4, 3, 1, 4, 6, 4, 47, 4, 2, 13, 1, 1, 2, 8, 5, 9, 2, 4, 2, 19, 3, 2, 2, 2, 5, 1, 5, 2, 5, 3, 3, 4, 1, 6, 4, 1, 8, 1, 2, 3, 1, 10, 14, 2, 4, 2, 1, 6, 4, 6, 5, 6, 3, 2, 11, 8, 1, 1, 3, 17, 2, 2, 10, 3, 4, 1, 4, 7, 7, 2, 2, 2, 9, 4, 8, 3, 2, 5, 5, 1, 18, 4, 8, 1, 7, 2, 5, 6, 8, 3, 1, 10, 2, 6, 5, 2, 6, 2, 3, 5, 5, 3, 2, 1, 1, 2, 6, 1, 9, 5, 4, 6, 2, 1, 3, 5, 6, 9, 9, 2, 13, 7, 4, 1, 2, 3, 3, 4, 2, 1, 2, 4, 2, 4, 9, 3, 3, 4, 1, 1, 2, 5, 4, 11, 1, 1, 4, 4, 1, 1, 10, 3, 1, 1, 5, 4, 1, 1, 1, 7, 1, 2, 1, 8, 2, 13, 7, 6, 3, 2, 2, 6, 1, 24, 2, 4, 23, 2, 6, 5, 22, 3, 7, 3, 12, 10, 4, 3, 3, 7, 1, 14, 3, 4, 1, 2, 1, 5, 6, 3, 3, 2, 2, 8, 4, 1, 3, 9, 6, 7, 8, 3, 5, 1, 13, 3, 12, 8, 6, 9, 4, 2, 8, 6, 1, 16, 8, 15, 3, 3, 5, 2, 31, 3, 15, 3, 4, 2, 1, 13, 11, 4, 1, 1, 3, 1, 15, 3, 2, 1, 1, 5, 3, 3, 2, 4, 13, 2, 3, 4, 5, 2, 3, 1, 1, 6, 1, 2, 3, 4, 2, 4, 2, 1]
[INFO ] fr.inria.astor.approaches.jgenprog.JGenProg.showResults(JGenProg.java:337) - 
total Patch Attempts (7): [63, 732, 1205, 317, 159, 529, 953]
[INFO ] fr.inria.astor.approaches.jgenprog.JGenProg.showResults(JGenProg.java:339) - 
successful_ing_attempts_by_patch: [(pv:16,at:2), (pv:167,at:11), (pv:383,at:3), (pv:457,at:1), (pv:490,at:8), (pv:608,at:3), (pv:782,at:4)]
[INFO ] fr.inria.astor.approaches.jgenprog.JGenProg.showResults(JGenProg.java:340) - 
failing_ing_attempts_by_patch: [(pv:2,at:2), (pv:3,at:1), (pv:4,at:6), (pv:5,at:7), (pv:6,at:5), (pv:7,at:4), (pv:8,at:1), (pv:9,at:1), (pv:10,at:7), (pv:11,at:1), (pv:12,at:9), (pv:13,at:3), (pv:14,at:11), (pv:15,at:3), (pv:17,at:6), (pv:18,at:4), (pv:19,at:3), (pv:20,at:15), (pv:21,at:2), (pv:22,at:8), (pv:23,at:25), (pv:24,at:2), (pv:25,at:2), (pv:26,at:2), (pv:27,at:2), (pv:28,at:1), (pv:29,at:7), (pv:30,at:3), (pv:31,at:16), (pv:32,at:1), (pv:33,at:23), (pv:34,at:1), (pv:35,at:6), (pv:36,at:1), (pv:37,at:4), (pv:38,at:8), (pv:39,at:8), (pv:40,at:1), (pv:41,at:3), (pv:42,at:25), (pv:43,at:3), (pv:44,at:1), (pv:45,at:1), (pv:46,at:2), (pv:47,at:4), (pv:48,at:3), (pv:49,at:5), (pv:50,at:1), (pv:51,at:2), (pv:52,at:4), (pv:53,at:2), (pv:54,at:2), (pv:55,at:11), (pv:56,at:9), (pv:57,at:15), (pv:58,at:2), (pv:59,at:5), (pv:60,at:6), (pv:61,at:1), (pv:62,at:2), (pv:63,at:4), (pv:64,at:1), (pv:65,at:16), (pv:66,at:4), (pv:67,at:7), (pv:68,at:4), (pv:69,at:4), (pv:70,at:4), (pv:71,at:4), (pv:72,at:6), (pv:73,at:1), (pv:74,at:1), (pv:75,at:5), (pv:76,at:2), (pv:77,at:1), (pv:78,at:1), (pv:79,at:10), (pv:80,at:5), (pv:81,at:1), (pv:82,at:5), (pv:83,at:6), (pv:84,at:4), (pv:85,at:6), (pv:86,at:3), (pv:87,at:11), (pv:88,at:18), (pv:89,at:2), (pv:90,at:4), (pv:91,at:3), (pv:92,at:2), (pv:93,at:5), (pv:94,at:2), (pv:95,at:3), (pv:96,at:2), (pv:97,at:4), (pv:98,at:1), (pv:99,at:10), (pv:100,at:4), (pv:101,at:6), (pv:102,at:8), (pv:103,at:1), (pv:104,at:1), (pv:105,at:3), (pv:106,at:4), (pv:107,at:2), (pv:108,at:1), (pv:109,at:5), (pv:110,at:1), (pv:111,at:3), (pv:112,at:2), (pv:113,at:5), (pv:114,at:1), (pv:115,at:2), (pv:116,at:7), (pv:117,at:16), (pv:118,at:1), (pv:119,at:5), (pv:120,at:3), (pv:121,at:3), (pv:122,at:1), (pv:123,at:4), (pv:124,at:1), (pv:125,at:1), (pv:126,at:1), (pv:127,at:3), (pv:128,at:6), (pv:129,at:1), (pv:130,at:3), (pv:131,at:1), (pv:132,at:2), (pv:133,at:8), (pv:134,at:7), (pv:135,at:4), (pv:136,at:10), (pv:137,at:3), (pv:138,at:2), (pv:139,at:3), (pv:140,at:11), (pv:141,at:5), (pv:142,at:2), (pv:143,at:10), (pv:144,at:3), (pv:145,at:12), (pv:146,at:4), (pv:147,at:2), (pv:148,at:1), (pv:149,at:6), (pv:150,at:8), (pv:151,at:1), (pv:152,at:10), (pv:153,at:3), (pv:154,at:11), (pv:155,at:1), (pv:156,at:12), (pv:157,at:1), (pv:158,at:7), (pv:159,at:7), (pv:160,at:1), (pv:161,at:9), (pv:162,at:2), (pv:163,at:3), (pv:164,at:9), (pv:165,at:2), (pv:166,at:1), (pv:168,at:3), (pv:169,at:8), (pv:170,at:4), (pv:171,at:1), (pv:172,at:1), (pv:173,at:3), (pv:174,at:3), (pv:175,at:1), (pv:176,at:1), (pv:177,at:1), (pv:178,at:2), (pv:179,at:6), (pv:180,at:29), (pv:181,at:5), (pv:182,at:2), (pv:183,at:2), (pv:184,at:2), (pv:185,at:5), (pv:186,at:5), (pv:187,at:2), (pv:188,at:2), (pv:189,at:1), (pv:190,at:1), (pv:191,at:3), (pv:192,at:1), (pv:193,at:4), (pv:194,at:4), (pv:195,at:5), (pv:196,at:12), (pv:197,at:7), (pv:198,at:1), (pv:199,at:9), (pv:200,at:12), (pv:201,at:1), (pv:202,at:2), (pv:203,at:2), (pv:204,at:7), (pv:205,at:10), (pv:206,at:5), (pv:207,at:7), (pv:208,at:13), (pv:209,at:6), (pv:210,at:1), (pv:211,at:22), (pv:212,at:3), (pv:213,at:5), (pv:214,at:1), (pv:215,at:1), (pv:216,at:2), (pv:217,at:3), (pv:218,at:5), (pv:219,at:1), (pv:220,at:11), (pv:221,at:4), (pv:222,at:1), (pv:223,at:20), (pv:224,at:9), (pv:225,at:18), (pv:226,at:4), (pv:227,at:2), (pv:228,at:6), (pv:229,at:1), (pv:230,at:2), (pv:231,at:2), (pv:232,at:2), (pv:233,at:10), (pv:234,at:2), (pv:235,at:1), (pv:236,at:3), (pv:237,at:1), (pv:238,at:4), (pv:239,at:17), (pv:240,at:11), (pv:241,at:1), (pv:242,at:2), (pv:243,at:2), (pv:244,at:7), (pv:245,at:3), (pv:246,at:5), (pv:247,at:3), (pv:248,at:1), (pv:249,at:3), (pv:250,at:5), (pv:251,at:2), (pv:252,at:1), (pv:253,at:3), (pv:254,at:4), (pv:255,at:3), (pv:256,at:18), (pv:257,at:2), (pv:258,at:1), (pv:259,at:4), (pv:260,at:14), (pv:261,at:3), (pv:262,at:13), (pv:263,at:10), (pv:264,at:3), (pv:265,at:9), (pv:266,at:6), (pv:267,at:14), (pv:268,at:6), (pv:269,at:3), (pv:270,at:1), (pv:271,at:1), (pv:272,at:3), (pv:273,at:2), (pv:274,at:2), (pv:275,at:9), (pv:276,at:23), (pv:277,at:2), (pv:278,at:2), (pv:279,at:1), (pv:280,at:29), (pv:281,at:3), (pv:282,at:2), (pv:283,at:5), (pv:284,at:3), (pv:285,at:4), (pv:286,at:7), (pv:287,at:4), (pv:288,at:11), (pv:289,at:2), (pv:290,at:3), (pv:291,at:4), (pv:292,at:2), (pv:293,at:4), (pv:294,at:21), (pv:295,at:2), (pv:296,at:5), (pv:297,at:14), (pv:298,at:1), (pv:299,at:12), (pv:300,at:5), (pv:301,at:18), (pv:302,at:1), (pv:303,at:1), (pv:304,at:4), (pv:305,at:5), (pv:306,at:2), (pv:307,at:1), (pv:308,at:9), (pv:309,at:6), (pv:310,at:11), (pv:311,at:8), (pv:312,at:5), (pv:313,at:10), (pv:314,at:1), (pv:315,at:12), (pv:316,at:3), (pv:317,at:5), (pv:318,at:2), (pv:319,at:1), (pv:320,at:1), (pv:321,at:10), (pv:322,at:1), (pv:323,at:4), (pv:324,at:3), (pv:325,at:1), (pv:326,at:6), (pv:327,at:1), (pv:328,at:3), (pv:329,at:10), (pv:330,at:4), (pv:331,at:3), (pv:332,at:3), (pv:333,at:4), (pv:334,at:3), (pv:335,at:2), (pv:336,at:4), (pv:337,at:1), (pv:338,at:2), (pv:339,at:1), (pv:340,at:7), (pv:341,at:1), (pv:342,at:11), (pv:343,at:1), (pv:344,at:2), (pv:345,at:1), (pv:346,at:3), (pv:347,at:4), (pv:348,at:2), (pv:349,at:4), (pv:350,at:2), (pv:351,at:5), (pv:352,at:4), (pv:353,at:6), (pv:354,at:5), (pv:355,at:10), (pv:356,at:2), (pv:357,at:9), (pv:358,at:1), (pv:359,at:2), (pv:360,at:3), (pv:361,at:22), (pv:362,at:8), (pv:363,at:10), (pv:364,at:1), (pv:365,at:9), (pv:366,at:2), (pv:367,at:8), (pv:368,at:2), (pv:369,at:6), (pv:370,at:1), (pv:371,at:2), (pv:372,at:14), (pv:373,at:1), (pv:374,at:1), (pv:375,at:1), (pv:376,at:10), (pv:377,at:120), (pv:378,at:1), (pv:379,at:4), (pv:380,at:2), (pv:381,at:1), (pv:382,at:3), (pv:384,at:1), (pv:385,at:2), (pv:386,at:1), (pv:387,at:1), (pv:388,at:11), (pv:389,at:1), (pv:390,at:5), (pv:391,at:2), (pv:392,at:16), (pv:393,at:4), (pv:394,at:2), (pv:395,at:2), (pv:396,at:9), (pv:397,at:3), (pv:398,at:2), (pv:399,at:3), (pv:400,at:13), (pv:401,at:8), (pv:402,at:9), (pv:403,at:7), (pv:404,at:1), (pv:405,at:2), (pv:406,at:6), (pv:407,at:1), (pv:408,at:5), (pv:409,at:1), (pv:410,at:2), (pv:411,at:5), (pv:412,at:11), (pv:413,at:8), (pv:414,at:11), (pv:415,at:1), (pv:416,at:3), (pv:417,at:3), (pv:418,at:7), (pv:419,at:5), (pv:420,at:2), (pv:421,at:14), (pv:422,at:1), (pv:423,at:2), (pv:424,at:1), (pv:425,at:2), (pv:426,at:4), (pv:427,at:6), (pv:428,at:1), (pv:429,at:1), (pv:430,at:1), (pv:431,at:5), (pv:432,at:5), (pv:433,at:10), (pv:434,at:1), (pv:435,at:11), (pv:436,at:2), (pv:437,at:4), (pv:438,at:2), (pv:439,at:3), (pv:440,at:5), (pv:441,at:2), (pv:442,at:2), (pv:443,at:4), (pv:444,at:9), (pv:445,at:2), (pv:446,at:4), (pv:447,at:1), (pv:448,at:2), (pv:449,at:2), (pv:450,at:6), (pv:451,at:4), (pv:452,at:3), (pv:453,at:3), (pv:454,at:4), (pv:455,at:4), (pv:456,at:7), (pv:458,at:1), (pv:459,at:1), (pv:460,at:2), (pv:461,at:6), (pv:462,at:11), (pv:463,at:3), (pv:464,at:2), (pv:465,at:9), (pv:466,at:10), (pv:467,at:4), (pv:468,at:6), (pv:469,at:7), (pv:470,at:5), (pv:471,at:8), (pv:472,at:5), (pv:473,at:2), (pv:474,at:5), (pv:475,at:5), (pv:476,at:1), (pv:477,at:3), (pv:478,at:19), (pv:479,at:1), (pv:480,at:1), (pv:481,at:4), (pv:482,at:9), (pv:483,at:1), (pv:484,at:6), (pv:485,at:2), (pv:486,at:1), (pv:487,at:3), (pv:488,at:7), (pv:489,at:1), (pv:491,at:5), (pv:492,at:4), (pv:493,at:3), (pv:494,at:1), (pv:495,at:13), (pv:496,at:4), (pv:497,at:2), (pv:498,at:3), (pv:499,at:1), (pv:500,at:5), (pv:501,at:3), (pv:502,at:7), (pv:503,at:1), (pv:504,at:1), (pv:505,at:1), (pv:506,at:1), (pv:507,at:2), (pv:508,at:5), (pv:509,at:14), (pv:510,at:6), (pv:511,at:9), (pv:512,at:6), (pv:513,at:4), (pv:514,at:1), (pv:515,at:12), (pv:516,at:24), (pv:517,at:3), (pv:518,at:1), (pv:519,at:1), (pv:520,at:4), (pv:521,at:3), (pv:522,at:6), (pv:523,at:12), (pv:524,at:8), (pv:525,at:8), (pv:526,at:1), (pv:527,at:2), (pv:528,at:2), (pv:529,at:7), (pv:530,at:1), (pv:531,at:2), (pv:532,at:7), (pv:533,at:1), (pv:534,at:3), (pv:535,at:4), (pv:536,at:9), (pv:537,at:4), (pv:538,at:2), (pv:539,at:4), (pv:540,at:7), (pv:541,at:3), (pv:542,at:7), (pv:543,at:1), (pv:544,at:1), (pv:545,at:1), (pv:546,at:1), (pv:547,at:35), (pv:548,at:3), (pv:549,at:5), (pv:550,at:4), (pv:551,at:1), (pv:552,at:3), (pv:553,at:3), (pv:554,at:14), (pv:555,at:3), (pv:556,at:5), (pv:557,at:17), (pv:558,at:6), (pv:559,at:6), (pv:560,at:5), (pv:561,at:1), (pv:562,at:3), (pv:563,at:5), (pv:564,at:2), (pv:565,at:14), (pv:566,at:1), (pv:567,at:3), (pv:568,at:8), (pv:569,at:1), (pv:570,at:4), (pv:571,at:4), (pv:572,at:2), (pv:573,at:1), (pv:574,at:8), (pv:575,at:1), (pv:576,at:2), (pv:577,at:6), (pv:578,at:1), (pv:579,at:1), (pv:580,at:1), (pv:581,at:1), (pv:582,at:3), (pv:583,at:4), (pv:584,at:1), (pv:585,at:1), (pv:586,at:4), (pv:587,at:6), (pv:588,at:5), (pv:589,at:4), (pv:590,at:1), (pv:591,at:1), (pv:592,at:8), (pv:593,at:1), (pv:594,at:1), (pv:595,at:5), (pv:596,at:1), (pv:597,at:2), (pv:598,at:4), (pv:599,at:3), (pv:600,at:5), (pv:601,at:7), (pv:602,at:11), (pv:603,at:7), (pv:604,at:4), (pv:605,at:1), (pv:606,at:1), (pv:607,at:1), (pv:609,at:7), (pv:610,at:6), (pv:611,at:2), (pv:612,at:3), (pv:613,at:3), (pv:614,at:1), (pv:615,at:3), (pv:616,at:3), (pv:617,at:3), (pv:618,at:2), (pv:619,at:6), (pv:620,at:12), (pv:621,at:21), (pv:622,at:1), (pv:623,at:3), (pv:624,at:1), (pv:625,at:3), (pv:626,at:2), (pv:627,at:1), (pv:628,at:2), (pv:629,at:52), (pv:630,at:16), (pv:631,at:5), (pv:632,at:10), (pv:633,at:5), (pv:634,at:2), (pv:635,at:1), (pv:636,at:1), (pv:637,at:3), (pv:638,at:5), (pv:639,at:5), (pv:640,at:15), (pv:641,at:1), (pv:642,at:5), (pv:643,at:7), (pv:644,at:5), (pv:645,at:2), (pv:646,at:1), (pv:647,at:2), (pv:648,at:3), (pv:649,at:7), (pv:650,at:2), (pv:651,at:9), (pv:652,at:6), (pv:653,at:7), (pv:654,at:2), (pv:655,at:1), (pv:656,at:2), (pv:657,at:4), (pv:658,at:1), (pv:659,at:1), (pv:660,at:1), (pv:661,at:2), (pv:662,at:2), (pv:663,at:4), (pv:664,at:4), (pv:665,at:16), (pv:666,at:1), (pv:667,at:5), (pv:668,at:23), (pv:669,at:1), (pv:670,at:19), (pv:671,at:1), (pv:672,at:6), (pv:673,at:1), (pv:674,at:88), (pv:675,at:4), (pv:676,at:1), (pv:677,at:2), (pv:678,at:1), (pv:679,at:3), (pv:680,at:9), (pv:681,at:8), (pv:682,at:2), (pv:683,at:6), (pv:684,at:2), (pv:685,at:2), (pv:686,at:5), (pv:687,at:3), (pv:688,at:1), (pv:689,at:3), (pv:690,at:5), (pv:691,at:2), (pv:692,at:4), (pv:693,at:2), (pv:694,at:2), (pv:695,at:2), (pv:696,at:5), (pv:697,at:2), (pv:698,at:6), (pv:699,at:2), (pv:700,at:6), (pv:701,at:3), (pv:702,at:8), (pv:703,at:3), (pv:704,at:7), (pv:705,at:5), (pv:706,at:6), (pv:707,at:6), (pv:708,at:1), (pv:709,at:5), (pv:710,at:11), (pv:711,at:4), (pv:712,at:4), (pv:713,at:3), (pv:714,at:1), (pv:715,at:4), (pv:716,at:6), (pv:717,at:4), (pv:718,at:47), (pv:719,at:4), (pv:720,at:2), (pv:721,at:13), (pv:722,at:1), (pv:723,at:1), (pv:724,at:2), (pv:725,at:8), (pv:726,at:5), (pv:727,at:9), (pv:728,at:2), (pv:729,at:4), (pv:730,at:2), (pv:731,at:19), (pv:732,at:3), (pv:733,at:2), (pv:734,at:2), (pv:735,at:2), (pv:736,at:5), (pv:737,at:1), (pv:738,at:5), (pv:739,at:2), (pv:740,at:5), (pv:741,at:3), (pv:742,at:3), (pv:743,at:4), (pv:744,at:1), (pv:745,at:6), (pv:746,at:4), (pv:747,at:1), (pv:748,at:8), (pv:749,at:1), (pv:750,at:2), (pv:751,at:3), (pv:752,at:1), (pv:753,at:10), (pv:754,at:14), (pv:755,at:2), (pv:756,at:4), (pv:757,at:2), (pv:758,at:1), (pv:759,at:6), (pv:760,at:4), (pv:761,at:6), (pv:762,at:5), (pv:763,at:6), (pv:764,at:3), (pv:765,at:2), (pv:766,at:11), (pv:767,at:8), (pv:768,at:1), (pv:769,at:1), (pv:770,at:3), (pv:771,at:17), (pv:772,at:2), (pv:773,at:2), (pv:774,at:10), (pv:775,at:3), (pv:776,at:4), (pv:777,at:1), (pv:778,at:4), (pv:779,at:7), (pv:780,at:7), (pv:781,at:2), (pv:783,at:2), (pv:784,at:2), (pv:785,at:9), (pv:786,at:4), (pv:787,at:8), (pv:788,at:3), (pv:789,at:2), (pv:790,at:5), (pv:791,at:5), (pv:792,at:1), (pv:793,at:18), (pv:794,at:4), (pv:795,at:8), (pv:796,at:1), (pv:797,at:7), (pv:798,at:2), (pv:799,at:5), (pv:800,at:6), (pv:801,at:8), (pv:802,at:3), (pv:803,at:1), (pv:804,at:10), (pv:805,at:2), (pv:806,at:6), (pv:807,at:5), (pv:808,at:2), (pv:809,at:6), (pv:810,at:2), (pv:811,at:3), (pv:812,at:5), (pv:813,at:5), (pv:814,at:3), (pv:815,at:2), (pv:816,at:1), (pv:817,at:1), (pv:818,at:2), (pv:819,at:6), (pv:820,at:1), (pv:821,at:9), (pv:822,at:5), (pv:823,at:4), (pv:824,at:6), (pv:825,at:2), (pv:826,at:1), (pv:827,at:3), (pv:828,at:5), (pv:829,at:6), (pv:830,at:9), (pv:831,at:9), (pv:832,at:2), (pv:833,at:13), (pv:834,at:7), (pv:835,at:4), (pv:836,at:1), (pv:837,at:2), (pv:838,at:3), (pv:839,at:3), (pv:840,at:4), (pv:841,at:2), (pv:842,at:1), (pv:843,at:2), (pv:844,at:4), (pv:845,at:2), (pv:846,at:4), (pv:847,at:9), (pv:848,at:3), (pv:849,at:3), (pv:850,at:4), (pv:851,at:1), (pv:852,at:1), (pv:853,at:2), (pv:854,at:5), (pv:855,at:4), (pv:856,at:11), (pv:857,at:1), (pv:858,at:1), (pv:859,at:4), (pv:860,at:4), (pv:861,at:1), (pv:862,at:1), (pv:863,at:10), (pv:864,at:3), (pv:865,at:1), (pv:866,at:1), (pv:867,at:5), (pv:868,at:4), (pv:869,at:1), (pv:870,at:1), (pv:871,at:1), (pv:872,at:7), (pv:873,at:1), (pv:874,at:2), (pv:875,at:1), (pv:876,at:8), (pv:877,at:2), (pv:878,at:13), (pv:879,at:7), (pv:880,at:6), (pv:881,at:3), (pv:882,at:2), (pv:883,at:2), (pv:884,at:6), (pv:885,at:1), (pv:886,at:24), (pv:887,at:2), (pv:888,at:4), (pv:889,at:23), (pv:890,at:2), (pv:891,at:6), (pv:892,at:5), (pv:893,at:22), (pv:894,at:3), (pv:895,at:7), (pv:896,at:3), (pv:897,at:12), (pv:898,at:10), (pv:899,at:4), (pv:900,at:3), (pv:901,at:3), (pv:902,at:7), (pv:903,at:1), (pv:904,at:14), (pv:905,at:3), (pv:906,at:4), (pv:907,at:1), (pv:908,at:2), (pv:909,at:1), (pv:910,at:5), (pv:911,at:6), (pv:912,at:3), (pv:913,at:3), (pv:914,at:2), (pv:915,at:2), (pv:916,at:8), (pv:917,at:4), (pv:918,at:1), (pv:919,at:3), (pv:920,at:9), (pv:921,at:6), (pv:922,at:7), (pv:923,at:8), (pv:924,at:3), (pv:925,at:5), (pv:926,at:1), (pv:927,at:13), (pv:928,at:3), (pv:929,at:12), (pv:930,at:8), (pv:931,at:6), (pv:932,at:9), (pv:933,at:4), (pv:934,at:2), (pv:935,at:8), (pv:936,at:6), (pv:937,at:1), (pv:938,at:16), (pv:939,at:8), (pv:940,at:15), (pv:941,at:3), (pv:942,at:3), (pv:943,at:5), (pv:944,at:2), (pv:945,at:31), (pv:946,at:3), (pv:947,at:15), (pv:948,at:3), (pv:949,at:4), (pv:950,at:2), (pv:951,at:1), (pv:952,at:13), (pv:953,at:11), (pv:954,at:4), (pv:955,at:1), (pv:956,at:1), (pv:957,at:3), (pv:958,at:1), (pv:959,at:15), (pv:960,at:3), (pv:961,at:2), (pv:962,at:1), (pv:963,at:1), (pv:964,at:5), (pv:965,at:3), (pv:966,at:3), (pv:967,at:2), (pv:968,at:4), (pv:969,at:13), (pv:970,at:2), (pv:971,at:3), (pv:972,at:4), (pv:973,at:5), (pv:974,at:2), (pv:975,at:3), (pv:976,at:1), (pv:977,at:1), (pv:978,at:6), (pv:979,at:1), (pv:980,at:2), (pv:981,at:3), (pv:982,at:4), (pv:983,at:2), (pv:984,at:4), (pv:985,at:2), (pv:986,at:1)]
[INFO ] fr.inria.astor.approaches.jgenprog.JGenProg.showResults(JGenProg.java:342) - 
pvariants_with_transformed_ingredients: [(pv:2,at:2), (pv:3,at:1), (pv:4,at:6), (pv:5,at:7), (pv:6,at:5), (pv:7,at:4), (pv:8,at:1), (pv:9,at:1), (pv:10,at:7), (pv:11,at:1), (pv:12,at:9), (pv:13,at:3), (pv:14,at:11), (pv:15,at:3), (pv:16,at:2), (pv:17,at:6), (pv:18,at:4), (pv:19,at:3), (pv:20,at:15), (pv:21,at:2), (pv:22,at:8), (pv:23,at:25), (pv:24,at:2), (pv:25,at:2), (pv:26,at:2), (pv:27,at:2), (pv:28,at:1), (pv:29,at:7), (pv:30,at:3), (pv:31,at:16), (pv:32,at:1), (pv:33,at:23), (pv:34,at:1), (pv:35,at:6), (pv:36,at:1), (pv:37,at:4), (pv:38,at:8), (pv:39,at:8), (pv:40,at:1), (pv:41,at:3), (pv:42,at:25), (pv:43,at:3), (pv:44,at:1), (pv:45,at:1), (pv:46,at:2), (pv:47,at:4), (pv:48,at:3), (pv:49,at:5), (pv:50,at:1), (pv:51,at:2), (pv:52,at:4), (pv:53,at:2), (pv:54,at:2), (pv:55,at:11), (pv:56,at:9), (pv:57,at:15), (pv:58,at:2), (pv:59,at:5), (pv:60,at:6), (pv:61,at:1), (pv:62,at:2), (pv:63,at:4), (pv:64,at:1), (pv:65,at:16), (pv:66,at:4), (pv:67,at:7), (pv:68,at:4), (pv:69,at:4), (pv:70,at:4), (pv:71,at:4), (pv:72,at:6), (pv:73,at:1), (pv:74,at:1), (pv:75,at:5), (pv:76,at:2), (pv:77,at:1), (pv:78,at:1), (pv:79,at:10), (pv:80,at:5), (pv:81,at:1), (pv:82,at:5), (pv:83,at:6), (pv:84,at:4), (pv:85,at:6), (pv:86,at:3), (pv:87,at:11), (pv:88,at:18), (pv:89,at:2), (pv:90,at:4), (pv:91,at:3), (pv:92,at:2), (pv:93,at:5), (pv:94,at:2), (pv:95,at:3), (pv:96,at:2), (pv:97,at:4), (pv:98,at:1), (pv:99,at:10), (pv:100,at:4), (pv:101,at:6), (pv:102,at:8), (pv:103,at:1), (pv:104,at:1), (pv:105,at:3), (pv:106,at:4), (pv:107,at:2), (pv:108,at:1), (pv:109,at:5), (pv:110,at:1), (pv:111,at:3), (pv:112,at:2), (pv:113,at:5), (pv:114,at:1), (pv:115,at:2), (pv:116,at:7), (pv:117,at:16), (pv:118,at:1), (pv:119,at:5), (pv:120,at:3), (pv:121,at:3), (pv:122,at:1), (pv:123,at:4), (pv:124,at:1), (pv:125,at:1), (pv:126,at:1), (pv:127,at:3), (pv:128,at:6), (pv:129,at:1), (pv:130,at:3), (pv:131,at:1), (pv:132,at:2), (pv:133,at:8), (pv:134,at:7), (pv:135,at:4), (pv:136,at:10), (pv:137,at:3), (pv:138,at:2), (pv:139,at:3), (pv:140,at:11), (pv:141,at:5), (pv:142,at:2), (pv:143,at:10), (pv:144,at:3), (pv:145,at:12), (pv:146,at:4), (pv:147,at:2), (pv:148,at:1), (pv:149,at:6), (pv:150,at:8), (pv:151,at:1), (pv:152,at:10), (pv:153,at:3), (pv:154,at:11), (pv:155,at:1), (pv:156,at:12), (pv:157,at:1), (pv:158,at:7), (pv:159,at:7), (pv:160,at:1), (pv:161,at:9), (pv:162,at:2), (pv:163,at:3), (pv:164,at:9), (pv:165,at:2), (pv:166,at:1), (pv:167,at:11), (pv:168,at:3), (pv:169,at:8), (pv:170,at:4), (pv:171,at:1), (pv:172,at:1), (pv:173,at:3), (pv:174,at:3), (pv:175,at:1), (pv:176,at:1), (pv:177,at:1), (pv:178,at:2), (pv:179,at:6), (pv:180,at:29), (pv:181,at:5), (pv:182,at:2), (pv:183,at:2), (pv:184,at:2), (pv:185,at:5), (pv:186,at:5), (pv:187,at:2), (pv:188,at:2), (pv:189,at:1), (pv:190,at:1), (pv:191,at:3), (pv:192,at:1), (pv:193,at:4), (pv:194,at:4), (pv:195,at:5), (pv:196,at:12), (pv:197,at:7), (pv:198,at:1), (pv:199,at:9), (pv:200,at:12), (pv:201,at:1), (pv:202,at:2), (pv:203,at:2), (pv:204,at:7), (pv:205,at:10), (pv:206,at:5), (pv:207,at:7), (pv:208,at:13), (pv:209,at:6), (pv:210,at:1), (pv:211,at:22), (pv:212,at:3), (pv:213,at:5), (pv:214,at:1), (pv:215,at:1), (pv:216,at:2), (pv:217,at:3), (pv:218,at:5), (pv:219,at:1), (pv:220,at:11), (pv:221,at:4), (pv:222,at:1), (pv:223,at:20), (pv:224,at:9), (pv:225,at:18), (pv:226,at:4), (pv:227,at:2), (pv:228,at:6), (pv:229,at:1), (pv:230,at:2), (pv:231,at:2), (pv:232,at:2), (pv:233,at:10), (pv:234,at:2), (pv:235,at:1), (pv:236,at:3), (pv:237,at:1), (pv:238,at:4), (pv:239,at:17), (pv:240,at:11), (pv:241,at:1), (pv:242,at:2), (pv:243,at:2), (pv:244,at:7), (pv:245,at:3), (pv:246,at:5), (pv:247,at:3), (pv:248,at:1), (pv:249,at:3), (pv:250,at:5), (pv:251,at:2), (pv:252,at:1), (pv:253,at:3), (pv:254,at:4), (pv:255,at:3), (pv:256,at:18), (pv:257,at:2), (pv:258,at:1), (pv:259,at:4), (pv:260,at:14), (pv:261,at:3), (pv:262,at:13), (pv:263,at:10), (pv:264,at:3), (pv:265,at:9), (pv:266,at:6), (pv:267,at:14), (pv:268,at:6), (pv:269,at:3), (pv:270,at:1), (pv:271,at:1), (pv:272,at:3), (pv:273,at:2), (pv:274,at:2), (pv:275,at:9), (pv:276,at:23), (pv:277,at:2), (pv:278,at:2), (pv:279,at:1), (pv:280,at:29), (pv:281,at:3), (pv:282,at:2), (pv:283,at:5), (pv:284,at:3), (pv:285,at:4), (pv:286,at:7), (pv:287,at:4), (pv:288,at:11), (pv:289,at:2), (pv:290,at:3), (pv:291,at:4), (pv:292,at:2), (pv:293,at:4), (pv:294,at:21), (pv:295,at:2), (pv:296,at:5), (pv:297,at:14), (pv:298,at:1), (pv:299,at:12), (pv:300,at:5), (pv:301,at:18), (pv:302,at:1), (pv:303,at:1), (pv:304,at:4), (pv:305,at:5), (pv:306,at:2), (pv:307,at:1), (pv:308,at:9), (pv:309,at:6), (pv:310,at:11), (pv:311,at:8), (pv:312,at:5), (pv:313,at:10), (pv:314,at:1), (pv:315,at:12), (pv:316,at:3), (pv:317,at:5), (pv:318,at:2), (pv:319,at:1), (pv:320,at:1), (pv:321,at:10), (pv:322,at:1), (pv:323,at:4), (pv:324,at:3), (pv:325,at:1), (pv:326,at:6), (pv:327,at:1), (pv:328,at:3), (pv:329,at:10), (pv:330,at:4), (pv:331,at:3), (pv:332,at:3), (pv:333,at:4), (pv:334,at:3), (pv:335,at:2), (pv:336,at:4), (pv:337,at:1), (pv:338,at:2), (pv:339,at:1), (pv:340,at:7), (pv:341,at:1), (pv:342,at:11), (pv:343,at:1), (pv:344,at:2), (pv:345,at:1), (pv:346,at:3), (pv:347,at:4), (pv:348,at:2), (pv:349,at:4), (pv:350,at:2), (pv:351,at:5), (pv:352,at:4), (pv:353,at:6), (pv:354,at:5), (pv:355,at:10), (pv:356,at:2), (pv:357,at:9), (pv:358,at:1), (pv:359,at:2), (pv:360,at:3), (pv:361,at:22), (pv:362,at:8), (pv:363,at:10), (pv:364,at:1), (pv:365,at:9), (pv:366,at:2), (pv:367,at:8), (pv:368,at:2), (pv:369,at:6), (pv:370,at:1), (pv:371,at:2), (pv:372,at:14), (pv:373,at:1), (pv:374,at:1), (pv:375,at:1), (pv:376,at:10), (pv:377,at:120), (pv:378,at:1), (pv:379,at:4), (pv:380,at:2), (pv:381,at:1), (pv:382,at:3), (pv:383,at:3), (pv:384,at:1), (pv:385,at:2), (pv:386,at:1), (pv:387,at:1), (pv:388,at:11), (pv:389,at:1), (pv:390,at:5), (pv:391,at:2), (pv:392,at:16), (pv:393,at:4), (pv:394,at:2), (pv:395,at:2), (pv:396,at:9), (pv:397,at:3), (pv:398,at:2), (pv:399,at:3), (pv:400,at:13), (pv:401,at:8), (pv:402,at:9), (pv:403,at:7), (pv:404,at:1), (pv:405,at:2), (pv:406,at:6), (pv:407,at:1), (pv:408,at:5), (pv:409,at:1), (pv:410,at:2), (pv:411,at:5), (pv:412,at:11), (pv:413,at:8), (pv:414,at:11), (pv:415,at:1), (pv:416,at:3), (pv:417,at:3), (pv:418,at:7), (pv:419,at:5), (pv:420,at:2), (pv:421,at:14), (pv:422,at:1), (pv:423,at:2), (pv:424,at:1), (pv:425,at:2), (pv:426,at:4), (pv:427,at:6), (pv:428,at:1), (pv:429,at:1), (pv:430,at:1), (pv:431,at:5), (pv:432,at:5), (pv:433,at:10), (pv:434,at:1), (pv:435,at:11), (pv:436,at:2), (pv:437,at:4), (pv:438,at:2), (pv:439,at:3), (pv:440,at:5), (pv:441,at:2), (pv:442,at:2), (pv:443,at:4), (pv:444,at:9), (pv:445,at:2), (pv:446,at:4), (pv:447,at:1), (pv:448,at:2), (pv:449,at:2), (pv:450,at:6), (pv:451,at:4), (pv:452,at:3), (pv:453,at:3), (pv:454,at:4), (pv:455,at:4), (pv:456,at:7), (pv:457,at:1), (pv:458,at:1), (pv:459,at:1), (pv:460,at:2), (pv:461,at:6), (pv:462,at:11), (pv:463,at:3), (pv:464,at:2), (pv:465,at:9), (pv:466,at:10), (pv:467,at:4), (pv:468,at:6), (pv:469,at:7), (pv:470,at:5), (pv:471,at:8), (pv:472,at:5), (pv:473,at:2), (pv:474,at:5), (pv:475,at:5), (pv:476,at:1), (pv:477,at:3), (pv:478,at:19), (pv:479,at:1), (pv:480,at:1), (pv:481,at:4), (pv:482,at:9), (pv:483,at:1), (pv:484,at:6), (pv:485,at:2), (pv:486,at:1), (pv:487,at:3), (pv:488,at:7), (pv:489,at:1), (pv:490,at:8), (pv:491,at:5), (pv:492,at:4), (pv:493,at:3), (pv:494,at:1), (pv:495,at:13), (pv:496,at:4), (pv:497,at:2), (pv:498,at:3), (pv:499,at:1), (pv:500,at:5), (pv:501,at:3), (pv:502,at:7), (pv:503,at:1), (pv:504,at:1), (pv:505,at:1), (pv:506,at:1), (pv:507,at:2), (pv:508,at:5), (pv:509,at:14), (pv:510,at:6), (pv:511,at:9), (pv:512,at:6), (pv:513,at:4), (pv:514,at:1), (pv:515,at:12), (pv:516,at:24), (pv:517,at:3), (pv:518,at:1), (pv:519,at:1), (pv:520,at:4), (pv:521,at:3), (pv:522,at:6), (pv:523,at:12), (pv:524,at:8), (pv:525,at:8), (pv:526,at:1), (pv:527,at:2), (pv:528,at:2), (pv:529,at:7), (pv:530,at:1), (pv:531,at:2), (pv:532,at:7), (pv:533,at:1), (pv:534,at:3), (pv:535,at:4), (pv:536,at:9), (pv:537,at:4), (pv:538,at:2), (pv:539,at:4), (pv:540,at:7), (pv:541,at:3), (pv:542,at:7), (pv:543,at:1), (pv:544,at:1), (pv:545,at:1), (pv:546,at:1), (pv:547,at:35), (pv:548,at:3), (pv:549,at:5), (pv:550,at:4), (pv:551,at:1), (pv:552,at:3), (pv:553,at:3), (pv:554,at:14), (pv:555,at:3), (pv:556,at:5), (pv:557,at:17), (pv:558,at:6), (pv:559,at:6), (pv:560,at:5), (pv:561,at:1), (pv:562,at:3), (pv:563,at:5), (pv:564,at:2), (pv:565,at:14), (pv:566,at:1), (pv:567,at:3), (pv:568,at:8), (pv:569,at:1), (pv:570,at:4), (pv:571,at:4), (pv:572,at:2), (pv:573,at:1), (pv:574,at:8), (pv:575,at:1), (pv:576,at:2), (pv:577,at:6), (pv:578,at:1), (pv:579,at:1), (pv:580,at:1), (pv:581,at:1), (pv:582,at:3), (pv:583,at:4), (pv:584,at:1), (pv:585,at:1), (pv:586,at:4), (pv:587,at:6), (pv:588,at:5), (pv:589,at:4), (pv:590,at:1), (pv:591,at:1), (pv:592,at:8), (pv:593,at:1), (pv:594,at:1), (pv:595,at:5), (pv:596,at:1), (pv:597,at:2), (pv:598,at:4), (pv:599,at:3), (pv:600,at:5), (pv:601,at:7), (pv:602,at:11), (pv:603,at:7), (pv:604,at:4), (pv:605,at:1), (pv:606,at:1), (pv:607,at:1), (pv:608,at:3), (pv:609,at:7), (pv:610,at:6), (pv:611,at:2), (pv:612,at:3), (pv:613,at:3), (pv:614,at:1), (pv:615,at:3), (pv:616,at:3), (pv:617,at:3), (pv:618,at:2), (pv:619,at:6), (pv:620,at:12), (pv:621,at:21), (pv:622,at:1), (pv:623,at:3), (pv:624,at:1), (pv:625,at:3), (pv:626,at:2), (pv:627,at:1), (pv:628,at:2), (pv:629,at:52), (pv:630,at:16), (pv:631,at:5), (pv:632,at:10), (pv:633,at:5), (pv:634,at:2), (pv:635,at:1), (pv:636,at:1), (pv:637,at:3), (pv:638,at:5), (pv:639,at:5), (pv:640,at:15), (pv:641,at:1), (pv:642,at:5), (pv:643,at:7), (pv:644,at:5), (pv:645,at:2), (pv:646,at:1), (pv:647,at:2), (pv:648,at:3), (pv:649,at:7), (pv:650,at:2), (pv:651,at:9), (pv:652,at:6), (pv:653,at:7), (pv:654,at:2), (pv:655,at:1), (pv:656,at:2), (pv:657,at:4), (pv:658,at:1), (pv:659,at:1), (pv:660,at:1), (pv:661,at:2), (pv:662,at:2), (pv:663,at:4), (pv:664,at:4), (pv:665,at:16), (pv:666,at:1), (pv:667,at:5), (pv:668,at:23), (pv:669,at:1), (pv:670,at:19), (pv:671,at:1), (pv:672,at:6), (pv:673,at:1), (pv:674,at:88), (pv:675,at:4), (pv:676,at:1), (pv:677,at:2), (pv:678,at:1), (pv:679,at:3), (pv:680,at:9), (pv:681,at:8), (pv:682,at:2), (pv:683,at:6), (pv:684,at:2), (pv:685,at:2), (pv:686,at:5), (pv:687,at:3), (pv:688,at:1), (pv:689,at:3), (pv:690,at:5), (pv:691,at:2), (pv:692,at:4), (pv:693,at:2), (pv:694,at:2), (pv:695,at:2), (pv:696,at:5), (pv:697,at:2), (pv:698,at:6), (pv:699,at:2), (pv:700,at:6), (pv:701,at:3), (pv:702,at:8), (pv:703,at:3), (pv:704,at:7), (pv:705,at:5), (pv:706,at:6), (pv:707,at:6), (pv:708,at:1), (pv:709,at:5), (pv:710,at:11), (pv:711,at:4), (pv:712,at:4), (pv:713,at:3), (pv:714,at:1), (pv:715,at:4), (pv:716,at:6), (pv:717,at:4), (pv:718,at:47), (pv:719,at:4), (pv:720,at:2), (pv:721,at:13), (pv:722,at:1), (pv:723,at:1), (pv:724,at:2), (pv:725,at:8), (pv:726,at:5), (pv:727,at:9), (pv:728,at:2), (pv:729,at:4), (pv:730,at:2), (pv:731,at:19), (pv:732,at:3), (pv:733,at:2), (pv:734,at:2), (pv:735,at:2), (pv:736,at:5), (pv:737,at:1), (pv:738,at:5), (pv:739,at:2), (pv:740,at:5), (pv:741,at:3), (pv:742,at:3), (pv:743,at:4), (pv:744,at:1), (pv:745,at:6), (pv:746,at:4), (pv:747,at:1), (pv:748,at:8), (pv:749,at:1), (pv:750,at:2), (pv:751,at:3), (pv:752,at:1), (pv:753,at:10), (pv:754,at:14), (pv:755,at:2), (pv:756,at:4), (pv:757,at:2), (pv:758,at:1), (pv:759,at:6), (pv:760,at:4), (pv:761,at:6), (pv:762,at:5), (pv:763,at:6), (pv:764,at:3), (pv:765,at:2), (pv:766,at:11), (pv:767,at:8), (pv:768,at:1), (pv:769,at:1), (pv:770,at:3), (pv:771,at:17), (pv:772,at:2), (pv:773,at:2), (pv:774,at:10), (pv:775,at:3), (pv:776,at:4), (pv:777,at:1), (pv:778,at:4), (pv:779,at:7), (pv:780,at:7), (pv:781,at:2), (pv:782,at:4), (pv:783,at:2), (pv:784,at:2), (pv:785,at:9), (pv:786,at:4), (pv:787,at:8), (pv:788,at:3), (pv:789,at:2), (pv:790,at:5), (pv:791,at:5), (pv:792,at:1), (pv:793,at:18), (pv:794,at:4), (pv:795,at:8), (pv:796,at:1), (pv:797,at:7), (pv:798,at:2), (pv:799,at:5), (pv:800,at:6), (pv:801,at:8), (pv:802,at:3), (pv:803,at:1), (pv:804,at:10), (pv:805,at:2), (pv:806,at:6), (pv:807,at:5), (pv:808,at:2), (pv:809,at:6), (pv:810,at:2), (pv:811,at:3), (pv:812,at:5), (pv:813,at:5), (pv:814,at:3), (pv:815,at:2), (pv:816,at:1), (pv:817,at:1), (pv:818,at:2), (pv:819,at:6), (pv:820,at:1), (pv:821,at:9), (pv:822,at:5), (pv:823,at:4), (pv:824,at:6), (pv:825,at:2), (pv:826,at:1), (pv:827,at:3), (pv:828,at:5), (pv:829,at:6), (pv:830,at:9), (pv:831,at:9), (pv:832,at:2), (pv:833,at:13), (pv:834,at:7), (pv:835,at:4), (pv:836,at:1), (pv:837,at:2), (pv:838,at:3), (pv:839,at:3), (pv:840,at:4), (pv:841,at:2), (pv:842,at:1), (pv:843,at:2), (pv:844,at:4), (pv:845,at:2), (pv:846,at:4), (pv:847,at:9), (pv:848,at:3), (pv:849,at:3), (pv:850,at:4), (pv:851,at:1), (pv:852,at:1), (pv:853,at:2), (pv:854,at:5), (pv:855,at:4), (pv:856,at:11), (pv:857,at:1), (pv:858,at:1), (pv:859,at:4), (pv:860,at:4), (pv:861,at:1), (pv:862,at:1), (pv:863,at:10), (pv:864,at:3), (pv:865,at:1), (pv:866,at:1), (pv:867,at:5), (pv:868,at:4), (pv:869,at:1), (pv:870,at:1), (pv:871,at:1), (pv:872,at:7), (pv:873,at:1), (pv:874,at:2), (pv:875,at:1), (pv:876,at:8), (pv:877,at:2), (pv:878,at:13), (pv:879,at:7), (pv:880,at:6), (pv:881,at:3), (pv:882,at:2), (pv:883,at:2), (pv:884,at:6), (pv:885,at:1), (pv:886,at:24), (pv:887,at:2), (pv:888,at:4), (pv:889,at:23), (pv:890,at:2), (pv:891,at:6), (pv:892,at:5), (pv:893,at:22), (pv:894,at:3), (pv:895,at:7), (pv:896,at:3), (pv:897,at:12), (pv:898,at:10), (pv:899,at:4), (pv:900,at:3), (pv:901,at:3), (pv:902,at:7), (pv:903,at:1), (pv:904,at:14), (pv:905,at:3), (pv:906,at:4), (pv:907,at:1), (pv:908,at:2), (pv:909,at:1), (pv:910,at:5), (pv:911,at:6), (pv:912,at:3), (pv:913,at:3), (pv:914,at:2), (pv:915,at:2), (pv:916,at:8), (pv:917,at:4), (pv:918,at:1), (pv:919,at:3), (pv:920,at:9), (pv:921,at:6), (pv:922,at:7), (pv:923,at:8), (pv:924,at:3), (pv:925,at:5), (pv:926,at:1), (pv:927,at:13), (pv:928,at:3), (pv:929,at:12), (pv:930,at:8), (pv:931,at:6), (pv:932,at:9), (pv:933,at:4), (pv:934,at:2), (pv:935,at:8), (pv:936,at:6), (pv:937,at:1), (pv:938,at:16), (pv:939,at:8), (pv:940,at:15), (pv:941,at:3), (pv:942,at:3), (pv:943,at:5), (pv:944,at:2), (pv:945,at:31), (pv:946,at:3), (pv:947,at:15), (pv:948,at:3), (pv:949,at:4), (pv:950,at:2), (pv:951,at:1), (pv:952,at:13), (pv:953,at:11), (pv:954,at:4), (pv:955,at:1), (pv:956,at:1), (pv:957,at:3), (pv:958,at:1), (pv:959,at:15), (pv:960,at:3), (pv:961,at:2), (pv:962,at:1), (pv:963,at:1), (pv:964,at:5), (pv:965,at:3), (pv:966,at:3), (pv:967,at:2), (pv:968,at:4), (pv:969,at:13), (pv:970,at:2), (pv:971,at:3), (pv:972,at:4), (pv:973,at:5), (pv:974,at:2), (pv:975,at:3), (pv:976,at:1), (pv:977,at:1), (pv:978,at:6), (pv:979,at:1), (pv:980,at:2), (pv:981,at:3), (pv:982,at:4), (pv:983,at:2), (pv:984,at:4), (pv:985,at:2), (pv:986,at:1)]
[INFO ] fr.inria.main.evolution.AstorMain.run(AstorMain.java:163) - Time Total(s): 10911.318
