Warning: no access to tty (Bad file descriptor).
Thus no job control in this shell.
tput: No value for $TERM and no -T specified
Node: wh31.sciclone.wm.edu
[INFO ] fr.inria.main.AbstractMain.processArguments(AbstractMain.java:295) - command line arguments: [-out  /local/scr/mtufano/Math/54/b/similar-local-executables-embeddings/3  -jvm4testexecution  /usr/local/jdk1.7.0_80/bin/  -loglevel  INFO  -maxVarCombination  1000  -maxgen  1000000  -population  1  -maxtime  180  -timezone  America/New_York  -customop  fr.inria.astor.approaches.jgenprog.operators.InsertAfterOp:fr.inria.astor.approaches.jgenprog.operators.InsertBeforeOp:fr.inria.astor.approaches.jgenprog.operators.ReplaceOp  -seed  3  -javacompliancelevel  5  -package  org.apache.commons  -binjavafolder  target/classes/  -bintestfolder  target/test-classes/  -srcjavafolder  src/main/java/  -srctestfolder  src/test/java/  -learningdir  ../../out/learningdir/Math/54/b/  -location  ../../dat/defects4j/Math/54/b/  -failing  org.apache.commons.math.dfp.DfpTest  -dependencies  ../../dat/libs/Math/commons-discovery-0.5.jar  -scope  fr.inria.astor.core.loop.spaces.ingredients.scopes.ctscopes.CtClassIngredientSpace  -ingredientstrategy  fr.inria.astor.core.loop.spaces.ingredients.ingredientSearch.CloneIngredientSearchStrategy  -clonegranularity  spoon.reflect.declaration.CtExecutable  -transformingredient  -classestoinstrument  org.apache.commons.math.FieldElement:org.apache.commons.math.dfp.Dfp:org.apache.commons.math.dfp.DfpField:org.apache.commons.math.Field:org.apache.commons.math.util.FastMath:  -regressiontestcases4fl  org.apache.commons.math.dfp.DfpDecTest:org.apache.commons.math.dfp.DfpMathTest:org.apache.commons.math.dfp.DfpTest:org.apache.commons.math.util.FastMathTest:]
[INFO ] fr.inria.astor.core.manipulation.MutationSupporter.buildModel(MutationSupporter.java:76) - building model: /local/scr/mtufano/Math/54/b/similar-local-executables-embeddings/3/AstorMain-b//src//default, compliance level: 5
[INFO ] fr.inria.astor.core.manipulation.MutationSupporter.buildModel(MutationSupporter.java:85) - Classpath for building SpoonModel [/sciclone/data20/mtufano/deeprepair/bin/eval/../../dat/libs/Math/commons-discovery-0.5.jar]
[INFO ] fr.inria.astor.core.setup.ProjectRepairFacade.calculateSuspicious(ProjectRepairFacade.java:215) - -Executing Gzoltar classpath: /local/scr/mtufano/Math/54/b/similar-local-executables-embeddings/3/AstorMain-b//bin//default from 4 classes with test cases
[INFO ] fr.inria.astor.core.faultlocalization.GZoltarFaultLocalization.searchSuspicious(GZoltarFaultLocalization.java:37) - Gzoltar fault localization: min susp value parameter: 0.1
[INFO ] fr.inria.astor.core.faultlocalization.GZoltarFaultLocalization.searchSuspicious(GZoltarFaultLocalization.java:57) - -gz-Adding classpath: [/local/scr/mtufano/Math/54/b/similar-local-executables-embeddings/3/AstorMain-b//bin//default, /sciclone/data20/mtufano/deeprepair/bin/eval/../../dat/libs/Math/commons-discovery-0.5.jar]
[INFO ] fr.inria.astor.core.faultlocalization.GZoltarFaultLocalization.searchSuspicious(GZoltarFaultLocalization.java:76) - Test failt: org.apache.commons.math.dfp.DfpTest#testIssue567
[INFO ] fr.inria.astor.core.faultlocalization.GZoltarFaultLocalization.searchSuspicious(GZoltarFaultLocalization.java:76) - Test failt: org.apache.commons.math.util.FastMathTest#checkMissingFastMathClasses
[INFO ] fr.inria.astor.core.faultlocalization.GZoltarFaultLocalization.searchSuspicious(GZoltarFaultLocalization.java:81) - Gzoltar Test Result Total:63, fails: 2, GZoltar suspicious 2695
[INFO ] fr.inria.astor.core.faultlocalization.GZoltarFaultLocalization.searchSuspicious(GZoltarFaultLocalization.java:123) - Gzoltar found: 563 with susp > 0.1, we consider: 563
[INFO ] fr.inria.astor.approaches.jgenprog.JGenProg.initPopulation(JGenProg.java:80) - 
---- Initial suspicious size: 563
[INFO ] fr.inria.astor.core.loop.population.ProgramVariantFactory.createProgramInstance(ProgramVariantFactory.java:126) - -any mod point created for suspicious Candidate [className=org.apache.commons.math.dfp.Dfp, methodName=org.apache.commons.math.dfp.Dfp{sqrt()Lorg/apache/commons/math/dfp/Dfp; 0.0, lineNumber=1915, susp=0.35355339059327373]
[INFO ] fr.inria.astor.core.loop.population.ProgramVariantFactory.createProgramInstance(ProgramVariantFactory.java:126) - -any mod point created for suspicious Candidate [className=org.apache.commons.math.dfp.Dfp, methodName=org.apache.commons.math.dfp.Dfp{sqrt()Lorg/apache/commons/math/dfp/Dfp; 0.0, lineNumber=1906, susp=0.31622776601683794]
[INFO ] fr.inria.astor.core.loop.population.ProgramVariantFactory.createProgramInstance(ProgramVariantFactory.java:126) - -any mod point created for suspicious Candidate [className=org.apache.commons.math.dfp.Dfp, methodName=org.apache.commons.math.dfp.Dfp{sqrt()Lorg/apache/commons/math/dfp/Dfp; 0.0, lineNumber=1907, susp=0.31622776601683794]
[INFO ] fr.inria.astor.core.loop.population.ProgramVariantFactory.createProgramInstance(ProgramVariantFactory.java:126) - -any mod point created for suspicious Candidate [className=org.apache.commons.math.dfp.DfpField, methodName=org.apache.commons.math.dfp.DfpField{setIEEEFlagsBits(I)V 0.0, lineNumber=329, susp=0.1781741612749496]
[INFO ] fr.inria.astor.core.loop.population.ProgramVariantFactory.createProgramInstance(ProgramVariantFactory.java:126) - -any mod point created for suspicious Candidate [className=org.apache.commons.math.dfp.DfpField, methodName=org.apache.commons.math.dfp.DfpField{computeStringConstants(I)V 0.0, lineNumber=593, susp=0.1781741612749496]
[INFO ] fr.inria.astor.core.loop.population.ProgramVariantFactory.createProgramInstance(ProgramVariantFactory.java:126) - -any mod point created for suspicious Candidate [className=org.apache.commons.math.dfp.Dfp, methodName=org.apache.commons.math.dfp.Dfp{round(I)I 0.0, lineNumber=1351, susp=0.1781741612749496]
[INFO ] fr.inria.astor.core.loop.population.ProgramVariantFactory.createProgramInstance(ProgramVariantFactory.java:126) - -any mod point created for suspicious Candidate [className=org.apache.commons.math.dfp.Dfp, methodName=org.apache.commons.math.dfp.Dfp{round(I)I 0.0, lineNumber=1352, susp=0.1781741612749496]
[INFO ] fr.inria.astor.core.loop.population.ProgramVariantFactory.createProgramInstance(ProgramVariantFactory.java:126) - -any mod point created for suspicious Candidate [className=org.apache.commons.math.dfp.DfpMath, methodName=org.apache.commons.math.dfp.DfpMath{pow(Lorg/apache/commons/math/dfp/Dfp;I)Lorg/apache/commons/math/dfp/Dfp; 0.0, lineNumber=239, susp=0.15811388300841897]
[INFO ] fr.inria.astor.core.loop.population.ProgramVariantFactory.createProgramInstance(ProgramVariantFactory.java:126) - -any mod point created for suspicious Candidate [className=org.apache.commons.math.dfp.DfpMath, methodName=org.apache.commons.math.dfp.DfpMath{pow(Lorg/apache/commons/math/dfp/Dfp;I)Lorg/apache/commons/math/dfp/Dfp; 0.0, lineNumber=247, susp=0.15811388300841897]
[INFO ] fr.inria.astor.core.loop.population.ProgramVariantFactory.createProgramInstance(ProgramVariantFactory.java:126) - -any mod point created for suspicious Candidate [className=org.apache.commons.math.dfp.Dfp, methodName=org.apache.commons.math.dfp.Dfp{divide(Lorg/apache/commons/math/dfp/Dfp;)Lorg/apache/commons/math/dfp/Dfp; 0.0, lineNumber=1729, susp=0.13608276348795434]
[INFO ] fr.inria.astor.core.loop.population.ProgramVariantFactory.createProgramInstance(ProgramVariantFactory.java:126) - -any mod point created for suspicious Candidate [className=org.apache.commons.math.dfp.DfpField, methodName=org.apache.commons.math.dfp.DfpField{clearIEEEFlags()V 0.0, lineNumber=296, susp=0.1336306209562122]
[INFO ] fr.inria.astor.core.loop.population.ProgramVariantFactory.createProgramInstance(ProgramVariantFactory.java:126) - -any mod point created for suspicious Candidate [className=org.apache.commons.math.dfp.Dfp, methodName=org.apache.commons.math.dfp.Dfp{dotrap(ILjava/lang/String;Lorg/apache/commons/math/dfp/Dfp;Lorg/apache/commons/math/dfp/Dfp;)Lorg/apache/commons/math/dfp/Dfp; 0.0, lineNumber=2144, susp=0.1336306209562122]
[INFO ] fr.inria.astor.core.loop.population.ProgramVariantFactory.createProgramInstance(ProgramVariantFactory.java:126) - -any mod point created for suspicious Candidate [className=org.apache.commons.math.dfp.Dfp, methodName=org.apache.commons.math.dfp.Dfp{dotrap(ILjava/lang/String;Lorg/apache/commons/math/dfp/Dfp;Lorg/apache/commons/math/dfp/Dfp;)Lorg/apache/commons/math/dfp/Dfp; 0.0, lineNumber=2151, susp=0.1336306209562122]
[INFO ] fr.inria.astor.core.loop.population.ProgramVariantFactory.createProgramInstance(ProgramVariantFactory.java:126) - -any mod point created for suspicious Candidate [className=org.apache.commons.math.dfp.Dfp, methodName=org.apache.commons.math.dfp.Dfp{dotrap(ILjava/lang/String;Lorg/apache/commons/math/dfp/Dfp;Lorg/apache/commons/math/dfp/Dfp;)Lorg/apache/commons/math/dfp/Dfp; 0.0, lineNumber=2157, susp=0.1336306209562122]
[INFO ] fr.inria.astor.core.loop.population.ProgramVariantFactory.createProgramInstance(ProgramVariantFactory.java:126) - -any mod point created for suspicious Candidate [className=org.apache.commons.math.dfp.Dfp, methodName=org.apache.commons.math.dfp.Dfp{dotrap(ILjava/lang/String;Lorg/apache/commons/math/dfp/Dfp;Lorg/apache/commons/math/dfp/Dfp;)Lorg/apache/commons/math/dfp/Dfp; 0.0, lineNumber=2162, susp=0.1336306209562122]
[INFO ] fr.inria.astor.core.loop.population.ProgramVariantFactory.createProgramInstance(ProgramVariantFactory.java:126) - -any mod point created for suspicious Candidate [className=org.apache.commons.math.dfp.Dfp, methodName=org.apache.commons.math.dfp.Dfp{shiftLeft()V 0.0, lineNumber=672, susp=0.12909944487358055]
[INFO ] fr.inria.astor.core.loop.population.ProgramVariantFactory.createProgramInstance(ProgramVariantFactory.java:126) - -any mod point created for suspicious Candidate [className=org.apache.commons.math.dfp.Dfp, methodName=org.apache.commons.math.dfp.Dfp{shiftRight()V 0.0, lineNumber=684, susp=0.12909944487358055]
[INFO ] fr.inria.astor.core.loop.population.ProgramVariantFactory.createProgramInstance(ProgramVariantFactory.java:126) - -any mod point created for suspicious Candidate [className=org.apache.commons.math.random.MersenneTwister, methodName=org.apache.commons.math.random.MersenneTwister{setSeed(I)V 0.0, lineNumber=152, susp=0.11952286093343936]
[INFO ] fr.inria.astor.core.loop.population.ProgramVariantFactory.createProgramInstance(ProgramVariantFactory.java:126) - -any mod point created for suspicious Candidate [className=org.apache.commons.math.random.MersenneTwister, methodName=org.apache.commons.math.random.MersenneTwister{setSeed([I)V 0.0, lineNumber=201, susp=0.11952286093343936]
[INFO ] fr.inria.astor.core.loop.population.ProgramVariantFactory.createProgramInstance(ProgramVariantFactory.java:126) - -any mod point created for suspicious Candidate [className=org.apache.commons.math.random.MersenneTwister, methodName=org.apache.commons.math.random.MersenneTwister{setSeed(J)V 0.0, lineNumber=211, susp=0.11952286093343936]
[INFO ] fr.inria.astor.core.loop.population.ProgramVariantFactory.createProgramInstance(ProgramVariantFactory.java:126) - -any mod point created for suspicious Candidate [className=org.apache.commons.math.dfp.Dfp, methodName=org.apache.commons.math.dfp.Dfp{dotrap(ILjava/lang/String;Lorg/apache/commons/math/dfp/Dfp;Lorg/apache/commons/math/dfp/Dfp;)Lorg/apache/commons/math/dfp/Dfp; 0.0, lineNumber=2185, susp=0.11785113019775793]
[INFO ] fr.inria.astor.core.loop.population.ProgramVariantFactory.createProgramInstance(ProgramVariantFactory.java:130) - Total suspicious from FL: 563,  543
[INFO ] fr.inria.astor.core.loop.population.ProgramVariantFactory.createProgramInstance(ProgramVariantFactory.java:138) - Total ModPoint created: 543
[INFO ] fr.inria.astor.core.loop.population.ProgramVariantFactory.createInitialPopulation(ProgramVariantFactory.java:82) - Creating program variant #1, [Variant id: 1, #gens: 543, #ops: 0, parent:-]
[INFO ] fr.inria.astor.core.setup.ConfigurationProperties.print(ConfigurationProperties.java:63) - ----------------------------
[INFO ] fr.inria.astor.core.setup.ConfigurationProperties.print(ConfigurationProperties.java:64) - ---Configuration properties:---Execution values
[INFO ] fr.inria.astor.core.setup.ConfigurationProperties.print(ConfigurationProperties.java:66) - p:lastJUnitVersion= ./examples/libs/junit-4.11.jar
[INFO ] fr.inria.astor.core.setup.ConfigurationProperties.print(ConfigurationProperties.java:66) - p:alternativecompliancelevel= 4
[INFO ] fr.inria.astor.core.setup.ConfigurationProperties.print(ConfigurationProperties.java:66) - p:ignoredTestCases= 
[INFO ] fr.inria.astor.core.setup.ConfigurationProperties.print(ConfigurationProperties.java:66) - p:workingDirectory= /local/scr/mtufano/Math/54/b/similar-local-executables-embeddings/3
[INFO ] fr.inria.astor.core.setup.ConfigurationProperties.print(ConfigurationProperties.java:66) - p:manipulatesuper= false
[INFO ] fr.inria.astor.core.setup.ConfigurationProperties.print(ConfigurationProperties.java:66) - p:validation= process
[INFO ] fr.inria.astor.core.setup.ConfigurationProperties.print(ConfigurationProperties.java:66) - p:jvm4testexecution= /usr/local/jdk1.7.0_80/bin/
[INFO ] fr.inria.astor.core.setup.ConfigurationProperties.print(ConfigurationProperties.java:66) - p:binjavafolder= target/classes/
[INFO ] fr.inria.astor.core.setup.ConfigurationProperties.print(ConfigurationProperties.java:66) - p:evosuiteresultfolder= evosuite
[INFO ] fr.inria.astor.core.setup.ConfigurationProperties.print(ConfigurationProperties.java:66) - p:flthreshold= 0.1
[INFO ] fr.inria.astor.core.setup.ConfigurationProperties.print(ConfigurationProperties.java:66) - p:regressionforfaultlocalization= true
[INFO ] fr.inria.astor.core.setup.ConfigurationProperties.print(ConfigurationProperties.java:66) - p:tmax2= 960000
[INFO ] fr.inria.astor.core.setup.ConfigurationProperties.print(ConfigurationProperties.java:66) - p:tmax1= 120000
[INFO ] fr.inria.astor.core.setup.ConfigurationProperties.print(ConfigurationProperties.java:66) - p:probagenmutation= false
[INFO ] fr.inria.astor.core.setup.ConfigurationProperties.print(ConfigurationProperties.java:66) - p:srctestfolder= src/test/java/
[INFO ] fr.inria.astor.core.setup.ConfigurationProperties.print(ConfigurationProperties.java:66) - p:customop= fr.inria.astor.approaches.jgenprog.operators.InsertAfterOp:fr.inria.astor.approaches.jgenprog.operators.InsertBeforeOp:fr.inria.astor.approaches.jgenprog.operators.ReplaceOp
[INFO ] fr.inria.astor.core.setup.ConfigurationProperties.print(ConfigurationProperties.java:66) - p:forceExecuteRegression= false
[INFO ] fr.inria.astor.core.setup.ConfigurationProperties.print(ConfigurationProperties.java:66) - p:clusteringfilename= clustering.csv
[INFO ] fr.inria.astor.core.setup.ConfigurationProperties.print(ConfigurationProperties.java:66) - p:failing= org.apache.commons.math.dfp.DfpTest
[INFO ] fr.inria.astor.core.setup.ConfigurationProperties.print(ConfigurationProperties.java:66) - p:evo_buggy_class= true
[INFO ] fr.inria.astor.core.setup.ConfigurationProperties.print(ConfigurationProperties.java:66) - p:numberExecutions= 1
[INFO ] fr.inria.astor.core.setup.ConfigurationProperties.print(ConfigurationProperties.java:66) - p:evo_affected_by_op= true
[INFO ] fr.inria.astor.core.setup.ConfigurationProperties.print(ConfigurationProperties.java:66) - p:population= 1
[INFO ] fr.inria.astor.core.setup.ConfigurationProperties.print(ConfigurationProperties.java:66) - p:clonegranularity= spoon.reflect.declaration.CtExecutable
[INFO ] fr.inria.astor.core.setup.ConfigurationProperties.print(ConfigurationProperties.java:66) - p:regressiontestcases4fl= org.apache.commons.math.dfp.DfpDecTest:org.apache.commons.math.dfp.DfpMathTest:org.apache.commons.math.dfp.DfpTest:org.apache.commons.math.util.FastMathTest:
[INFO ] fr.inria.astor.core.setup.ConfigurationProperties.print(ConfigurationProperties.java:66) - p:savesolution= true
[INFO ] fr.inria.astor.core.setup.ConfigurationProperties.print(ConfigurationProperties.java:66) - p:javacompliancelevel= 5
[INFO ] fr.inria.astor.core.setup.ConfigurationProperties.print(ConfigurationProperties.java:66) - p:uniqueoptogen= false
[INFO ] fr.inria.astor.core.setup.ConfigurationProperties.print(ConfigurationProperties.java:66) - p:projectIdentifier= 
[INFO ] fr.inria.astor.core.setup.ConfigurationProperties.print(ConfigurationProperties.java:66) - p:modificationpointnavigation= weight
[INFO ] fr.inria.astor.core.setup.ConfigurationProperties.print(ConfigurationProperties.java:66) - p:stopfirst= false
[INFO ] fr.inria.astor.core.setup.ConfigurationProperties.print(ConfigurationProperties.java:66) - p:multipointmodification= false
[INFO ] fr.inria.astor.core.setup.ConfigurationProperties.print(ConfigurationProperties.java:66) - p:elementsToMutate= 10
[INFO ] fr.inria.astor.core.setup.ConfigurationProperties.print(ConfigurationProperties.java:66) - p:evoDSE= false
[INFO ] fr.inria.astor.core.setup.ConfigurationProperties.print(ConfigurationProperties.java:66) - p:bintestfolder= target/test-classes/
[INFO ] fr.inria.astor.core.setup.ConfigurationProperties.print(ConfigurationProperties.java:66) - p:testbystep= false
[INFO ] fr.inria.astor.core.setup.ConfigurationProperties.print(ConfigurationProperties.java:66) - p:version-location= ./math-version/
[INFO ] fr.inria.astor.core.setup.ConfigurationProperties.print(ConfigurationProperties.java:66) - p:reintroduce= PARENTS
[INFO ] fr.inria.astor.core.setup.ConfigurationProperties.print(ConfigurationProperties.java:66) - p:maxGeneration= 1000000
[INFO ] fr.inria.astor.core.setup.ConfigurationProperties.print(ConfigurationProperties.java:66) - p:maxVarCombination= 1000
[INFO ] fr.inria.astor.core.setup.ConfigurationProperties.print(ConfigurationProperties.java:66) - p:maxtime= 180
[INFO ] fr.inria.astor.core.setup.ConfigurationProperties.print(ConfigurationProperties.java:66) - p:evosuitejar= ./lib/evosuite-master-1.0.4-SNAPSHOT.jar
[INFO ] fr.inria.astor.core.setup.ConfigurationProperties.print(ConfigurationProperties.java:66) - p:commandTrunk= 50000
[INFO ] fr.inria.astor.core.setup.ConfigurationProperties.print(ConfigurationProperties.java:66) - p:faultlocalization= fr.inria.astor.core.faultlocalization.GZoltarFaultLocalization
[INFO ] fr.inria.astor.core.setup.ConfigurationProperties.print(ConfigurationProperties.java:66) - p:maxsuspcandidates= 1000
[INFO ] fr.inria.astor.core.setup.ConfigurationProperties.print(ConfigurationProperties.java:66) - p:mode= statement
[INFO ] fr.inria.astor.core.setup.ConfigurationProperties.print(ConfigurationProperties.java:66) - p:learningdir= ../../out/learningdir/Math/54/b/
[INFO ] fr.inria.astor.core.setup.ConfigurationProperties.print(ConfigurationProperties.java:66) - p:jvm4evosuitetestexecution= /usr/local/jdk1.7.0_80/bin/
[INFO ] fr.inria.astor.core.setup.ConfigurationProperties.print(ConfigurationProperties.java:66) - p:filterfaultlocalization= true
[INFO ] fr.inria.astor.core.setup.ConfigurationProperties.print(ConfigurationProperties.java:66) - p:mutationrate= 1 
[INFO ] fr.inria.astor.core.setup.ConfigurationProperties.print(ConfigurationProperties.java:66) - p:pathToMVNRepository= 
[INFO ] fr.inria.astor.core.setup.ConfigurationProperties.print(ConfigurationProperties.java:66) - p:resourcesfolder= /src/main/resources:/src/test/resources:
[INFO ] fr.inria.astor.core.setup.ConfigurationProperties.print(ConfigurationProperties.java:66) - p:timezone= America/New_York
[INFO ] fr.inria.astor.core.setup.ConfigurationProperties.print(ConfigurationProperties.java:66) - p:classestoinstrument= org.apache.commons.math.FieldElement:org.apache.commons.math.dfp.Dfp:org.apache.commons.math.dfp.DfpField:org.apache.commons.math.Field:org.apache.commons.math.util.FastMath:
[INFO ] fr.inria.astor.core.setup.ConfigurationProperties.print(ConfigurationProperties.java:66) - p:evoRunOnBuggyClass= true
[INFO ] fr.inria.astor.core.setup.ConfigurationProperties.print(ConfigurationProperties.java:66) - p:compiler= fr.inria.astor.core.manipulation.bytecode.compiler.SpoonClassCompiler
[INFO ] fr.inria.astor.core.setup.ConfigurationProperties.print(ConfigurationProperties.java:66) - p:dependenciespath= ../../dat/libs/Math/commons-discovery-0.5.jar
[INFO ] fr.inria.astor.core.setup.ConfigurationProperties.print(ConfigurationProperties.java:66) - p:skipfaultlocalization= false
[INFO ] fr.inria.astor.core.setup.ConfigurationProperties.print(ConfigurationProperties.java:66) - p:packageToInstrument= org.apache.commons
[INFO ] fr.inria.astor.core.setup.ConfigurationProperties.print(ConfigurationProperties.java:66) - p:scope= fr.inria.astor.core.loop.spaces.ingredients.scopes.ctscopes.CtClassIngredientSpace
[INFO ] fr.inria.astor.core.setup.ConfigurationProperties.print(ConfigurationProperties.java:66) - p:transformingredient= true
[INFO ] fr.inria.astor.core.setup.ConfigurationProperties.print(ConfigurationProperties.java:66) - p:fitnessfunction= fr.inria.astor.core.loop.population.TestCaseFitnessFunction
[INFO ] fr.inria.astor.core.setup.ConfigurationProperties.print(ConfigurationProperties.java:66) - p:pvariantfoldername= variant-
[INFO ] fr.inria.astor.core.setup.ConfigurationProperties.print(ConfigurationProperties.java:66) - p:srcjavafolder= src/main/java/
[INFO ] fr.inria.astor.core.setup.ConfigurationProperties.print(ConfigurationProperties.java:66) - p:populationcontroller= fr.inria.astor.core.loop.population.TestCaseBasedFitnessPopulationController
[INFO ] fr.inria.astor.core.setup.ConfigurationProperties.print(ConfigurationProperties.java:66) - p:ignoreflakyinfl= false
[INFO ] fr.inria.astor.core.setup.ConfigurationProperties.print(ConfigurationProperties.java:66) - p:applyCrossover= false
[INFO ] fr.inria.astor.core.setup.ConfigurationProperties.print(ConfigurationProperties.java:66) - p:saveall= false
[INFO ] fr.inria.astor.core.setup.ConfigurationProperties.print(ConfigurationProperties.java:66) - p:seed= 3
[INFO ] fr.inria.astor.core.setup.ConfigurationProperties.print(ConfigurationProperties.java:66) - p:resetoperations= false
[INFO ] fr.inria.astor.core.setup.ConfigurationProperties.print(ConfigurationProperties.java:66) - p:location= ../../dat/defects4j/Math/54/b/
[INFO ] fr.inria.astor.core.setup.ConfigurationProperties.print(ConfigurationProperties.java:66) - p:ingredientstrategy= fr.inria.astor.core.loop.spaces.ingredients.ingredientSearch.CloneIngredientSearchStrategy
[INFO ] fr.inria.astor.core.setup.ConfigurationProperties.print(ConfigurationProperties.java:66) - p:allpoints= false
[INFO ] fr.inria.astor.core.setup.ConfigurationProperties.print(ConfigurationProperties.java:66) - p:bugId= 280
[INFO ] fr.inria.astor.core.setup.ConfigurationProperties.print(ConfigurationProperties.java:66) - p:evosuitetimeout= 120
[INFO ] fr.inria.astor.core.setup.ConfigurationProperties.print(ConfigurationProperties.java:68) - ----------------------------
[INFO ] fr.inria.astor.core.loop.AstorCoreEngine.startEvolution(AstorCoreEngine.java:119) - 
----Starting Solution Search
0-->2org.apache.commons.math.util.FastMath#double atan(double,double,boolean)
1-->2org.apache.commons.math.util.FastMath#double nextUp(double)
2-->2org.apache.commons.math.util.FastMath#double asinh(double)
3-->2org.apache.commons.math.util.FastMath#int abs(int)
4-->2org.apache.commons.math.dfp.Dfp#int intValue()
5-->2org.apache.commons.math.util.FastMath#double log(double,double[])
6-->2org.apache.commons.math.dfp.DfpMath#org.apache.commons.math.dfp.Dfp cos(org.apache.commons.math.dfp.Dfp)
7-->2org.apache.commons.math.dfp.DfpField#java.lang.reflect.Array getLn2Split()
8-->2org.apache.commons.math.util.FastMath#long round(double)
9-->2org.apache.commons.math.util.FastMath#double expm1(double)
10-->2org.apache.commons.math.dfp.Dfp#java.lang.String dfp2string()
11-->2org.apache.commons.math.dfp.Dfp#org.apache.commons.math.dfp.Dfp(org.apache.commons.math.dfp.DfpField)
12-->2org.apache.commons.math.dfp.DfpField#org.apache.commons.math.dfp.Dfp getOne()
13-->2org.apache.commons.math.dfp.Dfp#org.apache.commons.math.dfp.DfpField getField()
14-->2org.apache.commons.math.util.FastMath#double exp(double)
15-->2org.apache.commons.math.random.MersenneTwister#void setSeed(int[])
16-->2org.apache.commons.math.util.FastMath#void buildSinCosTables()
17-->2org.apache.commons.math.util.FastMath#org.apache.commons.math.util.FastMath()
18-->2org.apache.commons.math.dfp.DfpField#java.lang.reflect.Array getESplit()
19-->2org.apache.commons.math.dfp.Dfp#java.lang.String toString()
20-->2org.apache.commons.math.util.FastMath#double sinQ(double,double)
21-->2org.apache.commons.math.dfp.DfpField#int getRadixDigits()
22-->2org.apache.commons.math.util.FastMath#double ulp(double)
23-->2org.apache.commons.math.util.FastMath#double exp(double,double,double[])
24-->2org.apache.commons.math.dfp.Dfp#org.apache.commons.math.dfp.Dfp trunc(org.apache.commons.math.dfp.DfpField$RoundingMode)
25-->2org.apache.commons.math.dfp.Dfp#org.apache.commons.math.dfp.Dfp newInstance(int)
26-->2org.apache.commons.math.dfp.DfpField#void setIEEEFlags(int)
27-->2org.apache.commons.math.util.FastMath#void resplit(double[])
28-->2org.apache.commons.math.util.FastMath#double sin(double)
29-->2org.apache.commons.math.dfp.Dfp#org.apache.commons.math.dfp.Dfp subtract(org.apache.commons.math.dfp.Dfp)
30-->2org.apache.commons.math.util.FastMath#double IEEEremainder(double,double)
31-->2org.apache.commons.math.dfp.DfpMath#org.apache.commons.math.dfp.Dfp splitPow(org.apache.commons.math.dfp.Dfp[],int)
32-->2org.apache.commons.math.util.FastMath#double expint(int,double[])
33-->2org.apache.commons.math.dfp.Dfp#org.apache.commons.math.dfp.Dfp rint()
34-->2org.apache.commons.math.dfp.DfpField#org.apache.commons.math.dfp.Dfp getZero()
35-->2org.apache.commons.math.dfp.DfpMath#org.apache.commons.math.dfp.Dfp atanInternal(org.apache.commons.math.dfp.Dfp)
36-->2org.apache.commons.math.util.FastMath#double random()
37-->2org.apache.commons.math.dfp.DfpField#org.apache.commons.math.dfp.Dfp getLn2()
38-->2org.apache.commons.math.util.FastMath#float scalb(float,int)
39-->2org.apache.commons.math.dfp.DfpField#org.apache.commons.math.dfp.Dfp newDfp(byte,byte)
40-->2org.apache.commons.math.dfp.DfpField#org.apache.commons.math.dfp.Dfp computeExp(org.apache.commons.math.dfp.Dfp,org.apache.commons.math.dfp.Dfp)
41-->2org.apache.commons.math.dfp.DfpField#org.apache.commons.math.dfp.Dfp getTwo()
42-->2org.apache.commons.math.dfp.Dfp#org.apache.commons.math.dfp.Dfp divide(int)
43-->2org.apache.commons.math.util.FastMath#void quadMult(double[],double[],double[])
44-->2org.apache.commons.math.dfp.DfpField#void setIEEEFlagsBits(int)
45-->2org.apache.commons.math.dfp.Dfp#org.apache.commons.math.dfp.Dfp newInstance(org.apache.commons.math.dfp.Dfp)
46-->2org.apache.commons.math.util.FastMath#double atan(double)
47-->2org.apache.commons.math.dfp.DfpField#org.apache.commons.math.dfp.Dfp newDfp(int)
48-->2org.apache.commons.math.dfp.DfpField#org.apache.commons.math.dfp.Dfp computeLn(org.apache.commons.math.dfp.Dfp,org.apache.commons.math.dfp.Dfp,org.apache.commons.math.dfp.Dfp)
49-->2org.apache.commons.math.dfp.Dfp#org.apache.commons.math.dfp.Dfp newInstance(java.lang.String)
50-->2org.apache.commons.math.util.FastMath#double expm1(double,double[])
51-->2org.apache.commons.math.dfp.Dfp#org.apache.commons.math.dfp.Dfp power10K(int)
52-->2org.apache.commons.math.util.FastMath#int min(int,int)
53-->2org.apache.commons.math.util.FastMath#double acos(double)
54-->2org.apache.commons.math.util.FastMath#float copySign(float,float)
55-->2org.apache.commons.math.dfp.Dfp#org.apache.commons.math.dfp.Dfp(org.apache.commons.math.dfp.DfpField,java.lang.String)
56-->2org.apache.commons.math.util.FastMath#long max(long,long)
57-->2org.apache.commons.math.dfp.DfpField#void clearIEEEFlags()
58-->2org.apache.commons.math.util.FastMath#double toRadians(double)
59-->2org.apache.commons.math.util.FastMath#double hypot(double,double)
60-->2org.apache.commons.math.util.FastMath#long min(long,long)
61-->2org.apache.commons.math.dfp.Dfp#org.apache.commons.math.dfp.Dfp(org.apache.commons.math.dfp.DfpField,int)
62-->2org.apache.commons.math.dfp.Dfp#org.apache.commons.math.dfp.Dfp newInstance(byte,byte)
63-->2org.apache.commons.math.dfp.DfpField#org.apache.commons.math.dfp.Dfp getSqr3()
64-->2org.apache.commons.math.util.FastMath#double signum(double)
65-->2org.apache.commons.math.dfp.Dfp#org.apache.commons.math.dfp.Dfp add(org.apache.commons.math.dfp.Dfp)
66-->2org.apache.commons.math.dfp.DfpField#int getIEEEFlags()
67-->2org.apache.commons.math.dfp.DfpMath#org.apache.commons.math.dfp.Dfp exp(org.apache.commons.math.dfp.Dfp)
68-->2org.apache.commons.math.util.FastMath#double copySign(double,double)
69-->2org.apache.commons.math.dfp.Dfp#org.apache.commons.math.dfp.Dfp remainder(org.apache.commons.math.dfp.Dfp)
70-->2org.apache.commons.math.dfp.DfpMath#org.apache.commons.math.dfp.Dfp expInternal(org.apache.commons.math.dfp.Dfp)
71-->2org.apache.commons.math.util.FastMath#double atan2(double,double)
72-->2org.apache.commons.math.util.FastMath#void splitReciprocal(double[],double[])
73-->2org.apache.commons.math.dfp.DfpField#org.apache.commons.math.dfp.Dfp newDfp(long)
74-->2org.apache.commons.math.util.FastMath#void reducePayneHanek(double,double[])
75-->2org.apache.commons.math.dfp.Dfp#java.lang.reflect.Array toSplitDouble()
76-->2org.apache.commons.math.dfp.DfpField#org.apache.commons.math.dfp.DfpField$RoundingMode getRoundingMode()
77-->2org.apache.commons.math.util.FastMath#double floor(double)
78-->2org.apache.commons.math.dfp.DfpMath#java.lang.reflect.Array splitMult(org.apache.commons.math.dfp.Dfp[],org.apache.commons.math.dfp.Dfp[])
79-->2org.apache.commons.math.util.FastMath#float min(float,float)
80-->2org.apache.commons.math.dfp.DfpMath#org.apache.commons.math.dfp.Dfp asin(org.apache.commons.math.dfp.Dfp)
81-->2org.apache.commons.math.dfp.Dfp#org.apache.commons.math.dfp.Dfp dotrap(int,java.lang.String,org.apache.commons.math.dfp.Dfp,org.apache.commons.math.dfp.Dfp)
82-->2org.apache.commons.math.dfp.DfpField#org.apache.commons.math.dfp.Dfp getSqr2Reciprocal()
83-->2org.apache.commons.math.dfp.Dfp#org.apache.commons.math.dfp.Dfp(org.apache.commons.math.dfp.DfpField,byte,byte)
84-->2org.apache.commons.math.dfp.Dfp#org.apache.commons.math.dfp.Dfp newInstance(long)
85-->2org.apache.commons.math.random.MersenneTwister#void setSeed(long)
86-->2org.apache.commons.math.dfp.DfpMath#org.apache.commons.math.dfp.Dfp sinInternal(org.apache.commons.math.dfp.Dfp[])
87-->2org.apache.commons.math.dfp.DfpField#org.apache.commons.math.dfp.Dfp getSqr2()
88-->2org.apache.commons.math.util.FastMath#double doubleHighPart(double)
89-->2org.apache.commons.math.dfp.Dfp#int getRadixDigits()
90-->2org.apache.commons.math.util.FastMath#float max(float,float)
91-->2org.apache.commons.math.dfp.Dfp#org.apache.commons.math.dfp.Dfp newInstance(byte)
92-->2org.apache.commons.math.dfp.Dfp#org.apache.commons.math.dfp.Dfp power10(int)
93-->2org.apache.commons.math.dfp.Dfp#org.apache.commons.math.dfp.Dfp newInstance(double)
94-->2org.apache.commons.math.util.FastMath#double tan(double)
95-->2org.apache.commons.math.dfp.DfpField#org.apache.commons.math.dfp.Dfp getE()
96-->2org.apache.commons.math.dfp.Dfp#boolean isInfinite()
97-->2org.apache.commons.math.util.FastMath#long abs(long)
98-->2org.apache.commons.math.util.FastMath#void splitMult(double[],double[],double[])
99-->2org.apache.commons.math.dfp.Dfp#org.apache.commons.math.dfp.Dfp getTwo()
100-->2org.apache.commons.math.util.FastMath#double slowSin(double,double[])
101-->2org.apache.commons.math.dfp.DfpField#org.apache.commons.math.dfp.Dfp newDfp(byte)
102-->2org.apache.commons.math.dfp.Dfp#int compare(org.apache.commons.math.dfp.Dfp,org.apache.commons.math.dfp.Dfp)
103-->2org.apache.commons.math.random.MersenneTwister#org.apache.commons.math.random.MersenneTwister()
104-->2org.apache.commons.math.dfp.DfpField#java.lang.reflect.Array split(java.lang.String)
105-->2org.apache.commons.math.dfp.DfpMath#org.apache.commons.math.dfp.Dfp atan(org.apache.commons.math.dfp.Dfp)
106-->2org.apache.commons.math.util.FastMath#double atanh(double)
107-->2org.apache.commons.math.util.FastMath#double acosh(double)
108-->2org.apache.commons.math.dfp.Dfp#org.apache.commons.math.dfp.Dfp(org.apache.commons.math.dfp.DfpField,long)
109-->2org.apache.commons.math.dfp.Dfp#int hashCode()
110-->2org.apache.commons.math.util.FastMath#double slowCos(double,double[])
111-->2org.apache.commons.math.random.MersenneTwister#int next(int)
112-->2org.apache.commons.math.util.FastMath#double log1p(double)
113-->2org.apache.commons.math.dfp.Dfp#double toDouble()
114-->2org.apache.commons.math.dfp.Dfp#org.apache.commons.math.dfp.Dfp sqrt()
115-->2org.apache.commons.math.util.FastMath#double cosh(double)
116-->2org.apache.commons.math.util.FastMath#double ceil(double)
117-->2org.apache.commons.math.util.FastMath#double log(double)
118-->2org.apache.commons.math.dfp.DfpMath#org.apache.commons.math.dfp.Dfp acos(org.apache.commons.math.dfp.Dfp)
119-->2org.apache.commons.math.util.FastMath#double min(double,double)
120-->2org.apache.commons.math.dfp.DfpField#java.lang.reflect.Array getLn5Split()
121-->2org.apache.commons.math.random.MersenneTwister#void setSeed(int)
122-->2org.apache.commons.math.dfp.Dfp#boolean greaterThan(org.apache.commons.math.dfp.Dfp)
123-->2org.apache.commons.math.dfp.Dfp#void shiftLeft()
124-->2org.apache.commons.math.dfp.DfpMath#java.lang.reflect.Array split(org.apache.commons.math.dfp.Dfp)
125-->2org.apache.commons.math.util.FastMath#double toDegrees(double)
126-->2org.apache.commons.math.dfp.Dfp#org.apache.commons.math.dfp.Dfp newInstance()
127-->2org.apache.commons.math.dfp.Dfp#int align(int)
128-->2org.apache.commons.math.dfp.Dfp#boolean lessThan(org.apache.commons.math.dfp.Dfp)
129-->2org.apache.commons.math.util.FastMath#double polySine(double)
130-->2org.apache.commons.math.dfp.Dfp#org.apache.commons.math.dfp.Dfp ceil()
131-->2org.apache.commons.math.dfp.DfpMath#org.apache.commons.math.dfp.DfpMath()
132-->2org.apache.commons.math.dfp.Dfp#int log10()
133-->2org.apache.commons.math.dfp.DfpField#org.apache.commons.math.dfp.Dfp getPi()
134-->2org.apache.commons.math.util.FastMath#float nextAfter(float,double)
135-->2org.apache.commons.math.dfp.DfpField#java.lang.reflect.Array getPiSplit()
136-->2org.apache.commons.math.dfp.Dfp#org.apache.commons.math.dfp.Dfp getZero()
137-->2org.apache.commons.math.util.FastMath#double cos(double)
138-->2org.apache.commons.math.dfp.Dfp#boolean unequal(org.apache.commons.math.dfp.Dfp)
139-->2org.apache.commons.math.dfp.Dfp#java.lang.String dfp2sci()
140-->2org.apache.commons.math.dfp.DfpField#org.apache.commons.math.dfp.Dfp newDfp(java.lang.String)
141-->2org.apache.commons.math.util.FastMath#float nextUp(float)
142-->2org.apache.commons.math.dfp.DfpField#void setRoundingMode(org.apache.commons.math.dfp.DfpField$RoundingMode)
143-->2org.apache.commons.math.dfp.Dfp#void shiftRight()
144-->2org.apache.commons.math.util.FastMath#double polyCosine(double)
145-->2org.apache.commons.math.util.FastMath#float abs(float)
146-->2org.apache.commons.math.dfp.Dfp#org.apache.commons.math.dfp.Dfp(org.apache.commons.math.dfp.DfpField,byte)
147-->2org.apache.commons.math.dfp.Dfp#org.apache.commons.math.dfp.Dfp negate()
148-->2org.apache.commons.math.dfp.DfpMath#org.apache.commons.math.dfp.Dfp pow(org.apache.commons.math.dfp.Dfp,int)
149-->2org.apache.commons.math.util.FastMath#double cosQ(double,double)
150-->2org.apache.commons.math.util.FastMath#double max(double,double)
151-->2org.apache.commons.math.util.FastMath#float signum(float)
152-->2org.apache.commons.math.dfp.DfpField#java.lang.reflect.Array getSqr2Split()
153-->2org.apache.commons.math.dfp.DfpMath#org.apache.commons.math.dfp.Dfp log(org.apache.commons.math.dfp.Dfp)
154-->2org.apache.commons.math.util.FastMath#int max(int,int)
155-->2org.apache.commons.math.dfp.Dfp#boolean isNaN()
156-->2org.apache.commons.math.dfp.DfpMath#java.lang.reflect.Array logInternal(org.apache.commons.math.dfp.Dfp[])
157-->2org.apache.commons.math.util.FastMath#double cbrt(double)
158-->2org.apache.commons.math.dfp.Dfp#org.apache.commons.math.dfp.Dfp multiply(org.apache.commons.math.dfp.Dfp)
159-->2org.apache.commons.math.dfp.Dfp#org.apache.commons.math.dfp.Dfp floor()
160-->2org.apache.commons.math.dfp.DfpField#org.apache.commons.math.dfp.DfpField(int)
161-->2org.apache.commons.math.dfp.Dfp#int log10K()
162-->2org.apache.commons.math.dfp.Dfp#org.apache.commons.math.dfp.Dfp getOne()
163-->2org.apache.commons.math.dfp.Dfp#int round(int)
164-->2org.apache.commons.math.dfp.DfpField#org.apache.commons.math.dfp.Dfp getLn10()
165-->2org.apache.commons.math.util.FastMath#double sinh(double)
166-->2org.apache.commons.math.dfp.DfpField#org.apache.commons.math.dfp.Dfp getLn5()
167-->2org.apache.commons.math.dfp.DfpField#org.apache.commons.math.dfp.Dfp newDfp(org.apache.commons.math.dfp.Dfp)
168-->2org.apache.commons.math.dfp.DfpField#org.apache.commons.math.dfp.Dfp newDfp(double)
169-->2org.apache.commons.math.dfp.DfpField#org.apache.commons.math.dfp.Dfp computePi(org.apache.commons.math.dfp.Dfp,org.apache.commons.math.dfp.Dfp,org.apache.commons.math.dfp.Dfp)
170-->2org.apache.commons.math.util.FastMath#double nextAfter(double,double)
171-->2org.apache.commons.math.dfp.DfpMath#org.apache.commons.math.dfp.Dfp pow(org.apache.commons.math.dfp.Dfp,org.apache.commons.math.dfp.Dfp)
172-->2org.apache.commons.math.random.MersenneTwister#org.apache.commons.math.random.MersenneTwister(int)
173-->2org.apache.commons.math.util.FastMath#double abs(double)
174-->2org.apache.commons.math.dfp.Dfp#org.apache.commons.math.dfp.Dfp(org.apache.commons.math.dfp.DfpField,double)
175-->2org.apache.commons.math.dfp.DfpMath#java.lang.reflect.Array splitDiv(org.apache.commons.math.dfp.Dfp[],org.apache.commons.math.dfp.Dfp[])
176-->2org.apache.commons.math.util.FastMath#double log10(double)
177-->2org.apache.commons.math.util.FastMath#double slowexp(double,double[])
178-->2org.apache.commons.math.util.FastMath#java.lang.reflect.Array slowLog(double)
179-->2org.apache.commons.math.util.FastMath#double pow(double,double)
180-->2org.apache.commons.math.util.FastMath#int getExponent(double)
181-->2org.apache.commons.math.dfp.Dfp#int classify()
182-->2org.apache.commons.math.util.FastMath#void splitAdd(double[],double[],double[])
183-->2org.apache.commons.math.util.FastMath#double rint(double)
184-->2org.apache.commons.math.dfp.DfpField#org.apache.commons.math.dfp.DfpField(int,boolean)
185-->2org.apache.commons.math.dfp.DfpMath#org.apache.commons.math.dfp.Dfp tan(org.apache.commons.math.dfp.Dfp)
186-->2org.apache.commons.math.util.FastMath#int round(float)
187-->2org.apache.commons.math.dfp.Dfp#org.apache.commons.math.dfp.Dfp copysign(org.apache.commons.math.dfp.Dfp,org.apache.commons.math.dfp.Dfp)
188-->2org.apache.commons.math.util.FastMath#double sqrt(double)
189-->2org.apache.commons.math.dfp.DfpField#org.apache.commons.math.dfp.Dfp getSqr3Reciprocal()
190-->2org.apache.commons.math.dfp.Dfp#org.apache.commons.math.dfp.Dfp trap(int,java.lang.String,org.apache.commons.math.dfp.Dfp,org.apache.commons.math.dfp.Dfp,org.apache.commons.math.dfp.Dfp)
191-->2org.apache.commons.math.util.FastMath#float ulp(float)
192-->2org.apache.commons.math.util.FastMath#void split(double,double[])
193-->2org.apache.commons.math.dfp.DfpMath#org.apache.commons.math.dfp.Dfp cosInternal(org.apache.commons.math.dfp.Dfp[])
194-->2org.apache.commons.math.dfp.Dfp#org.apache.commons.math.dfp.Dfp nextAfter(org.apache.commons.math.dfp.Dfp)
195-->2org.apache.commons.math.dfp.Dfp#int complement(int)
196-->2org.apache.commons.math.dfp.Dfp#boolean equals(java.lang.Object)
197-->2org.apache.commons.math.dfp.Dfp#org.apache.commons.math.dfp.Dfp multiply(int)
198-->2org.apache.commons.math.util.FastMath#double tanQ(double,double,boolean)
199-->2org.apache.commons.math.dfp.Dfp#org.apache.commons.math.dfp.Dfp divide(org.apache.commons.math.dfp.Dfp)
200-->2org.apache.commons.math.util.FastMath#int getExponent(float)
201-->2org.apache.commons.math.dfp.DfpField#org.apache.commons.math.dfp.Dfp newDfp()
202-->2org.apache.commons.math.util.FastMath#double tanh(double)
203-->2org.apache.commons.math.util.FastMath#double asin(double)
204-->2org.apache.commons.math.dfp.Dfp#org.apache.commons.math.dfp.Dfp(org.apache.commons.math.dfp.Dfp)
205-->2org.apache.commons.math.dfp.DfpMath#java.lang.reflect.Array split(org.apache.commons.math.dfp.DfpField,java.lang.String)
206-->2org.apache.commons.math.random.MersenneTwister#org.apache.commons.math.random.MersenneTwister(long)
207-->2org.apache.commons.math.dfp.DfpField#void computeStringConstants(int)
208-->2org.apache.commons.math.random.MersenneTwister#org.apache.commons.math.random.MersenneTwister(int[])
209-->2org.apache.commons.math.dfp.DfpMath#org.apache.commons.math.dfp.Dfp sin(org.apache.commons.math.dfp.Dfp)
210-->2org.apache.commons.math.util.FastMath#double scalb(double,int)
[INFO ] fr.inria.astor.core.validation.executors.JUnitExecutorProcess.execute(JUnitExecutorProcess.java:120) - The Process that runs JUnit test cases had problems: process hasn't exited
[INFO ] fr.inria.astor.core.validation.executors.JUnitExecutorProcess.execute(JUnitExecutorProcess.java:120) - The Process that runs JUnit test cases had problems: process hasn't exited
[INFO ] fr.inria.astor.core.validation.executors.JUnitExecutorProcess.execute(JUnitExecutorProcess.java:120) - The Process that runs JUnit test cases had problems: process hasn't exited
[INFO ] fr.inria.astor.core.validation.executors.JUnitExecutorProcess.execute(JUnitExecutorProcess.java:120) - The Process that runs JUnit test cases had problems: process hasn't exited
[INFO ] fr.inria.astor.core.validation.executors.JUnitExecutorProcess.execute(JUnitExecutorProcess.java:120) - The Process that runs JUnit test cases had problems: process hasn't exited
[INFO ] fr.inria.astor.core.validation.executors.JUnitExecutorProcess.execute(JUnitExecutorProcess.java:120) - The Process that runs JUnit test cases had problems: process hasn't exited
[INFO ] fr.inria.astor.core.validation.executors.JUnitExecutorProcess.execute(JUnitExecutorProcess.java:120) - The Process that runs JUnit test cases had problems: process hasn't exited
[INFO ] fr.inria.astor.core.validation.executors.JUnitExecutorProcess.execute(JUnitExecutorProcess.java:120) - The Process that runs JUnit test cases had problems: process hasn't exited
[INFO ] fr.inria.astor.core.validation.executors.JUnitExecutorProcess.execute(JUnitExecutorProcess.java:120) - The Process that runs JUnit test cases had problems: process hasn't exited
[INFO ] fr.inria.astor.core.validation.executors.JUnitExecutorProcess.execute(JUnitExecutorProcess.java:120) - The Process that runs JUnit test cases had problems: process hasn't exited
[INFO ] fr.inria.astor.core.validation.executors.JUnitExecutorProcess.execute(JUnitExecutorProcess.java:120) - The Process that runs JUnit test cases had problems: process hasn't exited
[INFO ] fr.inria.astor.core.validation.executors.JUnitExecutorProcess.execute(JUnitExecutorProcess.java:120) - The Process that runs JUnit test cases had problems: process hasn't exited
[INFO ] fr.inria.astor.core.validation.executors.JUnitExecutorProcess.execute(JUnitExecutorProcess.java:120) - The Process that runs JUnit test cases had problems: process hasn't exited
[INFO ] fr.inria.astor.core.validation.executors.JUnitExecutorProcess.execute(JUnitExecutorProcess.java:120) - The Process that runs JUnit test cases had problems: process hasn't exited
[INFO ] fr.inria.astor.core.validation.executors.JUnitExecutorProcess.execute(JUnitExecutorProcess.java:120) - The Process that runs JUnit test cases had problems: process hasn't exited
[INFO ] fr.inria.astor.core.validation.executors.JUnitExecutorProcess.execute(JUnitExecutorProcess.java:120) - The Process that runs JUnit test cases had problems: process hasn't exited
[INFO ] fr.inria.astor.core.validation.executors.JUnitExecutorProcess.execute(JUnitExecutorProcess.java:120) - The Process that runs JUnit test cases had problems: process hasn't exited
[INFO ] fr.inria.astor.core.validation.executors.JUnitExecutorProcess.execute(JUnitExecutorProcess.java:120) - The Process that runs JUnit test cases had problems: process hasn't exited
[INFO ] fr.inria.astor.core.validation.executors.JUnitExecutorProcess.execute(JUnitExecutorProcess.java:120) - The Process that runs JUnit test cases had problems: process hasn't exited
[INFO ] fr.inria.astor.core.validation.executors.JUnitExecutorProcess.execute(JUnitExecutorProcess.java:120) - The Process that runs JUnit test cases had problems: process hasn't exited
[INFO ] fr.inria.astor.core.validation.executors.JUnitExecutorProcess.execute(JUnitExecutorProcess.java:120) - The Process that runs JUnit test cases had problems: process hasn't exited
[INFO ] fr.inria.astor.core.validation.executors.JUnitExecutorProcess.execute(JUnitExecutorProcess.java:120) - The Process that runs JUnit test cases had problems: process hasn't exited
[INFO ] fr.inria.astor.core.validation.executors.JUnitExecutorProcess.execute(JUnitExecutorProcess.java:120) - The Process that runs JUnit test cases had problems: process hasn't exited
[INFO ] fr.inria.astor.core.validation.executors.JUnitExecutorProcess.execute(JUnitExecutorProcess.java:120) - The Process that runs JUnit test cases had problems: process hasn't exited
[INFO ] fr.inria.astor.core.validation.executors.JUnitExecutorProcess.execute(JUnitExecutorProcess.java:120) - The Process that runs JUnit test cases had problems: process hasn't exited
[INFO ] fr.inria.astor.core.validation.executors.JUnitExecutorProcess.execute(JUnitExecutorProcess.java:120) - The Process that runs JUnit test cases had problems: process hasn't exited
[INFO ] fr.inria.astor.core.validation.executors.JUnitExecutorProcess.execute(JUnitExecutorProcess.java:120) - The Process that runs JUnit test cases had problems: process hasn't exited
[INFO ] fr.inria.astor.core.validation.executors.JUnitExecutorProcess.execute(JUnitExecutorProcess.java:120) - The Process that runs JUnit test cases had problems: process hasn't exited
[INFO ] fr.inria.astor.core.validation.executors.JUnitExecutorProcess.execute(JUnitExecutorProcess.java:120) - The Process that runs JUnit test cases had problems: process hasn't exited
[INFO ] fr.inria.astor.core.validation.executors.JUnitExecutorProcess.execute(JUnitExecutorProcess.java:120) - The Process that runs JUnit test cases had problems: process hasn't exited
[INFO ] fr.inria.astor.core.validation.executors.JUnitExecutorProcess.execute(JUnitExecutorProcess.java:120) - The Process that runs JUnit test cases had problems: process hasn't exited
[INFO ] fr.inria.astor.core.validation.executors.JUnitExecutorProcess.execute(JUnitExecutorProcess.java:120) - The Process that runs JUnit test cases had problems: process hasn't exited
[INFO ] fr.inria.astor.core.validation.executors.JUnitExecutorProcess.execute(JUnitExecutorProcess.java:120) - The Process that runs JUnit test cases had problems: process hasn't exited
[INFO ] fr.inria.astor.core.validation.executors.JUnitExecutorProcess.execute(JUnitExecutorProcess.java:120) - The Process that runs JUnit test cases had problems: process hasn't exited
[INFO ] fr.inria.astor.core.validation.executors.JUnitExecutorProcess.execute(JUnitExecutorProcess.java:120) - The Process that runs JUnit test cases had problems: process hasn't exited
[INFO ] fr.inria.astor.core.validation.executors.JUnitExecutorProcess.execute(JUnitExecutorProcess.java:120) - The Process that runs JUnit test cases had problems: process hasn't exited
[INFO ] fr.inria.astor.core.validation.executors.JUnitExecutorProcess.execute(JUnitExecutorProcess.java:120) - The Process that runs JUnit test cases had problems: process hasn't exited
[INFO ] fr.inria.astor.core.validation.executors.JUnitExecutorProcess.execute(JUnitExecutorProcess.java:120) - The Process that runs JUnit test cases had problems: process hasn't exited
[INFO ] fr.inria.astor.core.validation.executors.JUnitExecutorProcess.execute(JUnitExecutorProcess.java:120) - The Process that runs JUnit test cases had problems: process hasn't exited
[INFO ] fr.inria.astor.core.loop.AstorCoreEngine.belowMaxTime(AstorCoreEngine.java:203) - 
 No more time for operating
[INFO ] fr.inria.astor.core.loop.AstorCoreEngine.startEvolution(AstorCoreEngine.java:143) - Time Repair Loop (s): 10867.133
[INFO ] fr.inria.astor.core.loop.AstorCoreEngine.showResults(AstorCoreEngine.java:165) - 
----SUMMARY_EXECUTION---
[INFO ] fr.inria.astor.approaches.jgenprog.JGenProg.showResults(JGenProg.java:332) - 
successful_ing_attempts (#trials 0, totalAttps 0): []
[INFO ] fr.inria.astor.approaches.jgenprog.JGenProg.showResults(JGenProg.java:334) - 
failing_ing_attempts (#trials 1024, totalAttps 1623): [2, 1, 1, 1, 1, 1, 1, 1, 1, 1, 1, 1, 1, 1, 1, 1, 1, 1, 1, 1, 1, 1, 1, 1, 1, 1, 1, 1, 1, 1, 1, 1, 1, 1, 1, 1, 1, 1, 1, 1, 1, 1, 1, 1, 1, 1, 1, 1, 1, 1, 1, 1, 1, 1, 1, 1, 1, 1, 1, 1, 1, 1, 1, 1, 1, 1, 2, 5, 1, 1, 1, 1, 1, 1, 1, 1, 1, 1, 2, 1, 1, 1, 1, 1, 1, 1, 1, 1, 1, 1, 1, 1, 1, 1, 1, 1, 1, 1, 1, 1, 1, 1, 1, 1, 1, 1, 1, 1, 1, 1, 17, 1, 1, 1, 1, 1, 1, 1, 1, 1, 1, 1, 1, 1, 1, 1, 1, 1, 1, 1, 1, 1, 1, 1, 1, 1, 1, 1, 1, 1, 1, 1, 1, 2, 1, 1, 1, 3, 1, 1, 1, 1, 1, 1, 1, 1, 1, 1, 1, 1, 1, 1, 1, 1, 1, 1, 1, 1, 1, 1, 1, 1, 1, 1, 1, 1, 1, 1, 1, 1, 1, 1, 1, 1, 1, 1, 1, 1, 1, 3, 1, 1, 1, 1, 1, 1, 1, 1, 1, 1, 1, 1, 1, 1, 1, 1, 1, 1, 1, 1, 1, 1, 1, 3, 1, 1, 1, 2, 1, 1, 1, 1, 1, 1, 1, 1, 1, 1, 1, 67, 1, 1, 1, 1, 1, 1, 1, 5, 1, 1, 1, 1, 1, 1, 1, 1, 1, 1, 1, 1, 1, 1, 1, 1, 1, 1, 1, 1, 1, 1, 1, 1, 1, 1, 1, 1, 1, 1, 1, 1, 1, 1, 1, 1, 1, 1, 1, 1, 1, 1, 1, 1, 1, 1, 1, 1, 2, 1, 1, 1, 1, 1, 1, 1, 1, 2, 1, 1, 1, 1, 1, 1, 1, 1, 1, 1, 1, 1, 1, 1, 1, 1, 1, 1, 1, 1, 1, 1, 1, 1, 1, 1, 1, 1, 1, 1, 1, 1, 1, 1, 1, 1, 1, 1, 1, 1, 1, 1, 1, 1, 1, 1, 1, 1, 1, 1, 1, 1, 1, 1, 1, 1, 1, 1, 1, 1, 1, 1, 1, 1, 1, 1, 1, 1, 1, 1, 1, 1, 1, 1, 2, 1, 1, 1, 1, 3, 11, 1, 1, 1, 1, 1, 1, 1, 1, 1, 29, 1, 1, 1, 1, 1, 3, 1, 1, 1, 1, 1, 1, 1, 2, 1, 1, 1, 1, 1, 1, 1, 1, 1, 1, 1, 1, 1, 1, 1, 1, 1, 1, 1, 1, 2, 1, 1, 1, 1, 1, 1, 1, 1, 2, 1, 1, 1, 1, 1, 1, 1, 11, 1, 1, 1, 1, 1, 1, 1, 1, 1, 1, 2, 4, 1, 1, 1, 1, 1, 1, 1, 1, 1, 1, 1, 1, 1, 1, 1, 1, 1, 1, 1, 1, 1, 1, 1, 1, 1, 1, 2, 1, 1, 1, 1, 1, 1, 1, 1, 2, 1, 1, 1, 1, 1, 1, 1, 81, 1, 1, 38, 1, 1, 1, 1, 1, 1, 1, 1, 1, 1, 1, 1, 1, 1, 1, 1, 6, 1, 1, 1, 1, 1, 1, 1, 1, 1, 1, 1, 1, 2, 1, 1, 1, 1, 1, 1, 1, 1, 1, 1, 1, 1, 1, 1, 1, 2, 1, 1, 1, 1, 1, 1, 1, 1, 1, 1, 1, 1, 1, 1, 1, 22, 1, 1, 1, 1, 1, 1, 1, 1, 1, 1, 3, 1, 1, 1, 1, 1, 1, 1, 1, 1, 1, 1, 1, 1, 1, 1, 1, 2, 1, 1, 1, 1, 1, 1, 1, 1, 1, 1, 1, 1, 1, 1, 1, 1, 1, 1, 1, 1, 1, 3, 1, 1, 1, 1, 1, 1, 1, 1, 1, 1, 1, 1, 49, 1, 1, 2, 1, 1, 1, 1, 1, 1, 1, 1, 1, 1, 1, 1, 1, 1, 1, 27, 1, 1, 1, 1, 1, 1, 3, 1, 1, 1, 49, 2, 1, 1, 1, 1, 1, 1, 1, 1, 1, 1, 1, 1, 1, 1, 2, 1, 1, 1, 1, 1, 1, 1, 1, 2, 1, 1, 1, 1, 1, 1, 1, 1, 1, 2, 1, 1, 1, 1, 1, 1, 1, 1, 1, 1, 1, 1, 1, 1, 1, 1, 1, 1, 1, 4, 1, 1, 1, 1, 1, 1, 1, 6, 1, 1, 1, 1, 1, 1, 1, 1, 1, 1, 1, 1, 1, 1, 2, 1, 1, 1, 3, 1, 1, 1, 1, 1, 1, 1, 1, 1, 6, 1, 1, 1, 1, 1, 1, 1, 1, 1, 1, 1, 1, 1, 1, 1, 1, 1, 1, 2, 1, 1, 1, 1, 1, 1, 1, 1, 1, 1, 1, 1, 1, 1, 1, 1, 1, 1, 1, 1, 9, 1, 1, 1, 1, 1, 1, 1, 1, 1, 1, 1, 1, 1, 1, 1, 1, 1, 1, 1, 1, 1, 2, 1, 1, 1, 27, 10, 1, 1, 1, 1, 1, 1, 64, 1, 1, 1, 1, 1, 1, 1, 1, 1, 1, 1, 1, 1, 1, 1, 1, 1, 1, 1, 1, 1, 1, 1, 1, 1, 2, 1, 1, 1, 1, 1, 1, 1, 1, 1, 1, 1, 1, 1, 1, 1, 1, 1, 1, 1, 1, 1, 1, 1, 1, 1, 1, 1, 1, 1, 1, 1, 1, 1, 1, 1, 1, 1, 1, 1, 1, 1, 1, 1, 1, 1, 2, 1, 1, 16, 1, 1, 1, 1, 1, 1, 1, 3, 1, 1, 1, 1, 1, 1, 1, 1, 1, 1, 1, 1, 1, 1, 1, 1, 1, 1, 1, 1, 1, 1, 1, 1, 1, 1, 1, 1, 1, 1, 1, 1, 1, 1, 1, 1, 1, 1, 1, 1, 1, 1, 1, 1, 1, 1, 1, 1, 1, 1, 1, 1, 2, 2, 1, 1, 1, 1, 1, 1, 1, 1, 1, 1, 1, 1, 2, 1, 4, 1, 1, 1, 1, 1, 1, 1, 1, 1, 1, 1, 1, 1, 1, 1, 1, 1, 1, 1, 1, 1, 1, 1, 1, 1, 1, 1, 1, 1, 1, 1, 1, 1, 1, 1, 1, 1, 1, 1, 6, 1, 1, 1, 1, 1, 1, 1, 1, 2, 1, 1, 1, 1]
[INFO ] fr.inria.astor.approaches.jgenprog.JGenProg.showResults(JGenProg.java:337) - 
total Patch Attempts (0): []
[INFO ] fr.inria.astor.approaches.jgenprog.JGenProg.showResults(JGenProg.java:339) - 
successful_ing_attempts_by_patch: []
[INFO ] fr.inria.astor.approaches.jgenprog.JGenProg.showResults(JGenProg.java:340) - 
failing_ing_attempts_by_patch: [(pv:2,at:2), (pv:3,at:1), (pv:4,at:1), (pv:5,at:1), (pv:6,at:1), (pv:7,at:1), (pv:8,at:1), (pv:9,at:1), (pv:10,at:1), (pv:11,at:1), (pv:12,at:1), (pv:13,at:1), (pv:14,at:1), (pv:15,at:1), (pv:16,at:1), (pv:17,at:1), (pv:18,at:1), (pv:19,at:1), (pv:20,at:1), (pv:21,at:1), (pv:22,at:1), (pv:23,at:1), (pv:24,at:1), (pv:25,at:1), (pv:26,at:1), (pv:27,at:1), (pv:28,at:1), (pv:29,at:1), (pv:30,at:1), (pv:31,at:1), (pv:32,at:1), (pv:33,at:1), (pv:34,at:1), (pv:35,at:1), (pv:36,at:1), (pv:37,at:1), (pv:38,at:1), (pv:39,at:1), (pv:40,at:1), (pv:41,at:1), (pv:42,at:1), (pv:43,at:1), (pv:44,at:1), (pv:45,at:1), (pv:46,at:1), (pv:47,at:1), (pv:48,at:1), (pv:49,at:1), (pv:50,at:1), (pv:51,at:1), (pv:52,at:1), (pv:53,at:1), (pv:54,at:1), (pv:55,at:1), (pv:56,at:1), (pv:57,at:1), (pv:58,at:1), (pv:59,at:1), (pv:60,at:1), (pv:61,at:1), (pv:62,at:1), (pv:63,at:1), (pv:64,at:1), (pv:65,at:1), (pv:66,at:1), (pv:67,at:1), (pv:68,at:2), (pv:69,at:5), (pv:70,at:1), (pv:71,at:1), (pv:72,at:1), (pv:73,at:1), (pv:74,at:1), (pv:75,at:1), (pv:76,at:1), (pv:77,at:1), (pv:78,at:1), (pv:79,at:1), (pv:80,at:2), (pv:81,at:1), (pv:82,at:1), (pv:83,at:1), (pv:84,at:1), (pv:85,at:1), (pv:86,at:1), (pv:87,at:1), (pv:88,at:1), (pv:89,at:1), (pv:90,at:1), (pv:91,at:1), (pv:92,at:1), (pv:93,at:1), (pv:94,at:1), (pv:95,at:1), (pv:96,at:1), (pv:97,at:1), (pv:98,at:1), (pv:99,at:1), (pv:100,at:1), (pv:101,at:1), (pv:102,at:1), (pv:103,at:1), (pv:104,at:1), (pv:105,at:1), (pv:106,at:1), (pv:107,at:1), (pv:108,at:1), (pv:109,at:1), (pv:110,at:1), (pv:111,at:1), (pv:112,at:17), (pv:113,at:1), (pv:114,at:1), (pv:115,at:1), (pv:116,at:1), (pv:117,at:1), (pv:118,at:1), (pv:119,at:1), (pv:120,at:1), (pv:121,at:1), (pv:122,at:1), (pv:123,at:1), (pv:124,at:1), (pv:125,at:1), (pv:126,at:1), (pv:127,at:1), (pv:128,at:1), (pv:129,at:1), (pv:130,at:1), (pv:131,at:1), (pv:132,at:1), (pv:133,at:1), (pv:134,at:1), (pv:135,at:1), (pv:136,at:1), (pv:137,at:1), (pv:138,at:1), (pv:139,at:1), (pv:140,at:1), (pv:141,at:1), (pv:142,at:1), (pv:143,at:1), (pv:144,at:1), (pv:145,at:2), (pv:146,at:1), (pv:147,at:1), (pv:148,at:1), (pv:149,at:3), (pv:150,at:1), (pv:151,at:1), (pv:152,at:1), (pv:153,at:1), (pv:154,at:1), (pv:155,at:1), (pv:156,at:1), (pv:157,at:1), (pv:158,at:1), (pv:159,at:1), (pv:160,at:1), (pv:161,at:1), (pv:162,at:1), (pv:163,at:1), (pv:164,at:1), (pv:165,at:1), (pv:166,at:1), (pv:167,at:1), (pv:168,at:1), (pv:169,at:1), (pv:170,at:1), (pv:171,at:1), (pv:172,at:1), (pv:173,at:1), (pv:174,at:1), (pv:175,at:1), (pv:176,at:1), (pv:177,at:1), (pv:178,at:1), (pv:179,at:1), (pv:180,at:1), (pv:181,at:1), (pv:182,at:1), (pv:183,at:1), (pv:184,at:1), (pv:185,at:1), (pv:186,at:1), (pv:187,at:1), (pv:188,at:1), (pv:189,at:1), (pv:190,at:1), (pv:191,at:3), (pv:192,at:1), (pv:193,at:1), (pv:194,at:1), (pv:195,at:1), (pv:196,at:1), (pv:197,at:1), (pv:198,at:1), (pv:199,at:1), (pv:200,at:1), (pv:201,at:1), (pv:202,at:1), (pv:203,at:1), (pv:204,at:1), (pv:205,at:1), (pv:206,at:1), (pv:207,at:1), (pv:208,at:1), (pv:209,at:1), (pv:210,at:1), (pv:211,at:1), (pv:212,at:1), (pv:213,at:1), (pv:214,at:1), (pv:215,at:3), (pv:216,at:1), (pv:217,at:1), (pv:218,at:1), (pv:219,at:2), (pv:220,at:1), (pv:221,at:1), (pv:222,at:1), (pv:223,at:1), (pv:224,at:1), (pv:225,at:1), (pv:226,at:1), (pv:227,at:1), (pv:228,at:1), (pv:229,at:1), (pv:230,at:1), (pv:231,at:67), (pv:232,at:1), (pv:233,at:1), (pv:234,at:1), (pv:235,at:1), (pv:236,at:1), (pv:237,at:1), (pv:238,at:1), (pv:239,at:5), (pv:240,at:1), (pv:241,at:1), (pv:242,at:1), (pv:243,at:1), (pv:244,at:1), (pv:245,at:1), (pv:246,at:1), (pv:247,at:1), (pv:248,at:1), (pv:249,at:1), (pv:250,at:1), (pv:251,at:1), (pv:252,at:1), (pv:253,at:1), (pv:254,at:1), (pv:255,at:1), (pv:256,at:1), (pv:257,at:1), (pv:258,at:1), (pv:259,at:1), (pv:260,at:1), (pv:261,at:1), (pv:262,at:1), (pv:263,at:1), (pv:264,at:1), (pv:265,at:1), (pv:266,at:1), (pv:267,at:1), (pv:268,at:1), (pv:269,at:1), (pv:270,at:1), (pv:271,at:1), (pv:272,at:1), (pv:273,at:1), (pv:274,at:1), (pv:275,at:1), (pv:276,at:1), (pv:277,at:1), (pv:278,at:1), (pv:279,at:1), (pv:280,at:1), (pv:281,at:1), (pv:282,at:1), (pv:283,at:1), (pv:284,at:1), (pv:285,at:1), (pv:286,at:1), (pv:287,at:1), (pv:288,at:2), (pv:289,at:1), (pv:290,at:1), (pv:291,at:1), (pv:292,at:1), (pv:293,at:1), (pv:294,at:1), (pv:295,at:1), (pv:296,at:1), (pv:297,at:2), (pv:298,at:1), (pv:299,at:1), (pv:300,at:1), (pv:301,at:1), (pv:302,at:1), (pv:303,at:1), (pv:304,at:1), (pv:305,at:1), (pv:306,at:1), (pv:307,at:1), (pv:308,at:1), (pv:309,at:1), (pv:310,at:1), (pv:311,at:1), (pv:312,at:1), (pv:313,at:1), (pv:314,at:1), (pv:315,at:1), (pv:316,at:1), (pv:317,at:1), (pv:318,at:1), (pv:319,at:1), (pv:320,at:1), (pv:321,at:1), (pv:322,at:1), (pv:323,at:1), (pv:324,at:1), (pv:325,at:1), (pv:326,at:1), (pv:327,at:1), (pv:328,at:1), (pv:329,at:1), (pv:330,at:1), (pv:331,at:1), (pv:332,at:1), (pv:333,at:1), (pv:334,at:1), (pv:335,at:1), (pv:336,at:1), (pv:337,at:1), (pv:338,at:1), (pv:339,at:1), (pv:340,at:1), (pv:341,at:1), (pv:342,at:1), (pv:343,at:1), (pv:344,at:1), (pv:345,at:1), (pv:346,at:1), (pv:347,at:1), (pv:348,at:1), (pv:349,at:1), (pv:350,at:1), (pv:351,at:1), (pv:352,at:1), (pv:353,at:1), (pv:354,at:1), (pv:355,at:1), (pv:356,at:1), (pv:357,at:1), (pv:358,at:1), (pv:359,at:1), (pv:360,at:1), (pv:361,at:1), (pv:362,at:1), (pv:363,at:1), (pv:364,at:1), (pv:365,at:1), (pv:366,at:1), (pv:367,at:1), (pv:368,at:1), (pv:369,at:1), (pv:370,at:1), (pv:371,at:1), (pv:372,at:2), (pv:373,at:1), (pv:374,at:1), (pv:375,at:1), (pv:376,at:1), (pv:377,at:3), (pv:378,at:11), (pv:379,at:1), (pv:380,at:1), (pv:381,at:1), (pv:382,at:1), (pv:383,at:1), (pv:384,at:1), (pv:385,at:1), (pv:386,at:1), (pv:387,at:1), (pv:388,at:29), (pv:389,at:1), (pv:390,at:1), (pv:391,at:1), (pv:392,at:1), (pv:393,at:1), (pv:394,at:3), (pv:395,at:1), (pv:396,at:1), (pv:397,at:1), (pv:398,at:1), (pv:399,at:1), (pv:400,at:1), (pv:401,at:1), (pv:402,at:2), (pv:403,at:1), (pv:404,at:1), (pv:405,at:1), (pv:406,at:1), (pv:407,at:1), (pv:408,at:1), (pv:409,at:1), (pv:410,at:1), (pv:411,at:1), (pv:412,at:1), (pv:413,at:1), (pv:414,at:1), (pv:415,at:1), (pv:416,at:1), (pv:417,at:1), (pv:418,at:1), (pv:419,at:1), (pv:420,at:1), (pv:421,at:1), (pv:422,at:1), (pv:423,at:2), (pv:424,at:1), (pv:425,at:1), (pv:426,at:1), (pv:427,at:1), (pv:428,at:1), (pv:429,at:1), (pv:430,at:1), (pv:431,at:1), (pv:432,at:2), (pv:433,at:1), (pv:434,at:1), (pv:435,at:1), (pv:436,at:1), (pv:437,at:1), (pv:438,at:1), (pv:439,at:1), (pv:440,at:11), (pv:441,at:1), (pv:442,at:1), (pv:443,at:1), (pv:444,at:1), (pv:445,at:1), (pv:446,at:1), (pv:447,at:1), (pv:448,at:1), (pv:449,at:1), (pv:450,at:1), (pv:451,at:2), (pv:452,at:4), (pv:453,at:1), (pv:454,at:1), (pv:455,at:1), (pv:456,at:1), (pv:457,at:1), (pv:458,at:1), (pv:459,at:1), (pv:460,at:1), (pv:461,at:1), (pv:462,at:1), (pv:463,at:1), (pv:464,at:1), (pv:465,at:1), (pv:466,at:1), (pv:467,at:1), (pv:468,at:1), (pv:469,at:1), (pv:470,at:1), (pv:471,at:1), (pv:472,at:1), (pv:473,at:1), (pv:474,at:1), (pv:475,at:1), (pv:476,at:1), (pv:477,at:1), (pv:478,at:1), (pv:479,at:2), (pv:480,at:1), (pv:481,at:1), (pv:482,at:1), (pv:483,at:1), (pv:484,at:1), (pv:485,at:1), (pv:486,at:1), (pv:487,at:1), (pv:488,at:2), (pv:489,at:1), (pv:490,at:1), (pv:491,at:1), (pv:492,at:1), (pv:493,at:1), (pv:494,at:1), (pv:495,at:1), (pv:496,at:81), (pv:497,at:1), (pv:498,at:1), (pv:499,at:38), (pv:500,at:1), (pv:501,at:1), (pv:502,at:1), (pv:503,at:1), (pv:504,at:1), (pv:505,at:1), (pv:506,at:1), (pv:507,at:1), (pv:508,at:1), (pv:509,at:1), (pv:510,at:1), (pv:511,at:1), (pv:512,at:1), (pv:513,at:1), (pv:514,at:1), (pv:515,at:1), (pv:516,at:6), (pv:517,at:1), (pv:518,at:1), (pv:519,at:1), (pv:520,at:1), (pv:521,at:1), (pv:522,at:1), (pv:523,at:1), (pv:524,at:1), (pv:525,at:1), (pv:526,at:1), (pv:527,at:1), (pv:528,at:1), (pv:529,at:2), (pv:530,at:1), (pv:531,at:1), (pv:532,at:1), (pv:533,at:1), (pv:534,at:1), (pv:535,at:1), (pv:536,at:1), (pv:537,at:1), (pv:538,at:1), (pv:539,at:1), (pv:540,at:1), (pv:541,at:1), (pv:542,at:1), (pv:543,at:1), (pv:544,at:1), (pv:545,at:2), (pv:546,at:1), (pv:547,at:1), (pv:548,at:1), (pv:549,at:1), (pv:550,at:1), (pv:551,at:1), (pv:552,at:1), (pv:553,at:1), (pv:554,at:1), (pv:555,at:1), (pv:556,at:1), (pv:557,at:1), (pv:558,at:1), (pv:559,at:1), (pv:560,at:1), (pv:561,at:22), (pv:562,at:1), (pv:563,at:1), (pv:564,at:1), (pv:565,at:1), (pv:566,at:1), (pv:567,at:1), (pv:568,at:1), (pv:569,at:1), (pv:570,at:1), (pv:571,at:1), (pv:572,at:3), (pv:573,at:1), (pv:574,at:1), (pv:575,at:1), (pv:576,at:1), (pv:577,at:1), (pv:578,at:1), (pv:579,at:1), (pv:580,at:1), (pv:581,at:1), (pv:582,at:1), (pv:583,at:1), (pv:584,at:1), (pv:585,at:1), (pv:586,at:1), (pv:587,at:1), (pv:588,at:1), (pv:589,at:2), (pv:590,at:1), (pv:591,at:1), (pv:592,at:1), (pv:593,at:1), (pv:594,at:1), (pv:595,at:1), (pv:596,at:1), (pv:597,at:1), (pv:598,at:1), (pv:599,at:1), (pv:600,at:1), (pv:601,at:1), (pv:602,at:1), (pv:603,at:1), (pv:604,at:1), (pv:605,at:1), (pv:606,at:1), (pv:607,at:1), (pv:608,at:1), (pv:609,at:1), (pv:610,at:1), (pv:611,at:3), (pv:612,at:1), (pv:613,at:1), (pv:614,at:1), (pv:615,at:1), (pv:616,at:1), (pv:617,at:1), (pv:618,at:1), (pv:619,at:1), (pv:620,at:1), (pv:621,at:1), (pv:622,at:1), (pv:623,at:1), (pv:624,at:49), (pv:625,at:1), (pv:626,at:1), (pv:627,at:2), (pv:628,at:1), (pv:629,at:1), (pv:630,at:1), (pv:631,at:1), (pv:632,at:1), (pv:633,at:1), (pv:634,at:1), (pv:635,at:1), (pv:636,at:1), (pv:637,at:1), (pv:638,at:1), (pv:639,at:1), (pv:640,at:1), (pv:641,at:1), (pv:642,at:1), (pv:643,at:27), (pv:644,at:1), (pv:645,at:1), (pv:646,at:1), (pv:647,at:1), (pv:648,at:1), (pv:649,at:1), (pv:650,at:3), (pv:651,at:1), (pv:652,at:1), (pv:653,at:1), (pv:654,at:49), (pv:655,at:2), (pv:656,at:1), (pv:657,at:1), (pv:658,at:1), (pv:659,at:1), (pv:660,at:1), (pv:661,at:1), (pv:662,at:1), (pv:663,at:1), (pv:664,at:1), (pv:665,at:1), (pv:666,at:1), (pv:667,at:1), (pv:668,at:1), (pv:669,at:1), (pv:670,at:2), (pv:671,at:1), (pv:672,at:1), (pv:673,at:1), (pv:674,at:1), (pv:675,at:1), (pv:676,at:1), (pv:677,at:1), (pv:678,at:1), (pv:679,at:2), (pv:680,at:1), (pv:681,at:1), (pv:682,at:1), (pv:683,at:1), (pv:684,at:1), (pv:685,at:1), (pv:686,at:1), (pv:687,at:1), (pv:688,at:1), (pv:689,at:2), (pv:690,at:1), (pv:691,at:1), (pv:692,at:1), (pv:693,at:1), (pv:694,at:1), (pv:695,at:1), (pv:696,at:1), (pv:697,at:1), (pv:698,at:1), (pv:699,at:1), (pv:700,at:1), (pv:701,at:1), (pv:702,at:1), (pv:703,at:1), (pv:704,at:1), (pv:705,at:1), (pv:706,at:1), (pv:707,at:1), (pv:708,at:1), (pv:709,at:4), (pv:710,at:1), (pv:711,at:1), (pv:712,at:1), (pv:713,at:1), (pv:714,at:1), (pv:715,at:1), (pv:716,at:1), (pv:717,at:6), (pv:718,at:1), (pv:719,at:1), (pv:720,at:1), (pv:721,at:1), (pv:722,at:1), (pv:723,at:1), (pv:724,at:1), (pv:725,at:1), (pv:726,at:1), (pv:727,at:1), (pv:728,at:1), (pv:729,at:1), (pv:730,at:1), (pv:731,at:1), (pv:732,at:2), (pv:733,at:1), (pv:734,at:1), (pv:735,at:1), (pv:736,at:3), (pv:737,at:1), (pv:738,at:1), (pv:739,at:1), (pv:740,at:1), (pv:741,at:1), (pv:742,at:1), (pv:743,at:1), (pv:744,at:1), (pv:745,at:1), (pv:746,at:6), (pv:747,at:1), (pv:748,at:1), (pv:749,at:1), (pv:750,at:1), (pv:751,at:1), (pv:752,at:1), (pv:753,at:1), (pv:754,at:1), (pv:755,at:1), (pv:756,at:1), (pv:757,at:1), (pv:758,at:1), (pv:759,at:1), (pv:760,at:1), (pv:761,at:1), (pv:762,at:1), (pv:763,at:1), (pv:764,at:1), (pv:765,at:2), (pv:766,at:1), (pv:767,at:1), (pv:768,at:1), (pv:769,at:1), (pv:770,at:1), (pv:771,at:1), (pv:772,at:1), (pv:773,at:1), (pv:774,at:1), (pv:775,at:1), (pv:776,at:1), (pv:777,at:1), (pv:778,at:1), (pv:779,at:1), (pv:780,at:1), (pv:781,at:1), (pv:782,at:1), (pv:783,at:1), (pv:784,at:1), (pv:785,at:1), (pv:786,at:9), (pv:787,at:1), (pv:788,at:1), (pv:789,at:1), (pv:790,at:1), (pv:791,at:1), (pv:792,at:1), (pv:793,at:1), (pv:794,at:1), (pv:795,at:1), (pv:796,at:1), (pv:797,at:1), (pv:798,at:1), (pv:799,at:1), (pv:800,at:1), (pv:801,at:1), (pv:802,at:1), (pv:803,at:1), (pv:804,at:1), (pv:805,at:1), (pv:806,at:1), (pv:807,at:1), (pv:808,at:2), (pv:809,at:1), (pv:810,at:1), (pv:811,at:1), (pv:812,at:27), (pv:813,at:10), (pv:814,at:1), (pv:815,at:1), (pv:816,at:1), (pv:817,at:1), (pv:818,at:1), (pv:819,at:1), (pv:820,at:64), (pv:821,at:1), (pv:822,at:1), (pv:823,at:1), (pv:824,at:1), (pv:825,at:1), (pv:826,at:1), (pv:827,at:1), (pv:828,at:1), (pv:829,at:1), (pv:830,at:1), (pv:831,at:1), (pv:832,at:1), (pv:833,at:1), (pv:834,at:1), (pv:835,at:1), (pv:836,at:1), (pv:837,at:1), (pv:838,at:1), (pv:839,at:1), (pv:840,at:1), (pv:841,at:1), (pv:842,at:1), (pv:843,at:1), (pv:844,at:1), (pv:845,at:1), (pv:846,at:2), (pv:847,at:1), (pv:848,at:1), (pv:849,at:1), (pv:850,at:1), (pv:851,at:1), (pv:852,at:1), (pv:853,at:1), (pv:854,at:1), (pv:855,at:1), (pv:856,at:1), (pv:857,at:1), (pv:858,at:1), (pv:859,at:1), (pv:860,at:1), (pv:861,at:1), (pv:862,at:1), (pv:863,at:1), (pv:864,at:1), (pv:865,at:1), (pv:866,at:1), (pv:867,at:1), (pv:868,at:1), (pv:869,at:1), (pv:870,at:1), (pv:871,at:1), (pv:872,at:1), (pv:873,at:1), (pv:874,at:1), (pv:875,at:1), (pv:876,at:1), (pv:877,at:1), (pv:878,at:1), (pv:879,at:1), (pv:880,at:1), (pv:881,at:1), (pv:882,at:1), (pv:883,at:1), (pv:884,at:1), (pv:885,at:1), (pv:886,at:1), (pv:887,at:1), (pv:888,at:1), (pv:889,at:1), (pv:890,at:1), (pv:891,at:1), (pv:892,at:2), (pv:893,at:1), (pv:894,at:1), (pv:895,at:16), (pv:896,at:1), (pv:897,at:1), (pv:898,at:1), (pv:899,at:1), (pv:900,at:1), (pv:901,at:1), (pv:902,at:1), (pv:903,at:3), (pv:904,at:1), (pv:905,at:1), (pv:906,at:1), (pv:907,at:1), (pv:908,at:1), (pv:909,at:1), (pv:910,at:1), (pv:911,at:1), (pv:912,at:1), (pv:913,at:1), (pv:914,at:1), (pv:915,at:1), (pv:916,at:1), (pv:917,at:1), (pv:918,at:1), (pv:919,at:1), (pv:920,at:1), (pv:921,at:1), (pv:922,at:1), (pv:923,at:1), (pv:924,at:1), (pv:925,at:1), (pv:926,at:1), (pv:927,at:1), (pv:928,at:1), (pv:929,at:1), (pv:930,at:1), (pv:931,at:1), (pv:932,at:1), (pv:933,at:1), (pv:934,at:1), (pv:935,at:1), (pv:936,at:1), (pv:937,at:1), (pv:938,at:1), (pv:939,at:1), (pv:940,at:1), (pv:941,at:1), (pv:942,at:1), (pv:943,at:1), (pv:944,at:1), (pv:945,at:1), (pv:946,at:1), (pv:947,at:1), (pv:948,at:1), (pv:949,at:1), (pv:950,at:1), (pv:951,at:1), (pv:952,at:1), (pv:953,at:1), (pv:954,at:1), (pv:955,at:1), (pv:956,at:2), (pv:957,at:2), (pv:958,at:1), (pv:959,at:1), (pv:960,at:1), (pv:961,at:1), (pv:962,at:1), (pv:963,at:1), (pv:964,at:1), (pv:965,at:1), (pv:966,at:1), (pv:967,at:1), (pv:968,at:1), (pv:969,at:1), (pv:970,at:2), (pv:971,at:1), (pv:972,at:4), (pv:973,at:1), (pv:974,at:1), (pv:975,at:1), (pv:976,at:1), (pv:977,at:1), (pv:978,at:1), (pv:979,at:1), (pv:980,at:1), (pv:981,at:1), (pv:982,at:1), (pv:983,at:1), (pv:984,at:1), (pv:985,at:1), (pv:986,at:1), (pv:987,at:1), (pv:988,at:1), (pv:989,at:1), (pv:990,at:1), (pv:991,at:1), (pv:992,at:1), (pv:993,at:1), (pv:994,at:1), (pv:995,at:1), (pv:996,at:1), (pv:997,at:1), (pv:998,at:1), (pv:999,at:1), (pv:1000,at:1), (pv:1001,at:1), (pv:1002,at:1), (pv:1003,at:1), (pv:1004,at:1), (pv:1005,at:1), (pv:1006,at:1), (pv:1007,at:1), (pv:1008,at:1), (pv:1009,at:1), (pv:1010,at:1), (pv:1011,at:1), (pv:1012,at:6), (pv:1013,at:1), (pv:1014,at:1), (pv:1015,at:1), (pv:1016,at:1), (pv:1017,at:1), (pv:1018,at:1), (pv:1019,at:1), (pv:1020,at:1), (pv:1021,at:2), (pv:1022,at:1), (pv:1023,at:1), (pv:1024,at:1), (pv:1025,at:1)]
[INFO ] fr.inria.astor.approaches.jgenprog.JGenProg.showResults(JGenProg.java:342) - 
pvariants_with_transformed_ingredients: [(pv:2,at:2), (pv:3,at:1), (pv:4,at:1), (pv:5,at:1), (pv:6,at:1), (pv:7,at:1), (pv:8,at:1), (pv:9,at:1), (pv:10,at:1), (pv:11,at:1), (pv:12,at:1), (pv:13,at:1), (pv:14,at:1), (pv:15,at:1), (pv:16,at:1), (pv:17,at:1), (pv:18,at:1), (pv:19,at:1), (pv:20,at:1), (pv:21,at:1), (pv:22,at:1), (pv:23,at:1), (pv:24,at:1), (pv:25,at:1), (pv:26,at:1), (pv:27,at:1), (pv:28,at:1), (pv:29,at:1), (pv:30,at:1), (pv:31,at:1), (pv:32,at:1), (pv:33,at:1), (pv:34,at:1), (pv:35,at:1), (pv:36,at:1), (pv:37,at:1), (pv:38,at:1), (pv:39,at:1), (pv:40,at:1), (pv:41,at:1), (pv:42,at:1), (pv:43,at:1), (pv:44,at:1), (pv:45,at:1), (pv:46,at:1), (pv:47,at:1), (pv:48,at:1), (pv:49,at:1), (pv:50,at:1), (pv:51,at:1), (pv:52,at:1), (pv:53,at:1), (pv:54,at:1), (pv:55,at:1), (pv:56,at:1), (pv:57,at:1), (pv:58,at:1), (pv:59,at:1), (pv:60,at:1), (pv:61,at:1), (pv:62,at:1), (pv:63,at:1), (pv:64,at:1), (pv:65,at:1), (pv:66,at:1), (pv:67,at:1), (pv:68,at:2), (pv:69,at:5), (pv:70,at:1), (pv:71,at:1), (pv:72,at:1), (pv:73,at:1), (pv:74,at:1), (pv:75,at:1), (pv:76,at:1), (pv:77,at:1), (pv:78,at:1), (pv:79,at:1), (pv:80,at:2), (pv:81,at:1), (pv:82,at:1), (pv:83,at:1), (pv:84,at:1), (pv:85,at:1), (pv:86,at:1), (pv:87,at:1), (pv:88,at:1), (pv:89,at:1), (pv:90,at:1), (pv:91,at:1), (pv:92,at:1), (pv:93,at:1), (pv:94,at:1), (pv:95,at:1), (pv:96,at:1), (pv:97,at:1), (pv:98,at:1), (pv:99,at:1), (pv:100,at:1), (pv:101,at:1), (pv:102,at:1), (pv:103,at:1), (pv:104,at:1), (pv:105,at:1), (pv:106,at:1), (pv:107,at:1), (pv:108,at:1), (pv:109,at:1), (pv:110,at:1), (pv:111,at:1), (pv:112,at:17), (pv:113,at:1), (pv:114,at:1), (pv:115,at:1), (pv:116,at:1), (pv:117,at:1), (pv:118,at:1), (pv:119,at:1), (pv:120,at:1), (pv:121,at:1), (pv:122,at:1), (pv:123,at:1), (pv:124,at:1), (pv:125,at:1), (pv:126,at:1), (pv:127,at:1), (pv:128,at:1), (pv:129,at:1), (pv:130,at:1), (pv:131,at:1), (pv:132,at:1), (pv:133,at:1), (pv:134,at:1), (pv:135,at:1), (pv:136,at:1), (pv:137,at:1), (pv:138,at:1), (pv:139,at:1), (pv:140,at:1), (pv:141,at:1), (pv:142,at:1), (pv:143,at:1), (pv:144,at:1), (pv:145,at:2), (pv:146,at:1), (pv:147,at:1), (pv:148,at:1), (pv:149,at:3), (pv:150,at:1), (pv:151,at:1), (pv:152,at:1), (pv:153,at:1), (pv:154,at:1), (pv:155,at:1), (pv:156,at:1), (pv:157,at:1), (pv:158,at:1), (pv:159,at:1), (pv:160,at:1), (pv:161,at:1), (pv:162,at:1), (pv:163,at:1), (pv:164,at:1), (pv:165,at:1), (pv:166,at:1), (pv:167,at:1), (pv:168,at:1), (pv:169,at:1), (pv:170,at:1), (pv:171,at:1), (pv:172,at:1), (pv:173,at:1), (pv:174,at:1), (pv:175,at:1), (pv:176,at:1), (pv:177,at:1), (pv:178,at:1), (pv:179,at:1), (pv:180,at:1), (pv:181,at:1), (pv:182,at:1), (pv:183,at:1), (pv:184,at:1), (pv:185,at:1), (pv:186,at:1), (pv:187,at:1), (pv:188,at:1), (pv:189,at:1), (pv:190,at:1), (pv:191,at:3), (pv:192,at:1), (pv:193,at:1), (pv:194,at:1), (pv:195,at:1), (pv:196,at:1), (pv:197,at:1), (pv:198,at:1), (pv:199,at:1), (pv:200,at:1), (pv:201,at:1), (pv:202,at:1), (pv:203,at:1), (pv:204,at:1), (pv:205,at:1), (pv:206,at:1), (pv:207,at:1), (pv:208,at:1), (pv:209,at:1), (pv:210,at:1), (pv:211,at:1), (pv:212,at:1), (pv:213,at:1), (pv:214,at:1), (pv:215,at:3), (pv:216,at:1), (pv:217,at:1), (pv:218,at:1), (pv:219,at:2), (pv:220,at:1), (pv:221,at:1), (pv:222,at:1), (pv:223,at:1), (pv:224,at:1), (pv:225,at:1), (pv:226,at:1), (pv:227,at:1), (pv:228,at:1), (pv:229,at:1), (pv:230,at:1), (pv:231,at:67), (pv:232,at:1), (pv:233,at:1), (pv:234,at:1), (pv:235,at:1), (pv:236,at:1), (pv:237,at:1), (pv:238,at:1), (pv:239,at:5), (pv:240,at:1), (pv:241,at:1), (pv:242,at:1), (pv:243,at:1), (pv:244,at:1), (pv:245,at:1), (pv:246,at:1), (pv:247,at:1), (pv:248,at:1), (pv:249,at:1), (pv:250,at:1), (pv:251,at:1), (pv:252,at:1), (pv:253,at:1), (pv:254,at:1), (pv:255,at:1), (pv:256,at:1), (pv:257,at:1), (pv:258,at:1), (pv:259,at:1), (pv:260,at:1), (pv:261,at:1), (pv:262,at:1), (pv:263,at:1), (pv:264,at:1), (pv:265,at:1), (pv:266,at:1), (pv:267,at:1), (pv:268,at:1), (pv:269,at:1), (pv:270,at:1), (pv:271,at:1), (pv:272,at:1), (pv:273,at:1), (pv:274,at:1), (pv:275,at:1), (pv:276,at:1), (pv:277,at:1), (pv:278,at:1), (pv:279,at:1), (pv:280,at:1), (pv:281,at:1), (pv:282,at:1), (pv:283,at:1), (pv:284,at:1), (pv:285,at:1), (pv:286,at:1), (pv:287,at:1), (pv:288,at:2), (pv:289,at:1), (pv:290,at:1), (pv:291,at:1), (pv:292,at:1), (pv:293,at:1), (pv:294,at:1), (pv:295,at:1), (pv:296,at:1), (pv:297,at:2), (pv:298,at:1), (pv:299,at:1), (pv:300,at:1), (pv:301,at:1), (pv:302,at:1), (pv:303,at:1), (pv:304,at:1), (pv:305,at:1), (pv:306,at:1), (pv:307,at:1), (pv:308,at:1), (pv:309,at:1), (pv:310,at:1), (pv:311,at:1), (pv:312,at:1), (pv:313,at:1), (pv:314,at:1), (pv:315,at:1), (pv:316,at:1), (pv:317,at:1), (pv:318,at:1), (pv:319,at:1), (pv:320,at:1), (pv:321,at:1), (pv:322,at:1), (pv:323,at:1), (pv:324,at:1), (pv:325,at:1), (pv:326,at:1), (pv:327,at:1), (pv:328,at:1), (pv:329,at:1), (pv:330,at:1), (pv:331,at:1), (pv:332,at:1), (pv:333,at:1), (pv:334,at:1), (pv:335,at:1), (pv:336,at:1), (pv:337,at:1), (pv:338,at:1), (pv:339,at:1), (pv:340,at:1), (pv:341,at:1), (pv:342,at:1), (pv:343,at:1), (pv:344,at:1), (pv:345,at:1), (pv:346,at:1), (pv:347,at:1), (pv:348,at:1), (pv:349,at:1), (pv:350,at:1), (pv:351,at:1), (pv:352,at:1), (pv:353,at:1), (pv:354,at:1), (pv:355,at:1), (pv:356,at:1), (pv:357,at:1), (pv:358,at:1), (pv:359,at:1), (pv:360,at:1), (pv:361,at:1), (pv:362,at:1), (pv:363,at:1), (pv:364,at:1), (pv:365,at:1), (pv:366,at:1), (pv:367,at:1), (pv:368,at:1), (pv:369,at:1), (pv:370,at:1), (pv:371,at:1), (pv:372,at:2), (pv:373,at:1), (pv:374,at:1), (pv:375,at:1), (pv:376,at:1), (pv:377,at:3), (pv:378,at:11), (pv:379,at:1), (pv:380,at:1), (pv:381,at:1), (pv:382,at:1), (pv:383,at:1), (pv:384,at:1), (pv:385,at:1), (pv:386,at:1), (pv:387,at:1), (pv:388,at:29), (pv:389,at:1), (pv:390,at:1), (pv:391,at:1), (pv:392,at:1), (pv:393,at:1), (pv:394,at:3), (pv:395,at:1), (pv:396,at:1), (pv:397,at:1), (pv:398,at:1), (pv:399,at:1), (pv:400,at:1), (pv:401,at:1), (pv:402,at:2), (pv:403,at:1), (pv:404,at:1), (pv:405,at:1), (pv:406,at:1), (pv:407,at:1), (pv:408,at:1), (pv:409,at:1), (pv:410,at:1), (pv:411,at:1), (pv:412,at:1), (pv:413,at:1), (pv:414,at:1), (pv:415,at:1), (pv:416,at:1), (pv:417,at:1), (pv:418,at:1), (pv:419,at:1), (pv:420,at:1), (pv:421,at:1), (pv:422,at:1), (pv:423,at:2), (pv:424,at:1), (pv:425,at:1), (pv:426,at:1), (pv:427,at:1), (pv:428,at:1), (pv:429,at:1), (pv:430,at:1), (pv:431,at:1), (pv:432,at:2), (pv:433,at:1), (pv:434,at:1), (pv:435,at:1), (pv:436,at:1), (pv:437,at:1), (pv:438,at:1), (pv:439,at:1), (pv:440,at:11), (pv:441,at:1), (pv:442,at:1), (pv:443,at:1), (pv:444,at:1), (pv:445,at:1), (pv:446,at:1), (pv:447,at:1), (pv:448,at:1), (pv:449,at:1), (pv:450,at:1), (pv:451,at:2), (pv:452,at:4), (pv:453,at:1), (pv:454,at:1), (pv:455,at:1), (pv:456,at:1), (pv:457,at:1), (pv:458,at:1), (pv:459,at:1), (pv:460,at:1), (pv:461,at:1), (pv:462,at:1), (pv:463,at:1), (pv:464,at:1), (pv:465,at:1), (pv:466,at:1), (pv:467,at:1), (pv:468,at:1), (pv:469,at:1), (pv:470,at:1), (pv:471,at:1), (pv:472,at:1), (pv:473,at:1), (pv:474,at:1), (pv:475,at:1), (pv:476,at:1), (pv:477,at:1), (pv:478,at:1), (pv:479,at:2), (pv:480,at:1), (pv:481,at:1), (pv:482,at:1), (pv:483,at:1), (pv:484,at:1), (pv:485,at:1), (pv:486,at:1), (pv:487,at:1), (pv:488,at:2), (pv:489,at:1), (pv:490,at:1), (pv:491,at:1), (pv:492,at:1), (pv:493,at:1), (pv:494,at:1), (pv:495,at:1), (pv:496,at:81), (pv:497,at:1), (pv:498,at:1), (pv:499,at:38), (pv:500,at:1), (pv:501,at:1), (pv:502,at:1), (pv:503,at:1), (pv:504,at:1), (pv:505,at:1), (pv:506,at:1), (pv:507,at:1), (pv:508,at:1), (pv:509,at:1), (pv:510,at:1), (pv:511,at:1), (pv:512,at:1), (pv:513,at:1), (pv:514,at:1), (pv:515,at:1), (pv:516,at:6), (pv:517,at:1), (pv:518,at:1), (pv:519,at:1), (pv:520,at:1), (pv:521,at:1), (pv:522,at:1), (pv:523,at:1), (pv:524,at:1), (pv:525,at:1), (pv:526,at:1), (pv:527,at:1), (pv:528,at:1), (pv:529,at:2), (pv:530,at:1), (pv:531,at:1), (pv:532,at:1), (pv:533,at:1), (pv:534,at:1), (pv:535,at:1), (pv:536,at:1), (pv:537,at:1), (pv:538,at:1), (pv:539,at:1), (pv:540,at:1), (pv:541,at:1), (pv:542,at:1), (pv:543,at:1), (pv:544,at:1), (pv:545,at:2), (pv:546,at:1), (pv:547,at:1), (pv:548,at:1), (pv:549,at:1), (pv:550,at:1), (pv:551,at:1), (pv:552,at:1), (pv:553,at:1), (pv:554,at:1), (pv:555,at:1), (pv:556,at:1), (pv:557,at:1), (pv:558,at:1), (pv:559,at:1), (pv:560,at:1), (pv:561,at:22), (pv:562,at:1), (pv:563,at:1), (pv:564,at:1), (pv:565,at:1), (pv:566,at:1), (pv:567,at:1), (pv:568,at:1), (pv:569,at:1), (pv:570,at:1), (pv:571,at:1), (pv:572,at:3), (pv:573,at:1), (pv:574,at:1), (pv:575,at:1), (pv:576,at:1), (pv:577,at:1), (pv:578,at:1), (pv:579,at:1), (pv:580,at:1), (pv:581,at:1), (pv:582,at:1), (pv:583,at:1), (pv:584,at:1), (pv:585,at:1), (pv:586,at:1), (pv:587,at:1), (pv:588,at:1), (pv:589,at:2), (pv:590,at:1), (pv:591,at:1), (pv:592,at:1), (pv:593,at:1), (pv:594,at:1), (pv:595,at:1), (pv:596,at:1), (pv:597,at:1), (pv:598,at:1), (pv:599,at:1), (pv:600,at:1), (pv:601,at:1), (pv:602,at:1), (pv:603,at:1), (pv:604,at:1), (pv:605,at:1), (pv:606,at:1), (pv:607,at:1), (pv:608,at:1), (pv:609,at:1), (pv:610,at:1), (pv:611,at:3), (pv:612,at:1), (pv:613,at:1), (pv:614,at:1), (pv:615,at:1), (pv:616,at:1), (pv:617,at:1), (pv:618,at:1), (pv:619,at:1), (pv:620,at:1), (pv:621,at:1), (pv:622,at:1), (pv:623,at:1), (pv:624,at:49), (pv:625,at:1), (pv:626,at:1), (pv:627,at:2), (pv:628,at:1), (pv:629,at:1), (pv:630,at:1), (pv:631,at:1), (pv:632,at:1), (pv:633,at:1), (pv:634,at:1), (pv:635,at:1), (pv:636,at:1), (pv:637,at:1), (pv:638,at:1), (pv:639,at:1), (pv:640,at:1), (pv:641,at:1), (pv:642,at:1), (pv:643,at:27), (pv:644,at:1), (pv:645,at:1), (pv:646,at:1), (pv:647,at:1), (pv:648,at:1), (pv:649,at:1), (pv:650,at:3), (pv:651,at:1), (pv:652,at:1), (pv:653,at:1), (pv:654,at:49), (pv:655,at:2), (pv:656,at:1), (pv:657,at:1), (pv:658,at:1), (pv:659,at:1), (pv:660,at:1), (pv:661,at:1), (pv:662,at:1), (pv:663,at:1), (pv:664,at:1), (pv:665,at:1), (pv:666,at:1), (pv:667,at:1), (pv:668,at:1), (pv:669,at:1), (pv:670,at:2), (pv:671,at:1), (pv:672,at:1), (pv:673,at:1), (pv:674,at:1), (pv:675,at:1), (pv:676,at:1), (pv:677,at:1), (pv:678,at:1), (pv:679,at:2), (pv:680,at:1), (pv:681,at:1), (pv:682,at:1), (pv:683,at:1), (pv:684,at:1), (pv:685,at:1), (pv:686,at:1), (pv:687,at:1), (pv:688,at:1), (pv:689,at:2), (pv:690,at:1), (pv:691,at:1), (pv:692,at:1), (pv:693,at:1), (pv:694,at:1), (pv:695,at:1), (pv:696,at:1), (pv:697,at:1), (pv:698,at:1), (pv:699,at:1), (pv:700,at:1), (pv:701,at:1), (pv:702,at:1), (pv:703,at:1), (pv:704,at:1), (pv:705,at:1), (pv:706,at:1), (pv:707,at:1), (pv:708,at:1), (pv:709,at:4), (pv:710,at:1), (pv:711,at:1), (pv:712,at:1), (pv:713,at:1), (pv:714,at:1), (pv:715,at:1), (pv:716,at:1), (pv:717,at:6), (pv:718,at:1), (pv:719,at:1), (pv:720,at:1), (pv:721,at:1), (pv:722,at:1), (pv:723,at:1), (pv:724,at:1), (pv:725,at:1), (pv:726,at:1), (pv:727,at:1), (pv:728,at:1), (pv:729,at:1), (pv:730,at:1), (pv:731,at:1), (pv:732,at:2), (pv:733,at:1), (pv:734,at:1), (pv:735,at:1), (pv:736,at:3), (pv:737,at:1), (pv:738,at:1), (pv:739,at:1), (pv:740,at:1), (pv:741,at:1), (pv:742,at:1), (pv:743,at:1), (pv:744,at:1), (pv:745,at:1), (pv:746,at:6), (pv:747,at:1), (pv:748,at:1), (pv:749,at:1), (pv:750,at:1), (pv:751,at:1), (pv:752,at:1), (pv:753,at:1), (pv:754,at:1), (pv:755,at:1), (pv:756,at:1), (pv:757,at:1), (pv:758,at:1), (pv:759,at:1), (pv:760,at:1), (pv:761,at:1), (pv:762,at:1), (pv:763,at:1), (pv:764,at:1), (pv:765,at:2), (pv:766,at:1), (pv:767,at:1), (pv:768,at:1), (pv:769,at:1), (pv:770,at:1), (pv:771,at:1), (pv:772,at:1), (pv:773,at:1), (pv:774,at:1), (pv:775,at:1), (pv:776,at:1), (pv:777,at:1), (pv:778,at:1), (pv:779,at:1), (pv:780,at:1), (pv:781,at:1), (pv:782,at:1), (pv:783,at:1), (pv:784,at:1), (pv:785,at:1), (pv:786,at:9), (pv:787,at:1), (pv:788,at:1), (pv:789,at:1), (pv:790,at:1), (pv:791,at:1), (pv:792,at:1), (pv:793,at:1), (pv:794,at:1), (pv:795,at:1), (pv:796,at:1), (pv:797,at:1), (pv:798,at:1), (pv:799,at:1), (pv:800,at:1), (pv:801,at:1), (pv:802,at:1), (pv:803,at:1), (pv:804,at:1), (pv:805,at:1), (pv:806,at:1), (pv:807,at:1), (pv:808,at:2), (pv:809,at:1), (pv:810,at:1), (pv:811,at:1), (pv:812,at:27), (pv:813,at:10), (pv:814,at:1), (pv:815,at:1), (pv:816,at:1), (pv:817,at:1), (pv:818,at:1), (pv:819,at:1), (pv:820,at:64), (pv:821,at:1), (pv:822,at:1), (pv:823,at:1), (pv:824,at:1), (pv:825,at:1), (pv:826,at:1), (pv:827,at:1), (pv:828,at:1), (pv:829,at:1), (pv:830,at:1), (pv:831,at:1), (pv:832,at:1), (pv:833,at:1), (pv:834,at:1), (pv:835,at:1), (pv:836,at:1), (pv:837,at:1), (pv:838,at:1), (pv:839,at:1), (pv:840,at:1), (pv:841,at:1), (pv:842,at:1), (pv:843,at:1), (pv:844,at:1), (pv:845,at:1), (pv:846,at:2), (pv:847,at:1), (pv:848,at:1), (pv:849,at:1), (pv:850,at:1), (pv:851,at:1), (pv:852,at:1), (pv:853,at:1), (pv:854,at:1), (pv:855,at:1), (pv:856,at:1), (pv:857,at:1), (pv:858,at:1), (pv:859,at:1), (pv:860,at:1), (pv:861,at:1), (pv:862,at:1), (pv:863,at:1), (pv:864,at:1), (pv:865,at:1), (pv:866,at:1), (pv:867,at:1), (pv:868,at:1), (pv:869,at:1), (pv:870,at:1), (pv:871,at:1), (pv:872,at:1), (pv:873,at:1), (pv:874,at:1), (pv:875,at:1), (pv:876,at:1), (pv:877,at:1), (pv:878,at:1), (pv:879,at:1), (pv:880,at:1), (pv:881,at:1), (pv:882,at:1), (pv:883,at:1), (pv:884,at:1), (pv:885,at:1), (pv:886,at:1), (pv:887,at:1), (pv:888,at:1), (pv:889,at:1), (pv:890,at:1), (pv:891,at:1), (pv:892,at:2), (pv:893,at:1), (pv:894,at:1), (pv:895,at:16), (pv:896,at:1), (pv:897,at:1), (pv:898,at:1), (pv:899,at:1), (pv:900,at:1), (pv:901,at:1), (pv:902,at:1), (pv:903,at:3), (pv:904,at:1), (pv:905,at:1), (pv:906,at:1), (pv:907,at:1), (pv:908,at:1), (pv:909,at:1), (pv:910,at:1), (pv:911,at:1), (pv:912,at:1), (pv:913,at:1), (pv:914,at:1), (pv:915,at:1), (pv:916,at:1), (pv:917,at:1), (pv:918,at:1), (pv:919,at:1), (pv:920,at:1), (pv:921,at:1), (pv:922,at:1), (pv:923,at:1), (pv:924,at:1), (pv:925,at:1), (pv:926,at:1), (pv:927,at:1), (pv:928,at:1), (pv:929,at:1), (pv:930,at:1), (pv:931,at:1), (pv:932,at:1), (pv:933,at:1), (pv:934,at:1), (pv:935,at:1), (pv:936,at:1), (pv:937,at:1), (pv:938,at:1), (pv:939,at:1), (pv:940,at:1), (pv:941,at:1), (pv:942,at:1), (pv:943,at:1), (pv:944,at:1), (pv:945,at:1), (pv:946,at:1), (pv:947,at:1), (pv:948,at:1), (pv:949,at:1), (pv:950,at:1), (pv:951,at:1), (pv:952,at:1), (pv:953,at:1), (pv:954,at:1), (pv:955,at:1), (pv:956,at:2), (pv:957,at:2), (pv:958,at:1), (pv:959,at:1), (pv:960,at:1), (pv:961,at:1), (pv:962,at:1), (pv:963,at:1), (pv:964,at:1), (pv:965,at:1), (pv:966,at:1), (pv:967,at:1), (pv:968,at:1), (pv:969,at:1), (pv:970,at:2), (pv:971,at:1), (pv:972,at:4), (pv:973,at:1), (pv:974,at:1), (pv:975,at:1), (pv:976,at:1), (pv:977,at:1), (pv:978,at:1), (pv:979,at:1), (pv:980,at:1), (pv:981,at:1), (pv:982,at:1), (pv:983,at:1), (pv:984,at:1), (pv:985,at:1), (pv:986,at:1), (pv:987,at:1), (pv:988,at:1), (pv:989,at:1), (pv:990,at:1), (pv:991,at:1), (pv:992,at:1), (pv:993,at:1), (pv:994,at:1), (pv:995,at:1), (pv:996,at:1), (pv:997,at:1), (pv:998,at:1), (pv:999,at:1), (pv:1000,at:1), (pv:1001,at:1), (pv:1002,at:1), (pv:1003,at:1), (pv:1004,at:1), (pv:1005,at:1), (pv:1006,at:1), (pv:1007,at:1), (pv:1008,at:1), (pv:1009,at:1), (pv:1010,at:1), (pv:1011,at:1), (pv:1012,at:6), (pv:1013,at:1), (pv:1014,at:1), (pv:1015,at:1), (pv:1016,at:1), (pv:1017,at:1), (pv:1018,at:1), (pv:1019,at:1), (pv:1020,at:1), (pv:1021,at:2), (pv:1022,at:1), (pv:1023,at:1), (pv:1024,at:1), (pv:1025,at:1)]
[INFO ] fr.inria.main.evolution.AstorMain.run(AstorMain.java:163) - Time Total(s): 11014.527
