Warning: no access to tty (Bad file descriptor).
Thus no job control in this shell.
tput: No value for $TERM and no -T specified
Node: wh21.sciclone.wm.edu
[INFO ] fr.inria.main.AbstractMain.processArguments(AbstractMain.java:295) - command line arguments: [-out  /local/scr/mtufano/Time/19/b/random-local-default/2  -jvm4testexecution  /usr/local/jdk1.7.0_80/bin/  -loglevel  INFO  -maxVarCombination  1000  -maxgen  1000000  -population  1  -maxtime  180  -timezone  America/New_York  -customop  fr.inria.astor.approaches.jgenprog.operators.InsertAfterOp:fr.inria.astor.approaches.jgenprog.operators.InsertBeforeOp:fr.inria.astor.approaches.jgenprog.operators.ReplaceOp  -seed  2  -javacompliancelevel  5  -package  org.joda  -binjavafolder  build/classes/  -bintestfolder  build/tests/  -srcjavafolder  src/main/java/  -srctestfolder  src/test/java/  -learningdir  ../../out/learningdir/Time/19/b/  -location  ../../dat/defects4j/Time/19/b/  -failing  org.joda.time.TestDateTimeZoneCutover  -dependencies  ../../dat/libs/Time/joda-convert-1.2.jar  -scope  fr.inria.astor.core.loop.spaces.ingredients.scopes.ctscopes.CtClassIngredientSpace  -ingredientstrategy  fr.inria.astor.core.loop.spaces.ingredients.ingredientSearch.EfficientIngredientStrategy  -classestoinstrument  org.joda.time.tz.FixedDateTimeZone:org.joda.time.field.RemainderDateTimeField:org.joda.time.field.PreciseDateTimeField:org.joda.time.field.FieldUtils:org.joda.time.format.FormatUtils:org.joda.time.field.DividedDateTimeField:org.joda.time.ReadableInstant:org.joda.time.format.DateTimeParser:org.joda.time.field.DecoratedDurationField:org.joda.time.field.OffsetDateTimeField:org.joda.time.DateTimeField:org.joda.time.chrono.BasicMonthOfYearDateTimeField:org.joda.time.base.BaseDateTime:org.joda.time.chrono.BasicWeekOfWeekyearDateTimeField:org.joda.time.tz.Provider:org.joda.time.format.DateTimePrinter:org.joda.time.DateTimeFieldType:org.joda.time.field.ScaledDurationField:org.joda.time.tz.DateTimeZoneBuilder:org.joda.time.format.DateTimeFormatter:org.joda.time.chrono.GJMonthOfYearDateTimeField:org.joda.time.field.ImpreciseDateTimeField:org.joda.time.chrono.GJEraDateTimeField:org.joda.time.DateTimeZone:org.joda.time.field.BaseDateTimeField:org.joda.time.base.AbstractInstant:org.joda.time.DateTimeUtils:org.joda.time.chrono.BasicGJChronology:org.joda.time.chrono.ISOYearOfEraDateTimeField:org.joda.time.DateTime:org.joda.time.chrono.ISOChronology:org.joda.time.format.ISODateTimeFormat:org.joda.time.DurationField:org.joda.time.field.DecoratedDateTimeField:org.joda.time.chrono.BaseChronology:org.joda.time.chrono.GJYearOfEraDateTimeField:org.joda.time.tz.CachedDateTimeZone:org.joda.time.field.MillisDurationField:org.joda.time.chrono.GJDayOfWeekDateTimeField:org.joda.time.field.PreciseDurationDateTimeField:org.joda.time.chrono.BasicDayOfYearDateTimeField:org.joda.time.IllegalFieldValueException:org.joda.time.chrono.GregorianChronology:org.joda.time.chrono.AssembledChronology:org.joda.time.DurationFieldType:org.joda.time.field.UnsupportedDateTimeField:org.joda.time.tz.DefaultNameProvider:org.joda.time.field.BaseDurationField:org.joda.time.ReadableInterval:org.joda.time.field.UnsupportedDurationField:org.joda.time.chrono.BasicChronology:org.joda.time.Chronology:org.joda.time.format.DateTimeFormatterBuilder:org.joda.time.chrono.BasicYearDateTimeField:org.joda.time.chrono.BasicDayOfMonthDateTimeField:org.joda.time.base.AbstractDateTime:org.joda.time.JodaTimePermission:org.joda.time.chrono.BasicWeekyearDateTimeField:org.joda.time.tz.NameProvider:org.joda.time.ReadableDateTime:org.joda.time.field.ZeroIsMaxDateTimeField:org.joda.time.chrono.ZonedChronology:org.joda.time.field.PreciseDurationField:org.joda.time.tz.ZoneInfoProvider:  -regressiontestcases4fl  org.joda.time.TestAbstractPartial:org.joda.time.TestBasePartial:org.joda.time.TestBaseSingleFieldPeriod:org.joda.time.TestChronology:org.joda.time.TestDateMidnight_Basics:org.joda.time.TestDateMidnight_Constructors:org.joda.time.TestDateMidnight_Properties:org.joda.time.TestDateTimeComparator:org.joda.time.TestDateTimeFieldType:org.joda.time.TestDateTimeUtils:org.joda.time.TestDateTimeZone:org.joda.time.TestDateTimeZoneCutover:org.joda.time.TestDateTime_Basics:org.joda.time.TestDateTime_Constructors:org.joda.time.TestDateTime_Properties:org.joda.time.TestDays:org.joda.time.TestDurationField:org.joda.time.TestDurationFieldType:org.joda.time.TestDuration_Basics:org.joda.time.TestDuration_Constructors:org.joda.time.TestHours:org.joda.time.TestIllegalFieldValueException:org.joda.time.TestInstant_Basics:org.joda.time.TestInstant_Constructors:org.joda.time.TestInterval_Basics:org.joda.time.TestInterval_Constructors:org.joda.time.TestLocalDateTime_Basics:org.joda.time.TestLocalDateTime_Constructors:org.joda.time.TestLocalDateTime_Properties:org.joda.time.TestLocalDate_Basics:org.joda.time.TestLocalDate_Constructors:org.joda.time.TestLocalDate_Properties:org.joda.time.TestLocalTime_Basics:org.joda.time.TestLocalTime_Constructors:org.joda.time.TestLocalTime_Properties:org.joda.time.TestMinutes:org.joda.time.TestMonthDay_Basics:org.joda.time.TestMonthDay_Constructors:org.joda.time.TestMonthDay_Properties:org.joda.time.TestMonths:org.joda.time.TestMutableDateTime_Adds:org.joda.time.TestMutableDateTime_Basics:org.joda.time.TestMutableDateTime_Constructors:org.joda.time.TestMutableDateTime_Properties:org.joda.time.TestMutableDateTime_Sets:org.joda.time.TestMutableInterval_Basics:org.joda.time.TestMutableInterval_Constructors:org.joda.time.TestMutableInterval_Updates:org.joda.time.TestMutablePeriod_Basics:org.joda.time.TestMutablePeriod_Constructors:org.joda.time.TestMutablePeriod_Updates:org.joda.time.TestPartial_Basics:org.joda.time.TestPartial_Constructors:org.joda.time.TestPartial_Match:org.joda.time.TestPartial_Properties:org.joda.time.TestPeriodType:org.joda.time.TestPeriod_Basics:org.joda.time.TestPeriod_Constructors:org.joda.time.TestSeconds:org.joda.time.TestSerialization:org.joda.time.TestStringConvert:org.joda.time.TestTimeOfDay_Basics:org.joda.time.TestTimeOfDay_Constructors:org.joda.time.TestTimeOfDay_Properties:org.joda.time.TestWeeks:org.joda.time.TestYearMonthDay_Basics:org.joda.time.TestYearMonthDay_Constructors:org.joda.time.TestYearMonthDay_Properties:org.joda.time.TestYearMonth_Basics:org.joda.time.TestYearMonth_Constructors:org.joda.time.TestYearMonth_Properties:org.joda.time.TestYears:org.joda.time.chrono.TestBuddhistChronology:org.joda.time.chrono.TestCopticChronology:org.joda.time.chrono.TestEthiopicChronology:org.joda.time.chrono.TestGJChronology:org.joda.time.chrono.TestGregorianChronology:org.joda.time.chrono.TestISOChronology:org.joda.time.chrono.TestIslamicChronology:org.joda.time.chrono.TestJulianChronology:org.joda.time.chrono.TestLenientChronology:org.joda.time.convert.TestCalendarConverter:org.joda.time.convert.TestConverterManager:org.joda.time.convert.TestDateConverter:org.joda.time.convert.TestLongConverter:org.joda.time.convert.TestNullConverter:org.joda.time.convert.TestReadableDurationConverter:org.joda.time.convert.TestReadableInstantConverter:org.joda.time.convert.TestReadableIntervalConverter:org.joda.time.convert.TestReadablePartialConverter:org.joda.time.convert.TestReadablePeriodConverter:org.joda.time.convert.TestStringConverter:org.joda.time.field.TestBaseDateTimeField:org.joda.time.field.TestMillisDurationField:org.joda.time.field.TestOffsetDateTimeField:org.joda.time.field.TestPreciseDateTimeField:org.joda.time.field.TestPreciseDurationDateTimeField:org.joda.time.field.TestPreciseDurationField:org.joda.time.field.TestScaledDurationField:org.joda.time.field.TestUnsupportedDateTimeField:org.joda.time.format.TestDateTimeFormat:org.joda.time.format.TestDateTimeFormatStyle:org.joda.time.format.TestDateTimeFormatter:org.joda.time.format.TestDateTimeFormatterBuilder:org.joda.time.format.TestISODateTimeFormat:org.joda.time.format.TestISODateTimeFormatParsing:org.joda.time.format.TestISODateTimeFormat_Fields:org.joda.time.format.TestISOPeriodFormat:org.joda.time.format.TestISOPeriodFormatParsing:org.joda.time.format.TestPeriodFormat:org.joda.time.format.TestPeriodFormatParsing:org.joda.time.format.TestPeriodFormatter:org.joda.time.format.TestPeriodFormatterBuilder:org.joda.time.format.TestTextFields:org.joda.time.tz.TestBuilder:org.joda.time.tz.TestCompiler:org.joda.time.tz.TestFixedDateTimeZone:org.joda.time.tz.TestUTCProvider:]
[INFO ] fr.inria.astor.core.manipulation.MutationSupporter.buildModel(MutationSupporter.java:76) - building model: /local/scr/mtufano/Time/19/b/random-local-default/2/AstorMain-b//src//default, compliance level: 5
[INFO ] fr.inria.astor.core.manipulation.MutationSupporter.buildModel(MutationSupporter.java:85) - Classpath for building SpoonModel [/sciclone/data20/mtufano/deeprepair/bin/eval/../../dat/libs/Time/joda-convert-1.2.jar]
[INFO ] fr.inria.astor.core.setup.ProjectRepairFacade.calculateSuspicious(ProjectRepairFacade.java:215) - -Executing Gzoltar classpath: /local/scr/mtufano/Time/19/b/random-local-default/2/AstorMain-b//bin//default from 118 classes with test cases
[INFO ] fr.inria.astor.core.faultlocalization.GZoltarFaultLocalization.searchSuspicious(GZoltarFaultLocalization.java:37) - Gzoltar fault localization: min susp value parameter: 0.1
[INFO ] fr.inria.astor.core.faultlocalization.GZoltarFaultLocalization.searchSuspicious(GZoltarFaultLocalization.java:57) - -gz-Adding classpath: [/local/scr/mtufano/Time/19/b/random-local-default/2/AstorMain-b//bin//default, /sciclone/data20/mtufano/deeprepair/bin/eval/../../dat/libs/Time/joda-convert-1.2.jar]
[INFO ] fr.inria.astor.core.faultlocalization.GZoltarFaultLocalization.searchSuspicious(GZoltarFaultLocalization.java:76) - Test failt: org.joda.time.format.TestDateTimeFormatter#testZoneShortNameNearTransition
[INFO ] fr.inria.astor.core.faultlocalization.GZoltarFaultLocalization.searchSuspicious(GZoltarFaultLocalization.java:76) - Test failt: org.joda.time.format.TestDateTimeFormatter#testZoneNameNearTransition
[INFO ] fr.inria.astor.core.faultlocalization.GZoltarFaultLocalization.searchSuspicious(GZoltarFaultLocalization.java:76) - Test failt: org.joda.time.format.TestDateTimeFormatterBuilder#test_printParseLongName
[INFO ] fr.inria.astor.core.faultlocalization.GZoltarFaultLocalization.searchSuspicious(GZoltarFaultLocalization.java:76) - Test failt: org.joda.time.format.TestDateTimeFormatterBuilder#test_printParseLongNameWithLookup
[INFO ] fr.inria.astor.core.faultlocalization.GZoltarFaultLocalization.searchSuspicious(GZoltarFaultLocalization.java:76) - Test failt: org.joda.time.format.TestDateTimeFormatterBuilder#test_printParseShortNameWithLookup
[INFO ] fr.inria.astor.core.faultlocalization.GZoltarFaultLocalization.searchSuspicious(GZoltarFaultLocalization.java:76) - Test failt: org.joda.time.format.TestDateTimeFormatterBuilder#test_printParseShortName
[INFO ] fr.inria.astor.core.faultlocalization.GZoltarFaultLocalization.searchSuspicious(GZoltarFaultLocalization.java:76) - Test failt: org.joda.time.format.TestDateTimeFormatStyle#testForStyle_fullDateTime
[INFO ] fr.inria.astor.core.faultlocalization.GZoltarFaultLocalization.searchSuspicious(GZoltarFaultLocalization.java:76) - Test failt: org.joda.time.format.TestDateTimeFormatStyle#testForStyle_mediumLongDateTime
[INFO ] fr.inria.astor.core.faultlocalization.GZoltarFaultLocalization.searchSuspicious(GZoltarFaultLocalization.java:76) - Test failt: org.joda.time.format.TestDateTimeFormatStyle#testForStyle_fullTime
[INFO ] fr.inria.astor.core.faultlocalization.GZoltarFaultLocalization.searchSuspicious(GZoltarFaultLocalization.java:76) - Test failt: org.joda.time.format.TestDateTimeFormatStyle#testForStyle_shortLongDateTime
[INFO ] fr.inria.astor.core.faultlocalization.GZoltarFaultLocalization.searchSuspicious(GZoltarFaultLocalization.java:76) - Test failt: org.joda.time.format.TestDateTimeFormatStyle#testForStyle_longTime
[INFO ] fr.inria.astor.core.faultlocalization.GZoltarFaultLocalization.searchSuspicious(GZoltarFaultLocalization.java:76) - Test failt: org.joda.time.format.TestDateTimeFormatStyle#testForStyle_mediumFullDateTime
[INFO ] fr.inria.astor.core.faultlocalization.GZoltarFaultLocalization.searchSuspicious(GZoltarFaultLocalization.java:76) - Test failt: org.joda.time.format.TestDateTimeFormatStyle#testForStyle_shortFullDateTime
[INFO ] fr.inria.astor.core.faultlocalization.GZoltarFaultLocalization.searchSuspicious(GZoltarFaultLocalization.java:76) - Test failt: org.joda.time.format.TestDateTimeFormatStyle#testForStyle_longDateTime
[INFO ] fr.inria.astor.core.faultlocalization.GZoltarFaultLocalization.searchSuspicious(GZoltarFaultLocalization.java:76) - Test failt: org.joda.time.format.TestDateTimeFormat#testFormat_zoneText
[INFO ] fr.inria.astor.core.faultlocalization.GZoltarFaultLocalization.searchSuspicious(GZoltarFaultLocalization.java:76) - Test failt: org.joda.time.format.TestDateTimeFormat#testFormat_zoneLongText
[INFO ] fr.inria.astor.core.faultlocalization.GZoltarFaultLocalization.searchSuspicious(GZoltarFaultLocalization.java:76) - Test failt: org.joda.time.TestDateTimeZoneCutover#testDateTimeCreation_london
[INFO ] fr.inria.astor.core.faultlocalization.GZoltarFaultLocalization.searchSuspicious(GZoltarFaultLocalization.java:76) - Test failt: org.joda.time.TestDateTimeZone#testGetName_berlin
[INFO ] fr.inria.astor.core.faultlocalization.GZoltarFaultLocalization.searchSuspicious(GZoltarFaultLocalization.java:76) - Test failt: org.joda.time.TestDateTimeZone#testGetShortName
[INFO ] fr.inria.astor.core.faultlocalization.GZoltarFaultLocalization.searchSuspicious(GZoltarFaultLocalization.java:76) - Test failt: org.joda.time.TestDateTimeZone#testGetName
[INFO ] fr.inria.astor.core.faultlocalization.GZoltarFaultLocalization.searchSuspicious(GZoltarFaultLocalization.java:76) - Test failt: org.joda.time.TestDateTimeZone#testGetShortName_berlin
[INFO ] fr.inria.astor.core.faultlocalization.GZoltarFaultLocalization.searchSuspicious(GZoltarFaultLocalization.java:81) - Gzoltar Test Result Total:3853, fails: 21, GZoltar suspicious 9992
[INFO ] fr.inria.astor.core.faultlocalization.GZoltarFaultLocalization.searchSuspicious(GZoltarFaultLocalization.java:123) - Gzoltar found: 574 with susp > 0.1, we consider: 574
[INFO ] fr.inria.astor.approaches.jgenprog.JGenProg.initPopulation(JGenProg.java:80) - 
---- Initial suspicious size: 574
[INFO ] fr.inria.astor.core.loop.population.ProgramVariantFactory.createProgramInstance(ProgramVariantFactory.java:126) - -any mod point created for suspicious Candidate [className=org.joda.time.format.DateTimeFormatterBuilder$TimeZoneName, methodName=org.joda.time.format.DateTimeFormatterBuilder$TimeZoneName{printTo(Ljava/lang/StringBuffer;JLorg/joda/time/Chronology;ILorg/joda/time/DateTimeZone;Ljava/util/Locale;)V 0.0, lineNumber=2452, susp=0.8728715609439696]
[INFO ] fr.inria.astor.core.loop.population.ProgramVariantFactory.createProgramInstance(ProgramVariantFactory.java:126) - -any mod point created for suspicious Candidate [className=org.joda.time.format.DateTimeFormat, methodName=org.joda.time.format.DateTimeFormat{parsePatternTo(Lorg/joda/time/format/DateTimeFormatterBuilder;Ljava/lang/String;)V 0.0, lineNumber=533, susp=0.7559289460184544]
[INFO ] fr.inria.astor.core.loop.population.ProgramVariantFactory.createProgramInstance(ProgramVariantFactory.java:126) - -any mod point created for suspicious Candidate [className=org.joda.time.format.DateTimeFormatterBuilder$TimeZoneName, methodName=org.joda.time.format.DateTimeFormatterBuilder$TimeZoneName{print(JLorg/joda/time/DateTimeZone;Ljava/util/Locale;)Ljava/lang/String; 0.0, lineNumber=2468, susp=0.7559289460184544]
[INFO ] fr.inria.astor.core.loop.population.ProgramVariantFactory.createProgramInstance(ProgramVariantFactory.java:126) - -any mod point created for suspicious Candidate [className=org.joda.time.format.DateTimeFormat, methodName=org.joda.time.format.DateTimeFormat{parsePatternTo(Lorg/joda/time/format/DateTimeFormatterBuilder;Ljava/lang/String;)V 0.0, lineNumber=538, susp=0.6900655593423543]
[INFO ] fr.inria.astor.core.loop.population.ProgramVariantFactory.createProgramInstance(ProgramVariantFactory.java:126) - -any mod point created for suspicious Candidate [className=org.joda.time.format.DateTimeFormat, methodName=org.joda.time.format.DateTimeFormat{parsePatternTo(Lorg/joda/time/format/DateTimeFormatterBuilder;Ljava/lang/String;)V 0.0, lineNumber=511, susp=0.545544725589981]
[INFO ] fr.inria.astor.core.loop.population.ProgramVariantFactory.createProgramInstance(ProgramVariantFactory.java:126) - -any mod point created for suspicious Candidate [className=org.joda.time.format.DateTimeFormat, methodName=org.joda.time.format.DateTimeFormat{parsePatternTo(Lorg/joda/time/format/DateTimeFormatterBuilder;Ljava/lang/String;)V 0.0, lineNumber=512, susp=0.545544725589981]
[INFO ] fr.inria.astor.core.loop.population.ProgramVariantFactory.createProgramInstance(ProgramVariantFactory.java:126) - -any mod point created for suspicious Candidate [className=org.joda.time.format.DateTimeFormat, methodName=org.joda.time.format.DateTimeFormat{parsePatternTo(Lorg/joda/time/format/DateTimeFormatterBuilder;Ljava/lang/String;)V 0.0, lineNumber=508, susp=0.4771187236136979]
[INFO ] fr.inria.astor.core.loop.population.ProgramVariantFactory.createProgramInstance(ProgramVariantFactory.java:126) - -any mod point created for suspicious Candidate [className=org.joda.time.format.DateTimeFormat, methodName=org.joda.time.format.DateTimeFormat{parsePatternTo(Lorg/joda/time/format/DateTimeFormatterBuilder;Ljava/lang/String;)V 0.0, lineNumber=509, susp=0.4771187236136979]
[INFO ] fr.inria.astor.core.loop.population.ProgramVariantFactory.createProgramInstance(ProgramVariantFactory.java:126) - -any mod point created for suspicious Candidate [className=org.joda.time.format.DateTimeFormat, methodName=org.joda.time.format.DateTimeFormat{parsePatternTo(Lorg/joda/time/format/DateTimeFormatterBuilder;Ljava/lang/String;)V 0.0, lineNumber=499, susp=0.46589082794780523]
[INFO ] fr.inria.astor.core.loop.population.ProgramVariantFactory.createProgramInstance(ProgramVariantFactory.java:126) - -any mod point created for suspicious Candidate [className=org.joda.time.format.DateTimeFormat, methodName=org.joda.time.format.DateTimeFormat{parsePatternTo(Lorg/joda/time/format/DateTimeFormatterBuilder;Ljava/lang/String;)V 0.0, lineNumber=500, susp=0.46589082794780523]
[INFO ] fr.inria.astor.core.loop.population.ProgramVariantFactory.createProgramInstance(ProgramVariantFactory.java:126) - -any mod point created for suspicious Candidate [className=org.joda.time.format.DateTimeFormatterBuilder$TimeZoneName, methodName=org.joda.time.format.DateTimeFormatterBuilder$TimeZoneName{print(JLorg/joda/time/DateTimeZone;Ljava/util/Locale;)Ljava/lang/String; 0.0, lineNumber=2466, susp=0.4364357804719848]
[INFO ] fr.inria.astor.core.loop.population.ProgramVariantFactory.createProgramInstance(ProgramVariantFactory.java:126) - -any mod point created for suspicious Candidate [className=org.joda.time.format.DateTimeFormat$StyleFormatter, methodName=org.joda.time.format.DateTimeFormat$StyleFormatter{getPattern(Ljava/util/Locale;)Ljava/lang/String; 0.0, lineNumber=842, susp=0.41403933560541256]
[INFO ] fr.inria.astor.core.loop.population.ProgramVariantFactory.createProgramInstance(ProgramVariantFactory.java:126) - -any mod point created for suspicious Candidate [className=org.joda.time.format.DateTimeFormat$StyleFormatter, methodName=org.joda.time.format.DateTimeFormat$StyleFormatter{printTo(Ljava/lang/StringBuffer;JLorg/joda/time/Chronology;ILorg/joda/time/DateTimeZone;Ljava/util/Locale;)V 0.0, lineNumber=789, susp=0.41147559989891175]
[INFO ] fr.inria.astor.core.loop.population.ProgramVariantFactory.createProgramInstance(ProgramVariantFactory.java:126) - -any mod point created for suspicious Candidate [className=org.joda.time.format.DateTimeFormat$StyleFormatter, methodName=org.joda.time.format.DateTimeFormat$StyleFormatter{getFormatter(Ljava/util/Locale;)Lorg/joda/time/format/DateTimeFormatter; 0.0, lineNumber=828, susp=0.41147559989891175]
[INFO ] fr.inria.astor.core.loop.population.ProgramVariantFactory.createProgramInstance(ProgramVariantFactory.java:126) - -any mod point created for suspicious Candidate [className=org.joda.time.format.DateTimeFormat, methodName=org.joda.time.format.DateTimeFormat{createFormatterForStyleIndex(II)Lorg/joda/time/format/DateTimeFormatter; 0.0, lineNumber=736, susp=0.41147559989891175]
[INFO ] fr.inria.astor.core.loop.population.ProgramVariantFactory.createProgramInstance(ProgramVariantFactory.java:126) - -any mod point created for suspicious Candidate [className=org.joda.time.format.DateTimeFormat, methodName=org.joda.time.format.DateTimeFormat{parseToken(Ljava/lang/String;[I)Ljava/lang/String; 0.0, lineNumber=593, susp=0.3912303982179758]
[INFO ] fr.inria.astor.core.loop.population.ProgramVariantFactory.createProgramInstance(ProgramVariantFactory.java:126) - -any mod point created for suspicious Candidate [className=org.joda.time.format.DateTimeFormat, methodName=org.joda.time.format.DateTimeFormat{selectStyle(C)I 0.0, lineNumber=755, susp=0.3903600291794133]
[INFO ] fr.inria.astor.core.loop.population.ProgramVariantFactory.createProgramInstance(ProgramVariantFactory.java:126) - -any mod point created for suspicious Candidate [className=org.joda.time.format.DateTimeFormat, methodName=org.joda.time.format.DateTimeFormat{selectStyle(C)I 0.0, lineNumber=753, susp=0.3903600291794133]
[INFO ] fr.inria.astor.core.loop.population.ProgramVariantFactory.createProgramInstance(ProgramVariantFactory.java:126) - -any mod point created for suspicious Candidate [className=org.joda.time.format.DateTimeFormat, methodName=org.joda.time.format.DateTimeFormat{parsePatternTo(Lorg/joda/time/format/DateTimeFormatterBuilder;Ljava/lang/String;)V 0.0, lineNumber=549, susp=0.3879917968315853]
[INFO ] fr.inria.astor.core.loop.population.ProgramVariantFactory.createProgramInstance(ProgramVariantFactory.java:126) - -any mod point created for suspicious Candidate [className=org.joda.time.format.DateTimeFormat, methodName=org.joda.time.format.DateTimeFormat{parsePatternTo(Lorg/joda/time/format/DateTimeFormatterBuilder;Ljava/lang/String;)V 0.0, lineNumber=550, susp=0.3879917968315853]
[INFO ] fr.inria.astor.core.loop.population.ProgramVariantFactory.createProgramInstance(ProgramVariantFactory.java:126) - -any mod point created for suspicious Candidate [className=org.joda.time.format.DateTimeFormat, methodName=org.joda.time.format.DateTimeFormat{parsePatternTo(Lorg/joda/time/format/DateTimeFormatterBuilder;Ljava/lang/String;)V 0.0, lineNumber=490, susp=0.3740878118331298]
[INFO ] fr.inria.astor.core.loop.population.ProgramVariantFactory.createProgramInstance(ProgramVariantFactory.java:126) - -any mod point created for suspicious Candidate [className=org.joda.time.format.DateTimeFormat, methodName=org.joda.time.format.DateTimeFormat{parsePatternTo(Lorg/joda/time/format/DateTimeFormatterBuilder;Ljava/lang/String;)V 0.0, lineNumber=491, susp=0.3740878118331298]
[INFO ] fr.inria.astor.core.loop.population.ProgramVariantFactory.createProgramInstance(ProgramVariantFactory.java:126) - -any mod point created for suspicious Candidate [className=org.joda.time.format.DateTimeFormat, methodName=org.joda.time.format.DateTimeFormat{parsePatternTo(Lorg/joda/time/format/DateTimeFormatterBuilder;Ljava/lang/String;)V 0.0, lineNumber=563, susp=0.3620502577611363]
[INFO ] fr.inria.astor.core.loop.population.ProgramVariantFactory.createProgramInstance(ProgramVariantFactory.java:126) - -any mod point created for suspicious Candidate [className=org.joda.time.format.DateTimeFormat, methodName=org.joda.time.format.DateTimeFormat{parsePatternTo(Lorg/joda/time/format/DateTimeFormatterBuilder;Ljava/lang/String;)V 0.0, lineNumber=424, susp=0.3596943895981084]
[INFO ] fr.inria.astor.core.loop.population.ProgramVariantFactory.createProgramInstance(ProgramVariantFactory.java:126) - -any mod point created for suspicious Candidate [className=org.joda.time.format.DateTimeFormat, methodName=org.joda.time.format.DateTimeFormat{parsePatternTo(Lorg/joda/time/format/DateTimeFormatterBuilder;Ljava/lang/String;)V 0.0, lineNumber=470, susp=0.3539961627023943]
[INFO ] fr.inria.astor.core.loop.population.ProgramVariantFactory.createProgramInstance(ProgramVariantFactory.java:126) - -any mod point created for suspicious Candidate [className=org.joda.time.format.DateTimeFormat, methodName=org.joda.time.format.DateTimeFormat{parsePatternTo(Lorg/joda/time/format/DateTimeFormatterBuilder;Ljava/lang/String;)V 0.0, lineNumber=471, susp=0.3539961627023943]
[INFO ] fr.inria.astor.core.loop.population.ProgramVariantFactory.createProgramInstance(ProgramVariantFactory.java:126) - -any mod point created for suspicious Candidate [className=org.joda.time.format.DateTimeFormat, methodName=org.joda.time.format.DateTimeFormat{parsePatternTo(Lorg/joda/time/format/DateTimeFormatterBuilder;Ljava/lang/String;)V 0.0, lineNumber=479, susp=0.3530939318018998]
[INFO ] fr.inria.astor.core.loop.population.ProgramVariantFactory.createProgramInstance(ProgramVariantFactory.java:126) - -any mod point created for suspicious Candidate [className=org.joda.time.format.DateTimeFormat, methodName=org.joda.time.format.DateTimeFormat{parsePatternTo(Lorg/joda/time/format/DateTimeFormatterBuilder;Ljava/lang/String;)V 0.0, lineNumber=477, susp=0.3367175148507369]
[INFO ] fr.inria.astor.core.loop.population.ProgramVariantFactory.createProgramInstance(ProgramVariantFactory.java:126) - -any mod point created for suspicious Candidate [className=org.joda.time.format.DateTimeFormat, methodName=org.joda.time.format.DateTimeFormat{parsePatternTo(Lorg/joda/time/format/DateTimeFormatterBuilder;Ljava/lang/String;)V 0.0, lineNumber=488, susp=0.2726392706363988]
[INFO ] fr.inria.astor.core.loop.population.ProgramVariantFactory.createProgramInstance(ProgramVariantFactory.java:126) - -any mod point created for suspicious Candidate [className=org.joda.time.format.DateTimeFormat, methodName=org.joda.time.format.DateTimeFormat{parsePatternTo(Lorg/joda/time/format/DateTimeFormatterBuilder;Ljava/lang/String;)V 0.0, lineNumber=557, susp=0.2253744679276044]
[INFO ] fr.inria.astor.core.loop.population.ProgramVariantFactory.createProgramInstance(ProgramVariantFactory.java:126) - -any mod point created for suspicious Candidate [className=org.joda.time.format.DateTimeFormat, methodName=org.joda.time.format.DateTimeFormat{appendPatternTo(Lorg/joda/time/format/DateTimeFormatterBuilder;Ljava/lang/String;)V 0.0, lineNumber=378, susp=0.2253744679276044]
[INFO ] fr.inria.astor.core.loop.population.ProgramVariantFactory.createProgramInstance(ProgramVariantFactory.java:126) - -any mod point created for suspicious Candidate [className=org.joda.time.format.DateTimeFormat$StyleFormatter, methodName=org.joda.time.format.DateTimeFormat$StyleFormatter{getPattern(Ljava/util/Locale;)Ljava/lang/String; 0.0, lineNumber=839, susp=0.2182178902359924]
[INFO ] fr.inria.astor.core.loop.population.ProgramVariantFactory.createProgramInstance(ProgramVariantFactory.java:126) - -any mod point created for suspicious Candidate [className=org.joda.time.format.DateTimeFormat$StyleFormatter, methodName=org.joda.time.format.DateTimeFormat$StyleFormatter{getPattern(Ljava/util/Locale;)Ljava/lang/String; 0.0, lineNumber=840, susp=0.2182178902359924]
[INFO ] fr.inria.astor.core.loop.population.ProgramVariantFactory.createProgramInstance(ProgramVariantFactory.java:126) - -any mod point created for suspicious Candidate [className=org.joda.time.format.DateTimeFormatterBuilder, methodName=org.joda.time.format.DateTimeFormatterBuilder{appendLiteral(Ljava/lang/String;)Lorg/joda/time/format/DateTimeFormatterBuilder; 0.0, lineNumber=379, susp=0.21170244960998524]
[INFO ] fr.inria.astor.core.loop.population.ProgramVariantFactory.createProgramInstance(ProgramVariantFactory.java:126) - -any mod point created for suspicious Candidate [className=org.joda.time.format.DateTimeFormatterBuilder$StringLiteral, methodName=org.joda.time.format.DateTimeFormatterBuilder$StringLiteral{printTo(Ljava/lang/StringBuffer;JLorg/joda/time/Chronology;ILorg/joda/time/DateTimeZone;Ljava/util/Locale;)V 0.0, lineNumber=1244, susp=0.21170244960998524]
[INFO ] fr.inria.astor.core.loop.population.ProgramVariantFactory.createProgramInstance(ProgramVariantFactory.java:126) - -any mod point created for suspicious Candidate [className=org.joda.time.format.DateTimeFormat, methodName=org.joda.time.format.DateTimeFormat{createFormatterForPattern(Ljava/lang/String;)Lorg/joda/time/format/DateTimeFormatter; 0.0, lineNumber=687, susp=0.21033219281984755]
[INFO ] fr.inria.astor.core.loop.population.ProgramVariantFactory.createProgramInstance(ProgramVariantFactory.java:126) - -any mod point created for suspicious Candidate [className=org.joda.time.format.DateTimeFormatterBuilder$Composite, methodName=org.joda.time.format.DateTimeFormatterBuilder$Composite{decompose(Ljava/util/List;Ljava/util/List;Ljava/util/List;)V 0.0, lineNumber=2733, susp=0.19720265943665385]
[INFO ] fr.inria.astor.core.loop.population.ProgramVariantFactory.createProgramInstance(ProgramVariantFactory.java:126) - -any mod point created for suspicious Candidate [className=org.joda.time.format.DateTimeFormat, methodName=org.joda.time.format.DateTimeFormat{parsePatternTo(Lorg/joda/time/format/DateTimeFormatterBuilder;Ljava/lang/String;)V 0.0, lineNumber=514, susp=0.19518001458970666]
[INFO ] fr.inria.astor.core.loop.population.ProgramVariantFactory.createProgramInstance(ProgramVariantFactory.java:126) - -any mod point created for suspicious Candidate [className=org.joda.time.format.DateTimeFormat, methodName=org.joda.time.format.DateTimeFormat{parsePatternTo(Lorg/joda/time/format/DateTimeFormatterBuilder;Ljava/lang/String;)V 0.0, lineNumber=515, susp=0.19518001458970666]
[INFO ] fr.inria.astor.core.loop.population.ProgramVariantFactory.createProgramInstance(ProgramVariantFactory.java:126) - -any mod point created for suspicious Candidate [className=org.joda.time.format.FormatUtils, methodName=org.joda.time.format.FormatUtils{appendPaddedInteger(Ljava/lang/StringBuffer;II)V 0.0, lineNumber=92, susp=0.1891431409496878]
[INFO ] fr.inria.astor.core.loop.population.ProgramVariantFactory.createProgramInstance(ProgramVariantFactory.java:126) - -any mod point created for suspicious Candidate [className=org.joda.time.format.FormatUtils, methodName=org.joda.time.format.FormatUtils{appendPaddedInteger(Ljava/lang/StringBuffer;II)V 0.0, lineNumber=78, susp=0.18276400482845054]
[INFO ] fr.inria.astor.core.loop.population.ProgramVariantFactory.createProgramInstance(ProgramVariantFactory.java:126) - -any mod point created for suspicious Candidate [className=org.joda.time.format.DateTimeFormatterBuilder$CharacterLiteral, methodName=org.joda.time.format.DateTimeFormatterBuilder$CharacterLiteral{printTo(Ljava/lang/StringBuffer;JLorg/joda/time/Chronology;ILorg/joda/time/DateTimeZone;Ljava/util/Locale;)V 0.0, lineNumber=1181, susp=0.18276400482845054]
[INFO ] fr.inria.astor.core.loop.population.ProgramVariantFactory.createProgramInstance(ProgramVariantFactory.java:126) - -any mod point created for suspicious Candidate [className=org.joda.time.format.DateTimeFormatterBuilder$Composite, methodName=org.joda.time.format.DateTimeFormatterBuilder$Composite{printTo(Ljava/lang/StringBuffer;JLorg/joda/time/Chronology;ILorg/joda/time/DateTimeZone;Ljava/util/Locale;)V 0.0, lineNumber=2628, susp=0.18188320931713797]
[INFO ] fr.inria.astor.core.loop.population.ProgramVariantFactory.createProgramInstance(ProgramVariantFactory.java:126) - -any mod point created for suspicious Candidate [className=org.joda.time.format.DateTimeFormatterBuilder$PaddedNumber, methodName=org.joda.time.format.DateTimeFormatterBuilder$PaddedNumber{printTo(Ljava/lang/StringBuffer;JLorg/joda/time/Chronology;ILorg/joda/time/DateTimeZone;Ljava/util/Locale;)V 0.0, lineNumber=1441, susp=0.18188320931713797]
[INFO ] fr.inria.astor.core.loop.population.ProgramVariantFactory.createProgramInstance(ProgramVariantFactory.java:126) - -any mod point created for suspicious Candidate [className=org.joda.time.format.DateTimeFormatterBuilder$PaddedNumber, methodName=org.joda.time.format.DateTimeFormatterBuilder$PaddedNumber{printTo(Ljava/lang/StringBuffer;JLorg/joda/time/Chronology;ILorg/joda/time/DateTimeZone;Ljava/util/Locale;)V 0.0, lineNumber=1442, susp=0.18188320931713797]
[INFO ] fr.inria.astor.core.loop.population.ProgramVariantFactory.createProgramInstance(ProgramVariantFactory.java:126) - -any mod point created for suspicious Candidate [className=org.joda.time.format.DateTimeFormatter, methodName=org.joda.time.format.DateTimeFormatter{printTo(Ljava/lang/StringBuffer;Lorg/joda/time/ReadableInstant;)V 0.0, lineNumber=461, susp=0.181015026749983]
[INFO ] fr.inria.astor.core.loop.population.ProgramVariantFactory.createProgramInstance(ProgramVariantFactory.java:126) - -any mod point created for suspicious Candidate [className=org.joda.time.format.DateTimeFormatter, methodName=org.joda.time.format.DateTimeFormatter{printTo(Ljava/lang/StringBuffer;JLorg/joda/time/Chronology;)V 0.0, lineNumber=631, susp=0.17952516580325342]
[INFO ] fr.inria.astor.core.loop.population.ProgramVariantFactory.createProgramInstance(ProgramVariantFactory.java:126) - -any mod point created for suspicious Candidate [className=org.joda.time.format.DateTimeFormat, methodName=org.joda.time.format.DateTimeFormat{selectStyle(C)I 0.0, lineNumber=751, susp=0.1649572197684645]
[INFO ] fr.inria.astor.core.loop.population.ProgramVariantFactory.createProgramInstance(ProgramVariantFactory.java:126) - -any mod point created for suspicious Candidate [className=org.joda.time.format.DateTimeFormat, methodName=org.joda.time.format.DateTimeFormat{selectStyle(C)I 0.0, lineNumber=749, susp=0.1649572197684645]
[INFO ] fr.inria.astor.core.loop.population.ProgramVariantFactory.createProgramInstance(ProgramVariantFactory.java:126) - -any mod point created for suspicious Candidate [className=org.joda.time.format.DateTimeFormatterBuilder$TwoDigitYear, methodName=org.joda.time.format.DateTimeFormatterBuilder$TwoDigitYear{printTo(Ljava/lang/StringBuffer;JLorg/joda/time/Chronology;ILorg/joda/time/DateTimeZone;Ljava/util/Locale;)V 0.0, lineNumber=1646, susp=0.1543033499620919]
[INFO ] fr.inria.astor.core.loop.population.ProgramVariantFactory.createProgramInstance(ProgramVariantFactory.java:126) - -any mod point created for suspicious Candidate [className=org.joda.time.format.DateTimeFormat, methodName=org.joda.time.format.DateTimeFormat{selectStyle(C)I 0.0, lineNumber=757, susp=0.14547859349066158]
[INFO ] fr.inria.astor.core.loop.population.ProgramVariantFactory.createProgramInstance(ProgramVariantFactory.java:126) - -any mod point created for suspicious Candidate [className=org.joda.time.format.DateTimeFormat, methodName=org.joda.time.format.DateTimeFormat{parsePatternTo(Lorg/joda/time/format/DateTimeFormatterBuilder;Ljava/lang/String;)V 0.0, lineNumber=448, susp=0.13801311186847084]
[INFO ] fr.inria.astor.core.loop.population.ProgramVariantFactory.createProgramInstance(ProgramVariantFactory.java:126) - -any mod point created for suspicious Candidate [className=org.joda.time.DateTimeFieldType$StandardDateTimeFieldType, methodName=org.joda.time.DateTimeFieldType$StandardDateTimeFieldType{getField(Lorg/joda/time/Chronology;)Lorg/joda/time/DateTimeField; 0.0, lineNumber=520, susp=0.13447666979807305]
[INFO ] fr.inria.astor.core.loop.population.ProgramVariantFactory.createProgramInstance(ProgramVariantFactory.java:126) - -any mod point created for suspicious Candidate [className=org.joda.time.DateTimeFieldType$StandardDateTimeFieldType, methodName=org.joda.time.DateTimeFieldType$StandardDateTimeFieldType{getField(Lorg/joda/time/Chronology;)Lorg/joda/time/DateTimeField; 0.0, lineNumber=516, susp=0.13215273793814938]
[INFO ] fr.inria.astor.core.loop.population.ProgramVariantFactory.createProgramInstance(ProgramVariantFactory.java:126) - -any mod point created for suspicious Candidate [className=org.joda.time.format.DateTimeFormat, methodName=org.joda.time.format.DateTimeFormat{parsePatternTo(Lorg/joda/time/format/DateTimeFormatterBuilder;Ljava/lang/String;)V 0.0, lineNumber=451, susp=0.1315903389919538]
[INFO ] fr.inria.astor.core.loop.population.ProgramVariantFactory.createProgramInstance(ProgramVariantFactory.java:126) - -any mod point created for suspicious Candidate [className=org.joda.time.chrono.GregorianChronology, methodName=org.joda.time.chrono.GregorianChronology{getDateTimeMillis(IIIIIII)J 0.0, lineNumber=45, susp=0.12526780781102406]
[INFO ] fr.inria.astor.core.loop.population.ProgramVariantFactory.createProgramInstance(ProgramVariantFactory.java:126) - -any mod point created for suspicious Candidate [className=org.joda.time.format.DateTimeFormatterBuilder$TextField, methodName=org.joda.time.format.DateTimeFormatterBuilder$TextField{printTo(Ljava/lang/StringBuffer;JLorg/joda/time/Chronology;ILorg/joda/time/DateTimeZone;Ljava/util/Locale;)V 0.0, lineNumber=1732, susp=0.12344267996967354]
[INFO ] fr.inria.astor.core.loop.population.ProgramVariantFactory.createProgramInstance(ProgramVariantFactory.java:126) - -any mod point created for suspicious Candidate [className=org.joda.time.format.DateTimeFormatterBuilder$TextField, methodName=org.joda.time.format.DateTimeFormatterBuilder$TextField{printTo(Ljava/lang/StringBuffer;JLorg/joda/time/Chronology;ILorg/joda/time/DateTimeZone;Ljava/util/Locale;)V 0.0, lineNumber=1733, susp=0.12344267996967354]
[INFO ] fr.inria.astor.core.loop.population.ProgramVariantFactory.createProgramInstance(ProgramVariantFactory.java:126) - -any mod point created for suspicious Candidate [className=org.joda.time.tz.DateTimeZoneBuilder$DSTZone, methodName=org.joda.time.tz.DateTimeZoneBuilder$DSTZone{findMatchingRecurrence(J)Lorg/joda/time/tz/DateTimeZoneBuilder$Recurrence; 0.0, lineNumber=1319, susp=0.12316927391978355]
[INFO ] fr.inria.astor.core.loop.population.ProgramVariantFactory.createProgramInstance(ProgramVariantFactory.java:126) - -any mod point created for suspicious Candidate [className=org.joda.time.tz.DateTimeZoneBuilder$DSTZone, methodName=org.joda.time.tz.DateTimeZoneBuilder$DSTZone{findMatchingRecurrence(J)Lorg/joda/time/tz/DateTimeZoneBuilder$Recurrence; 0.0, lineNumber=1330, susp=0.12262786789699316]
[INFO ] fr.inria.astor.core.loop.population.ProgramVariantFactory.createProgramInstance(ProgramVariantFactory.java:126) - -any mod point created for suspicious Candidate [className=org.joda.time.tz.DateTimeZoneBuilder$OfYear, methodName=org.joda.time.tz.DateTimeZoneBuilder$OfYear{setDayOfMonthNext(Lorg/joda/time/Chronology;J)J 0.0, lineNumber=682, susp=0.12104550653376049]
[INFO ] fr.inria.astor.core.loop.population.ProgramVariantFactory.createProgramInstance(ProgramVariantFactory.java:126) - -any mod point created for suspicious Candidate [className=org.joda.time.DateTimeFieldType$StandardDateTimeFieldType, methodName=org.joda.time.DateTimeFieldType$StandardDateTimeFieldType{getField(Lorg/joda/time/Chronology;)Lorg/joda/time/DateTimeField; 0.0, lineNumber=498, susp=0.1209009252099604]
[INFO ] fr.inria.astor.core.loop.population.ProgramVariantFactory.createProgramInstance(ProgramVariantFactory.java:126) - -any mod point created for suspicious Candidate [className=org.joda.time.DateTimeFieldType$StandardDateTimeFieldType, methodName=org.joda.time.DateTimeFieldType$StandardDateTimeFieldType{getField(Lorg/joda/time/Chronology;)Lorg/joda/time/DateTimeField; 0.0, lineNumber=496, susp=0.11697706772393274]
[INFO ] fr.inria.astor.core.loop.population.ProgramVariantFactory.createProgramInstance(ProgramVariantFactory.java:126) - -any mod point created for suspicious Candidate [className=org.joda.time.DateTimeFieldType$StandardDateTimeFieldType, methodName=org.joda.time.DateTimeFieldType$StandardDateTimeFieldType{getField(Lorg/joda/time/Chronology;)Lorg/joda/time/DateTimeField; 0.0, lineNumber=492, susp=0.11645766174927479]
[INFO ] fr.inria.astor.core.loop.population.ProgramVariantFactory.createProgramInstance(ProgramVariantFactory.java:126) - -any mod point created for suspicious Candidate [className=org.joda.time.DateTimeFieldType$StandardDateTimeFieldType, methodName=org.joda.time.DateTimeFieldType$StandardDateTimeFieldType{getField(Lorg/joda/time/Chronology;)Lorg/joda/time/DateTimeField; 0.0, lineNumber=524, susp=0.10927070791270364]
[INFO ] fr.inria.astor.core.loop.population.ProgramVariantFactory.createProgramInstance(ProgramVariantFactory.java:126) - -any mod point created for suspicious Candidate [className=org.joda.time.field.FieldUtils, methodName=org.joda.time.field.FieldUtils{verifyValueBounds(Lorg/joda/time/DateTimeFieldType;III)V 0.0, lineNumber=237, susp=0.1090146825128248]
[INFO ] fr.inria.astor.core.loop.population.ProgramVariantFactory.createProgramInstance(ProgramVariantFactory.java:130) - Total suspicious from FL: 574,  509
[INFO ] fr.inria.astor.core.loop.population.ProgramVariantFactory.createProgramInstance(ProgramVariantFactory.java:138) - Total ModPoint created: 509
[INFO ] fr.inria.astor.core.loop.population.ProgramVariantFactory.createInitialPopulation(ProgramVariantFactory.java:82) - Creating program variant #1, [Variant id: 1, #gens: 509, #ops: 0, parent:-]
[INFO ] fr.inria.astor.core.setup.ConfigurationProperties.print(ConfigurationProperties.java:63) - ----------------------------
[INFO ] fr.inria.astor.core.setup.ConfigurationProperties.print(ConfigurationProperties.java:64) - ---Configuration properties:---Execution values
[INFO ] fr.inria.astor.core.setup.ConfigurationProperties.print(ConfigurationProperties.java:66) - p:lastJUnitVersion= ./examples/libs/junit-4.11.jar
[INFO ] fr.inria.astor.core.setup.ConfigurationProperties.print(ConfigurationProperties.java:66) - p:alternativecompliancelevel= 4
[INFO ] fr.inria.astor.core.setup.ConfigurationProperties.print(ConfigurationProperties.java:66) - p:ignoredTestCases= 
[INFO ] fr.inria.astor.core.setup.ConfigurationProperties.print(ConfigurationProperties.java:66) - p:workingDirectory= /local/scr/mtufano/Time/19/b/random-local-default/2
[INFO ] fr.inria.astor.core.setup.ConfigurationProperties.print(ConfigurationProperties.java:66) - p:manipulatesuper= false
[INFO ] fr.inria.astor.core.setup.ConfigurationProperties.print(ConfigurationProperties.java:66) - p:validation= process
[INFO ] fr.inria.astor.core.setup.ConfigurationProperties.print(ConfigurationProperties.java:66) - p:jvm4testexecution= /usr/local/jdk1.7.0_80/bin/
[INFO ] fr.inria.astor.core.setup.ConfigurationProperties.print(ConfigurationProperties.java:66) - p:binjavafolder= build/classes/
[INFO ] fr.inria.astor.core.setup.ConfigurationProperties.print(ConfigurationProperties.java:66) - p:evosuiteresultfolder= evosuite
[INFO ] fr.inria.astor.core.setup.ConfigurationProperties.print(ConfigurationProperties.java:66) - p:flthreshold= 0.1
[INFO ] fr.inria.astor.core.setup.ConfigurationProperties.print(ConfigurationProperties.java:66) - p:regressionforfaultlocalization= true
[INFO ] fr.inria.astor.core.setup.ConfigurationProperties.print(ConfigurationProperties.java:66) - p:tmax2= 960000
[INFO ] fr.inria.astor.core.setup.ConfigurationProperties.print(ConfigurationProperties.java:66) - p:tmax1= 120000
[INFO ] fr.inria.astor.core.setup.ConfigurationProperties.print(ConfigurationProperties.java:66) - p:probagenmutation= false
[INFO ] fr.inria.astor.core.setup.ConfigurationProperties.print(ConfigurationProperties.java:66) - p:srctestfolder= src/test/java/
[INFO ] fr.inria.astor.core.setup.ConfigurationProperties.print(ConfigurationProperties.java:66) - p:customop= fr.inria.astor.approaches.jgenprog.operators.InsertAfterOp:fr.inria.astor.approaches.jgenprog.operators.InsertBeforeOp:fr.inria.astor.approaches.jgenprog.operators.ReplaceOp
[INFO ] fr.inria.astor.core.setup.ConfigurationProperties.print(ConfigurationProperties.java:66) - p:forceExecuteRegression= false
[INFO ] fr.inria.astor.core.setup.ConfigurationProperties.print(ConfigurationProperties.java:66) - p:clusteringfilename= clustering.csv
[INFO ] fr.inria.astor.core.setup.ConfigurationProperties.print(ConfigurationProperties.java:66) - p:failing= org.joda.time.TestDateTimeZoneCutover
[INFO ] fr.inria.astor.core.setup.ConfigurationProperties.print(ConfigurationProperties.java:66) - p:evo_buggy_class= true
[INFO ] fr.inria.astor.core.setup.ConfigurationProperties.print(ConfigurationProperties.java:66) - p:numberExecutions= 1
[INFO ] fr.inria.astor.core.setup.ConfigurationProperties.print(ConfigurationProperties.java:66) - p:evo_affected_by_op= true
[INFO ] fr.inria.astor.core.setup.ConfigurationProperties.print(ConfigurationProperties.java:66) - p:population= 1
[INFO ] fr.inria.astor.core.setup.ConfigurationProperties.print(ConfigurationProperties.java:66) - p:clonegranularity= types
[INFO ] fr.inria.astor.core.setup.ConfigurationProperties.print(ConfigurationProperties.java:66) - p:regressiontestcases4fl= org.joda.time.TestAbstractPartial:org.joda.time.TestBasePartial:org.joda.time.TestBaseSingleFieldPeriod:org.joda.time.TestChronology:org.joda.time.TestDateMidnight_Basics:org.joda.time.TestDateMidnight_Constructors:org.joda.time.TestDateMidnight_Properties:org.joda.time.TestDateTimeComparator:org.joda.time.TestDateTimeFieldType:org.joda.time.TestDateTimeUtils:org.joda.time.TestDateTimeZone:org.joda.time.TestDateTimeZoneCutover:org.joda.time.TestDateTime_Basics:org.joda.time.TestDateTime_Constructors:org.joda.time.TestDateTime_Properties:org.joda.time.TestDays:org.joda.time.TestDurationField:org.joda.time.TestDurationFieldType:org.joda.time.TestDuration_Basics:org.joda.time.TestDuration_Constructors:org.joda.time.TestHours:org.joda.time.TestIllegalFieldValueException:org.joda.time.TestInstant_Basics:org.joda.time.TestInstant_Constructors:org.joda.time.TestInterval_Basics:org.joda.time.TestInterval_Constructors:org.joda.time.TestLocalDateTime_Basics:org.joda.time.TestLocalDateTime_Constructors:org.joda.time.TestLocalDateTime_Properties:org.joda.time.TestLocalDate_Basics:org.joda.time.TestLocalDate_Constructors:org.joda.time.TestLocalDate_Properties:org.joda.time.TestLocalTime_Basics:org.joda.time.TestLocalTime_Constructors:org.joda.time.TestLocalTime_Properties:org.joda.time.TestMinutes:org.joda.time.TestMonthDay_Basics:org.joda.time.TestMonthDay_Constructors:org.joda.time.TestMonthDay_Properties:org.joda.time.TestMonths:org.joda.time.TestMutableDateTime_Adds:org.joda.time.TestMutableDateTime_Basics:org.joda.time.TestMutableDateTime_Constructors:org.joda.time.TestMutableDateTime_Properties:org.joda.time.TestMutableDateTime_Sets:org.joda.time.TestMutableInterval_Basics:org.joda.time.TestMutableInterval_Constructors:org.joda.time.TestMutableInterval_Updates:org.joda.time.TestMutablePeriod_Basics:org.joda.time.TestMutablePeriod_Constructors:org.joda.time.TestMutablePeriod_Updates:org.joda.time.TestPartial_Basics:org.joda.time.TestPartial_Constructors:org.joda.time.TestPartial_Match:org.joda.time.TestPartial_Properties:org.joda.time.TestPeriodType:org.joda.time.TestPeriod_Basics:org.joda.time.TestPeriod_Constructors:org.joda.time.TestSeconds:org.joda.time.TestSerialization:org.joda.time.TestStringConvert:org.joda.time.TestTimeOfDay_Basics:org.joda.time.TestTimeOfDay_Constructors:org.joda.time.TestTimeOfDay_Properties:org.joda.time.TestWeeks:org.joda.time.TestYearMonthDay_Basics:org.joda.time.TestYearMonthDay_Constructors:org.joda.time.TestYearMonthDay_Properties:org.joda.time.TestYearMonth_Basics:org.joda.time.TestYearMonth_Constructors:org.joda.time.TestYearMonth_Properties:org.joda.time.TestYears:org.joda.time.chrono.TestBuddhistChronology:org.joda.time.chrono.TestCopticChronology:org.joda.time.chrono.TestEthiopicChronology:org.joda.time.chrono.TestGJChronology:org.joda.time.chrono.TestGregorianChronology:org.joda.time.chrono.TestISOChronology:org.joda.time.chrono.TestIslamicChronology:org.joda.time.chrono.TestJulianChronology:org.joda.time.chrono.TestLenientChronology:org.joda.time.convert.TestCalendarConverter:org.joda.time.convert.TestConverterManager:org.joda.time.convert.TestDateConverter:org.joda.time.convert.TestLongConverter:org.joda.time.convert.TestNullConverter:org.joda.time.convert.TestReadableDurationConverter:org.joda.time.convert.TestReadableInstantConverter:org.joda.time.convert.TestReadableIntervalConverter:org.joda.time.convert.TestReadablePartialConverter:org.joda.time.convert.TestReadablePeriodConverter:org.joda.time.convert.TestStringConverter:org.joda.time.field.TestBaseDateTimeField:org.joda.time.field.TestMillisDurationField:org.joda.time.field.TestOffsetDateTimeField:org.joda.time.field.TestPreciseDateTimeField:org.joda.time.field.TestPreciseDurationDateTimeField:org.joda.time.field.TestPreciseDurationField:org.joda.time.field.TestScaledDurationField:org.joda.time.field.TestUnsupportedDateTimeField:org.joda.time.format.TestDateTimeFormat:org.joda.time.format.TestDateTimeFormatStyle:org.joda.time.format.TestDateTimeFormatter:org.joda.time.format.TestDateTimeFormatterBuilder:org.joda.time.format.TestISODateTimeFormat:org.joda.time.format.TestISODateTimeFormatParsing:org.joda.time.format.TestISODateTimeFormat_Fields:org.joda.time.format.TestISOPeriodFormat:org.joda.time.format.TestISOPeriodFormatParsing:org.joda.time.format.TestPeriodFormat:org.joda.time.format.TestPeriodFormatParsing:org.joda.time.format.TestPeriodFormatter:org.joda.time.format.TestPeriodFormatterBuilder:org.joda.time.format.TestTextFields:org.joda.time.tz.TestBuilder:org.joda.time.tz.TestCompiler:org.joda.time.tz.TestFixedDateTimeZone:org.joda.time.tz.TestUTCProvider:
[INFO ] fr.inria.astor.core.setup.ConfigurationProperties.print(ConfigurationProperties.java:66) - p:savesolution= true
[INFO ] fr.inria.astor.core.setup.ConfigurationProperties.print(ConfigurationProperties.java:66) - p:javacompliancelevel= 5
[INFO ] fr.inria.astor.core.setup.ConfigurationProperties.print(ConfigurationProperties.java:66) - p:uniqueoptogen= false
[INFO ] fr.inria.astor.core.setup.ConfigurationProperties.print(ConfigurationProperties.java:66) - p:projectIdentifier= 
[INFO ] fr.inria.astor.core.setup.ConfigurationProperties.print(ConfigurationProperties.java:66) - p:modificationpointnavigation= weight
[INFO ] fr.inria.astor.core.setup.ConfigurationProperties.print(ConfigurationProperties.java:66) - p:stopfirst= false
[INFO ] fr.inria.astor.core.setup.ConfigurationProperties.print(ConfigurationProperties.java:66) - p:multipointmodification= false
[INFO ] fr.inria.astor.core.setup.ConfigurationProperties.print(ConfigurationProperties.java:66) - p:elementsToMutate= 10
[INFO ] fr.inria.astor.core.setup.ConfigurationProperties.print(ConfigurationProperties.java:66) - p:evoDSE= false
[INFO ] fr.inria.astor.core.setup.ConfigurationProperties.print(ConfigurationProperties.java:66) - p:bintestfolder= build/tests/
[INFO ] fr.inria.astor.core.setup.ConfigurationProperties.print(ConfigurationProperties.java:66) - p:testbystep= false
[INFO ] fr.inria.astor.core.setup.ConfigurationProperties.print(ConfigurationProperties.java:66) - p:version-location= ./math-version/
[INFO ] fr.inria.astor.core.setup.ConfigurationProperties.print(ConfigurationProperties.java:66) - p:reintroduce= PARENTS
[INFO ] fr.inria.astor.core.setup.ConfigurationProperties.print(ConfigurationProperties.java:66) - p:maxGeneration= 1000000
[INFO ] fr.inria.astor.core.setup.ConfigurationProperties.print(ConfigurationProperties.java:66) - p:maxVarCombination= 1000
[INFO ] fr.inria.astor.core.setup.ConfigurationProperties.print(ConfigurationProperties.java:66) - p:maxtime= 180
[INFO ] fr.inria.astor.core.setup.ConfigurationProperties.print(ConfigurationProperties.java:66) - p:evosuitejar= ./lib/evosuite-master-1.0.4-SNAPSHOT.jar
[INFO ] fr.inria.astor.core.setup.ConfigurationProperties.print(ConfigurationProperties.java:66) - p:commandTrunk= 50000
[INFO ] fr.inria.astor.core.setup.ConfigurationProperties.print(ConfigurationProperties.java:66) - p:faultlocalization= fr.inria.astor.core.faultlocalization.GZoltarFaultLocalization
[INFO ] fr.inria.astor.core.setup.ConfigurationProperties.print(ConfigurationProperties.java:66) - p:maxsuspcandidates= 1000
[INFO ] fr.inria.astor.core.setup.ConfigurationProperties.print(ConfigurationProperties.java:66) - p:mode= statement
[INFO ] fr.inria.astor.core.setup.ConfigurationProperties.print(ConfigurationProperties.java:66) - p:learningdir= ../../out/learningdir/Time/19/b/
[INFO ] fr.inria.astor.core.setup.ConfigurationProperties.print(ConfigurationProperties.java:66) - p:jvm4evosuitetestexecution= /usr/local/jdk1.7.0_80/bin/
[INFO ] fr.inria.astor.core.setup.ConfigurationProperties.print(ConfigurationProperties.java:66) - p:filterfaultlocalization= true
[INFO ] fr.inria.astor.core.setup.ConfigurationProperties.print(ConfigurationProperties.java:66) - p:mutationrate= 1 
[INFO ] fr.inria.astor.core.setup.ConfigurationProperties.print(ConfigurationProperties.java:66) - p:pathToMVNRepository= 
[INFO ] fr.inria.astor.core.setup.ConfigurationProperties.print(ConfigurationProperties.java:66) - p:resourcesfolder= /src/main/resources:/src/test/resources:
[INFO ] fr.inria.astor.core.setup.ConfigurationProperties.print(ConfigurationProperties.java:66) - p:timezone= America/New_York
[INFO ] fr.inria.astor.core.setup.ConfigurationProperties.print(ConfigurationProperties.java:66) - p:classestoinstrument= org.joda.time.tz.FixedDateTimeZone:org.joda.time.field.RemainderDateTimeField:org.joda.time.field.PreciseDateTimeField:org.joda.time.field.FieldUtils:org.joda.time.format.FormatUtils:org.joda.time.field.DividedDateTimeField:org.joda.time.ReadableInstant:org.joda.time.format.DateTimeParser:org.joda.time.field.DecoratedDurationField:org.joda.time.field.OffsetDateTimeField:org.joda.time.DateTimeField:org.joda.time.chrono.BasicMonthOfYearDateTimeField:org.joda.time.base.BaseDateTime:org.joda.time.chrono.BasicWeekOfWeekyearDateTimeField:org.joda.time.tz.Provider:org.joda.time.format.DateTimePrinter:org.joda.time.DateTimeFieldType:org.joda.time.field.ScaledDurationField:org.joda.time.tz.DateTimeZoneBuilder:org.joda.time.format.DateTimeFormatter:org.joda.time.chrono.GJMonthOfYearDateTimeField:org.joda.time.field.ImpreciseDateTimeField:org.joda.time.chrono.GJEraDateTimeField:org.joda.time.DateTimeZone:org.joda.time.field.BaseDateTimeField:org.joda.time.base.AbstractInstant:org.joda.time.DateTimeUtils:org.joda.time.chrono.BasicGJChronology:org.joda.time.chrono.ISOYearOfEraDateTimeField:org.joda.time.DateTime:org.joda.time.chrono.ISOChronology:org.joda.time.format.ISODateTimeFormat:org.joda.time.DurationField:org.joda.time.field.DecoratedDateTimeField:org.joda.time.chrono.BaseChronology:org.joda.time.chrono.GJYearOfEraDateTimeField:org.joda.time.tz.CachedDateTimeZone:org.joda.time.field.MillisDurationField:org.joda.time.chrono.GJDayOfWeekDateTimeField:org.joda.time.field.PreciseDurationDateTimeField:org.joda.time.chrono.BasicDayOfYearDateTimeField:org.joda.time.IllegalFieldValueException:org.joda.time.chrono.GregorianChronology:org.joda.time.chrono.AssembledChronology:org.joda.time.DurationFieldType:org.joda.time.field.UnsupportedDateTimeField:org.joda.time.tz.DefaultNameProvider:org.joda.time.field.BaseDurationField:org.joda.time.ReadableInterval:org.joda.time.field.UnsupportedDurationField:org.joda.time.chrono.BasicChronology:org.joda.time.Chronology:org.joda.time.format.DateTimeFormatterBuilder:org.joda.time.chrono.BasicYearDateTimeField:org.joda.time.chrono.BasicDayOfMonthDateTimeField:org.joda.time.base.AbstractDateTime:org.joda.time.JodaTimePermission:org.joda.time.chrono.BasicWeekyearDateTimeField:org.joda.time.tz.NameProvider:org.joda.time.ReadableDateTime:org.joda.time.field.ZeroIsMaxDateTimeField:org.joda.time.chrono.ZonedChronology:org.joda.time.field.PreciseDurationField:org.joda.time.tz.ZoneInfoProvider:
[INFO ] fr.inria.astor.core.setup.ConfigurationProperties.print(ConfigurationProperties.java:66) - p:evoRunOnBuggyClass= true
[INFO ] fr.inria.astor.core.setup.ConfigurationProperties.print(ConfigurationProperties.java:66) - p:compiler= fr.inria.astor.core.manipulation.bytecode.compiler.SpoonClassCompiler
[INFO ] fr.inria.astor.core.setup.ConfigurationProperties.print(ConfigurationProperties.java:66) - p:dependenciespath= ../../dat/libs/Time/joda-convert-1.2.jar
[INFO ] fr.inria.astor.core.setup.ConfigurationProperties.print(ConfigurationProperties.java:66) - p:skipfaultlocalization= false
[INFO ] fr.inria.astor.core.setup.ConfigurationProperties.print(ConfigurationProperties.java:66) - p:packageToInstrument= org.joda
[INFO ] fr.inria.astor.core.setup.ConfigurationProperties.print(ConfigurationProperties.java:66) - p:scope= fr.inria.astor.core.loop.spaces.ingredients.scopes.ctscopes.CtClassIngredientSpace
[INFO ] fr.inria.astor.core.setup.ConfigurationProperties.print(ConfigurationProperties.java:66) - p:transformingredient= false
[INFO ] fr.inria.astor.core.setup.ConfigurationProperties.print(ConfigurationProperties.java:66) - p:fitnessfunction= fr.inria.astor.core.loop.population.TestCaseFitnessFunction
[INFO ] fr.inria.astor.core.setup.ConfigurationProperties.print(ConfigurationProperties.java:66) - p:pvariantfoldername= variant-
[INFO ] fr.inria.astor.core.setup.ConfigurationProperties.print(ConfigurationProperties.java:66) - p:srcjavafolder= src/main/java/
[INFO ] fr.inria.astor.core.setup.ConfigurationProperties.print(ConfigurationProperties.java:66) - p:populationcontroller= fr.inria.astor.core.loop.population.TestCaseBasedFitnessPopulationController
[INFO ] fr.inria.astor.core.setup.ConfigurationProperties.print(ConfigurationProperties.java:66) - p:ignoreflakyinfl= false
[INFO ] fr.inria.astor.core.setup.ConfigurationProperties.print(ConfigurationProperties.java:66) - p:applyCrossover= false
[INFO ] fr.inria.astor.core.setup.ConfigurationProperties.print(ConfigurationProperties.java:66) - p:saveall= false
[INFO ] fr.inria.astor.core.setup.ConfigurationProperties.print(ConfigurationProperties.java:66) - p:seed= 2
[INFO ] fr.inria.astor.core.setup.ConfigurationProperties.print(ConfigurationProperties.java:66) - p:resetoperations= false
[INFO ] fr.inria.astor.core.setup.ConfigurationProperties.print(ConfigurationProperties.java:66) - p:location= ../../dat/defects4j/Time/19/b/
[INFO ] fr.inria.astor.core.setup.ConfigurationProperties.print(ConfigurationProperties.java:66) - p:ingredientstrategy= fr.inria.astor.core.loop.spaces.ingredients.ingredientSearch.EfficientIngredientStrategy
[INFO ] fr.inria.astor.core.setup.ConfigurationProperties.print(ConfigurationProperties.java:66) - p:allpoints= false
[INFO ] fr.inria.astor.core.setup.ConfigurationProperties.print(ConfigurationProperties.java:66) - p:bugId= 280
[INFO ] fr.inria.astor.core.setup.ConfigurationProperties.print(ConfigurationProperties.java:66) - p:evosuitetimeout= 120
[INFO ] fr.inria.astor.core.setup.ConfigurationProperties.print(ConfigurationProperties.java:68) - ----------------------------
[INFO ] fr.inria.astor.core.loop.AstorCoreEngine.startEvolution(AstorCoreEngine.java:119) - 
----Starting Solution Search
[INFO ] fr.inria.astor.core.validation.executors.JUnitExecutorProcess.execute(JUnitExecutorProcess.java:120) - The Process that runs JUnit test cases had problems: process hasn't exited
[INFO ] fr.inria.astor.core.validation.executors.JUnitExecutorProcess.execute(JUnitExecutorProcess.java:120) - The Process that runs JUnit test cases had problems: process hasn't exited
[INFO ] fr.inria.astor.core.validation.executors.JUnitExecutorProcess.execute(JUnitExecutorProcess.java:120) - The Process that runs JUnit test cases had problems: process hasn't exited
[INFO ] fr.inria.astor.core.validation.executors.JUnitExecutorProcess.execute(JUnitExecutorProcess.java:120) - The Process that runs JUnit test cases had problems: process hasn't exited
[INFO ] fr.inria.astor.core.validation.executors.JUnitExecutorProcess.execute(JUnitExecutorProcess.java:120) - The Process that runs JUnit test cases had problems: process hasn't exited
[INFO ] fr.inria.astor.core.loop.AstorCoreEngine.belowMaxTime(AstorCoreEngine.java:203) - 
 No more time for operating
[INFO ] fr.inria.astor.core.loop.AstorCoreEngine.startEvolution(AstorCoreEngine.java:143) - Time Repair Loop (s): 10870.84
[INFO ] fr.inria.astor.core.loop.AstorCoreEngine.showResults(AstorCoreEngine.java:165) - 
----SUMMARY_EXECUTION---
[INFO ] fr.inria.astor.approaches.jgenprog.JGenProg.showResults(JGenProg.java:332) - 
successful_ing_attempts (#trials 0, totalAttps 0): []
[INFO ] fr.inria.astor.approaches.jgenprog.JGenProg.showResults(JGenProg.java:334) - 
failing_ing_attempts (#trials 399, totalAttps 1290): [1, 1, 1, 2, 1, 6, 3, 2, 2, 3, 5, 4, 4, 1, 10, 1, 1, 1, 5, 1, 4, 6, 1, 1, 6, 1, 1, 3, 1, 2, 2, 4, 1, 2, 6, 2, 2, 17, 5, 4, 4, 2, 7, 1, 1, 4, 1, 5, 1, 2, 2, 1, 12, 7, 1, 1, 1, 2, 1, 2, 2, 15, 6, 14, 1, 1, 3, 2, 1, 1, 2, 10, 1, 6, 2, 2, 4, 5, 10, 1, 1, 2, 1, 1, 4, 1, 1, 1, 3, 3, 4, 1, 1, 1, 1, 4, 1, 3, 11, 1, 1, 4, 1, 1, 12, 1, 2, 3, 3, 9, 4, 8, 3, 1, 1, 1, 3, 3, 6, 6, 2, 1, 2, 3, 11, 2, 11, 10, 1, 2, 1, 1, 2, 5, 1, 4, 3, 6, 3, 2, 2, 3, 16, 1, 1, 1, 4, 2, 1, 3, 6, 1, 1, 1, 1, 2, 1, 2, 1, 3, 1, 4, 2, 3, 2, 5, 12, 3, 1, 3, 1, 1, 1, 1, 2, 1, 1, 1, 1, 2, 4, 1, 1, 8, 1, 7, 2, 1, 4, 2, 1, 2, 2, 2, 1, 19, 1, 1, 1, 1, 9, 8, 4, 4, 2, 1, 3, 1, 5, 2, 3, 1, 2, 4, 3, 4, 7, 1, 2, 11, 2, 1, 1, 1, 6, 1, 2, 1, 2, 4, 3, 4, 1, 2, 2, 5, 5, 8, 1, 2, 1, 6, 2, 5, 3, 1, 2, 1, 5, 8, 2, 3, 2, 5, 1, 6, 1, 6, 1, 4, 3, 27, 11, 3, 1, 10, 2, 14, 2, 1, 2, 1, 1, 1, 20, 1, 1, 1, 13, 1, 1, 3, 1, 3, 2, 1, 9, 7, 1, 1, 4, 1, 2, 3, 2, 2, 2, 2, 3, 6, 3, 1, 5, 2, 3, 6, 4, 4, 2, 1, 3, 3, 2, 8, 1, 2, 3, 2, 3, 1, 8, 3, 1, 1, 1, 4, 1, 1, 3, 1, 2, 3, 12, 3, 2, 2, 2, 1, 2, 1, 2, 3, 4, 5, 5, 3, 6, 1, 1, 1, 2, 1, 5, 1, 13, 3, 1, 1, 3, 3, 1, 1, 1, 1, 6, 3, 3, 1, 3, 1, 8, 6, 5, 4, 1, 5, 9, 1, 2, 1, 4, 2, 1, 2, 2, 1, 1, 3, 4, 4, 1, 8, 2, 2, 1, 4, 4, 5, 3]
[INFO ] fr.inria.astor.approaches.jgenprog.JGenProg.showResults(JGenProg.java:337) - 
total Patch Attempts (0): []
[INFO ] fr.inria.astor.approaches.jgenprog.JGenProg.showResults(JGenProg.java:339) - 
successful_ing_attempts_by_patch: []
[INFO ] fr.inria.astor.approaches.jgenprog.JGenProg.showResults(JGenProg.java:340) - 
failing_ing_attempts_by_patch: [(pv:2,at:1), (pv:3,at:1), (pv:4,at:1), (pv:5,at:2), (pv:6,at:1), (pv:7,at:6), (pv:8,at:3), (pv:9,at:2), (pv:10,at:2), (pv:11,at:3), (pv:12,at:5), (pv:13,at:4), (pv:14,at:4), (pv:15,at:1), (pv:16,at:10), (pv:17,at:1), (pv:18,at:1), (pv:19,at:1), (pv:20,at:5), (pv:21,at:1), (pv:22,at:4), (pv:23,at:6), (pv:24,at:1), (pv:25,at:1), (pv:26,at:6), (pv:27,at:1), (pv:28,at:1), (pv:29,at:3), (pv:30,at:1), (pv:31,at:2), (pv:32,at:2), (pv:33,at:4), (pv:34,at:1), (pv:35,at:2), (pv:36,at:6), (pv:37,at:2), (pv:38,at:2), (pv:39,at:17), (pv:40,at:5), (pv:41,at:4), (pv:42,at:4), (pv:43,at:2), (pv:44,at:7), (pv:45,at:1), (pv:46,at:1), (pv:47,at:4), (pv:48,at:1), (pv:49,at:5), (pv:50,at:1), (pv:51,at:2), (pv:52,at:2), (pv:53,at:1), (pv:54,at:12), (pv:55,at:7), (pv:56,at:1), (pv:57,at:1), (pv:58,at:1), (pv:59,at:2), (pv:60,at:1), (pv:61,at:2), (pv:62,at:2), (pv:63,at:15), (pv:64,at:6), (pv:65,at:14), (pv:66,at:1), (pv:67,at:1), (pv:68,at:3), (pv:69,at:2), (pv:70,at:1), (pv:71,at:1), (pv:72,at:2), (pv:73,at:10), (pv:74,at:1), (pv:75,at:6), (pv:76,at:2), (pv:77,at:2), (pv:78,at:4), (pv:79,at:5), (pv:80,at:10), (pv:81,at:1), (pv:82,at:1), (pv:83,at:2), (pv:84,at:1), (pv:85,at:1), (pv:86,at:4), (pv:87,at:1), (pv:88,at:1), (pv:89,at:1), (pv:90,at:3), (pv:91,at:3), (pv:92,at:4), (pv:93,at:1), (pv:94,at:1), (pv:95,at:1), (pv:96,at:1), (pv:97,at:4), (pv:98,at:1), (pv:99,at:3), (pv:100,at:11), (pv:101,at:1), (pv:102,at:1), (pv:103,at:4), (pv:104,at:1), (pv:105,at:1), (pv:106,at:12), (pv:107,at:1), (pv:108,at:2), (pv:109,at:3), (pv:110,at:3), (pv:111,at:9), (pv:112,at:4), (pv:113,at:8), (pv:114,at:3), (pv:115,at:1), (pv:116,at:1), (pv:117,at:1), (pv:118,at:3), (pv:119,at:3), (pv:120,at:6), (pv:121,at:6), (pv:122,at:2), (pv:123,at:1), (pv:124,at:2), (pv:125,at:3), (pv:126,at:11), (pv:127,at:2), (pv:128,at:11), (pv:129,at:10), (pv:130,at:1), (pv:131,at:2), (pv:132,at:1), (pv:133,at:1), (pv:134,at:2), (pv:135,at:5), (pv:136,at:1), (pv:137,at:4), (pv:138,at:3), (pv:139,at:6), (pv:140,at:3), (pv:141,at:2), (pv:142,at:2), (pv:143,at:3), (pv:144,at:16), (pv:145,at:1), (pv:146,at:1), (pv:147,at:1), (pv:148,at:4), (pv:149,at:2), (pv:150,at:1), (pv:151,at:3), (pv:152,at:6), (pv:153,at:1), (pv:154,at:1), (pv:155,at:1), (pv:156,at:1), (pv:157,at:2), (pv:158,at:1), (pv:159,at:2), (pv:160,at:1), (pv:161,at:3), (pv:162,at:1), (pv:163,at:4), (pv:164,at:2), (pv:165,at:3), (pv:166,at:2), (pv:167,at:5), (pv:168,at:12), (pv:169,at:3), (pv:170,at:1), (pv:171,at:3), (pv:172,at:1), (pv:173,at:1), (pv:174,at:1), (pv:175,at:1), (pv:176,at:2), (pv:177,at:1), (pv:178,at:1), (pv:179,at:1), (pv:180,at:1), (pv:181,at:2), (pv:182,at:4), (pv:183,at:1), (pv:184,at:1), (pv:185,at:8), (pv:186,at:1), (pv:187,at:7), (pv:188,at:2), (pv:189,at:1), (pv:190,at:4), (pv:191,at:2), (pv:192,at:1), (pv:193,at:2), (pv:194,at:2), (pv:195,at:2), (pv:196,at:1), (pv:197,at:19), (pv:198,at:1), (pv:199,at:1), (pv:200,at:1), (pv:201,at:1), (pv:202,at:9), (pv:203,at:8), (pv:204,at:4), (pv:205,at:4), (pv:206,at:2), (pv:207,at:1), (pv:208,at:3), (pv:209,at:1), (pv:210,at:5), (pv:211,at:2), (pv:212,at:3), (pv:213,at:1), (pv:214,at:2), (pv:215,at:4), (pv:216,at:3), (pv:217,at:4), (pv:218,at:7), (pv:219,at:1), (pv:220,at:2), (pv:221,at:11), (pv:222,at:2), (pv:223,at:1), (pv:224,at:1), (pv:225,at:1), (pv:226,at:6), (pv:227,at:1), (pv:228,at:2), (pv:229,at:1), (pv:230,at:2), (pv:231,at:4), (pv:232,at:3), (pv:233,at:4), (pv:234,at:1), (pv:235,at:2), (pv:236,at:2), (pv:237,at:5), (pv:238,at:5), (pv:239,at:8), (pv:240,at:1), (pv:241,at:2), (pv:242,at:1), (pv:243,at:6), (pv:244,at:2), (pv:245,at:5), (pv:246,at:3), (pv:247,at:1), (pv:248,at:2), (pv:249,at:1), (pv:250,at:5), (pv:251,at:8), (pv:252,at:2), (pv:253,at:3), (pv:254,at:2), (pv:255,at:5), (pv:256,at:1), (pv:257,at:6), (pv:258,at:1), (pv:259,at:6), (pv:260,at:1), (pv:261,at:4), (pv:262,at:3), (pv:263,at:27), (pv:264,at:11), (pv:265,at:3), (pv:266,at:1), (pv:267,at:10), (pv:268,at:2), (pv:269,at:14), (pv:270,at:2), (pv:271,at:1), (pv:272,at:2), (pv:273,at:1), (pv:274,at:1), (pv:275,at:1), (pv:276,at:20), (pv:277,at:1), (pv:278,at:1), (pv:279,at:1), (pv:280,at:13), (pv:281,at:1), (pv:282,at:1), (pv:283,at:3), (pv:284,at:1), (pv:285,at:3), (pv:286,at:2), (pv:287,at:1), (pv:288,at:9), (pv:289,at:7), (pv:290,at:1), (pv:291,at:1), (pv:292,at:4), (pv:293,at:1), (pv:294,at:2), (pv:295,at:3), (pv:296,at:2), (pv:297,at:2), (pv:298,at:2), (pv:299,at:2), (pv:300,at:3), (pv:301,at:6), (pv:302,at:3), (pv:303,at:1), (pv:304,at:5), (pv:305,at:2), (pv:306,at:3), (pv:307,at:6), (pv:308,at:4), (pv:309,at:4), (pv:310,at:2), (pv:311,at:1), (pv:312,at:3), (pv:313,at:3), (pv:314,at:2), (pv:315,at:8), (pv:316,at:1), (pv:317,at:2), (pv:318,at:3), (pv:319,at:2), (pv:320,at:3), (pv:321,at:1), (pv:322,at:8), (pv:323,at:3), (pv:324,at:1), (pv:325,at:1), (pv:326,at:1), (pv:327,at:4), (pv:328,at:1), (pv:329,at:1), (pv:330,at:3), (pv:331,at:1), (pv:332,at:2), (pv:333,at:3), (pv:334,at:12), (pv:335,at:3), (pv:336,at:2), (pv:337,at:2), (pv:338,at:2), (pv:339,at:1), (pv:340,at:2), (pv:341,at:1), (pv:342,at:2), (pv:343,at:3), (pv:344,at:4), (pv:345,at:5), (pv:346,at:5), (pv:347,at:3), (pv:348,at:6), (pv:349,at:1), (pv:350,at:1), (pv:351,at:1), (pv:352,at:2), (pv:353,at:1), (pv:354,at:5), (pv:355,at:1), (pv:356,at:13), (pv:357,at:3), (pv:358,at:1), (pv:359,at:1), (pv:360,at:3), (pv:361,at:3), (pv:362,at:1), (pv:363,at:1), (pv:364,at:1), (pv:365,at:1), (pv:366,at:6), (pv:367,at:3), (pv:368,at:3), (pv:369,at:1), (pv:370,at:3), (pv:371,at:1), (pv:372,at:8), (pv:373,at:6), (pv:374,at:5), (pv:375,at:4), (pv:376,at:1), (pv:377,at:5), (pv:378,at:9), (pv:379,at:1), (pv:380,at:2), (pv:381,at:1), (pv:382,at:4), (pv:383,at:2), (pv:384,at:1), (pv:385,at:2), (pv:386,at:2), (pv:387,at:1), (pv:388,at:1), (pv:389,at:3), (pv:390,at:4), (pv:391,at:4), (pv:392,at:1), (pv:393,at:8), (pv:394,at:2), (pv:395,at:2), (pv:396,at:1), (pv:397,at:4), (pv:398,at:4), (pv:399,at:5), (pv:400,at:3)]
[INFO ] fr.inria.astor.approaches.jgenprog.JGenProg.showResults(JGenProg.java:342) - 
pvariants_with_transformed_ingredients: [(pv:2,at:1), (pv:3,at:1), (pv:4,at:1), (pv:5,at:2), (pv:6,at:1), (pv:7,at:6), (pv:8,at:3), (pv:9,at:2), (pv:10,at:2), (pv:11,at:3), (pv:12,at:5), (pv:13,at:4), (pv:14,at:4), (pv:15,at:1), (pv:16,at:10), (pv:17,at:1), (pv:18,at:1), (pv:19,at:1), (pv:20,at:5), (pv:21,at:1), (pv:22,at:4), (pv:23,at:6), (pv:24,at:1), (pv:25,at:1), (pv:26,at:6), (pv:27,at:1), (pv:28,at:1), (pv:29,at:3), (pv:30,at:1), (pv:31,at:2), (pv:32,at:2), (pv:33,at:4), (pv:34,at:1), (pv:35,at:2), (pv:36,at:6), (pv:37,at:2), (pv:38,at:2), (pv:39,at:17), (pv:40,at:5), (pv:41,at:4), (pv:42,at:4), (pv:43,at:2), (pv:44,at:7), (pv:45,at:1), (pv:46,at:1), (pv:47,at:4), (pv:48,at:1), (pv:49,at:5), (pv:50,at:1), (pv:51,at:2), (pv:52,at:2), (pv:53,at:1), (pv:54,at:12), (pv:55,at:7), (pv:56,at:1), (pv:57,at:1), (pv:58,at:1), (pv:59,at:2), (pv:60,at:1), (pv:61,at:2), (pv:62,at:2), (pv:63,at:15), (pv:64,at:6), (pv:65,at:14), (pv:66,at:1), (pv:67,at:1), (pv:68,at:3), (pv:69,at:2), (pv:70,at:1), (pv:71,at:1), (pv:72,at:2), (pv:73,at:10), (pv:74,at:1), (pv:75,at:6), (pv:76,at:2), (pv:77,at:2), (pv:78,at:4), (pv:79,at:5), (pv:80,at:10), (pv:81,at:1), (pv:82,at:1), (pv:83,at:2), (pv:84,at:1), (pv:85,at:1), (pv:86,at:4), (pv:87,at:1), (pv:88,at:1), (pv:89,at:1), (pv:90,at:3), (pv:91,at:3), (pv:92,at:4), (pv:93,at:1), (pv:94,at:1), (pv:95,at:1), (pv:96,at:1), (pv:97,at:4), (pv:98,at:1), (pv:99,at:3), (pv:100,at:11), (pv:101,at:1), (pv:102,at:1), (pv:103,at:4), (pv:104,at:1), (pv:105,at:1), (pv:106,at:12), (pv:107,at:1), (pv:108,at:2), (pv:109,at:3), (pv:110,at:3), (pv:111,at:9), (pv:112,at:4), (pv:113,at:8), (pv:114,at:3), (pv:115,at:1), (pv:116,at:1), (pv:117,at:1), (pv:118,at:3), (pv:119,at:3), (pv:120,at:6), (pv:121,at:6), (pv:122,at:2), (pv:123,at:1), (pv:124,at:2), (pv:125,at:3), (pv:126,at:11), (pv:127,at:2), (pv:128,at:11), (pv:129,at:10), (pv:130,at:1), (pv:131,at:2), (pv:132,at:1), (pv:133,at:1), (pv:134,at:2), (pv:135,at:5), (pv:136,at:1), (pv:137,at:4), (pv:138,at:3), (pv:139,at:6), (pv:140,at:3), (pv:141,at:2), (pv:142,at:2), (pv:143,at:3), (pv:144,at:16), (pv:145,at:1), (pv:146,at:1), (pv:147,at:1), (pv:148,at:4), (pv:149,at:2), (pv:150,at:1), (pv:151,at:3), (pv:152,at:6), (pv:153,at:1), (pv:154,at:1), (pv:155,at:1), (pv:156,at:1), (pv:157,at:2), (pv:158,at:1), (pv:159,at:2), (pv:160,at:1), (pv:161,at:3), (pv:162,at:1), (pv:163,at:4), (pv:164,at:2), (pv:165,at:3), (pv:166,at:2), (pv:167,at:5), (pv:168,at:12), (pv:169,at:3), (pv:170,at:1), (pv:171,at:3), (pv:172,at:1), (pv:173,at:1), (pv:174,at:1), (pv:175,at:1), (pv:176,at:2), (pv:177,at:1), (pv:178,at:1), (pv:179,at:1), (pv:180,at:1), (pv:181,at:2), (pv:182,at:4), (pv:183,at:1), (pv:184,at:1), (pv:185,at:8), (pv:186,at:1), (pv:187,at:7), (pv:188,at:2), (pv:189,at:1), (pv:190,at:4), (pv:191,at:2), (pv:192,at:1), (pv:193,at:2), (pv:194,at:2), (pv:195,at:2), (pv:196,at:1), (pv:197,at:19), (pv:198,at:1), (pv:199,at:1), (pv:200,at:1), (pv:201,at:1), (pv:202,at:9), (pv:203,at:8), (pv:204,at:4), (pv:205,at:4), (pv:206,at:2), (pv:207,at:1), (pv:208,at:3), (pv:209,at:1), (pv:210,at:5), (pv:211,at:2), (pv:212,at:3), (pv:213,at:1), (pv:214,at:2), (pv:215,at:4), (pv:216,at:3), (pv:217,at:4), (pv:218,at:7), (pv:219,at:1), (pv:220,at:2), (pv:221,at:11), (pv:222,at:2), (pv:223,at:1), (pv:224,at:1), (pv:225,at:1), (pv:226,at:6), (pv:227,at:1), (pv:228,at:2), (pv:229,at:1), (pv:230,at:2), (pv:231,at:4), (pv:232,at:3), (pv:233,at:4), (pv:234,at:1), (pv:235,at:2), (pv:236,at:2), (pv:237,at:5), (pv:238,at:5), (pv:239,at:8), (pv:240,at:1), (pv:241,at:2), (pv:242,at:1), (pv:243,at:6), (pv:244,at:2), (pv:245,at:5), (pv:246,at:3), (pv:247,at:1), (pv:248,at:2), (pv:249,at:1), (pv:250,at:5), (pv:251,at:8), (pv:252,at:2), (pv:253,at:3), (pv:254,at:2), (pv:255,at:5), (pv:256,at:1), (pv:257,at:6), (pv:258,at:1), (pv:259,at:6), (pv:260,at:1), (pv:261,at:4), (pv:262,at:3), (pv:263,at:27), (pv:264,at:11), (pv:265,at:3), (pv:266,at:1), (pv:267,at:10), (pv:268,at:2), (pv:269,at:14), (pv:270,at:2), (pv:271,at:1), (pv:272,at:2), (pv:273,at:1), (pv:274,at:1), (pv:275,at:1), (pv:276,at:20), (pv:277,at:1), (pv:278,at:1), (pv:279,at:1), (pv:280,at:13), (pv:281,at:1), (pv:282,at:1), (pv:283,at:3), (pv:284,at:1), (pv:285,at:3), (pv:286,at:2), (pv:287,at:1), (pv:288,at:9), (pv:289,at:7), (pv:290,at:1), (pv:291,at:1), (pv:292,at:4), (pv:293,at:1), (pv:294,at:2), (pv:295,at:3), (pv:296,at:2), (pv:297,at:2), (pv:298,at:2), (pv:299,at:2), (pv:300,at:3), (pv:301,at:6), (pv:302,at:3), (pv:303,at:1), (pv:304,at:5), (pv:305,at:2), (pv:306,at:3), (pv:307,at:6), (pv:308,at:4), (pv:309,at:4), (pv:310,at:2), (pv:311,at:1), (pv:312,at:3), (pv:313,at:3), (pv:314,at:2), (pv:315,at:8), (pv:316,at:1), (pv:317,at:2), (pv:318,at:3), (pv:319,at:2), (pv:320,at:3), (pv:321,at:1), (pv:322,at:8), (pv:323,at:3), (pv:324,at:1), (pv:325,at:1), (pv:326,at:1), (pv:327,at:4), (pv:328,at:1), (pv:329,at:1), (pv:330,at:3), (pv:331,at:1), (pv:332,at:2), (pv:333,at:3), (pv:334,at:12), (pv:335,at:3), (pv:336,at:2), (pv:337,at:2), (pv:338,at:2), (pv:339,at:1), (pv:340,at:2), (pv:341,at:1), (pv:342,at:2), (pv:343,at:3), (pv:344,at:4), (pv:345,at:5), (pv:346,at:5), (pv:347,at:3), (pv:348,at:6), (pv:349,at:1), (pv:350,at:1), (pv:351,at:1), (pv:352,at:2), (pv:353,at:1), (pv:354,at:5), (pv:355,at:1), (pv:356,at:13), (pv:357,at:3), (pv:358,at:1), (pv:359,at:1), (pv:360,at:3), (pv:361,at:3), (pv:362,at:1), (pv:363,at:1), (pv:364,at:1), (pv:365,at:1), (pv:366,at:6), (pv:367,at:3), (pv:368,at:3), (pv:369,at:1), (pv:370,at:3), (pv:371,at:1), (pv:372,at:8), (pv:373,at:6), (pv:374,at:5), (pv:375,at:4), (pv:376,at:1), (pv:377,at:5), (pv:378,at:9), (pv:379,at:1), (pv:380,at:2), (pv:381,at:1), (pv:382,at:4), (pv:383,at:2), (pv:384,at:1), (pv:385,at:2), (pv:386,at:2), (pv:387,at:1), (pv:388,at:1), (pv:389,at:3), (pv:390,at:4), (pv:391,at:4), (pv:392,at:1), (pv:393,at:8), (pv:394,at:2), (pv:395,at:2), (pv:396,at:1), (pv:397,at:4), (pv:398,at:4), (pv:399,at:5), (pv:400,at:3)]
[INFO ] fr.inria.main.evolution.AstorMain.run(AstorMain.java:163) - Time Total(s): 10917.829
