Warning: no access to tty (Bad file descriptor).
Thus no job control in this shell.
tput: No value for $TERM and no -T specified
Node: hu11.sciclone.wm.edu
[INFO ] fr.inria.main.AbstractMain.processArguments(AbstractMain.java:295) - command line arguments: [-out  /local/scr/mtufano/Lang/26/b/random-package-default/2  -jvm4testexecution  /usr/local/jdk1.7.0_80/bin/  -loglevel  INFO  -maxVarCombination  1000  -maxgen  1000000  -population  1  -maxtime  180  -timezone  America/New_York  -customop  fr.inria.astor.approaches.jgenprog.operators.InsertAfterOp:fr.inria.astor.approaches.jgenprog.operators.InsertBeforeOp:fr.inria.astor.approaches.jgenprog.operators.ReplaceOp  -seed  2  -javacompliancelevel  5  -package  org.apache.commons  -binjavafolder  target/classes/  -bintestfolder  target/test-classes/  -srcjavafolder  src/main/java/  -srctestfolder  src/test/java/  -learningdir  ../../out/learningdir/Lang/26/b/  -location  ../../dat/defects4j/Lang/26/b/  -failing  org.apache.commons.lang3.time.FastDateFormatTest  -dependencies  ../../dat/libs/Lang/cglib.jar:../../dat/libs/Lang/commons-io.jar:../../dat/libs/Lang/asm.jar:../../dat/libs/Lang/easymock.jar  -classestoinstrument  org.apache.commons.lang3.time.FastDateFormat  -regressiontestcases4fl  org.apache.commons.lang3.time.DateFormatUtilsTest:org.apache.commons.lang3.time.DateUtilsRoundingTest:org.apache.commons.lang3.time.DateUtilsTest:org.apache.commons.lang3.time.DurationFormatUtilsTest:org.apache.commons.lang3.time.FastDateFormatTest  -scope  fr.inria.astor.core.loop.spaces.ingredients.scopes.ctscopes.CtPackageIngredientScope  -ingredientstrategy  fr.inria.astor.core.loop.spaces.ingredients.ingredientSearch.EfficientIngredientStrategy]
[INFO ] fr.inria.astor.core.manipulation.MutationSupporter.buildModel(MutationSupporter.java:76) - building model: /local/scr/mtufano/Lang/26/b/random-package-default/2/AstorMain-b//src//default, compliance level: 5
[INFO ] fr.inria.astor.core.manipulation.MutationSupporter.buildModel(MutationSupporter.java:85) - Classpath for building SpoonModel [/sciclone/data20/mtufano/deeprepair/bin/eval/../../dat/libs/Lang/cglib.jar, /sciclone/data20/mtufano/deeprepair/bin/eval/../../dat/libs/Lang/commons-io.jar, /sciclone/data20/mtufano/deeprepair/bin/eval/../../dat/libs/Lang/asm.jar, /sciclone/data20/mtufano/deeprepair/bin/eval/../../dat/libs/Lang/easymock.jar]
[INFO ] fr.inria.astor.core.setup.ProjectRepairFacade.calculateSuspicious(ProjectRepairFacade.java:215) - -Executing Gzoltar classpath: /local/scr/mtufano/Lang/26/b/random-package-default/2/AstorMain-b//bin//default from 5 classes with test cases
[INFO ] fr.inria.astor.core.faultlocalization.GZoltarFaultLocalization.searchSuspicious(GZoltarFaultLocalization.java:37) - Gzoltar fault localization: min susp value parameter: 0.1
[INFO ] fr.inria.astor.core.faultlocalization.GZoltarFaultLocalization.searchSuspicious(GZoltarFaultLocalization.java:57) - -gz-Adding classpath: [/sciclone/data20/mtufano/deeprepair/bin/eval/../../dat/libs/Lang/cglib.jar, /local/scr/mtufano/Lang/26/b/random-package-default/2/AstorMain-b//bin//default, /sciclone/data20/mtufano/deeprepair/bin/eval/../../dat/libs/Lang/asm.jar, /sciclone/data20/mtufano/deeprepair/bin/eval/../../dat/libs/Lang/easymock.jar, /sciclone/data20/mtufano/deeprepair/bin/eval/../../dat/libs/Lang/commons-io.jar]
[INFO ] fr.inria.astor.core.faultlocalization.GZoltarFaultLocalization.searchSuspicious(GZoltarFaultLocalization.java:76) - Test failt: org.apache.commons.lang3.time.FastDateFormatTest#testLang645
[INFO ] fr.inria.astor.core.faultlocalization.GZoltarFaultLocalization.searchSuspicious(GZoltarFaultLocalization.java:81) - Gzoltar Test Result Total:93, fails: 1, GZoltar suspicious 844
[INFO ] fr.inria.astor.core.faultlocalization.GZoltarFaultLocalization.searchSuspicious(GZoltarFaultLocalization.java:123) - Gzoltar found: 104 with susp > 0.1, we consider: 104
[INFO ] fr.inria.astor.approaches.jgenprog.JGenProg.initPopulation(JGenProg.java:80) - 
---- Initial suspicious size: 104
[INFO ] fr.inria.astor.core.loop.population.ProgramVariantFactory.createProgramInstance(ProgramVariantFactory.java:126) - -any mod point created for suspicious Candidate [className=org.apache.commons.lang3.time.FastDateFormat, methodName=org.apache.commons.lang3.time.FastDateFormat{parsePattern()Ljava/util/List; 0.0, lineNumber=654, susp=1.0]
[INFO ] fr.inria.astor.core.loop.population.ProgramVariantFactory.createProgramInstance(ProgramVariantFactory.java:126) - -any mod point created for suspicious Candidate [className=org.apache.commons.lang3.time.FastDateFormat, methodName=org.apache.commons.lang3.time.FastDateFormat{parsePattern()Ljava/util/List; 0.0, lineNumber=655, susp=1.0]
[INFO ] fr.inria.astor.core.loop.population.ProgramVariantFactory.createProgramInstance(ProgramVariantFactory.java:126) - -any mod point created for suspicious Candidate [className=org.apache.commons.lang3.time.FastDateFormat$StringLiteral, methodName=org.apache.commons.lang3.time.FastDateFormat$StringLiteral{appendTo(Ljava/lang/StringBuffer;Ljava/util/Calendar;)V 0.0, lineNumber=1131, susp=0.7071067811865475]
[INFO ] fr.inria.astor.core.loop.population.ProgramVariantFactory.createProgramInstance(ProgramVariantFactory.java:126) - -any mod point created for suspicious Candidate [className=org.apache.commons.lang3.time.FastDateFormat$TextField, methodName=org.apache.commons.lang3.time.FastDateFormat$TextField{appendTo(Ljava/lang/StringBuffer;Ljava/util/Calendar;)V 0.0, lineNumber=1172, susp=0.7071067811865475]
[INFO ] fr.inria.astor.core.loop.population.ProgramVariantFactory.createProgramInstance(ProgramVariantFactory.java:126) - -any mod point created for suspicious Candidate [className=org.apache.commons.lang3.time.FastDateFormat, methodName=org.apache.commons.lang3.time.FastDateFormat{parsePattern()Ljava/util/List; 0.0, lineNumber=645, susp=0.4472135954999579]
[INFO ] fr.inria.astor.core.loop.population.ProgramVariantFactory.createProgramInstance(ProgramVariantFactory.java:126) - -any mod point created for suspicious Candidate [className=org.apache.commons.lang3.time.FastDateFormat, methodName=org.apache.commons.lang3.time.FastDateFormat{parsePattern()Ljava/util/List; 0.0, lineNumber=646, susp=0.4472135954999579]
[INFO ] fr.inria.astor.core.loop.population.ProgramVariantFactory.createProgramInstance(ProgramVariantFactory.java:126) - -any mod point created for suspicious Candidate [className=org.apache.commons.lang3.time.FastDateFormat, methodName=org.apache.commons.lang3.time.FastDateFormat{parsePattern()Ljava/util/List; 0.0, lineNumber=689, susp=0.4472135954999579]
[INFO ] fr.inria.astor.core.loop.population.ProgramVariantFactory.createProgramInstance(ProgramVariantFactory.java:126) - -any mod point created for suspicious Candidate [className=org.apache.commons.lang3.time.FastDateFormat$TextField, methodName=org.apache.commons.lang3.time.FastDateFormat$TextField{estimateLength()I 0.0, lineNumber=1163, susp=0.4082482904638631]
[INFO ] fr.inria.astor.core.loop.population.ProgramVariantFactory.createProgramInstance(ProgramVariantFactory.java:126) - -any mod point created for suspicious Candidate [className=org.apache.commons.lang3.time.FastDateFormat, methodName=org.apache.commons.lang3.time.FastDateFormat{selectNumberRule(II)Lorg/apache/commons/lang3/time/FastDateFormat$NumberRule; 0.0, lineNumber=771, susp=0.23570226039551587]
[INFO ] fr.inria.astor.core.loop.population.ProgramVariantFactory.createProgramInstance(ProgramVariantFactory.java:126) - -any mod point created for suspicious Candidate [className=org.apache.commons.lang3.time.FastDateFormat, methodName=org.apache.commons.lang3.time.FastDateFormat{parsePattern()Ljava/util/List; 0.0, lineNumber=683, susp=0.22941573387056174]
[INFO ] fr.inria.astor.core.loop.population.ProgramVariantFactory.createProgramInstance(ProgramVariantFactory.java:126) - -any mod point created for suspicious Candidate [className=org.apache.commons.lang3.time.FastDateFormat, methodName=org.apache.commons.lang3.time.FastDateFormat{parsePattern()Ljava/util/List; 0.0, lineNumber=684, susp=0.22941573387056174]
[INFO ] fr.inria.astor.core.loop.population.ProgramVariantFactory.createProgramInstance(ProgramVariantFactory.java:126) - -any mod point created for suspicious Candidate [className=org.apache.commons.lang3.time.FastDateFormat, methodName=org.apache.commons.lang3.time.FastDateFormat{init()V 0.0, lineNumber=567, susp=0.22360679774997896]
[INFO ] fr.inria.astor.core.loop.population.ProgramVariantFactory.createProgramInstance(ProgramVariantFactory.java:126) - -any mod point created for suspicious Candidate [className=org.apache.commons.lang3.time.FastDateFormat, methodName=org.apache.commons.lang3.time.FastDateFormat{parseToken(Ljava/lang/String;[I)Ljava/lang/String; 0.0, lineNumber=727, susp=0.22360679774997896]
[INFO ] fr.inria.astor.core.loop.population.ProgramVariantFactory.createProgramInstance(ProgramVariantFactory.java:126) - -any mod point created for suspicious Candidate [className=org.apache.commons.lang3.time.FastDateFormat$TwoDigitNumberField, methodName=org.apache.commons.lang3.time.FastDateFormat$TwoDigitNumberField{appendTo(Ljava/lang/StringBuffer;Ljava/util/Calendar;)V 0.0, lineNumber=1349, susp=0.16666666666666666]
[INFO ] fr.inria.astor.core.loop.population.ProgramVariantFactory.createProgramInstance(ProgramVariantFactory.java:126) - -any mod point created for suspicious Candidate [className=org.apache.commons.lang3.time.FastDateFormat$TwoDigitNumberField, methodName=org.apache.commons.lang3.time.FastDateFormat$TwoDigitNumberField{appendTo(Ljava/lang/StringBuffer;I)V 0.0, lineNumber=1361, susp=0.16666666666666666]
[INFO ] fr.inria.astor.core.loop.population.ProgramVariantFactory.createProgramInstance(ProgramVariantFactory.java:130) - Total suspicious from FL: 104,  90
[INFO ] fr.inria.astor.core.loop.population.ProgramVariantFactory.createProgramInstance(ProgramVariantFactory.java:138) - Total ModPoint created: 90
[INFO ] fr.inria.astor.core.loop.population.ProgramVariantFactory.createInitialPopulation(ProgramVariantFactory.java:82) - Creating program variant #1, [Variant id: 1, #gens: 90, #ops: 0, parent:-]
[INFO ] fr.inria.astor.core.setup.ConfigurationProperties.print(ConfigurationProperties.java:63) - ----------------------------
[INFO ] fr.inria.astor.core.setup.ConfigurationProperties.print(ConfigurationProperties.java:64) - ---Configuration properties:---Execution values
[INFO ] fr.inria.astor.core.setup.ConfigurationProperties.print(ConfigurationProperties.java:66) - p:lastJUnitVersion= ./examples/libs/junit-4.11.jar
[INFO ] fr.inria.astor.core.setup.ConfigurationProperties.print(ConfigurationProperties.java:66) - p:alternativecompliancelevel= 4
[INFO ] fr.inria.astor.core.setup.ConfigurationProperties.print(ConfigurationProperties.java:66) - p:ignoredTestCases= 
[INFO ] fr.inria.astor.core.setup.ConfigurationProperties.print(ConfigurationProperties.java:66) - p:workingDirectory= /local/scr/mtufano/Lang/26/b/random-package-default/2
[INFO ] fr.inria.astor.core.setup.ConfigurationProperties.print(ConfigurationProperties.java:66) - p:manipulatesuper= false
[INFO ] fr.inria.astor.core.setup.ConfigurationProperties.print(ConfigurationProperties.java:66) - p:validation= process
[INFO ] fr.inria.astor.core.setup.ConfigurationProperties.print(ConfigurationProperties.java:66) - p:jvm4testexecution= /usr/local/jdk1.7.0_80/bin/
[INFO ] fr.inria.astor.core.setup.ConfigurationProperties.print(ConfigurationProperties.java:66) - p:binjavafolder= target/classes/
[INFO ] fr.inria.astor.core.setup.ConfigurationProperties.print(ConfigurationProperties.java:66) - p:evosuiteresultfolder= evosuite
[INFO ] fr.inria.astor.core.setup.ConfigurationProperties.print(ConfigurationProperties.java:66) - p:flthreshold= 0.1
[INFO ] fr.inria.astor.core.setup.ConfigurationProperties.print(ConfigurationProperties.java:66) - p:regressionforfaultlocalization= true
[INFO ] fr.inria.astor.core.setup.ConfigurationProperties.print(ConfigurationProperties.java:66) - p:tmax2= 960000
[INFO ] fr.inria.astor.core.setup.ConfigurationProperties.print(ConfigurationProperties.java:66) - p:tmax1= 120000
[INFO ] fr.inria.astor.core.setup.ConfigurationProperties.print(ConfigurationProperties.java:66) - p:probagenmutation= false
[INFO ] fr.inria.astor.core.setup.ConfigurationProperties.print(ConfigurationProperties.java:66) - p:srctestfolder= src/test/java/
[INFO ] fr.inria.astor.core.setup.ConfigurationProperties.print(ConfigurationProperties.java:66) - p:customop= fr.inria.astor.approaches.jgenprog.operators.InsertAfterOp:fr.inria.astor.approaches.jgenprog.operators.InsertBeforeOp:fr.inria.astor.approaches.jgenprog.operators.ReplaceOp
[INFO ] fr.inria.astor.core.setup.ConfigurationProperties.print(ConfigurationProperties.java:66) - p:forceExecuteRegression= false
[INFO ] fr.inria.astor.core.setup.ConfigurationProperties.print(ConfigurationProperties.java:66) - p:clusteringfilename= clustering.csv
[INFO ] fr.inria.astor.core.setup.ConfigurationProperties.print(ConfigurationProperties.java:66) - p:failing= org.apache.commons.lang3.time.FastDateFormatTest
[INFO ] fr.inria.astor.core.setup.ConfigurationProperties.print(ConfigurationProperties.java:66) - p:evo_buggy_class= true
[INFO ] fr.inria.astor.core.setup.ConfigurationProperties.print(ConfigurationProperties.java:66) - p:numberExecutions= 1
[INFO ] fr.inria.astor.core.setup.ConfigurationProperties.print(ConfigurationProperties.java:66) - p:evo_affected_by_op= true
[INFO ] fr.inria.astor.core.setup.ConfigurationProperties.print(ConfigurationProperties.java:66) - p:population= 1
[INFO ] fr.inria.astor.core.setup.ConfigurationProperties.print(ConfigurationProperties.java:66) - p:clonegranularity= types
[INFO ] fr.inria.astor.core.setup.ConfigurationProperties.print(ConfigurationProperties.java:66) - p:regressiontestcases4fl= org.apache.commons.lang3.time.DateFormatUtilsTest:org.apache.commons.lang3.time.DateUtilsRoundingTest:org.apache.commons.lang3.time.DateUtilsTest:org.apache.commons.lang3.time.DurationFormatUtilsTest:org.apache.commons.lang3.time.FastDateFormatTest
[INFO ] fr.inria.astor.core.setup.ConfigurationProperties.print(ConfigurationProperties.java:66) - p:savesolution= true
[INFO ] fr.inria.astor.core.setup.ConfigurationProperties.print(ConfigurationProperties.java:66) - p:javacompliancelevel= 5
[INFO ] fr.inria.astor.core.setup.ConfigurationProperties.print(ConfigurationProperties.java:66) - p:uniqueoptogen= false
[INFO ] fr.inria.astor.core.setup.ConfigurationProperties.print(ConfigurationProperties.java:66) - p:projectIdentifier= 
[INFO ] fr.inria.astor.core.setup.ConfigurationProperties.print(ConfigurationProperties.java:66) - p:modificationpointnavigation= weight
[INFO ] fr.inria.astor.core.setup.ConfigurationProperties.print(ConfigurationProperties.java:66) - p:stopfirst= false
[INFO ] fr.inria.astor.core.setup.ConfigurationProperties.print(ConfigurationProperties.java:66) - p:multipointmodification= false
[INFO ] fr.inria.astor.core.setup.ConfigurationProperties.print(ConfigurationProperties.java:66) - p:elementsToMutate= 10
[INFO ] fr.inria.astor.core.setup.ConfigurationProperties.print(ConfigurationProperties.java:66) - p:evoDSE= false
[INFO ] fr.inria.astor.core.setup.ConfigurationProperties.print(ConfigurationProperties.java:66) - p:bintestfolder= target/test-classes/
[INFO ] fr.inria.astor.core.setup.ConfigurationProperties.print(ConfigurationProperties.java:66) - p:testbystep= false
[INFO ] fr.inria.astor.core.setup.ConfigurationProperties.print(ConfigurationProperties.java:66) - p:version-location= ./math-version/
[INFO ] fr.inria.astor.core.setup.ConfigurationProperties.print(ConfigurationProperties.java:66) - p:reintroduce= PARENTS
[INFO ] fr.inria.astor.core.setup.ConfigurationProperties.print(ConfigurationProperties.java:66) - p:maxGeneration= 1000000
[INFO ] fr.inria.astor.core.setup.ConfigurationProperties.print(ConfigurationProperties.java:66) - p:maxVarCombination= 1000
[INFO ] fr.inria.astor.core.setup.ConfigurationProperties.print(ConfigurationProperties.java:66) - p:maxtime= 180
[INFO ] fr.inria.astor.core.setup.ConfigurationProperties.print(ConfigurationProperties.java:66) - p:evosuitejar= ./lib/evosuite-master-1.0.4-SNAPSHOT.jar
[INFO ] fr.inria.astor.core.setup.ConfigurationProperties.print(ConfigurationProperties.java:66) - p:commandTrunk= 50000
[INFO ] fr.inria.astor.core.setup.ConfigurationProperties.print(ConfigurationProperties.java:66) - p:faultlocalization= fr.inria.astor.core.faultlocalization.GZoltarFaultLocalization
[INFO ] fr.inria.astor.core.setup.ConfigurationProperties.print(ConfigurationProperties.java:66) - p:maxsuspcandidates= 1000
[INFO ] fr.inria.astor.core.setup.ConfigurationProperties.print(ConfigurationProperties.java:66) - p:mode= statement
[INFO ] fr.inria.astor.core.setup.ConfigurationProperties.print(ConfigurationProperties.java:66) - p:learningdir= ../../out/learningdir/Lang/26/b/
[INFO ] fr.inria.astor.core.setup.ConfigurationProperties.print(ConfigurationProperties.java:66) - p:jvm4evosuitetestexecution= /usr/local/jdk1.7.0_80/bin/
[INFO ] fr.inria.astor.core.setup.ConfigurationProperties.print(ConfigurationProperties.java:66) - p:filterfaultlocalization= true
[INFO ] fr.inria.astor.core.setup.ConfigurationProperties.print(ConfigurationProperties.java:66) - p:mutationrate= 1 
[INFO ] fr.inria.astor.core.setup.ConfigurationProperties.print(ConfigurationProperties.java:66) - p:pathToMVNRepository= 
[INFO ] fr.inria.astor.core.setup.ConfigurationProperties.print(ConfigurationProperties.java:66) - p:resourcesfolder= /src/main/resources:/src/test/resources:
[INFO ] fr.inria.astor.core.setup.ConfigurationProperties.print(ConfigurationProperties.java:66) - p:timezone= America/New_York
[INFO ] fr.inria.astor.core.setup.ConfigurationProperties.print(ConfigurationProperties.java:66) - p:classestoinstrument= org.apache.commons.lang3.time.FastDateFormat
[INFO ] fr.inria.astor.core.setup.ConfigurationProperties.print(ConfigurationProperties.java:66) - p:evoRunOnBuggyClass= true
[INFO ] fr.inria.astor.core.setup.ConfigurationProperties.print(ConfigurationProperties.java:66) - p:compiler= fr.inria.astor.core.manipulation.bytecode.compiler.SpoonClassCompiler
[INFO ] fr.inria.astor.core.setup.ConfigurationProperties.print(ConfigurationProperties.java:66) - p:dependenciespath= ../../dat/libs/Lang/cglib.jar:../../dat/libs/Lang/commons-io.jar:../../dat/libs/Lang/asm.jar:../../dat/libs/Lang/easymock.jar
[INFO ] fr.inria.astor.core.setup.ConfigurationProperties.print(ConfigurationProperties.java:66) - p:skipfaultlocalization= false
[INFO ] fr.inria.astor.core.setup.ConfigurationProperties.print(ConfigurationProperties.java:66) - p:packageToInstrument= org.apache.commons
[INFO ] fr.inria.astor.core.setup.ConfigurationProperties.print(ConfigurationProperties.java:66) - p:scope= fr.inria.astor.core.loop.spaces.ingredients.scopes.ctscopes.CtPackageIngredientScope
[INFO ] fr.inria.astor.core.setup.ConfigurationProperties.print(ConfigurationProperties.java:66) - p:transformingredient= false
[INFO ] fr.inria.astor.core.setup.ConfigurationProperties.print(ConfigurationProperties.java:66) - p:fitnessfunction= fr.inria.astor.core.loop.population.TestCaseFitnessFunction
[INFO ] fr.inria.astor.core.setup.ConfigurationProperties.print(ConfigurationProperties.java:66) - p:pvariantfoldername= variant-
[INFO ] fr.inria.astor.core.setup.ConfigurationProperties.print(ConfigurationProperties.java:66) - p:srcjavafolder= src/main/java/
[INFO ] fr.inria.astor.core.setup.ConfigurationProperties.print(ConfigurationProperties.java:66) - p:populationcontroller= fr.inria.astor.core.loop.population.TestCaseBasedFitnessPopulationController
[INFO ] fr.inria.astor.core.setup.ConfigurationProperties.print(ConfigurationProperties.java:66) - p:ignoreflakyinfl= false
[INFO ] fr.inria.astor.core.setup.ConfigurationProperties.print(ConfigurationProperties.java:66) - p:applyCrossover= false
[INFO ] fr.inria.astor.core.setup.ConfigurationProperties.print(ConfigurationProperties.java:66) - p:saveall= false
[INFO ] fr.inria.astor.core.setup.ConfigurationProperties.print(ConfigurationProperties.java:66) - p:seed= 2
[INFO ] fr.inria.astor.core.setup.ConfigurationProperties.print(ConfigurationProperties.java:66) - p:resetoperations= false
[INFO ] fr.inria.astor.core.setup.ConfigurationProperties.print(ConfigurationProperties.java:66) - p:location= ../../dat/defects4j/Lang/26/b/
[INFO ] fr.inria.astor.core.setup.ConfigurationProperties.print(ConfigurationProperties.java:66) - p:ingredientstrategy= fr.inria.astor.core.loop.spaces.ingredients.ingredientSearch.EfficientIngredientStrategy
[INFO ] fr.inria.astor.core.setup.ConfigurationProperties.print(ConfigurationProperties.java:66) - p:allpoints= false
[INFO ] fr.inria.astor.core.setup.ConfigurationProperties.print(ConfigurationProperties.java:66) - p:bugId= 280
[INFO ] fr.inria.astor.core.setup.ConfigurationProperties.print(ConfigurationProperties.java:66) - p:evosuitetimeout= 120
[INFO ] fr.inria.astor.core.setup.ConfigurationProperties.print(ConfigurationProperties.java:68) - ----------------------------
[INFO ] fr.inria.astor.core.loop.AstorCoreEngine.startEvolution(AstorCoreEngine.java:119) - 
----Starting Solution Search
[INFO ] fr.inria.astor.core.validation.executors.JUnitExecutorProcess.execute(JUnitExecutorProcess.java:120) - The Process that runs JUnit test cases had problems: process hasn't exited
[INFO ] fr.inria.astor.core.validation.executors.JUnitExecutorProcess.execute(JUnitExecutorProcess.java:120) - The Process that runs JUnit test cases had problems: process hasn't exited
[INFO ] fr.inria.astor.core.validation.executors.JUnitExecutorProcess.execute(JUnitExecutorProcess.java:120) - The Process that runs JUnit test cases had problems: process hasn't exited
[INFO ] fr.inria.astor.core.validation.executors.JUnitExecutorProcess.execute(JUnitExecutorProcess.java:120) - The Process that runs JUnit test cases had problems: process hasn't exited
[INFO ] fr.inria.astor.core.validation.executors.JUnitExecutorProcess.execute(JUnitExecutorProcess.java:120) - The Process that runs JUnit test cases had problems: process hasn't exited
[INFO ] fr.inria.astor.core.loop.AstorCoreEngine.belowMaxTime(AstorCoreEngine.java:203) - 
 No more time for operating
[INFO ] fr.inria.astor.core.loop.AstorCoreEngine.startEvolution(AstorCoreEngine.java:143) - Time Repair Loop (s): 10869.171
[INFO ] fr.inria.astor.core.loop.AstorCoreEngine.showResults(AstorCoreEngine.java:165) - 
----SUMMARY_EXECUTION---
[INFO ] fr.inria.astor.approaches.jgenprog.JGenProg.showResults(JGenProg.java:332) - 
successful_ing_attempts (#trials 0, totalAttps 0): []
[INFO ] fr.inria.astor.approaches.jgenprog.JGenProg.showResults(JGenProg.java:334) - 
failing_ing_attempts (#trials 742, totalAttps 4010): [5, 1, 8, 1, 1, 1, 3, 3, 4, 5, 4, 3, 2, 7, 10, 2, 12, 1, 1, 14, 11, 2, 2, 5, 5, 3, 1, 9, 1, 6, 7, 4, 6, 5, 1, 7, 4, 3, 1, 1, 2, 5, 4, 20, 2, 1, 5, 1, 11, 1, 1, 2, 12, 17, 6, 1, 2, 7, 1, 1, 5, 9, 2, 15, 1, 3, 1, 4, 3, 1, 1, 2, 6, 2, 1, 5, 1, 5, 1, 4, 1, 1, 7, 8, 8, 9, 1, 1, 3, 2, 1, 3, 6, 4, 1, 3, 1, 1, 23, 1, 8, 6, 6, 4, 2, 1, 1, 2, 8, 2, 4, 3, 1, 1, 2, 5, 2, 21, 4, 3, 1, 11, 2, 11, 6, 5, 13, 4, 2, 3, 6, 7, 1, 3, 4, 2, 3, 6, 11, 1, 2, 2, 3, 5, 25, 1, 1, 9, 6, 8, 8, 3, 3, 7, 7, 1, 4, 20, 2, 1, 1, 2, 2, 13, 2, 1, 2, 7, 2, 6, 3, 2, 1, 3, 2, 2, 6, 10, 5, 15, 2, 5, 1, 1, 12, 2, 2, 1, 2, 2, 11, 9, 1, 3, 9, 1, 8, 6, 12, 1, 3, 1, 1, 2, 3, 2, 1, 14, 1, 3, 4, 1, 8, 1, 6, 4, 1, 5, 3, 1, 8, 2, 4, 10, 1, 3, 8, 1, 8, 5, 2, 17, 2, 4, 2, 8, 3, 1, 7, 2, 2, 21, 7, 3, 18, 4, 2, 1, 3, 10, 8, 5, 24, 4, 8, 1, 5, 10, 15, 14, 12, 7, 4, 18, 2, 3, 1, 4, 9, 8, 1, 11, 1, 4, 25, 2, 1, 29, 5, 4, 17, 3, 2, 1, 1, 1, 8, 4, 10, 14, 1, 1, 1, 9, 2, 5, 10, 5, 31, 2, 3, 9, 2, 5, 7, 13, 3, 3, 10, 4, 18, 3, 10, 4, 12, 1, 2, 6, 3, 1, 6, 2, 1, 16, 5, 5, 11, 3, 2, 3, 8, 2, 4, 2, 21, 5, 1, 20, 1, 2, 2, 2, 8, 1, 19, 5, 2, 2, 4, 7, 9, 6, 1, 3, 29, 1, 1, 2, 6, 2, 10, 2, 4, 2, 6, 11, 2, 1, 4, 3, 1, 2, 3, 11, 3, 4, 11, 3, 1, 2, 5, 10, 7, 15, 15, 4, 3, 2, 12, 2, 3, 28, 3, 4, 2, 1, 12, 3, 4, 12, 1, 5, 12, 1, 1, 1, 1, 1, 1, 13, 5, 9, 3, 2, 1, 12, 3, 8, 1, 8, 1, 3, 13, 8, 5, 3, 7, 2, 1, 1, 1, 2, 4, 8, 1, 1, 4, 5, 1, 22, 3, 8, 3, 21, 4, 13, 3, 3, 2, 3, 11, 1, 7, 1, 1, 1, 12, 5, 6, 3, 1, 12, 10, 1, 15, 2, 22, 1, 12, 23, 14, 1, 5, 3, 2, 5, 3, 1, 4, 5, 7, 3, 6, 17, 2, 12, 3, 13, 1, 5, 7, 1, 5, 9, 1, 21, 18, 3, 14, 1, 11, 5, 3, 1, 9, 2, 5, 3, 6, 8, 2, 2, 6, 4, 2, 7, 9, 2, 2, 3, 21, 1, 2, 6, 11, 5, 1, 1, 1, 5, 1, 1, 5, 9, 2, 2, 3, 1, 2, 6, 16, 5, 3, 5, 2, 1, 3, 12, 15, 4, 3, 2, 5, 6, 11, 8, 1, 1, 15, 10, 4, 8, 11, 7, 4, 12, 22, 1, 5, 14, 21, 9, 19, 3, 2, 1, 18, 12, 4, 1, 5, 3, 1, 5, 1, 7, 5, 21, 16, 2, 4, 14, 8, 2, 1, 7, 1, 2, 6, 1, 8, 7, 2, 4, 15, 4, 3, 4, 4, 8, 11, 3, 11, 10, 3, 11, 14, 2, 2, 17, 2, 1, 2, 3, 7, 1, 2, 3, 1, 2, 1, 1, 2, 4, 5, 1, 3, 3, 5, 1, 6, 3, 2, 2, 6, 22, 1, 3, 2, 1, 2, 2, 6, 1, 3, 1, 12, 8, 1, 3, 6, 2, 2, 4, 5, 3, 3, 5, 1, 1, 2, 7, 1, 4, 16, 4, 1, 3, 5, 8, 5, 2, 12, 11, 6, 12, 1, 8, 8, 24, 1, 1, 1, 11, 3, 14, 4, 3, 17, 2, 5, 4, 4, 2, 2, 16, 6, 2, 11, 4, 3, 2, 10, 2, 4, 14, 1, 3, 3, 14, 3, 6, 2, 5, 4, 1, 3, 13, 3, 10, 7, 2, 3, 2, 2, 5, 1, 3, 8, 4, 4, 12]
[INFO ] fr.inria.astor.approaches.jgenprog.JGenProg.showResults(JGenProg.java:337) - 
total Patch Attempts (0): []
[INFO ] fr.inria.astor.approaches.jgenprog.JGenProg.showResults(JGenProg.java:339) - 
successful_ing_attempts_by_patch: []
[INFO ] fr.inria.astor.approaches.jgenprog.JGenProg.showResults(JGenProg.java:340) - 
failing_ing_attempts_by_patch: [(pv:2,at:5), (pv:3,at:1), (pv:4,at:8), (pv:5,at:1), (pv:6,at:1), (pv:7,at:1), (pv:8,at:3), (pv:9,at:3), (pv:10,at:4), (pv:11,at:5), (pv:12,at:4), (pv:13,at:3), (pv:14,at:2), (pv:15,at:7), (pv:16,at:10), (pv:17,at:2), (pv:18,at:12), (pv:19,at:1), (pv:20,at:1), (pv:21,at:14), (pv:22,at:11), (pv:23,at:2), (pv:24,at:2), (pv:25,at:5), (pv:26,at:5), (pv:27,at:3), (pv:28,at:1), (pv:29,at:9), (pv:30,at:1), (pv:31,at:6), (pv:32,at:7), (pv:33,at:4), (pv:34,at:6), (pv:35,at:5), (pv:36,at:1), (pv:37,at:7), (pv:38,at:4), (pv:39,at:3), (pv:40,at:1), (pv:41,at:1), (pv:42,at:2), (pv:43,at:5), (pv:44,at:4), (pv:45,at:20), (pv:46,at:2), (pv:47,at:1), (pv:48,at:5), (pv:49,at:1), (pv:50,at:11), (pv:51,at:1), (pv:52,at:1), (pv:53,at:2), (pv:54,at:12), (pv:55,at:17), (pv:56,at:6), (pv:57,at:1), (pv:58,at:2), (pv:59,at:7), (pv:60,at:1), (pv:61,at:1), (pv:62,at:5), (pv:63,at:9), (pv:64,at:2), (pv:65,at:15), (pv:66,at:1), (pv:67,at:3), (pv:68,at:1), (pv:69,at:4), (pv:70,at:3), (pv:71,at:1), (pv:72,at:1), (pv:73,at:2), (pv:74,at:6), (pv:75,at:2), (pv:76,at:1), (pv:77,at:5), (pv:78,at:1), (pv:79,at:5), (pv:80,at:1), (pv:81,at:4), (pv:82,at:1), (pv:83,at:1), (pv:84,at:7), (pv:85,at:8), (pv:86,at:8), (pv:87,at:9), (pv:88,at:1), (pv:89,at:1), (pv:90,at:3), (pv:91,at:2), (pv:92,at:1), (pv:93,at:3), (pv:94,at:6), (pv:95,at:4), (pv:96,at:1), (pv:97,at:3), (pv:98,at:1), (pv:99,at:1), (pv:100,at:23), (pv:101,at:1), (pv:102,at:8), (pv:103,at:6), (pv:104,at:6), (pv:105,at:4), (pv:106,at:2), (pv:107,at:1), (pv:108,at:1), (pv:109,at:2), (pv:110,at:8), (pv:111,at:2), (pv:112,at:4), (pv:113,at:3), (pv:114,at:1), (pv:115,at:1), (pv:116,at:2), (pv:117,at:5), (pv:118,at:2), (pv:119,at:21), (pv:120,at:4), (pv:121,at:3), (pv:122,at:1), (pv:123,at:11), (pv:124,at:2), (pv:125,at:11), (pv:126,at:6), (pv:127,at:5), (pv:128,at:13), (pv:129,at:4), (pv:130,at:2), (pv:131,at:3), (pv:132,at:6), (pv:133,at:7), (pv:134,at:1), (pv:135,at:3), (pv:136,at:4), (pv:137,at:2), (pv:138,at:3), (pv:139,at:6), (pv:140,at:11), (pv:141,at:1), (pv:142,at:2), (pv:143,at:2), (pv:144,at:3), (pv:145,at:5), (pv:146,at:25), (pv:147,at:1), (pv:148,at:1), (pv:149,at:9), (pv:150,at:6), (pv:151,at:8), (pv:152,at:8), (pv:153,at:3), (pv:154,at:3), (pv:155,at:7), (pv:156,at:7), (pv:157,at:1), (pv:158,at:4), (pv:159,at:20), (pv:160,at:2), (pv:161,at:1), (pv:162,at:1), (pv:163,at:2), (pv:164,at:2), (pv:165,at:13), (pv:166,at:2), (pv:167,at:1), (pv:168,at:2), (pv:169,at:7), (pv:170,at:2), (pv:171,at:6), (pv:172,at:3), (pv:173,at:2), (pv:174,at:1), (pv:175,at:3), (pv:176,at:2), (pv:177,at:2), (pv:178,at:6), (pv:179,at:10), (pv:180,at:5), (pv:181,at:15), (pv:182,at:2), (pv:183,at:5), (pv:184,at:1), (pv:185,at:1), (pv:186,at:12), (pv:187,at:2), (pv:188,at:2), (pv:189,at:1), (pv:190,at:2), (pv:191,at:2), (pv:192,at:11), (pv:193,at:9), (pv:194,at:1), (pv:195,at:3), (pv:196,at:9), (pv:197,at:1), (pv:198,at:8), (pv:199,at:6), (pv:200,at:12), (pv:201,at:1), (pv:202,at:3), (pv:203,at:1), (pv:204,at:1), (pv:205,at:2), (pv:206,at:3), (pv:207,at:2), (pv:208,at:1), (pv:209,at:14), (pv:210,at:1), (pv:211,at:3), (pv:212,at:4), (pv:213,at:1), (pv:214,at:8), (pv:215,at:1), (pv:216,at:6), (pv:217,at:4), (pv:218,at:1), (pv:219,at:5), (pv:220,at:3), (pv:221,at:1), (pv:222,at:8), (pv:223,at:2), (pv:224,at:4), (pv:225,at:10), (pv:226,at:1), (pv:227,at:3), (pv:228,at:8), (pv:229,at:1), (pv:230,at:8), (pv:231,at:5), (pv:232,at:2), (pv:233,at:17), (pv:234,at:2), (pv:235,at:4), (pv:236,at:2), (pv:237,at:8), (pv:238,at:3), (pv:239,at:1), (pv:240,at:7), (pv:241,at:2), (pv:242,at:2), (pv:243,at:21), (pv:244,at:7), (pv:245,at:3), (pv:246,at:18), (pv:247,at:4), (pv:248,at:2), (pv:249,at:1), (pv:250,at:3), (pv:251,at:10), (pv:252,at:8), (pv:253,at:5), (pv:254,at:24), (pv:255,at:4), (pv:256,at:8), (pv:257,at:1), (pv:258,at:5), (pv:259,at:10), (pv:260,at:15), (pv:261,at:14), (pv:262,at:12), (pv:263,at:7), (pv:264,at:4), (pv:265,at:18), (pv:266,at:2), (pv:267,at:3), (pv:268,at:1), (pv:269,at:4), (pv:270,at:9), (pv:271,at:8), (pv:272,at:1), (pv:273,at:11), (pv:274,at:1), (pv:275,at:4), (pv:276,at:25), (pv:277,at:2), (pv:278,at:1), (pv:279,at:29), (pv:280,at:5), (pv:281,at:4), (pv:282,at:17), (pv:283,at:3), (pv:284,at:2), (pv:285,at:1), (pv:286,at:1), (pv:287,at:1), (pv:288,at:8), (pv:289,at:4), (pv:290,at:10), (pv:291,at:14), (pv:292,at:1), (pv:293,at:1), (pv:294,at:1), (pv:295,at:9), (pv:296,at:2), (pv:297,at:5), (pv:298,at:10), (pv:299,at:5), (pv:300,at:31), (pv:301,at:2), (pv:302,at:3), (pv:303,at:9), (pv:304,at:2), (pv:305,at:5), (pv:306,at:7), (pv:307,at:13), (pv:308,at:3), (pv:309,at:3), (pv:310,at:10), (pv:311,at:4), (pv:312,at:18), (pv:313,at:3), (pv:314,at:10), (pv:315,at:4), (pv:316,at:12), (pv:317,at:1), (pv:318,at:2), (pv:319,at:6), (pv:320,at:3), (pv:321,at:1), (pv:322,at:6), (pv:323,at:2), (pv:324,at:1), (pv:325,at:16), (pv:326,at:5), (pv:327,at:5), (pv:328,at:11), (pv:329,at:3), (pv:330,at:2), (pv:331,at:3), (pv:332,at:8), (pv:333,at:2), (pv:334,at:4), (pv:335,at:2), (pv:336,at:21), (pv:337,at:5), (pv:338,at:1), (pv:339,at:20), (pv:340,at:1), (pv:341,at:2), (pv:342,at:2), (pv:343,at:2), (pv:344,at:8), (pv:345,at:1), (pv:346,at:19), (pv:347,at:5), (pv:348,at:2), (pv:349,at:2), (pv:350,at:4), (pv:351,at:7), (pv:352,at:9), (pv:353,at:6), (pv:354,at:1), (pv:355,at:3), (pv:356,at:29), (pv:357,at:1), (pv:358,at:1), (pv:359,at:2), (pv:360,at:6), (pv:361,at:2), (pv:362,at:10), (pv:363,at:2), (pv:364,at:4), (pv:365,at:2), (pv:366,at:6), (pv:367,at:11), (pv:368,at:2), (pv:369,at:1), (pv:370,at:4), (pv:371,at:3), (pv:372,at:1), (pv:373,at:2), (pv:374,at:3), (pv:375,at:11), (pv:376,at:3), (pv:377,at:4), (pv:378,at:11), (pv:379,at:3), (pv:380,at:1), (pv:381,at:2), (pv:382,at:5), (pv:383,at:10), (pv:384,at:7), (pv:385,at:15), (pv:386,at:15), (pv:387,at:4), (pv:388,at:3), (pv:389,at:2), (pv:390,at:12), (pv:391,at:2), (pv:392,at:3), (pv:393,at:28), (pv:394,at:3), (pv:395,at:4), (pv:396,at:2), (pv:397,at:1), (pv:398,at:12), (pv:399,at:3), (pv:400,at:4), (pv:401,at:12), (pv:402,at:1), (pv:403,at:5), (pv:404,at:12), (pv:405,at:1), (pv:406,at:1), (pv:407,at:1), (pv:408,at:1), (pv:409,at:1), (pv:410,at:1), (pv:411,at:13), (pv:412,at:5), (pv:413,at:9), (pv:414,at:3), (pv:415,at:2), (pv:416,at:1), (pv:417,at:12), (pv:418,at:3), (pv:419,at:8), (pv:420,at:1), (pv:421,at:8), (pv:422,at:1), (pv:423,at:3), (pv:424,at:13), (pv:425,at:8), (pv:426,at:5), (pv:427,at:3), (pv:428,at:7), (pv:429,at:2), (pv:430,at:1), (pv:431,at:1), (pv:432,at:1), (pv:433,at:2), (pv:434,at:4), (pv:435,at:8), (pv:436,at:1), (pv:437,at:1), (pv:438,at:4), (pv:439,at:5), (pv:440,at:1), (pv:441,at:22), (pv:442,at:3), (pv:443,at:8), (pv:444,at:3), (pv:445,at:21), (pv:446,at:4), (pv:447,at:13), (pv:448,at:3), (pv:449,at:3), (pv:450,at:2), (pv:451,at:3), (pv:452,at:11), (pv:453,at:1), (pv:454,at:7), (pv:455,at:1), (pv:456,at:1), (pv:457,at:1), (pv:458,at:12), (pv:459,at:5), (pv:460,at:6), (pv:461,at:3), (pv:462,at:1), (pv:463,at:12), (pv:464,at:10), (pv:465,at:1), (pv:466,at:15), (pv:467,at:2), (pv:468,at:22), (pv:469,at:1), (pv:470,at:12), (pv:471,at:23), (pv:472,at:14), (pv:473,at:1), (pv:474,at:5), (pv:475,at:3), (pv:476,at:2), (pv:477,at:5), (pv:478,at:3), (pv:479,at:1), (pv:480,at:4), (pv:481,at:5), (pv:482,at:7), (pv:483,at:3), (pv:484,at:6), (pv:485,at:17), (pv:486,at:2), (pv:487,at:12), (pv:488,at:3), (pv:489,at:13), (pv:490,at:1), (pv:491,at:5), (pv:492,at:7), (pv:493,at:1), (pv:494,at:5), (pv:495,at:9), (pv:496,at:1), (pv:497,at:21), (pv:498,at:18), (pv:499,at:3), (pv:500,at:14), (pv:501,at:1), (pv:502,at:11), (pv:503,at:5), (pv:504,at:3), (pv:505,at:1), (pv:506,at:9), (pv:507,at:2), (pv:508,at:5), (pv:509,at:3), (pv:510,at:6), (pv:511,at:8), (pv:512,at:2), (pv:513,at:2), (pv:514,at:6), (pv:515,at:4), (pv:516,at:2), (pv:517,at:7), (pv:518,at:9), (pv:519,at:2), (pv:520,at:2), (pv:521,at:3), (pv:522,at:21), (pv:523,at:1), (pv:524,at:2), (pv:525,at:6), (pv:526,at:11), (pv:527,at:5), (pv:528,at:1), (pv:529,at:1), (pv:530,at:1), (pv:531,at:5), (pv:532,at:1), (pv:533,at:1), (pv:534,at:5), (pv:535,at:9), (pv:536,at:2), (pv:537,at:2), (pv:538,at:3), (pv:539,at:1), (pv:540,at:2), (pv:541,at:6), (pv:542,at:16), (pv:543,at:5), (pv:544,at:3), (pv:545,at:5), (pv:546,at:2), (pv:547,at:1), (pv:548,at:3), (pv:549,at:12), (pv:550,at:15), (pv:551,at:4), (pv:552,at:3), (pv:553,at:2), (pv:554,at:5), (pv:555,at:6), (pv:556,at:11), (pv:557,at:8), (pv:558,at:1), (pv:559,at:1), (pv:560,at:15), (pv:561,at:10), (pv:562,at:4), (pv:563,at:8), (pv:564,at:11), (pv:565,at:7), (pv:566,at:4), (pv:567,at:12), (pv:568,at:22), (pv:569,at:1), (pv:570,at:5), (pv:571,at:14), (pv:572,at:21), (pv:573,at:9), (pv:574,at:19), (pv:575,at:3), (pv:576,at:2), (pv:577,at:1), (pv:578,at:18), (pv:579,at:12), (pv:580,at:4), (pv:581,at:1), (pv:582,at:5), (pv:583,at:3), (pv:584,at:1), (pv:585,at:5), (pv:586,at:1), (pv:587,at:7), (pv:588,at:5), (pv:589,at:21), (pv:590,at:16), (pv:591,at:2), (pv:592,at:4), (pv:593,at:14), (pv:594,at:8), (pv:595,at:2), (pv:596,at:1), (pv:597,at:7), (pv:598,at:1), (pv:599,at:2), (pv:600,at:6), (pv:601,at:1), (pv:602,at:8), (pv:603,at:7), (pv:604,at:2), (pv:605,at:4), (pv:606,at:15), (pv:607,at:4), (pv:608,at:3), (pv:609,at:4), (pv:610,at:4), (pv:611,at:8), (pv:612,at:11), (pv:613,at:3), (pv:614,at:11), (pv:615,at:10), (pv:616,at:3), (pv:617,at:11), (pv:618,at:14), (pv:619,at:2), (pv:620,at:2), (pv:621,at:17), (pv:622,at:2), (pv:623,at:1), (pv:624,at:2), (pv:625,at:3), (pv:626,at:7), (pv:627,at:1), (pv:628,at:2), (pv:629,at:3), (pv:630,at:1), (pv:631,at:2), (pv:632,at:1), (pv:633,at:1), (pv:634,at:2), (pv:635,at:4), (pv:636,at:5), (pv:637,at:1), (pv:638,at:3), (pv:639,at:3), (pv:640,at:5), (pv:641,at:1), (pv:642,at:6), (pv:643,at:3), (pv:644,at:2), (pv:645,at:2), (pv:646,at:6), (pv:647,at:22), (pv:648,at:1), (pv:649,at:3), (pv:650,at:2), (pv:651,at:1), (pv:652,at:2), (pv:653,at:2), (pv:654,at:6), (pv:655,at:1), (pv:656,at:3), (pv:657,at:1), (pv:658,at:12), (pv:659,at:8), (pv:660,at:1), (pv:661,at:3), (pv:662,at:6), (pv:663,at:2), (pv:664,at:2), (pv:665,at:4), (pv:666,at:5), (pv:667,at:3), (pv:668,at:3), (pv:669,at:5), (pv:670,at:1), (pv:671,at:1), (pv:672,at:2), (pv:673,at:7), (pv:674,at:1), (pv:675,at:4), (pv:676,at:16), (pv:677,at:4), (pv:678,at:1), (pv:679,at:3), (pv:680,at:5), (pv:681,at:8), (pv:682,at:5), (pv:683,at:2), (pv:684,at:12), (pv:685,at:11), (pv:686,at:6), (pv:687,at:12), (pv:688,at:1), (pv:689,at:8), (pv:690,at:8), (pv:691,at:24), (pv:692,at:1), (pv:693,at:1), (pv:694,at:1), (pv:695,at:11), (pv:696,at:3), (pv:697,at:14), (pv:698,at:4), (pv:699,at:3), (pv:700,at:17), (pv:701,at:2), (pv:702,at:5), (pv:703,at:4), (pv:704,at:4), (pv:705,at:2), (pv:706,at:2), (pv:707,at:16), (pv:708,at:6), (pv:709,at:2), (pv:710,at:11), (pv:711,at:4), (pv:712,at:3), (pv:713,at:2), (pv:714,at:10), (pv:715,at:2), (pv:716,at:4), (pv:717,at:14), (pv:718,at:1), (pv:719,at:3), (pv:720,at:3), (pv:721,at:14), (pv:722,at:3), (pv:723,at:6), (pv:724,at:2), (pv:725,at:5), (pv:726,at:4), (pv:727,at:1), (pv:728,at:3), (pv:729,at:13), (pv:730,at:3), (pv:731,at:10), (pv:732,at:7), (pv:733,at:2), (pv:734,at:3), (pv:735,at:2), (pv:736,at:2), (pv:737,at:5), (pv:738,at:1), (pv:739,at:3), (pv:740,at:8), (pv:741,at:4), (pv:742,at:4), (pv:743,at:12)]
[INFO ] fr.inria.astor.approaches.jgenprog.JGenProg.showResults(JGenProg.java:342) - 
pvariants_with_transformed_ingredients: [(pv:2,at:5), (pv:3,at:1), (pv:4,at:8), (pv:5,at:1), (pv:6,at:1), (pv:7,at:1), (pv:8,at:3), (pv:9,at:3), (pv:10,at:4), (pv:11,at:5), (pv:12,at:4), (pv:13,at:3), (pv:14,at:2), (pv:15,at:7), (pv:16,at:10), (pv:17,at:2), (pv:18,at:12), (pv:19,at:1), (pv:20,at:1), (pv:21,at:14), (pv:22,at:11), (pv:23,at:2), (pv:24,at:2), (pv:25,at:5), (pv:26,at:5), (pv:27,at:3), (pv:28,at:1), (pv:29,at:9), (pv:30,at:1), (pv:31,at:6), (pv:32,at:7), (pv:33,at:4), (pv:34,at:6), (pv:35,at:5), (pv:36,at:1), (pv:37,at:7), (pv:38,at:4), (pv:39,at:3), (pv:40,at:1), (pv:41,at:1), (pv:42,at:2), (pv:43,at:5), (pv:44,at:4), (pv:45,at:20), (pv:46,at:2), (pv:47,at:1), (pv:48,at:5), (pv:49,at:1), (pv:50,at:11), (pv:51,at:1), (pv:52,at:1), (pv:53,at:2), (pv:54,at:12), (pv:55,at:17), (pv:56,at:6), (pv:57,at:1), (pv:58,at:2), (pv:59,at:7), (pv:60,at:1), (pv:61,at:1), (pv:62,at:5), (pv:63,at:9), (pv:64,at:2), (pv:65,at:15), (pv:66,at:1), (pv:67,at:3), (pv:68,at:1), (pv:69,at:4), (pv:70,at:3), (pv:71,at:1), (pv:72,at:1), (pv:73,at:2), (pv:74,at:6), (pv:75,at:2), (pv:76,at:1), (pv:77,at:5), (pv:78,at:1), (pv:79,at:5), (pv:80,at:1), (pv:81,at:4), (pv:82,at:1), (pv:83,at:1), (pv:84,at:7), (pv:85,at:8), (pv:86,at:8), (pv:87,at:9), (pv:88,at:1), (pv:89,at:1), (pv:90,at:3), (pv:91,at:2), (pv:92,at:1), (pv:93,at:3), (pv:94,at:6), (pv:95,at:4), (pv:96,at:1), (pv:97,at:3), (pv:98,at:1), (pv:99,at:1), (pv:100,at:23), (pv:101,at:1), (pv:102,at:8), (pv:103,at:6), (pv:104,at:6), (pv:105,at:4), (pv:106,at:2), (pv:107,at:1), (pv:108,at:1), (pv:109,at:2), (pv:110,at:8), (pv:111,at:2), (pv:112,at:4), (pv:113,at:3), (pv:114,at:1), (pv:115,at:1), (pv:116,at:2), (pv:117,at:5), (pv:118,at:2), (pv:119,at:21), (pv:120,at:4), (pv:121,at:3), (pv:122,at:1), (pv:123,at:11), (pv:124,at:2), (pv:125,at:11), (pv:126,at:6), (pv:127,at:5), (pv:128,at:13), (pv:129,at:4), (pv:130,at:2), (pv:131,at:3), (pv:132,at:6), (pv:133,at:7), (pv:134,at:1), (pv:135,at:3), (pv:136,at:4), (pv:137,at:2), (pv:138,at:3), (pv:139,at:6), (pv:140,at:11), (pv:141,at:1), (pv:142,at:2), (pv:143,at:2), (pv:144,at:3), (pv:145,at:5), (pv:146,at:25), (pv:147,at:1), (pv:148,at:1), (pv:149,at:9), (pv:150,at:6), (pv:151,at:8), (pv:152,at:8), (pv:153,at:3), (pv:154,at:3), (pv:155,at:7), (pv:156,at:7), (pv:157,at:1), (pv:158,at:4), (pv:159,at:20), (pv:160,at:2), (pv:161,at:1), (pv:162,at:1), (pv:163,at:2), (pv:164,at:2), (pv:165,at:13), (pv:166,at:2), (pv:167,at:1), (pv:168,at:2), (pv:169,at:7), (pv:170,at:2), (pv:171,at:6), (pv:172,at:3), (pv:173,at:2), (pv:174,at:1), (pv:175,at:3), (pv:176,at:2), (pv:177,at:2), (pv:178,at:6), (pv:179,at:10), (pv:180,at:5), (pv:181,at:15), (pv:182,at:2), (pv:183,at:5), (pv:184,at:1), (pv:185,at:1), (pv:186,at:12), (pv:187,at:2), (pv:188,at:2), (pv:189,at:1), (pv:190,at:2), (pv:191,at:2), (pv:192,at:11), (pv:193,at:9), (pv:194,at:1), (pv:195,at:3), (pv:196,at:9), (pv:197,at:1), (pv:198,at:8), (pv:199,at:6), (pv:200,at:12), (pv:201,at:1), (pv:202,at:3), (pv:203,at:1), (pv:204,at:1), (pv:205,at:2), (pv:206,at:3), (pv:207,at:2), (pv:208,at:1), (pv:209,at:14), (pv:210,at:1), (pv:211,at:3), (pv:212,at:4), (pv:213,at:1), (pv:214,at:8), (pv:215,at:1), (pv:216,at:6), (pv:217,at:4), (pv:218,at:1), (pv:219,at:5), (pv:220,at:3), (pv:221,at:1), (pv:222,at:8), (pv:223,at:2), (pv:224,at:4), (pv:225,at:10), (pv:226,at:1), (pv:227,at:3), (pv:228,at:8), (pv:229,at:1), (pv:230,at:8), (pv:231,at:5), (pv:232,at:2), (pv:233,at:17), (pv:234,at:2), (pv:235,at:4), (pv:236,at:2), (pv:237,at:8), (pv:238,at:3), (pv:239,at:1), (pv:240,at:7), (pv:241,at:2), (pv:242,at:2), (pv:243,at:21), (pv:244,at:7), (pv:245,at:3), (pv:246,at:18), (pv:247,at:4), (pv:248,at:2), (pv:249,at:1), (pv:250,at:3), (pv:251,at:10), (pv:252,at:8), (pv:253,at:5), (pv:254,at:24), (pv:255,at:4), (pv:256,at:8), (pv:257,at:1), (pv:258,at:5), (pv:259,at:10), (pv:260,at:15), (pv:261,at:14), (pv:262,at:12), (pv:263,at:7), (pv:264,at:4), (pv:265,at:18), (pv:266,at:2), (pv:267,at:3), (pv:268,at:1), (pv:269,at:4), (pv:270,at:9), (pv:271,at:8), (pv:272,at:1), (pv:273,at:11), (pv:274,at:1), (pv:275,at:4), (pv:276,at:25), (pv:277,at:2), (pv:278,at:1), (pv:279,at:29), (pv:280,at:5), (pv:281,at:4), (pv:282,at:17), (pv:283,at:3), (pv:284,at:2), (pv:285,at:1), (pv:286,at:1), (pv:287,at:1), (pv:288,at:8), (pv:289,at:4), (pv:290,at:10), (pv:291,at:14), (pv:292,at:1), (pv:293,at:1), (pv:294,at:1), (pv:295,at:9), (pv:296,at:2), (pv:297,at:5), (pv:298,at:10), (pv:299,at:5), (pv:300,at:31), (pv:301,at:2), (pv:302,at:3), (pv:303,at:9), (pv:304,at:2), (pv:305,at:5), (pv:306,at:7), (pv:307,at:13), (pv:308,at:3), (pv:309,at:3), (pv:310,at:10), (pv:311,at:4), (pv:312,at:18), (pv:313,at:3), (pv:314,at:10), (pv:315,at:4), (pv:316,at:12), (pv:317,at:1), (pv:318,at:2), (pv:319,at:6), (pv:320,at:3), (pv:321,at:1), (pv:322,at:6), (pv:323,at:2), (pv:324,at:1), (pv:325,at:16), (pv:326,at:5), (pv:327,at:5), (pv:328,at:11), (pv:329,at:3), (pv:330,at:2), (pv:331,at:3), (pv:332,at:8), (pv:333,at:2), (pv:334,at:4), (pv:335,at:2), (pv:336,at:21), (pv:337,at:5), (pv:338,at:1), (pv:339,at:20), (pv:340,at:1), (pv:341,at:2), (pv:342,at:2), (pv:343,at:2), (pv:344,at:8), (pv:345,at:1), (pv:346,at:19), (pv:347,at:5), (pv:348,at:2), (pv:349,at:2), (pv:350,at:4), (pv:351,at:7), (pv:352,at:9), (pv:353,at:6), (pv:354,at:1), (pv:355,at:3), (pv:356,at:29), (pv:357,at:1), (pv:358,at:1), (pv:359,at:2), (pv:360,at:6), (pv:361,at:2), (pv:362,at:10), (pv:363,at:2), (pv:364,at:4), (pv:365,at:2), (pv:366,at:6), (pv:367,at:11), (pv:368,at:2), (pv:369,at:1), (pv:370,at:4), (pv:371,at:3), (pv:372,at:1), (pv:373,at:2), (pv:374,at:3), (pv:375,at:11), (pv:376,at:3), (pv:377,at:4), (pv:378,at:11), (pv:379,at:3), (pv:380,at:1), (pv:381,at:2), (pv:382,at:5), (pv:383,at:10), (pv:384,at:7), (pv:385,at:15), (pv:386,at:15), (pv:387,at:4), (pv:388,at:3), (pv:389,at:2), (pv:390,at:12), (pv:391,at:2), (pv:392,at:3), (pv:393,at:28), (pv:394,at:3), (pv:395,at:4), (pv:396,at:2), (pv:397,at:1), (pv:398,at:12), (pv:399,at:3), (pv:400,at:4), (pv:401,at:12), (pv:402,at:1), (pv:403,at:5), (pv:404,at:12), (pv:405,at:1), (pv:406,at:1), (pv:407,at:1), (pv:408,at:1), (pv:409,at:1), (pv:410,at:1), (pv:411,at:13), (pv:412,at:5), (pv:413,at:9), (pv:414,at:3), (pv:415,at:2), (pv:416,at:1), (pv:417,at:12), (pv:418,at:3), (pv:419,at:8), (pv:420,at:1), (pv:421,at:8), (pv:422,at:1), (pv:423,at:3), (pv:424,at:13), (pv:425,at:8), (pv:426,at:5), (pv:427,at:3), (pv:428,at:7), (pv:429,at:2), (pv:430,at:1), (pv:431,at:1), (pv:432,at:1), (pv:433,at:2), (pv:434,at:4), (pv:435,at:8), (pv:436,at:1), (pv:437,at:1), (pv:438,at:4), (pv:439,at:5), (pv:440,at:1), (pv:441,at:22), (pv:442,at:3), (pv:443,at:8), (pv:444,at:3), (pv:445,at:21), (pv:446,at:4), (pv:447,at:13), (pv:448,at:3), (pv:449,at:3), (pv:450,at:2), (pv:451,at:3), (pv:452,at:11), (pv:453,at:1), (pv:454,at:7), (pv:455,at:1), (pv:456,at:1), (pv:457,at:1), (pv:458,at:12), (pv:459,at:5), (pv:460,at:6), (pv:461,at:3), (pv:462,at:1), (pv:463,at:12), (pv:464,at:10), (pv:465,at:1), (pv:466,at:15), (pv:467,at:2), (pv:468,at:22), (pv:469,at:1), (pv:470,at:12), (pv:471,at:23), (pv:472,at:14), (pv:473,at:1), (pv:474,at:5), (pv:475,at:3), (pv:476,at:2), (pv:477,at:5), (pv:478,at:3), (pv:479,at:1), (pv:480,at:4), (pv:481,at:5), (pv:482,at:7), (pv:483,at:3), (pv:484,at:6), (pv:485,at:17), (pv:486,at:2), (pv:487,at:12), (pv:488,at:3), (pv:489,at:13), (pv:490,at:1), (pv:491,at:5), (pv:492,at:7), (pv:493,at:1), (pv:494,at:5), (pv:495,at:9), (pv:496,at:1), (pv:497,at:21), (pv:498,at:18), (pv:499,at:3), (pv:500,at:14), (pv:501,at:1), (pv:502,at:11), (pv:503,at:5), (pv:504,at:3), (pv:505,at:1), (pv:506,at:9), (pv:507,at:2), (pv:508,at:5), (pv:509,at:3), (pv:510,at:6), (pv:511,at:8), (pv:512,at:2), (pv:513,at:2), (pv:514,at:6), (pv:515,at:4), (pv:516,at:2), (pv:517,at:7), (pv:518,at:9), (pv:519,at:2), (pv:520,at:2), (pv:521,at:3), (pv:522,at:21), (pv:523,at:1), (pv:524,at:2), (pv:525,at:6), (pv:526,at:11), (pv:527,at:5), (pv:528,at:1), (pv:529,at:1), (pv:530,at:1), (pv:531,at:5), (pv:532,at:1), (pv:533,at:1), (pv:534,at:5), (pv:535,at:9), (pv:536,at:2), (pv:537,at:2), (pv:538,at:3), (pv:539,at:1), (pv:540,at:2), (pv:541,at:6), (pv:542,at:16), (pv:543,at:5), (pv:544,at:3), (pv:545,at:5), (pv:546,at:2), (pv:547,at:1), (pv:548,at:3), (pv:549,at:12), (pv:550,at:15), (pv:551,at:4), (pv:552,at:3), (pv:553,at:2), (pv:554,at:5), (pv:555,at:6), (pv:556,at:11), (pv:557,at:8), (pv:558,at:1), (pv:559,at:1), (pv:560,at:15), (pv:561,at:10), (pv:562,at:4), (pv:563,at:8), (pv:564,at:11), (pv:565,at:7), (pv:566,at:4), (pv:567,at:12), (pv:568,at:22), (pv:569,at:1), (pv:570,at:5), (pv:571,at:14), (pv:572,at:21), (pv:573,at:9), (pv:574,at:19), (pv:575,at:3), (pv:576,at:2), (pv:577,at:1), (pv:578,at:18), (pv:579,at:12), (pv:580,at:4), (pv:581,at:1), (pv:582,at:5), (pv:583,at:3), (pv:584,at:1), (pv:585,at:5), (pv:586,at:1), (pv:587,at:7), (pv:588,at:5), (pv:589,at:21), (pv:590,at:16), (pv:591,at:2), (pv:592,at:4), (pv:593,at:14), (pv:594,at:8), (pv:595,at:2), (pv:596,at:1), (pv:597,at:7), (pv:598,at:1), (pv:599,at:2), (pv:600,at:6), (pv:601,at:1), (pv:602,at:8), (pv:603,at:7), (pv:604,at:2), (pv:605,at:4), (pv:606,at:15), (pv:607,at:4), (pv:608,at:3), (pv:609,at:4), (pv:610,at:4), (pv:611,at:8), (pv:612,at:11), (pv:613,at:3), (pv:614,at:11), (pv:615,at:10), (pv:616,at:3), (pv:617,at:11), (pv:618,at:14), (pv:619,at:2), (pv:620,at:2), (pv:621,at:17), (pv:622,at:2), (pv:623,at:1), (pv:624,at:2), (pv:625,at:3), (pv:626,at:7), (pv:627,at:1), (pv:628,at:2), (pv:629,at:3), (pv:630,at:1), (pv:631,at:2), (pv:632,at:1), (pv:633,at:1), (pv:634,at:2), (pv:635,at:4), (pv:636,at:5), (pv:637,at:1), (pv:638,at:3), (pv:639,at:3), (pv:640,at:5), (pv:641,at:1), (pv:642,at:6), (pv:643,at:3), (pv:644,at:2), (pv:645,at:2), (pv:646,at:6), (pv:647,at:22), (pv:648,at:1), (pv:649,at:3), (pv:650,at:2), (pv:651,at:1), (pv:652,at:2), (pv:653,at:2), (pv:654,at:6), (pv:655,at:1), (pv:656,at:3), (pv:657,at:1), (pv:658,at:12), (pv:659,at:8), (pv:660,at:1), (pv:661,at:3), (pv:662,at:6), (pv:663,at:2), (pv:664,at:2), (pv:665,at:4), (pv:666,at:5), (pv:667,at:3), (pv:668,at:3), (pv:669,at:5), (pv:670,at:1), (pv:671,at:1), (pv:672,at:2), (pv:673,at:7), (pv:674,at:1), (pv:675,at:4), (pv:676,at:16), (pv:677,at:4), (pv:678,at:1), (pv:679,at:3), (pv:680,at:5), (pv:681,at:8), (pv:682,at:5), (pv:683,at:2), (pv:684,at:12), (pv:685,at:11), (pv:686,at:6), (pv:687,at:12), (pv:688,at:1), (pv:689,at:8), (pv:690,at:8), (pv:691,at:24), (pv:692,at:1), (pv:693,at:1), (pv:694,at:1), (pv:695,at:11), (pv:696,at:3), (pv:697,at:14), (pv:698,at:4), (pv:699,at:3), (pv:700,at:17), (pv:701,at:2), (pv:702,at:5), (pv:703,at:4), (pv:704,at:4), (pv:705,at:2), (pv:706,at:2), (pv:707,at:16), (pv:708,at:6), (pv:709,at:2), (pv:710,at:11), (pv:711,at:4), (pv:712,at:3), (pv:713,at:2), (pv:714,at:10), (pv:715,at:2), (pv:716,at:4), (pv:717,at:14), (pv:718,at:1), (pv:719,at:3), (pv:720,at:3), (pv:721,at:14), (pv:722,at:3), (pv:723,at:6), (pv:724,at:2), (pv:725,at:5), (pv:726,at:4), (pv:727,at:1), (pv:728,at:3), (pv:729,at:13), (pv:730,at:3), (pv:731,at:10), (pv:732,at:7), (pv:733,at:2), (pv:734,at:3), (pv:735,at:2), (pv:736,at:2), (pv:737,at:5), (pv:738,at:1), (pv:739,at:3), (pv:740,at:8), (pv:741,at:4), (pv:742,at:4), (pv:743,at:12)]
[INFO ] fr.inria.main.evolution.AstorMain.run(AstorMain.java:163) - Time Total(s): 10893.684
