Warning: no access to tty (Bad file descriptor).
Thus no job control in this shell.
tput: No value for $TERM and no -T specified
Node: wh49.sciclone.wm.edu
[INFO ] fr.inria.main.AbstractMain.processArguments(AbstractMain.java:295) - command line arguments: [-out  /local/scr/mtufano/Chart/8/b/random-local-default/2  -jvm4testexecution  /usr/local/jdk1.7.0_80/bin/  -loglevel  INFO  -maxVarCombination  1000  -maxgen  1000000  -population  1  -maxtime  180  -timezone  America/New_York  -customop  fr.inria.astor.approaches.jgenprog.operators.InsertAfterOp:fr.inria.astor.approaches.jgenprog.operators.InsertBeforeOp:fr.inria.astor.approaches.jgenprog.operators.ReplaceOp  -seed  2  -javacompliancelevel  4  -package  org.jfree  -binjavafolder  build/  -bintestfolder  build-tests/  -srcjavafolder  source/  -srctestfolder  tests/  -learningdir  ../../out/learningdir/Chart/8/b/  -location  ../../dat/defects4j/Chart/8/b/  -failing  org.jfree.data.time.junit.WeekTests  -dependencies  ../../dat/libs/Chart/servlet-api-2.5-6.1.14.jar  -scope  fr.inria.astor.core.loop.spaces.ingredients.scopes.ctscopes.CtClassIngredientSpace  -ingredientstrategy  fr.inria.astor.core.loop.spaces.ingredients.ingredientSearch.EfficientIngredientStrategy  -classestoinstrument  org.jfree.data.time.RegularTimePeriod:org.jfree.data.time.Week:org.jfree.data.time.TimePeriodFormatException:org.jfree.data.time.TimePeriod:org.jfree.data.time.MonthConstants:  -regressiontestcases4fl  org.jfree.data.time.junit.WeekTests:]
[INFO ] fr.inria.astor.core.manipulation.MutationSupporter.buildModel(MutationSupporter.java:76) - building model: /local/scr/mtufano/Chart/8/b/random-local-default/2/AstorMain-b//src//default, compliance level: 4
[INFO ] fr.inria.astor.core.manipulation.MutationSupporter.buildModel(MutationSupporter.java:85) - Classpath for building SpoonModel [/sciclone/data20/mtufano/deeprepair/bin/eval/../../dat/libs/Chart/servlet-api-2.5-6.1.14.jar]
[INFO ] fr.inria.astor.core.setup.ProjectRepairFacade.calculateSuspicious(ProjectRepairFacade.java:215) - -Executing Gzoltar classpath: /local/scr/mtufano/Chart/8/b/random-local-default/2/AstorMain-b//bin//default from 1 classes with test cases
[INFO ] fr.inria.astor.core.faultlocalization.GZoltarFaultLocalization.searchSuspicious(GZoltarFaultLocalization.java:37) - Gzoltar fault localization: min susp value parameter: 0.1
[INFO ] fr.inria.astor.core.faultlocalization.GZoltarFaultLocalization.searchSuspicious(GZoltarFaultLocalization.java:57) - -gz-Adding classpath: [/sciclone/data20/mtufano/deeprepair/bin/eval/../../dat/libs/Chart/servlet-api-2.5-6.1.14.jar, /local/scr/mtufano/Chart/8/b/random-local-default/2/AstorMain-b//bin//default]
[INFO ] fr.inria.astor.core.faultlocalization.GZoltarFaultLocalization.searchSuspicious(GZoltarFaultLocalization.java:76) - Test failt: org.jfree.data.time.junit.WeekTests#testConstructor
[INFO ] fr.inria.astor.core.faultlocalization.GZoltarFaultLocalization.searchSuspicious(GZoltarFaultLocalization.java:81) - Gzoltar Test Result Total:23, fails: 1, GZoltar suspicious 71
[INFO ] fr.inria.astor.core.faultlocalization.GZoltarFaultLocalization.searchSuspicious(GZoltarFaultLocalization.java:123) - Gzoltar found: 24 with susp > 0.1, we consider: 24
[INFO ] fr.inria.astor.approaches.jgenprog.JGenProg.initPopulation(JGenProg.java:80) - 
---- Initial suspicious size: 24
[INFO ] fr.inria.astor.core.loop.population.ProgramVariantFactory.createProgramInstance(ProgramVariantFactory.java:126) - -any mod point created for suspicious Candidate [className=org.jfree.data.time.Week, methodName=org.jfree.data.time.Week{peg(Ljava/util/Calendar;)V 0.0, lineNumber=290, susp=0.20851441405707477]
[INFO ] fr.inria.astor.core.loop.population.ProgramVariantFactory.createProgramInstance(ProgramVariantFactory.java:130) - Total suspicious from FL: 24,  23
[INFO ] fr.inria.astor.core.loop.population.ProgramVariantFactory.createProgramInstance(ProgramVariantFactory.java:138) - Total ModPoint created: 23
[INFO ] fr.inria.astor.core.loop.population.ProgramVariantFactory.createInitialPopulation(ProgramVariantFactory.java:82) - Creating program variant #1, [Variant id: 1, #gens: 23, #ops: 0, parent:-]
[INFO ] fr.inria.astor.core.setup.ConfigurationProperties.print(ConfigurationProperties.java:63) - ----------------------------
[INFO ] fr.inria.astor.core.setup.ConfigurationProperties.print(ConfigurationProperties.java:64) - ---Configuration properties:---Execution values
[INFO ] fr.inria.astor.core.setup.ConfigurationProperties.print(ConfigurationProperties.java:66) - p:lastJUnitVersion= ./examples/libs/junit-4.11.jar
[INFO ] fr.inria.astor.core.setup.ConfigurationProperties.print(ConfigurationProperties.java:66) - p:alternativecompliancelevel= 4
[INFO ] fr.inria.astor.core.setup.ConfigurationProperties.print(ConfigurationProperties.java:66) - p:ignoredTestCases= 
[INFO ] fr.inria.astor.core.setup.ConfigurationProperties.print(ConfigurationProperties.java:66) - p:workingDirectory= /local/scr/mtufano/Chart/8/b/random-local-default/2
[INFO ] fr.inria.astor.core.setup.ConfigurationProperties.print(ConfigurationProperties.java:66) - p:manipulatesuper= false
[INFO ] fr.inria.astor.core.setup.ConfigurationProperties.print(ConfigurationProperties.java:66) - p:validation= process
[INFO ] fr.inria.astor.core.setup.ConfigurationProperties.print(ConfigurationProperties.java:66) - p:jvm4testexecution= /usr/local/jdk1.7.0_80/bin/
[INFO ] fr.inria.astor.core.setup.ConfigurationProperties.print(ConfigurationProperties.java:66) - p:binjavafolder= build/
[INFO ] fr.inria.astor.core.setup.ConfigurationProperties.print(ConfigurationProperties.java:66) - p:evosuiteresultfolder= evosuite
[INFO ] fr.inria.astor.core.setup.ConfigurationProperties.print(ConfigurationProperties.java:66) - p:flthreshold= 0.1
[INFO ] fr.inria.astor.core.setup.ConfigurationProperties.print(ConfigurationProperties.java:66) - p:regressionforfaultlocalization= true
[INFO ] fr.inria.astor.core.setup.ConfigurationProperties.print(ConfigurationProperties.java:66) - p:tmax2= 960000
[INFO ] fr.inria.astor.core.setup.ConfigurationProperties.print(ConfigurationProperties.java:66) - p:tmax1= 120000
[INFO ] fr.inria.astor.core.setup.ConfigurationProperties.print(ConfigurationProperties.java:66) - p:probagenmutation= false
[INFO ] fr.inria.astor.core.setup.ConfigurationProperties.print(ConfigurationProperties.java:66) - p:srctestfolder= tests/
[INFO ] fr.inria.astor.core.setup.ConfigurationProperties.print(ConfigurationProperties.java:66) - p:customop= fr.inria.astor.approaches.jgenprog.operators.InsertAfterOp:fr.inria.astor.approaches.jgenprog.operators.InsertBeforeOp:fr.inria.astor.approaches.jgenprog.operators.ReplaceOp
[INFO ] fr.inria.astor.core.setup.ConfigurationProperties.print(ConfigurationProperties.java:66) - p:forceExecuteRegression= false
[INFO ] fr.inria.astor.core.setup.ConfigurationProperties.print(ConfigurationProperties.java:66) - p:clusteringfilename= clustering.csv
[INFO ] fr.inria.astor.core.setup.ConfigurationProperties.print(ConfigurationProperties.java:66) - p:failing= org.jfree.data.time.junit.WeekTests
[INFO ] fr.inria.astor.core.setup.ConfigurationProperties.print(ConfigurationProperties.java:66) - p:evo_buggy_class= true
[INFO ] fr.inria.astor.core.setup.ConfigurationProperties.print(ConfigurationProperties.java:66) - p:numberExecutions= 1
[INFO ] fr.inria.astor.core.setup.ConfigurationProperties.print(ConfigurationProperties.java:66) - p:evo_affected_by_op= true
[INFO ] fr.inria.astor.core.setup.ConfigurationProperties.print(ConfigurationProperties.java:66) - p:population= 1
[INFO ] fr.inria.astor.core.setup.ConfigurationProperties.print(ConfigurationProperties.java:66) - p:clonegranularity= types
[INFO ] fr.inria.astor.core.setup.ConfigurationProperties.print(ConfigurationProperties.java:66) - p:regressiontestcases4fl= org.jfree.data.time.junit.WeekTests:
[INFO ] fr.inria.astor.core.setup.ConfigurationProperties.print(ConfigurationProperties.java:66) - p:savesolution= true
[INFO ] fr.inria.astor.core.setup.ConfigurationProperties.print(ConfigurationProperties.java:66) - p:javacompliancelevel= 4
[INFO ] fr.inria.astor.core.setup.ConfigurationProperties.print(ConfigurationProperties.java:66) - p:uniqueoptogen= false
[INFO ] fr.inria.astor.core.setup.ConfigurationProperties.print(ConfigurationProperties.java:66) - p:projectIdentifier= 
[INFO ] fr.inria.astor.core.setup.ConfigurationProperties.print(ConfigurationProperties.java:66) - p:modificationpointnavigation= weight
[INFO ] fr.inria.astor.core.setup.ConfigurationProperties.print(ConfigurationProperties.java:66) - p:stopfirst= false
[INFO ] fr.inria.astor.core.setup.ConfigurationProperties.print(ConfigurationProperties.java:66) - p:multipointmodification= false
[INFO ] fr.inria.astor.core.setup.ConfigurationProperties.print(ConfigurationProperties.java:66) - p:elementsToMutate= 10
[INFO ] fr.inria.astor.core.setup.ConfigurationProperties.print(ConfigurationProperties.java:66) - p:evoDSE= false
[INFO ] fr.inria.astor.core.setup.ConfigurationProperties.print(ConfigurationProperties.java:66) - p:bintestfolder= build-tests/
[INFO ] fr.inria.astor.core.setup.ConfigurationProperties.print(ConfigurationProperties.java:66) - p:testbystep= false
[INFO ] fr.inria.astor.core.setup.ConfigurationProperties.print(ConfigurationProperties.java:66) - p:version-location= ./math-version/
[INFO ] fr.inria.astor.core.setup.ConfigurationProperties.print(ConfigurationProperties.java:66) - p:reintroduce= PARENTS
[INFO ] fr.inria.astor.core.setup.ConfigurationProperties.print(ConfigurationProperties.java:66) - p:maxGeneration= 1000000
[INFO ] fr.inria.astor.core.setup.ConfigurationProperties.print(ConfigurationProperties.java:66) - p:maxVarCombination= 1000
[INFO ] fr.inria.astor.core.setup.ConfigurationProperties.print(ConfigurationProperties.java:66) - p:maxtime= 180
[INFO ] fr.inria.astor.core.setup.ConfigurationProperties.print(ConfigurationProperties.java:66) - p:evosuitejar= ./lib/evosuite-master-1.0.4-SNAPSHOT.jar
[INFO ] fr.inria.astor.core.setup.ConfigurationProperties.print(ConfigurationProperties.java:66) - p:commandTrunk= 50000
[INFO ] fr.inria.astor.core.setup.ConfigurationProperties.print(ConfigurationProperties.java:66) - p:faultlocalization= fr.inria.astor.core.faultlocalization.GZoltarFaultLocalization
[INFO ] fr.inria.astor.core.setup.ConfigurationProperties.print(ConfigurationProperties.java:66) - p:maxsuspcandidates= 1000
[INFO ] fr.inria.astor.core.setup.ConfigurationProperties.print(ConfigurationProperties.java:66) - p:mode= statement
[INFO ] fr.inria.astor.core.setup.ConfigurationProperties.print(ConfigurationProperties.java:66) - p:learningdir= ../../out/learningdir/Chart/8/b/
[INFO ] fr.inria.astor.core.setup.ConfigurationProperties.print(ConfigurationProperties.java:66) - p:jvm4evosuitetestexecution= /usr/local/jdk1.7.0_80/bin/
[INFO ] fr.inria.astor.core.setup.ConfigurationProperties.print(ConfigurationProperties.java:66) - p:filterfaultlocalization= true
[INFO ] fr.inria.astor.core.setup.ConfigurationProperties.print(ConfigurationProperties.java:66) - p:mutationrate= 1 
[INFO ] fr.inria.astor.core.setup.ConfigurationProperties.print(ConfigurationProperties.java:66) - p:pathToMVNRepository= 
[INFO ] fr.inria.astor.core.setup.ConfigurationProperties.print(ConfigurationProperties.java:66) - p:resourcesfolder= /src/main/resources:/src/test/resources:
[INFO ] fr.inria.astor.core.setup.ConfigurationProperties.print(ConfigurationProperties.java:66) - p:timezone= America/New_York
[INFO ] fr.inria.astor.core.setup.ConfigurationProperties.print(ConfigurationProperties.java:66) - p:classestoinstrument= org.jfree.data.time.RegularTimePeriod:org.jfree.data.time.Week:org.jfree.data.time.TimePeriodFormatException:org.jfree.data.time.TimePeriod:org.jfree.data.time.MonthConstants:
[INFO ] fr.inria.astor.core.setup.ConfigurationProperties.print(ConfigurationProperties.java:66) - p:evoRunOnBuggyClass= true
[INFO ] fr.inria.astor.core.setup.ConfigurationProperties.print(ConfigurationProperties.java:66) - p:compiler= fr.inria.astor.core.manipulation.bytecode.compiler.SpoonClassCompiler
[INFO ] fr.inria.astor.core.setup.ConfigurationProperties.print(ConfigurationProperties.java:66) - p:dependenciespath= ../../dat/libs/Chart/servlet-api-2.5-6.1.14.jar
[INFO ] fr.inria.astor.core.setup.ConfigurationProperties.print(ConfigurationProperties.java:66) - p:skipfaultlocalization= false
[INFO ] fr.inria.astor.core.setup.ConfigurationProperties.print(ConfigurationProperties.java:66) - p:packageToInstrument= org.jfree
[INFO ] fr.inria.astor.core.setup.ConfigurationProperties.print(ConfigurationProperties.java:66) - p:scope= fr.inria.astor.core.loop.spaces.ingredients.scopes.ctscopes.CtClassIngredientSpace
[INFO ] fr.inria.astor.core.setup.ConfigurationProperties.print(ConfigurationProperties.java:66) - p:transformingredient= false
[INFO ] fr.inria.astor.core.setup.ConfigurationProperties.print(ConfigurationProperties.java:66) - p:fitnessfunction= fr.inria.astor.core.loop.population.TestCaseFitnessFunction
[INFO ] fr.inria.astor.core.setup.ConfigurationProperties.print(ConfigurationProperties.java:66) - p:pvariantfoldername= variant-
[INFO ] fr.inria.astor.core.setup.ConfigurationProperties.print(ConfigurationProperties.java:66) - p:srcjavafolder= source/
[INFO ] fr.inria.astor.core.setup.ConfigurationProperties.print(ConfigurationProperties.java:66) - p:populationcontroller= fr.inria.astor.core.loop.population.TestCaseBasedFitnessPopulationController
[INFO ] fr.inria.astor.core.setup.ConfigurationProperties.print(ConfigurationProperties.java:66) - p:ignoreflakyinfl= false
[INFO ] fr.inria.astor.core.setup.ConfigurationProperties.print(ConfigurationProperties.java:66) - p:applyCrossover= false
[INFO ] fr.inria.astor.core.setup.ConfigurationProperties.print(ConfigurationProperties.java:66) - p:saveall= false
[INFO ] fr.inria.astor.core.setup.ConfigurationProperties.print(ConfigurationProperties.java:66) - p:seed= 2
[INFO ] fr.inria.astor.core.setup.ConfigurationProperties.print(ConfigurationProperties.java:66) - p:resetoperations= false
[INFO ] fr.inria.astor.core.setup.ConfigurationProperties.print(ConfigurationProperties.java:66) - p:location= ../../dat/defects4j/Chart/8/b/
[INFO ] fr.inria.astor.core.setup.ConfigurationProperties.print(ConfigurationProperties.java:66) - p:ingredientstrategy= fr.inria.astor.core.loop.spaces.ingredients.ingredientSearch.EfficientIngredientStrategy
[INFO ] fr.inria.astor.core.setup.ConfigurationProperties.print(ConfigurationProperties.java:66) - p:allpoints= false
[INFO ] fr.inria.astor.core.setup.ConfigurationProperties.print(ConfigurationProperties.java:66) - p:bugId= 280
[INFO ] fr.inria.astor.core.setup.ConfigurationProperties.print(ConfigurationProperties.java:66) - p:evosuitetimeout= 120
[INFO ] fr.inria.astor.core.setup.ConfigurationProperties.print(ConfigurationProperties.java:68) - ----------------------------
[INFO ] fr.inria.astor.core.loop.AstorCoreEngine.startEvolution(AstorCoreEngine.java:119) - 
----Starting Solution Search
[INFO ] fr.inria.astor.core.loop.AstorCoreEngine.belowMaxTime(AstorCoreEngine.java:203) - 
 No more time for operating
[INFO ] fr.inria.astor.core.loop.AstorCoreEngine.startEvolution(AstorCoreEngine.java:143) - Time Repair Loop (s): 10860.01
[INFO ] fr.inria.astor.core.loop.AstorCoreEngine.showResults(AstorCoreEngine.java:165) - 
----SUMMARY_EXECUTION---
[INFO ] fr.inria.astor.approaches.jgenprog.JGenProg.showResults(JGenProg.java:332) - 
successful_ing_attempts (#trials 0, totalAttps 0): []
[INFO ] fr.inria.astor.approaches.jgenprog.JGenProg.showResults(JGenProg.java:334) - 
failing_ing_attempts (#trials 2334, totalAttps 5484): [2, 5, 1, 1, 3, 2, 1, 3, 2, 2, 1, 3, 5, 1, 1, 2, 3, 14, 1, 2, 1, 1, 2, 1, 1, 1, 1, 2, 2, 6, 8, 2, 1, 1, 2, 1, 1, 7, 1, 2, 1, 10, 1, 4, 5, 3, 1, 1, 2, 1, 1, 2, 4, 1, 4, 4, 5, 1, 1, 1, 1, 1, 3, 1, 5, 2, 2, 2, 1, 1, 4, 2, 2, 1, 1, 1, 4, 3, 1, 2, 3, 2, 1, 1, 1, 1, 2, 1, 3, 2, 2, 1, 1, 1, 1, 2, 1, 2, 7, 2, 4, 4, 1, 1, 1, 1, 1, 4, 1, 10, 2, 1, 1, 1, 2, 1, 4, 1, 1, 3, 2, 2, 1, 3, 1, 3, 1, 7, 1, 1, 2, 13, 1, 1, 2, 2, 1, 1, 1, 2, 1, 1, 1, 1, 1, 2, 3, 1, 1, 1, 1, 3, 2, 2, 1, 2, 4, 1, 2, 2, 3, 6, 1, 1, 1, 1, 3, 2, 1, 1, 4, 2, 5, 1, 2, 1, 2, 1, 1, 5, 3, 1, 1, 1, 1, 7, 1, 2, 1, 1, 1, 1, 1, 2, 2, 2, 1, 1, 2, 5, 1, 1, 4, 2, 3, 3, 2, 1, 1, 1, 3, 1, 3, 2, 8, 1, 1, 3, 2, 1, 1, 1, 1, 1, 1, 1, 7, 1, 1, 2, 5, 2, 3, 1, 4, 3, 1, 1, 1, 1, 1, 1, 3, 3, 1, 4, 1, 2, 2, 1, 1, 1, 1, 1, 1, 1, 2, 4, 1, 2, 1, 1, 5, 3, 5, 1, 1, 3, 3, 1, 2, 2, 3, 1, 1, 1, 3, 4, 2, 1, 1, 2, 7, 2, 1, 1, 1, 1, 5, 1, 3, 2, 1, 1, 4, 1, 4, 2, 1, 1, 1, 4, 2, 1, 2, 2, 1, 1, 2, 1, 2, 3, 1, 4, 1, 1, 2, 3, 2, 2, 2, 2, 1, 3, 2, 1, 3, 5, 1, 5, 3, 2, 1, 3, 1, 6, 3, 1, 4, 2, 1, 7, 1, 1, 1, 1, 1, 2, 1, 8, 1, 2, 5, 1, 1, 1, 2, 1, 1, 1, 2, 4, 1, 3, 3, 1, 1, 2, 3, 1, 1, 3, 1, 1, 4, 1, 3, 4, 7, 4, 1, 4, 3, 2, 2, 2, 1, 1, 2, 1, 1, 1, 1, 1, 2, 1, 3, 5, 7, 4, 2, 1, 1, 4, 3, 4, 1, 1, 1, 1, 2, 1, 2, 3, 1, 1, 1, 1, 2, 7, 7, 11, 3, 1, 1, 1, 1, 2, 3, 1, 1, 1, 1, 4, 1, 1, 1, 2, 4, 1, 1, 1, 1, 3, 1, 3, 2, 2, 1, 3, 1, 1, 1, 3, 1, 1, 1, 4, 1, 1, 1, 4, 5, 1, 1, 2, 3, 2, 1, 5, 1, 1, 5, 1, 1, 1, 1, 1, 1, 2, 1, 1, 4, 6, 1, 1, 1, 1, 1, 1, 1, 1, 3, 2, 8, 1, 1, 1, 4, 2, 1, 1, 1, 1, 2, 1, 1, 9, 2, 7, 1, 1, 1, 4, 3, 1, 3, 5, 7, 5, 2, 1, 1, 3, 1, 1, 1, 2, 3, 8, 3, 1, 1, 1, 1, 1, 2, 2, 2, 1, 4, 1, 1, 1, 4, 3, 3, 1, 4, 1, 2, 4, 1, 1, 1, 4, 2, 4, 2, 1, 1, 1, 2, 1, 3, 3, 2, 1, 1, 5, 2, 10, 1, 6, 1, 1, 2, 1, 1, 1, 2, 2, 2, 4, 1, 1, 1, 2, 3, 3, 1, 16, 3, 1, 2, 1, 2, 3, 1, 2, 3, 1, 1, 2, 3, 1, 1, 1, 1, 2, 1, 2, 3, 3, 2, 2, 1, 4, 1, 2, 3, 2, 2, 2, 2, 2, 10, 1, 6, 1, 1, 4, 1, 6, 3, 5, 1, 2, 9, 1, 7, 1, 1, 8, 1, 1, 1, 1, 2, 2, 1, 2, 6, 1, 1, 8, 2, 1, 1, 1, 1, 1, 2, 3, 1, 4, 1, 1, 3, 1, 5, 2, 4, 3, 6, 1, 2, 1, 1, 1, 1, 1, 1, 1, 2, 1, 3, 1, 1, 1, 1, 4, 3, 1, 1, 1, 1, 4, 4, 14, 2, 1, 2, 7, 1, 1, 1, 1, 4, 1, 1, 3, 1, 1, 1, 1, 1, 1, 1, 1, 3, 7, 4, 3, 1, 1, 1, 3, 3, 1, 1, 6, 8, 3, 5, 2, 2, 2, 12, 3, 1, 5, 3, 1, 1, 3, 3, 1, 1, 2, 1, 2, 2, 3, 5, 4, 1, 1, 3, 3, 2, 2, 1, 2, 1, 1, 7, 2, 2, 1, 1, 5, 1, 2, 1, 1, 6, 1, 1, 3, 2, 4, 1, 3, 2, 1, 3, 1, 2, 1, 1, 9, 1, 1, 3, 4, 2, 2, 1, 6, 3, 6, 1, 1, 1, 1, 1, 1, 1, 2, 1, 3, 1, 2, 6, 2, 1, 1, 1, 1, 3, 2, 1, 2, 1, 2, 1, 4, 2, 1, 2, 1, 1, 2, 1, 2, 9, 1, 4, 1, 1, 3, 3, 2, 1, 3, 1, 3, 3, 1, 1, 2, 1, 1, 3, 1, 1, 3, 3, 1, 1, 1, 1, 1, 1, 2, 3, 1, 2, 1, 18, 1, 2, 3, 5, 3, 1, 3, 2, 15, 3, 1, 3, 1, 2, 1, 5, 1, 2, 1, 1, 3, 1, 3, 1, 1, 2, 1, 3, 1, 1, 2, 2, 5, 3, 2, 1, 2, 4, 1, 2, 1, 1, 4, 1, 6, 6, 4, 2, 1, 2, 2, 2, 2, 3, 1, 3, 3, 7, 5, 1, 1, 1, 2, 2, 3, 1, 1, 1, 1, 5, 3, 4, 3, 2, 2, 1, 3, 2, 4, 1, 2, 2, 1, 3, 2, 4, 1, 7, 3, 1, 1, 2, 6, 1, 2, 1, 2, 3, 2, 8, 11, 1, 4, 1, 4, 6, 1, 1, 2, 6, 3, 1, 3, 3, 1, 1, 1, 1, 3, 4, 5, 1, 1, 4, 2, 1, 4, 2, 1, 1, 1, 4, 1, 1, 2, 2, 1, 4, 1, 3, 2, 2, 1, 3, 1, 4, 1, 1, 1, 1, 1, 1, 5, 1, 1, 1, 1, 1, 3, 2, 1, 4, 2, 2, 1, 2, 5, 1, 2, 1, 3, 3, 8, 1, 4, 2, 1, 8, 1, 2, 1, 1, 2, 3, 3, 4, 4, 1, 1, 2, 1, 1, 5, 1, 1, 1, 4, 4, 1, 3, 2, 2, 3, 1, 1, 2, 1, 2, 3, 2, 7, 8, 3, 1, 2, 3, 3, 1, 1, 4, 1, 2, 6, 3, 1, 1, 1, 1, 1, 2, 1, 3, 2, 4, 1, 4, 4, 3, 1, 1, 4, 2, 1, 1, 1, 2, 4, 2, 1, 5, 4, 4, 3, 1, 2, 1, 1, 5, 3, 1, 1, 1, 1, 1, 1, 1, 3, 5, 3, 3, 4, 1, 3, 5, 2, 1, 3, 2, 6, 1, 1, 6, 1, 10, 4, 2, 3, 2, 5, 7, 5, 2, 4, 1, 9, 1, 9, 3, 1, 10, 2, 4, 1, 4, 1, 5, 3, 1, 2, 2, 1, 3, 4, 4, 3, 3, 5, 1, 2, 3, 1, 2, 1, 2, 4, 1, 4, 1, 1, 2, 3, 1, 1, 1, 3, 2, 1, 1, 3, 1, 1, 4, 1, 1, 1, 3, 1, 3, 8, 1, 4, 6, 4, 4, 1, 1, 1, 1, 4, 2, 5, 4, 1, 1, 1, 4, 4, 2, 1, 1, 1, 1, 1, 1, 4, 3, 2, 6, 1, 2, 1, 3, 2, 4, 1, 1, 1, 1, 1, 2, 1, 3, 3, 4, 1, 7, 1, 1, 2, 6, 7, 1, 8, 1, 1, 1, 1, 6, 2, 8, 2, 1, 1, 1, 4, 3, 4, 1, 4, 2, 5, 2, 4, 4, 1, 1, 5, 1, 7, 8, 1, 1, 8, 1, 1, 3, 1, 1, 5, 1, 2, 2, 5, 1, 1, 2, 1, 4, 2, 1, 6, 1, 1, 4, 2, 1, 3, 3, 1, 1, 1, 5, 1, 1, 4, 1, 1, 2, 1, 2, 1, 1, 1, 8, 3, 2, 2, 5, 2, 1, 2, 2, 1, 1, 5, 1, 1, 4, 3, 1, 1, 1, 4, 1, 1, 1, 9, 1, 8, 2, 5, 1, 5, 3, 1, 3, 3, 3, 1, 3, 2, 2, 1, 2, 2, 2, 6, 3, 2, 2, 6, 3, 2, 2, 3, 2, 2, 1, 3, 1, 5, 1, 1, 3, 2, 3, 1, 1, 3, 3, 2, 1, 2, 2, 1, 1, 1, 2, 1, 2, 4, 5, 2, 1, 1, 4, 1, 3, 1, 1, 1, 1, 4, 6, 3, 1, 1, 2, 2, 1, 2, 2, 2, 2, 3, 2, 2, 7, 3, 2, 1, 2, 3, 2, 3, 2, 1, 5, 1, 1, 3, 1, 3, 1, 2, 1, 1, 1, 7, 8, 2, 6, 1, 1, 2, 4, 2, 1, 7, 3, 9, 2, 2, 2, 3, 4, 1, 2, 3, 1, 8, 1, 3, 1, 2, 2, 1, 1, 2, 2, 2, 4, 1, 1, 1, 1, 2, 2, 1, 2, 6, 4, 1, 2, 2, 4, 5, 2, 3, 1, 3, 1, 10, 8, 1, 3, 1, 1, 1, 2, 1, 2, 1, 3, 1, 5, 2, 4, 1, 2, 2, 3, 1, 1, 2, 8, 4, 2, 1, 2, 2, 1, 3, 1, 3, 2, 1, 5, 7, 1, 6, 1, 2, 2, 1, 3, 1, 1, 1, 2, 1, 1, 1, 1, 1, 5, 1, 1, 5, 3, 1, 1, 9, 1, 3, 2, 3, 1, 5, 6, 5, 2, 1, 1, 2, 2, 1, 3, 1, 3, 3, 7, 1, 3, 1, 4, 4, 4, 1, 4, 1, 1, 2, 2, 1, 2, 1, 10, 1, 2, 3, 2, 1, 1, 4, 1, 1, 3, 4, 2, 1, 1, 1, 1, 7, 2, 1, 3, 1, 2, 1, 2, 3, 1, 1, 1, 1, 2, 1, 1, 8, 1, 1, 2, 1, 2, 1, 1, 5, 1, 2, 9, 4, 1, 5, 2, 2, 2, 2, 4, 3, 3, 2, 2, 1, 2, 1, 2, 1, 1, 1, 1, 1, 5, 1, 2, 2, 1, 4, 2, 4, 6, 2, 3, 1, 1, 1, 1, 1, 4, 5, 5, 3, 2, 5, 4, 2, 1, 2, 1, 1, 1, 5, 1, 1, 2, 3, 2, 1, 1, 1, 1, 1, 2, 1, 5, 1, 3, 6, 6, 3, 1, 2, 1, 7, 2, 2, 2, 3, 2, 2, 1, 1, 2, 5, 2, 3, 1, 1, 2, 4, 3, 2, 7, 4, 3, 4, 1, 4, 2, 1, 1, 2, 1, 7, 1, 7, 1, 3, 1, 2, 1, 1, 2, 1, 12, 9, 1, 2, 4, 2, 4, 3, 1, 2, 6, 1, 2, 1, 9, 1, 1, 2, 2, 1, 1, 1, 2, 2, 13, 5, 2, 2, 2, 2, 2, 4, 2, 2, 2, 1, 1, 5, 1, 1, 3, 4, 1, 1, 1, 7, 1, 4, 1, 1, 5, 3, 2, 3, 3, 4, 1, 5, 1, 1, 2, 1, 1, 2, 2, 1, 2, 1, 2, 1, 1, 1, 1, 3, 3, 1, 2, 1, 1, 2, 1, 1, 2, 1, 3, 4, 2, 2, 1, 2, 2, 2, 4, 3, 3, 1, 1, 1, 2, 3, 3, 1, 5, 1, 1, 4, 1, 3, 2, 2, 1, 1, 1, 2, 1, 2, 1, 1, 1, 5, 1, 2, 4, 3, 2, 3, 1, 3, 1, 1, 3, 2, 5, 3, 7, 2, 3, 2, 6, 1, 8, 1, 3, 5, 2, 3, 2, 4, 2, 6, 1, 5, 2, 1, 3, 1, 1, 1, 3, 2, 1, 1, 5, 1, 2, 1, 2, 3, 5, 3, 2, 1, 2, 1, 1, 2, 2, 1, 1, 2, 2, 2, 1, 3, 1, 2, 1, 1, 1, 4, 5, 1, 1, 5, 5, 1, 1, 1, 4, 1, 1, 3, 2, 3, 1, 2, 1, 1, 1, 3, 1, 5, 3, 1, 1, 4, 1, 1, 1, 1, 2, 1, 3, 5, 1, 1, 3, 2, 7, 1, 7, 7, 3, 2, 7, 1, 7, 2, 1, 1, 3, 1, 4, 5, 4, 1, 3, 2, 2, 1, 1, 3, 3, 1, 1, 7, 1, 1, 2, 2, 1, 1, 5, 3, 6, 1, 5, 2, 4, 4, 6, 1, 1, 5, 4, 10, 4, 1, 2, 1, 1, 1, 1, 1, 1, 2, 2, 2, 2, 3, 4, 2, 3, 2, 1, 3, 3, 3, 2, 2, 3, 3, 2, 1, 3, 1, 3, 2, 5, 2, 1, 2, 1, 3, 1, 2, 2, 2, 3, 4, 5, 1, 3, 2, 7, 2, 3, 2, 1, 2, 1, 1, 3, 5, 2, 4, 1, 4, 1, 4, 1, 1, 5, 4, 2, 4, 1, 3, 2, 1, 5, 1, 1, 4, 1, 2, 1, 3, 1, 2, 4, 4, 1, 1, 2, 3, 2, 1, 4, 2, 2, 6, 1, 2, 2, 1, 4, 1, 5, 3, 2, 1, 1, 3, 3, 2, 1, 3, 2, 2, 1, 3, 2, 4, 1, 2, 1, 1, 3, 3, 2, 3, 1, 2, 1, 1, 1, 2, 5, 1, 3, 2, 2, 1, 1, 2, 4, 1, 1, 1, 11, 1, 2, 1, 2, 5, 4, 1, 2, 1, 2, 1, 1, 2, 1, 1, 3, 1, 1, 2, 9, 3, 3, 1, 4, 2, 2, 2, 3, 1, 2, 2, 1, 5, 8, 1, 4, 1, 1, 1, 1, 1, 1, 3, 3, 2, 4, 3, 2, 2, 2, 1, 1, 2, 1, 1, 2, 1, 1, 1, 1, 1, 1, 3, 1, 2, 2, 7, 1, 5, 5, 9, 2, 1, 2, 2, 1, 3, 1, 3, 2, 1, 4, 2, 1, 1, 1, 1, 1, 1, 4, 1, 1, 2, 2, 1, 1, 1, 4, 1, 9, 1, 1, 1, 1, 7, 1, 2, 2, 3, 2, 1, 1, 5, 5, 1, 2, 1, 1, 2, 2, 4, 1, 1, 2, 2, 4, 2, 4, 2, 2, 1, 1, 5, 1, 1, 2, 1]
[INFO ] fr.inria.astor.approaches.jgenprog.JGenProg.showResults(JGenProg.java:337) - 
total Patch Attempts (0): []
[INFO ] fr.inria.astor.approaches.jgenprog.JGenProg.showResults(JGenProg.java:339) - 
successful_ing_attempts_by_patch: []
[INFO ] fr.inria.astor.approaches.jgenprog.JGenProg.showResults(JGenProg.java:340) - 
failing_ing_attempts_by_patch: [(pv:2,at:2), (pv:3,at:5), (pv:4,at:1), (pv:5,at:1), (pv:6,at:3), (pv:7,at:2), (pv:8,at:1), (pv:9,at:3), (pv:10,at:2), (pv:11,at:2), (pv:12,at:1), (pv:13,at:3), (pv:14,at:5), (pv:15,at:1), (pv:16,at:1), (pv:17,at:2), (pv:18,at:3), (pv:19,at:14), (pv:20,at:1), (pv:21,at:2), (pv:22,at:1), (pv:23,at:1), (pv:24,at:2), (pv:25,at:1), (pv:26,at:1), (pv:27,at:1), (pv:28,at:1), (pv:29,at:2), (pv:30,at:2), (pv:31,at:6), (pv:32,at:8), (pv:33,at:2), (pv:34,at:1), (pv:35,at:1), (pv:36,at:2), (pv:37,at:1), (pv:38,at:1), (pv:39,at:7), (pv:40,at:1), (pv:41,at:2), (pv:42,at:1), (pv:43,at:10), (pv:44,at:1), (pv:45,at:4), (pv:46,at:5), (pv:47,at:3), (pv:48,at:1), (pv:49,at:1), (pv:50,at:2), (pv:51,at:1), (pv:52,at:1), (pv:53,at:2), (pv:54,at:4), (pv:55,at:1), (pv:56,at:4), (pv:57,at:4), (pv:58,at:5), (pv:59,at:1), (pv:60,at:1), (pv:61,at:1), (pv:62,at:1), (pv:63,at:1), (pv:64,at:3), (pv:65,at:1), (pv:66,at:5), (pv:67,at:2), (pv:68,at:2), (pv:69,at:2), (pv:70,at:1), (pv:71,at:1), (pv:72,at:4), (pv:73,at:2), (pv:74,at:2), (pv:75,at:1), (pv:76,at:1), (pv:77,at:1), (pv:78,at:4), (pv:79,at:3), (pv:80,at:1), (pv:81,at:2), (pv:82,at:3), (pv:83,at:2), (pv:84,at:1), (pv:85,at:1), (pv:86,at:1), (pv:87,at:1), (pv:88,at:2), (pv:89,at:1), (pv:90,at:3), (pv:91,at:2), (pv:92,at:2), (pv:93,at:1), (pv:94,at:1), (pv:95,at:1), (pv:96,at:1), (pv:97,at:2), (pv:98,at:1), (pv:99,at:2), (pv:100,at:7), (pv:101,at:2), (pv:102,at:4), (pv:103,at:4), (pv:104,at:1), (pv:105,at:1), (pv:106,at:1), (pv:107,at:1), (pv:108,at:1), (pv:109,at:4), (pv:110,at:1), (pv:111,at:10), (pv:112,at:2), (pv:113,at:1), (pv:114,at:1), (pv:115,at:1), (pv:116,at:2), (pv:117,at:1), (pv:118,at:4), (pv:119,at:1), (pv:120,at:1), (pv:121,at:3), (pv:122,at:2), (pv:123,at:2), (pv:124,at:1), (pv:125,at:3), (pv:126,at:1), (pv:127,at:3), (pv:128,at:1), (pv:129,at:7), (pv:130,at:1), (pv:131,at:1), (pv:132,at:2), (pv:133,at:13), (pv:134,at:1), (pv:135,at:1), (pv:136,at:2), (pv:137,at:2), (pv:138,at:1), (pv:139,at:1), (pv:140,at:1), (pv:141,at:2), (pv:142,at:1), (pv:143,at:1), (pv:144,at:1), (pv:145,at:1), (pv:146,at:1), (pv:147,at:2), (pv:148,at:3), (pv:149,at:1), (pv:150,at:1), (pv:151,at:1), (pv:152,at:1), (pv:153,at:3), (pv:154,at:2), (pv:155,at:2), (pv:156,at:1), (pv:157,at:2), (pv:158,at:4), (pv:159,at:1), (pv:160,at:2), (pv:161,at:2), (pv:162,at:3), (pv:163,at:6), (pv:164,at:1), (pv:165,at:1), (pv:166,at:1), (pv:167,at:1), (pv:168,at:3), (pv:169,at:2), (pv:170,at:1), (pv:171,at:1), (pv:172,at:4), (pv:173,at:2), (pv:174,at:5), (pv:175,at:1), (pv:176,at:2), (pv:177,at:1), (pv:178,at:2), (pv:179,at:1), (pv:180,at:1), (pv:181,at:5), (pv:182,at:3), (pv:183,at:1), (pv:184,at:1), (pv:185,at:1), (pv:186,at:1), (pv:187,at:7), (pv:188,at:1), (pv:189,at:2), (pv:190,at:1), (pv:191,at:1), (pv:192,at:1), (pv:193,at:1), (pv:194,at:1), (pv:195,at:2), (pv:196,at:2), (pv:197,at:2), (pv:198,at:1), (pv:199,at:1), (pv:200,at:2), (pv:201,at:5), (pv:202,at:1), (pv:203,at:1), (pv:204,at:4), (pv:205,at:2), (pv:206,at:3), (pv:207,at:3), (pv:208,at:2), (pv:209,at:1), (pv:210,at:1), (pv:211,at:1), (pv:212,at:3), (pv:213,at:1), (pv:214,at:3), (pv:215,at:2), (pv:216,at:8), (pv:217,at:1), (pv:218,at:1), (pv:219,at:3), (pv:220,at:2), (pv:221,at:1), (pv:222,at:1), (pv:223,at:1), (pv:224,at:1), (pv:225,at:1), (pv:226,at:1), (pv:227,at:1), (pv:228,at:7), (pv:229,at:1), (pv:230,at:1), (pv:231,at:2), (pv:232,at:5), (pv:233,at:2), (pv:234,at:3), (pv:235,at:1), (pv:236,at:4), (pv:237,at:3), (pv:238,at:1), (pv:239,at:1), (pv:240,at:1), (pv:241,at:1), (pv:242,at:1), (pv:243,at:1), (pv:244,at:3), (pv:245,at:3), (pv:246,at:1), (pv:247,at:4), (pv:248,at:1), (pv:249,at:2), (pv:250,at:2), (pv:251,at:1), (pv:252,at:1), (pv:253,at:1), (pv:254,at:1), (pv:255,at:1), (pv:256,at:1), (pv:257,at:1), (pv:258,at:2), (pv:259,at:4), (pv:260,at:1), (pv:261,at:2), (pv:262,at:1), (pv:263,at:1), (pv:264,at:5), (pv:265,at:3), (pv:266,at:5), (pv:267,at:1), (pv:268,at:1), (pv:269,at:3), (pv:270,at:3), (pv:271,at:1), (pv:272,at:2), (pv:273,at:2), (pv:274,at:3), (pv:275,at:1), (pv:276,at:1), (pv:277,at:1), (pv:278,at:3), (pv:279,at:4), (pv:280,at:2), (pv:281,at:1), (pv:282,at:1), (pv:283,at:2), (pv:284,at:7), (pv:285,at:2), (pv:286,at:1), (pv:287,at:1), (pv:288,at:1), (pv:289,at:1), (pv:290,at:5), (pv:291,at:1), (pv:292,at:3), (pv:293,at:2), (pv:294,at:1), (pv:295,at:1), (pv:296,at:4), (pv:297,at:1), (pv:298,at:4), (pv:299,at:2), (pv:300,at:1), (pv:301,at:1), (pv:302,at:1), (pv:303,at:4), (pv:304,at:2), (pv:305,at:1), (pv:306,at:2), (pv:307,at:2), (pv:308,at:1), (pv:309,at:1), (pv:310,at:2), (pv:311,at:1), (pv:312,at:2), (pv:313,at:3), (pv:314,at:1), (pv:315,at:4), (pv:316,at:1), (pv:317,at:1), (pv:318,at:2), (pv:319,at:3), (pv:320,at:2), (pv:321,at:2), (pv:322,at:2), (pv:323,at:2), (pv:324,at:1), (pv:325,at:3), (pv:326,at:2), (pv:327,at:1), (pv:328,at:3), (pv:329,at:5), (pv:330,at:1), (pv:331,at:5), (pv:332,at:3), (pv:333,at:2), (pv:334,at:1), (pv:335,at:3), (pv:336,at:1), (pv:337,at:6), (pv:338,at:3), (pv:339,at:1), (pv:340,at:4), (pv:341,at:2), (pv:342,at:1), (pv:343,at:7), (pv:344,at:1), (pv:345,at:1), (pv:346,at:1), (pv:347,at:1), (pv:348,at:1), (pv:349,at:2), (pv:350,at:1), (pv:351,at:8), (pv:352,at:1), (pv:353,at:2), (pv:354,at:5), (pv:355,at:1), (pv:356,at:1), (pv:357,at:1), (pv:358,at:2), (pv:359,at:1), (pv:360,at:1), (pv:361,at:1), (pv:362,at:2), (pv:363,at:4), (pv:364,at:1), (pv:365,at:3), (pv:366,at:3), (pv:367,at:1), (pv:368,at:1), (pv:369,at:2), (pv:370,at:3), (pv:371,at:1), (pv:372,at:1), (pv:373,at:3), (pv:374,at:1), (pv:375,at:1), (pv:376,at:4), (pv:377,at:1), (pv:378,at:3), (pv:379,at:4), (pv:380,at:7), (pv:381,at:4), (pv:382,at:1), (pv:383,at:4), (pv:384,at:3), (pv:385,at:2), (pv:386,at:2), (pv:387,at:2), (pv:388,at:1), (pv:389,at:1), (pv:390,at:2), (pv:391,at:1), (pv:392,at:1), (pv:393,at:1), (pv:394,at:1), (pv:395,at:1), (pv:396,at:2), (pv:397,at:1), (pv:398,at:3), (pv:399,at:5), (pv:400,at:7), (pv:401,at:4), (pv:402,at:2), (pv:403,at:1), (pv:404,at:1), (pv:405,at:4), (pv:406,at:3), (pv:407,at:4), (pv:408,at:1), (pv:409,at:1), (pv:410,at:1), (pv:411,at:1), (pv:412,at:2), (pv:413,at:1), (pv:414,at:2), (pv:415,at:3), (pv:416,at:1), (pv:417,at:1), (pv:418,at:1), (pv:419,at:1), (pv:420,at:2), (pv:421,at:7), (pv:422,at:7), (pv:423,at:11), (pv:424,at:3), (pv:425,at:1), (pv:426,at:1), (pv:427,at:1), (pv:428,at:1), (pv:429,at:2), (pv:430,at:3), (pv:431,at:1), (pv:432,at:1), (pv:433,at:1), (pv:434,at:1), (pv:435,at:4), (pv:436,at:1), (pv:437,at:1), (pv:438,at:1), (pv:439,at:2), (pv:440,at:4), (pv:441,at:1), (pv:442,at:1), (pv:443,at:1), (pv:444,at:1), (pv:445,at:3), (pv:446,at:1), (pv:447,at:3), (pv:448,at:2), (pv:449,at:2), (pv:450,at:1), (pv:451,at:3), (pv:452,at:1), (pv:453,at:1), (pv:454,at:1), (pv:455,at:3), (pv:456,at:1), (pv:457,at:1), (pv:458,at:1), (pv:459,at:4), (pv:460,at:1), (pv:461,at:1), (pv:462,at:1), (pv:463,at:4), (pv:464,at:5), (pv:465,at:1), (pv:466,at:1), (pv:467,at:2), (pv:468,at:3), (pv:469,at:2), (pv:470,at:1), (pv:471,at:5), (pv:472,at:1), (pv:473,at:1), (pv:474,at:5), (pv:475,at:1), (pv:476,at:1), (pv:477,at:1), (pv:478,at:1), (pv:479,at:1), (pv:480,at:1), (pv:481,at:2), (pv:482,at:1), (pv:483,at:1), (pv:484,at:4), (pv:485,at:6), (pv:486,at:1), (pv:487,at:1), (pv:488,at:1), (pv:489,at:1), (pv:490,at:1), (pv:491,at:1), (pv:492,at:1), (pv:493,at:1), (pv:494,at:3), (pv:495,at:2), (pv:496,at:8), (pv:497,at:1), (pv:498,at:1), (pv:499,at:1), (pv:500,at:4), (pv:501,at:2), (pv:502,at:1), (pv:503,at:1), (pv:504,at:1), (pv:505,at:1), (pv:506,at:2), (pv:507,at:1), (pv:508,at:1), (pv:509,at:9), (pv:510,at:2), (pv:511,at:7), (pv:512,at:1), (pv:513,at:1), (pv:514,at:1), (pv:515,at:4), (pv:516,at:3), (pv:517,at:1), (pv:518,at:3), (pv:519,at:5), (pv:520,at:7), (pv:521,at:5), (pv:522,at:2), (pv:523,at:1), (pv:524,at:1), (pv:525,at:3), (pv:526,at:1), (pv:527,at:1), (pv:528,at:1), (pv:529,at:2), (pv:530,at:3), (pv:531,at:8), (pv:532,at:3), (pv:533,at:1), (pv:534,at:1), (pv:535,at:1), (pv:536,at:1), (pv:537,at:1), (pv:538,at:2), (pv:539,at:2), (pv:540,at:2), (pv:541,at:1), (pv:542,at:4), (pv:543,at:1), (pv:544,at:1), (pv:545,at:1), (pv:546,at:4), (pv:547,at:3), (pv:548,at:3), (pv:549,at:1), (pv:550,at:4), (pv:551,at:1), (pv:552,at:2), (pv:553,at:4), (pv:554,at:1), (pv:555,at:1), (pv:556,at:1), (pv:557,at:4), (pv:558,at:2), (pv:559,at:4), (pv:560,at:2), (pv:561,at:1), (pv:562,at:1), (pv:563,at:1), (pv:564,at:2), (pv:565,at:1), (pv:566,at:3), (pv:567,at:3), (pv:568,at:2), (pv:569,at:1), (pv:570,at:1), (pv:571,at:5), (pv:572,at:2), (pv:573,at:10), (pv:574,at:1), (pv:575,at:6), (pv:576,at:1), (pv:577,at:1), (pv:578,at:2), (pv:579,at:1), (pv:580,at:1), (pv:581,at:1), (pv:582,at:2), (pv:583,at:2), (pv:584,at:2), (pv:585,at:4), (pv:586,at:1), (pv:587,at:1), (pv:588,at:1), (pv:589,at:2), (pv:590,at:3), (pv:591,at:3), (pv:592,at:1), (pv:593,at:16), (pv:594,at:3), (pv:595,at:1), (pv:596,at:2), (pv:597,at:1), (pv:598,at:2), (pv:599,at:3), (pv:600,at:1), (pv:601,at:2), (pv:602,at:3), (pv:603,at:1), (pv:604,at:1), (pv:605,at:2), (pv:606,at:3), (pv:607,at:1), (pv:608,at:1), (pv:609,at:1), (pv:610,at:1), (pv:611,at:2), (pv:612,at:1), (pv:613,at:2), (pv:614,at:3), (pv:615,at:3), (pv:616,at:2), (pv:617,at:2), (pv:618,at:1), (pv:619,at:4), (pv:620,at:1), (pv:621,at:2), (pv:622,at:3), (pv:623,at:2), (pv:624,at:2), (pv:625,at:2), (pv:626,at:2), (pv:627,at:2), (pv:628,at:10), (pv:629,at:1), (pv:630,at:6), (pv:631,at:1), (pv:632,at:1), (pv:633,at:4), (pv:634,at:1), (pv:635,at:6), (pv:636,at:3), (pv:637,at:5), (pv:638,at:1), (pv:639,at:2), (pv:640,at:9), (pv:641,at:1), (pv:642,at:7), (pv:643,at:1), (pv:644,at:1), (pv:645,at:8), (pv:646,at:1), (pv:647,at:1), (pv:648,at:1), (pv:649,at:1), (pv:650,at:2), (pv:651,at:2), (pv:652,at:1), (pv:653,at:2), (pv:654,at:6), (pv:655,at:1), (pv:656,at:1), (pv:657,at:8), (pv:658,at:2), (pv:659,at:1), (pv:660,at:1), (pv:661,at:1), (pv:662,at:1), (pv:663,at:1), (pv:664,at:2), (pv:665,at:3), (pv:666,at:1), (pv:667,at:4), (pv:668,at:1), (pv:669,at:1), (pv:670,at:3), (pv:671,at:1), (pv:672,at:5), (pv:673,at:2), (pv:674,at:4), (pv:675,at:3), (pv:676,at:6), (pv:677,at:1), (pv:678,at:2), (pv:679,at:1), (pv:680,at:1), (pv:681,at:1), (pv:682,at:1), (pv:683,at:1), (pv:684,at:1), (pv:685,at:1), (pv:686,at:2), (pv:687,at:1), (pv:688,at:3), (pv:689,at:1), (pv:690,at:1), (pv:691,at:1), (pv:692,at:1), (pv:693,at:4), (pv:694,at:3), (pv:695,at:1), (pv:696,at:1), (pv:697,at:1), (pv:698,at:1), (pv:699,at:4), (pv:700,at:4), (pv:701,at:14), (pv:702,at:2), (pv:703,at:1), (pv:704,at:2), (pv:705,at:7), (pv:706,at:1), (pv:707,at:1), (pv:708,at:1), (pv:709,at:1), (pv:710,at:4), (pv:711,at:1), (pv:712,at:1), (pv:713,at:3), (pv:714,at:1), (pv:715,at:1), (pv:716,at:1), (pv:717,at:1), (pv:718,at:1), (pv:719,at:1), (pv:720,at:1), (pv:721,at:1), (pv:722,at:3), (pv:723,at:7), (pv:724,at:4), (pv:725,at:3), (pv:726,at:1), (pv:727,at:1), (pv:728,at:1), (pv:729,at:3), (pv:730,at:3), (pv:731,at:1), (pv:732,at:1), (pv:733,at:6), (pv:734,at:8), (pv:735,at:3), (pv:736,at:5), (pv:737,at:2), (pv:738,at:2), (pv:739,at:2), (pv:740,at:12), (pv:741,at:3), (pv:742,at:1), (pv:743,at:5), (pv:744,at:3), (pv:745,at:1), (pv:746,at:1), (pv:747,at:3), (pv:748,at:3), (pv:749,at:1), (pv:750,at:1), (pv:751,at:2), (pv:752,at:1), (pv:753,at:2), (pv:754,at:2), (pv:755,at:3), (pv:756,at:5), (pv:757,at:4), (pv:758,at:1), (pv:759,at:1), (pv:760,at:3), (pv:761,at:3), (pv:762,at:2), (pv:763,at:2), (pv:764,at:1), (pv:765,at:2), (pv:766,at:1), (pv:767,at:1), (pv:768,at:7), (pv:769,at:2), (pv:770,at:2), (pv:771,at:1), (pv:772,at:1), (pv:773,at:5), (pv:774,at:1), (pv:775,at:2), (pv:776,at:1), (pv:777,at:1), (pv:778,at:6), (pv:779,at:1), (pv:780,at:1), (pv:781,at:3), (pv:782,at:2), (pv:783,at:4), (pv:784,at:1), (pv:785,at:3), (pv:786,at:2), (pv:787,at:1), (pv:788,at:3), (pv:789,at:1), (pv:790,at:2), (pv:791,at:1), (pv:792,at:1), (pv:793,at:9), (pv:794,at:1), (pv:795,at:1), (pv:796,at:3), (pv:797,at:4), (pv:798,at:2), (pv:799,at:2), (pv:800,at:1), (pv:801,at:6), (pv:802,at:3), (pv:803,at:6), (pv:804,at:1), (pv:805,at:1), (pv:806,at:1), (pv:807,at:1), (pv:808,at:1), (pv:809,at:1), (pv:810,at:1), (pv:811,at:2), (pv:812,at:1), (pv:813,at:3), (pv:814,at:1), (pv:815,at:2), (pv:816,at:6), (pv:817,at:2), (pv:818,at:1), (pv:819,at:1), (pv:820,at:1), (pv:821,at:1), (pv:822,at:3), (pv:823,at:2), (pv:824,at:1), (pv:825,at:2), (pv:826,at:1), (pv:827,at:2), (pv:828,at:1), (pv:829,at:4), (pv:830,at:2), (pv:831,at:1), (pv:832,at:2), (pv:833,at:1), (pv:834,at:1), (pv:835,at:2), (pv:836,at:1), (pv:837,at:2), (pv:838,at:9), (pv:839,at:1), (pv:840,at:4), (pv:841,at:1), (pv:842,at:1), (pv:843,at:3), (pv:844,at:3), (pv:845,at:2), (pv:846,at:1), (pv:847,at:3), (pv:848,at:1), (pv:849,at:3), (pv:850,at:3), (pv:851,at:1), (pv:852,at:1), (pv:853,at:2), (pv:854,at:1), (pv:855,at:1), (pv:856,at:3), (pv:857,at:1), (pv:858,at:1), (pv:859,at:3), (pv:860,at:3), (pv:861,at:1), (pv:862,at:1), (pv:863,at:1), (pv:864,at:1), (pv:865,at:1), (pv:866,at:1), (pv:867,at:2), (pv:868,at:3), (pv:869,at:1), (pv:870,at:2), (pv:871,at:1), (pv:872,at:18), (pv:873,at:1), (pv:874,at:2), (pv:875,at:3), (pv:876,at:5), (pv:877,at:3), (pv:878,at:1), (pv:879,at:3), (pv:880,at:2), (pv:881,at:15), (pv:882,at:3), (pv:883,at:1), (pv:884,at:3), (pv:885,at:1), (pv:886,at:2), (pv:887,at:1), (pv:888,at:5), (pv:889,at:1), (pv:890,at:2), (pv:891,at:1), (pv:892,at:1), (pv:893,at:3), (pv:894,at:1), (pv:895,at:3), (pv:896,at:1), (pv:897,at:1), (pv:898,at:2), (pv:899,at:1), (pv:900,at:3), (pv:901,at:1), (pv:902,at:1), (pv:903,at:2), (pv:904,at:2), (pv:905,at:5), (pv:906,at:3), (pv:907,at:2), (pv:908,at:1), (pv:909,at:2), (pv:910,at:4), (pv:911,at:1), (pv:912,at:2), (pv:913,at:1), (pv:914,at:1), (pv:915,at:4), (pv:916,at:1), (pv:917,at:6), (pv:918,at:6), (pv:919,at:4), (pv:920,at:2), (pv:921,at:1), (pv:922,at:2), (pv:923,at:2), (pv:924,at:2), (pv:925,at:2), (pv:926,at:3), (pv:927,at:1), (pv:928,at:3), (pv:929,at:3), (pv:930,at:7), (pv:931,at:5), (pv:932,at:1), (pv:933,at:1), (pv:934,at:1), (pv:935,at:2), (pv:936,at:2), (pv:937,at:3), (pv:938,at:1), (pv:939,at:1), (pv:940,at:1), (pv:941,at:1), (pv:942,at:5), (pv:943,at:3), (pv:944,at:4), (pv:945,at:3), (pv:946,at:2), (pv:947,at:2), (pv:948,at:1), (pv:949,at:3), (pv:950,at:2), (pv:951,at:4), (pv:952,at:1), (pv:953,at:2), (pv:954,at:2), (pv:955,at:1), (pv:956,at:3), (pv:957,at:2), (pv:958,at:4), (pv:959,at:1), (pv:960,at:7), (pv:961,at:3), (pv:962,at:1), (pv:963,at:1), (pv:964,at:2), (pv:965,at:6), (pv:966,at:1), (pv:967,at:2), (pv:968,at:1), (pv:969,at:2), (pv:970,at:3), (pv:971,at:2), (pv:972,at:8), (pv:973,at:11), (pv:974,at:1), (pv:975,at:4), (pv:976,at:1), (pv:977,at:4), (pv:978,at:6), (pv:979,at:1), (pv:980,at:1), (pv:981,at:2), (pv:982,at:6), (pv:983,at:3), (pv:984,at:1), (pv:985,at:3), (pv:986,at:3), (pv:987,at:1), (pv:988,at:1), (pv:989,at:1), (pv:990,at:1), (pv:991,at:3), (pv:992,at:4), (pv:993,at:5), (pv:994,at:1), (pv:995,at:1), (pv:996,at:4), (pv:997,at:2), (pv:998,at:1), (pv:999,at:4), (pv:1000,at:2), (pv:1001,at:1), (pv:1002,at:1), (pv:1003,at:1), (pv:1004,at:4), (pv:1005,at:1), (pv:1006,at:1), (pv:1007,at:2), (pv:1008,at:2), (pv:1009,at:1), (pv:1010,at:4), (pv:1011,at:1), (pv:1012,at:3), (pv:1013,at:2), (pv:1014,at:2), (pv:1015,at:1), (pv:1016,at:3), (pv:1017,at:1), (pv:1018,at:4), (pv:1019,at:1), (pv:1020,at:1), (pv:1021,at:1), (pv:1022,at:1), (pv:1023,at:1), (pv:1024,at:1), (pv:1025,at:5), (pv:1026,at:1), (pv:1027,at:1), (pv:1028,at:1), (pv:1029,at:1), (pv:1030,at:1), (pv:1031,at:3), (pv:1032,at:2), (pv:1033,at:1), (pv:1034,at:4), (pv:1035,at:2), (pv:1036,at:2), (pv:1037,at:1), (pv:1038,at:2), (pv:1039,at:5), (pv:1040,at:1), (pv:1041,at:2), (pv:1042,at:1), (pv:1043,at:3), (pv:1044,at:3), (pv:1045,at:8), (pv:1046,at:1), (pv:1047,at:4), (pv:1048,at:2), (pv:1049,at:1), (pv:1050,at:8), (pv:1051,at:1), (pv:1052,at:2), (pv:1053,at:1), (pv:1054,at:1), (pv:1055,at:2), (pv:1056,at:3), (pv:1057,at:3), (pv:1058,at:4), (pv:1059,at:4), (pv:1060,at:1), (pv:1061,at:1), (pv:1062,at:2), (pv:1063,at:1), (pv:1064,at:1), (pv:1065,at:5), (pv:1066,at:1), (pv:1067,at:1), (pv:1068,at:1), (pv:1069,at:4), (pv:1070,at:4), (pv:1071,at:1), (pv:1072,at:3), (pv:1073,at:2), (pv:1074,at:2), (pv:1075,at:3), (pv:1076,at:1), (pv:1077,at:1), (pv:1078,at:2), (pv:1079,at:1), (pv:1080,at:2), (pv:1081,at:3), (pv:1082,at:2), (pv:1083,at:7), (pv:1084,at:8), (pv:1085,at:3), (pv:1086,at:1), (pv:1087,at:2), (pv:1088,at:3), (pv:1089,at:3), (pv:1090,at:1), (pv:1091,at:1), (pv:1092,at:4), (pv:1093,at:1), (pv:1094,at:2), (pv:1095,at:6), (pv:1096,at:3), (pv:1097,at:1), (pv:1098,at:1), (pv:1099,at:1), (pv:1100,at:1), (pv:1101,at:1), (pv:1102,at:2), (pv:1103,at:1), (pv:1104,at:3), (pv:1105,at:2), (pv:1106,at:4), (pv:1107,at:1), (pv:1108,at:4), (pv:1109,at:4), (pv:1110,at:3), (pv:1111,at:1), (pv:1112,at:1), (pv:1113,at:4), (pv:1114,at:2), (pv:1115,at:1), (pv:1116,at:1), (pv:1117,at:1), (pv:1118,at:2), (pv:1119,at:4), (pv:1120,at:2), (pv:1121,at:1), (pv:1122,at:5), (pv:1123,at:4), (pv:1124,at:4), (pv:1125,at:3), (pv:1126,at:1), (pv:1127,at:2), (pv:1128,at:1), (pv:1129,at:1), (pv:1130,at:5), (pv:1131,at:3), (pv:1132,at:1), (pv:1133,at:1), (pv:1134,at:1), (pv:1135,at:1), (pv:1136,at:1), (pv:1137,at:1), (pv:1138,at:1), (pv:1139,at:3), (pv:1140,at:5), (pv:1141,at:3), (pv:1142,at:3), (pv:1143,at:4), (pv:1144,at:1), (pv:1145,at:3), (pv:1146,at:5), (pv:1147,at:2), (pv:1148,at:1), (pv:1149,at:3), (pv:1150,at:2), (pv:1151,at:6), (pv:1152,at:1), (pv:1153,at:1), (pv:1154,at:6), (pv:1155,at:1), (pv:1156,at:10), (pv:1157,at:4), (pv:1158,at:2), (pv:1159,at:3), (pv:1160,at:2), (pv:1161,at:5), (pv:1162,at:7), (pv:1163,at:5), (pv:1164,at:2), (pv:1165,at:4), (pv:1166,at:1), (pv:1167,at:9), (pv:1168,at:1), (pv:1169,at:9), (pv:1170,at:3), (pv:1171,at:1), (pv:1172,at:10), (pv:1173,at:2), (pv:1174,at:4), (pv:1175,at:1), (pv:1176,at:4), (pv:1177,at:1), (pv:1178,at:5), (pv:1179,at:3), (pv:1180,at:1), (pv:1181,at:2), (pv:1182,at:2), (pv:1183,at:1), (pv:1184,at:3), (pv:1185,at:4), (pv:1186,at:4), (pv:1187,at:3), (pv:1188,at:3), (pv:1189,at:5), (pv:1190,at:1), (pv:1191,at:2), (pv:1192,at:3), (pv:1193,at:1), (pv:1194,at:2), (pv:1195,at:1), (pv:1196,at:2), (pv:1197,at:4), (pv:1198,at:1), (pv:1199,at:4), (pv:1200,at:1), (pv:1201,at:1), (pv:1202,at:2), (pv:1203,at:3), (pv:1204,at:1), (pv:1205,at:1), (pv:1206,at:1), (pv:1207,at:3), (pv:1208,at:2), (pv:1209,at:1), (pv:1210,at:1), (pv:1211,at:3), (pv:1212,at:1), (pv:1213,at:1), (pv:1214,at:4), (pv:1215,at:1), (pv:1216,at:1), (pv:1217,at:1), (pv:1218,at:3), (pv:1219,at:1), (pv:1220,at:3), (pv:1221,at:8), (pv:1222,at:1), (pv:1223,at:4), (pv:1224,at:6), (pv:1225,at:4), (pv:1226,at:4), (pv:1227,at:1), (pv:1228,at:1), (pv:1229,at:1), (pv:1230,at:1), (pv:1231,at:4), (pv:1232,at:2), (pv:1233,at:5), (pv:1234,at:4), (pv:1235,at:1), (pv:1236,at:1), (pv:1237,at:1), (pv:1238,at:4), (pv:1239,at:4), (pv:1240,at:2), (pv:1241,at:1), (pv:1242,at:1), (pv:1243,at:1), (pv:1244,at:1), (pv:1245,at:1), (pv:1246,at:1), (pv:1247,at:4), (pv:1248,at:3), (pv:1249,at:2), (pv:1250,at:6), (pv:1251,at:1), (pv:1252,at:2), (pv:1253,at:1), (pv:1254,at:3), (pv:1255,at:2), (pv:1256,at:4), (pv:1257,at:1), (pv:1258,at:1), (pv:1259,at:1), (pv:1260,at:1), (pv:1261,at:1), (pv:1262,at:2), (pv:1263,at:1), (pv:1264,at:3), (pv:1265,at:3), (pv:1266,at:4), (pv:1267,at:1), (pv:1268,at:7), (pv:1269,at:1), (pv:1270,at:1), (pv:1271,at:2), (pv:1272,at:6), (pv:1273,at:7), (pv:1274,at:1), (pv:1275,at:8), (pv:1276,at:1), (pv:1277,at:1), (pv:1278,at:1), (pv:1279,at:1), (pv:1280,at:6), (pv:1281,at:2), (pv:1282,at:8), (pv:1283,at:2), (pv:1284,at:1), (pv:1285,at:1), (pv:1286,at:1), (pv:1287,at:4), (pv:1288,at:3), (pv:1289,at:4), (pv:1290,at:1), (pv:1291,at:4), (pv:1292,at:2), (pv:1293,at:5), (pv:1294,at:2), (pv:1295,at:4), (pv:1296,at:4), (pv:1297,at:1), (pv:1298,at:1), (pv:1299,at:5), (pv:1300,at:1), (pv:1301,at:7), (pv:1302,at:8), (pv:1303,at:1), (pv:1304,at:1), (pv:1305,at:8), (pv:1306,at:1), (pv:1307,at:1), (pv:1308,at:3), (pv:1309,at:1), (pv:1310,at:1), (pv:1311,at:5), (pv:1312,at:1), (pv:1313,at:2), (pv:1314,at:2), (pv:1315,at:5), (pv:1316,at:1), (pv:1317,at:1), (pv:1318,at:2), (pv:1319,at:1), (pv:1320,at:4), (pv:1321,at:2), (pv:1322,at:1), (pv:1323,at:6), (pv:1324,at:1), (pv:1325,at:1), (pv:1326,at:4), (pv:1327,at:2), (pv:1328,at:1), (pv:1329,at:3), (pv:1330,at:3), (pv:1331,at:1), (pv:1332,at:1), (pv:1333,at:1), (pv:1334,at:5), (pv:1335,at:1), (pv:1336,at:1), (pv:1337,at:4), (pv:1338,at:1), (pv:1339,at:1), (pv:1340,at:2), (pv:1341,at:1), (pv:1342,at:2), (pv:1343,at:1), (pv:1344,at:1), (pv:1345,at:1), (pv:1346,at:8), (pv:1347,at:3), (pv:1348,at:2), (pv:1349,at:2), (pv:1350,at:5), (pv:1351,at:2), (pv:1352,at:1), (pv:1353,at:2), (pv:1354,at:2), (pv:1355,at:1), (pv:1356,at:1), (pv:1357,at:5), (pv:1358,at:1), (pv:1359,at:1), (pv:1360,at:4), (pv:1361,at:3), (pv:1362,at:1), (pv:1363,at:1), (pv:1364,at:1), (pv:1365,at:4), (pv:1366,at:1), (pv:1367,at:1), (pv:1368,at:1), (pv:1369,at:9), (pv:1370,at:1), (pv:1371,at:8), (pv:1372,at:2), (pv:1373,at:5), (pv:1374,at:1), (pv:1375,at:5), (pv:1376,at:3), (pv:1377,at:1), (pv:1378,at:3), (pv:1379,at:3), (pv:1380,at:3), (pv:1381,at:1), (pv:1382,at:3), (pv:1383,at:2), (pv:1384,at:2), (pv:1385,at:1), (pv:1386,at:2), (pv:1387,at:2), (pv:1388,at:2), (pv:1389,at:6), (pv:1390,at:3), (pv:1391,at:2), (pv:1392,at:2), (pv:1393,at:6), (pv:1394,at:3), (pv:1395,at:2), (pv:1396,at:2), (pv:1397,at:3), (pv:1398,at:2), (pv:1399,at:2), (pv:1400,at:1), (pv:1401,at:3), (pv:1402,at:1), (pv:1403,at:5), (pv:1404,at:1), (pv:1405,at:1), (pv:1406,at:3), (pv:1407,at:2), (pv:1408,at:3), (pv:1409,at:1), (pv:1410,at:1), (pv:1411,at:3), (pv:1412,at:3), (pv:1413,at:2), (pv:1414,at:1), (pv:1415,at:2), (pv:1416,at:2), (pv:1417,at:1), (pv:1418,at:1), (pv:1419,at:1), (pv:1420,at:2), (pv:1421,at:1), (pv:1422,at:2), (pv:1423,at:4), (pv:1424,at:5), (pv:1425,at:2), (pv:1426,at:1), (pv:1427,at:1), (pv:1428,at:4), (pv:1429,at:1), (pv:1430,at:3), (pv:1431,at:1), (pv:1432,at:1), (pv:1433,at:1), (pv:1434,at:1), (pv:1435,at:4), (pv:1436,at:6), (pv:1437,at:3), (pv:1438,at:1), (pv:1439,at:1), (pv:1440,at:2), (pv:1441,at:2), (pv:1442,at:1), (pv:1443,at:2), (pv:1444,at:2), (pv:1445,at:2), (pv:1446,at:2), (pv:1447,at:3), (pv:1448,at:2), (pv:1449,at:2), (pv:1450,at:7), (pv:1451,at:3), (pv:1452,at:2), (pv:1453,at:1), (pv:1454,at:2), (pv:1455,at:3), (pv:1456,at:2), (pv:1457,at:3), (pv:1458,at:2), (pv:1459,at:1), (pv:1460,at:5), (pv:1461,at:1), (pv:1462,at:1), (pv:1463,at:3), (pv:1464,at:1), (pv:1465,at:3), (pv:1466,at:1), (pv:1467,at:2), (pv:1468,at:1), (pv:1469,at:1), (pv:1470,at:1), (pv:1471,at:7), (pv:1472,at:8), (pv:1473,at:2), (pv:1474,at:6), (pv:1475,at:1), (pv:1476,at:1), (pv:1477,at:2), (pv:1478,at:4), (pv:1479,at:2), (pv:1480,at:1), (pv:1481,at:7), (pv:1482,at:3), (pv:1483,at:9), (pv:1484,at:2), (pv:1485,at:2), (pv:1486,at:2), (pv:1487,at:3), (pv:1488,at:4), (pv:1489,at:1), (pv:1490,at:2), (pv:1491,at:3), (pv:1492,at:1), (pv:1493,at:8), (pv:1494,at:1), (pv:1495,at:3), (pv:1496,at:1), (pv:1497,at:2), (pv:1498,at:2), (pv:1499,at:1), (pv:1500,at:1), (pv:1501,at:2), (pv:1502,at:2), (pv:1503,at:2), (pv:1504,at:4), (pv:1505,at:1), (pv:1506,at:1), (pv:1507,at:1), (pv:1508,at:1), (pv:1509,at:2), (pv:1510,at:2), (pv:1511,at:1), (pv:1512,at:2), (pv:1513,at:6), (pv:1514,at:4), (pv:1515,at:1), (pv:1516,at:2), (pv:1517,at:2), (pv:1518,at:4), (pv:1519,at:5), (pv:1520,at:2), (pv:1521,at:3), (pv:1522,at:1), (pv:1523,at:3), (pv:1524,at:1), (pv:1525,at:10), (pv:1526,at:8), (pv:1527,at:1), (pv:1528,at:3), (pv:1529,at:1), (pv:1530,at:1), (pv:1531,at:1), (pv:1532,at:2), (pv:1533,at:1), (pv:1534,at:2), (pv:1535,at:1), (pv:1536,at:3), (pv:1537,at:1), (pv:1538,at:5), (pv:1539,at:2), (pv:1540,at:4), (pv:1541,at:1), (pv:1542,at:2), (pv:1543,at:2), (pv:1544,at:3), (pv:1545,at:1), (pv:1546,at:1), (pv:1547,at:2), (pv:1548,at:8), (pv:1549,at:4), (pv:1550,at:2), (pv:1551,at:1), (pv:1552,at:2), (pv:1553,at:2), (pv:1554,at:1), (pv:1555,at:3), (pv:1556,at:1), (pv:1557,at:3), (pv:1558,at:2), (pv:1559,at:1), (pv:1560,at:5), (pv:1561,at:7), (pv:1562,at:1), (pv:1563,at:6), (pv:1564,at:1), (pv:1565,at:2), (pv:1566,at:2), (pv:1567,at:1), (pv:1568,at:3), (pv:1569,at:1), (pv:1570,at:1), (pv:1571,at:1), (pv:1572,at:2), (pv:1573,at:1), (pv:1574,at:1), (pv:1575,at:1), (pv:1576,at:1), (pv:1577,at:1), (pv:1578,at:5), (pv:1579,at:1), (pv:1580,at:1), (pv:1581,at:5), (pv:1582,at:3), (pv:1583,at:1), (pv:1584,at:1), (pv:1585,at:9), (pv:1586,at:1), (pv:1587,at:3), (pv:1588,at:2), (pv:1589,at:3), (pv:1590,at:1), (pv:1591,at:5), (pv:1592,at:6), (pv:1593,at:5), (pv:1594,at:2), (pv:1595,at:1), (pv:1596,at:1), (pv:1597,at:2), (pv:1598,at:2), (pv:1599,at:1), (pv:1600,at:3), (pv:1601,at:1), (pv:1602,at:3), (pv:1603,at:3), (pv:1604,at:7), (pv:1605,at:1), (pv:1606,at:3), (pv:1607,at:1), (pv:1608,at:4), (pv:1609,at:4), (pv:1610,at:4), (pv:1611,at:1), (pv:1612,at:4), (pv:1613,at:1), (pv:1614,at:1), (pv:1615,at:2), (pv:1616,at:2), (pv:1617,at:1), (pv:1618,at:2), (pv:1619,at:1), (pv:1620,at:10), (pv:1621,at:1), (pv:1622,at:2), (pv:1623,at:3), (pv:1624,at:2), (pv:1625,at:1), (pv:1626,at:1), (pv:1627,at:4), (pv:1628,at:1), (pv:1629,at:1), (pv:1630,at:3), (pv:1631,at:4), (pv:1632,at:2), (pv:1633,at:1), (pv:1634,at:1), (pv:1635,at:1), (pv:1636,at:1), (pv:1637,at:7), (pv:1638,at:2), (pv:1639,at:1), (pv:1640,at:3), (pv:1641,at:1), (pv:1642,at:2), (pv:1643,at:1), (pv:1644,at:2), (pv:1645,at:3), (pv:1646,at:1), (pv:1647,at:1), (pv:1648,at:1), (pv:1649,at:1), (pv:1650,at:2), (pv:1651,at:1), (pv:1652,at:1), (pv:1653,at:8), (pv:1654,at:1), (pv:1655,at:1), (pv:1656,at:2), (pv:1657,at:1), (pv:1658,at:2), (pv:1659,at:1), (pv:1660,at:1), (pv:1661,at:5), (pv:1662,at:1), (pv:1663,at:2), (pv:1664,at:9), (pv:1665,at:4), (pv:1666,at:1), (pv:1667,at:5), (pv:1668,at:2), (pv:1669,at:2), (pv:1670,at:2), (pv:1671,at:2), (pv:1672,at:4), (pv:1673,at:3), (pv:1674,at:3), (pv:1675,at:2), (pv:1676,at:2), (pv:1677,at:1), (pv:1678,at:2), (pv:1679,at:1), (pv:1680,at:2), (pv:1681,at:1), (pv:1682,at:1), (pv:1683,at:1), (pv:1684,at:1), (pv:1685,at:1), (pv:1686,at:5), (pv:1687,at:1), (pv:1688,at:2), (pv:1689,at:2), (pv:1690,at:1), (pv:1691,at:4), (pv:1692,at:2), (pv:1693,at:4), (pv:1694,at:6), (pv:1695,at:2), (pv:1696,at:3), (pv:1697,at:1), (pv:1698,at:1), (pv:1699,at:1), (pv:1700,at:1), (pv:1701,at:1), (pv:1702,at:4), (pv:1703,at:5), (pv:1704,at:5), (pv:1705,at:3), (pv:1706,at:2), (pv:1707,at:5), (pv:1708,at:4), (pv:1709,at:2), (pv:1710,at:1), (pv:1711,at:2), (pv:1712,at:1), (pv:1713,at:1), (pv:1714,at:1), (pv:1715,at:5), (pv:1716,at:1), (pv:1717,at:1), (pv:1718,at:2), (pv:1719,at:3), (pv:1720,at:2), (pv:1721,at:1), (pv:1722,at:1), (pv:1723,at:1), (pv:1724,at:1), (pv:1725,at:1), (pv:1726,at:2), (pv:1727,at:1), (pv:1728,at:5), (pv:1729,at:1), (pv:1730,at:3), (pv:1731,at:6), (pv:1732,at:6), (pv:1733,at:3), (pv:1734,at:1), (pv:1735,at:2), (pv:1736,at:1), (pv:1737,at:7), (pv:1738,at:2), (pv:1739,at:2), (pv:1740,at:2), (pv:1741,at:3), (pv:1742,at:2), (pv:1743,at:2), (pv:1744,at:1), (pv:1745,at:1), (pv:1746,at:2), (pv:1747,at:5), (pv:1748,at:2), (pv:1749,at:3), (pv:1750,at:1), (pv:1751,at:1), (pv:1752,at:2), (pv:1753,at:4), (pv:1754,at:3), (pv:1755,at:2), (pv:1756,at:7), (pv:1757,at:4), (pv:1758,at:3), (pv:1759,at:4), (pv:1760,at:1), (pv:1761,at:4), (pv:1762,at:2), (pv:1763,at:1), (pv:1764,at:1), (pv:1765,at:2), (pv:1766,at:1), (pv:1767,at:7), (pv:1768,at:1), (pv:1769,at:7), (pv:1770,at:1), (pv:1771,at:3), (pv:1772,at:1), (pv:1773,at:2), (pv:1774,at:1), (pv:1775,at:1), (pv:1776,at:2), (pv:1777,at:1), (pv:1778,at:12), (pv:1779,at:9), (pv:1780,at:1), (pv:1781,at:2), (pv:1782,at:4), (pv:1783,at:2), (pv:1784,at:4), (pv:1785,at:3), (pv:1786,at:1), (pv:1787,at:2), (pv:1788,at:6), (pv:1789,at:1), (pv:1790,at:2), (pv:1791,at:1), (pv:1792,at:9), (pv:1793,at:1), (pv:1794,at:1), (pv:1795,at:2), (pv:1796,at:2), (pv:1797,at:1), (pv:1798,at:1), (pv:1799,at:1), (pv:1800,at:2), (pv:1801,at:2), (pv:1802,at:13), (pv:1803,at:5), (pv:1804,at:2), (pv:1805,at:2), (pv:1806,at:2), (pv:1807,at:2), (pv:1808,at:2), (pv:1809,at:4), (pv:1810,at:2), (pv:1811,at:2), (pv:1812,at:2), (pv:1813,at:1), (pv:1814,at:1), (pv:1815,at:5), (pv:1816,at:1), (pv:1817,at:1), (pv:1818,at:3), (pv:1819,at:4), (pv:1820,at:1), (pv:1821,at:1), (pv:1822,at:1), (pv:1823,at:7), (pv:1824,at:1), (pv:1825,at:4), (pv:1826,at:1), (pv:1827,at:1), (pv:1828,at:5), (pv:1829,at:3), (pv:1830,at:2), (pv:1831,at:3), (pv:1832,at:3), (pv:1833,at:4), (pv:1834,at:1), (pv:1835,at:5), (pv:1836,at:1), (pv:1837,at:1), (pv:1838,at:2), (pv:1839,at:1), (pv:1840,at:1), (pv:1841,at:2), (pv:1842,at:2), (pv:1843,at:1), (pv:1844,at:2), (pv:1845,at:1), (pv:1846,at:2), (pv:1847,at:1), (pv:1848,at:1), (pv:1849,at:1), (pv:1850,at:1), (pv:1851,at:3), (pv:1852,at:3), (pv:1853,at:1), (pv:1854,at:2), (pv:1855,at:1), (pv:1856,at:1), (pv:1857,at:2), (pv:1858,at:1), (pv:1859,at:1), (pv:1860,at:2), (pv:1861,at:1), (pv:1862,at:3), (pv:1863,at:4), (pv:1864,at:2), (pv:1865,at:2), (pv:1866,at:1), (pv:1867,at:2), (pv:1868,at:2), (pv:1869,at:2), (pv:1870,at:4), (pv:1871,at:3), (pv:1872,at:3), (pv:1873,at:1), (pv:1874,at:1), (pv:1875,at:1), (pv:1876,at:2), (pv:1877,at:3), (pv:1878,at:3), (pv:1879,at:1), (pv:1880,at:5), (pv:1881,at:1), (pv:1882,at:1), (pv:1883,at:4), (pv:1884,at:1), (pv:1885,at:3), (pv:1886,at:2), (pv:1887,at:2), (pv:1888,at:1), (pv:1889,at:1), (pv:1890,at:1), (pv:1891,at:2), (pv:1892,at:1), (pv:1893,at:2), (pv:1894,at:1), (pv:1895,at:1), (pv:1896,at:1), (pv:1897,at:5), (pv:1898,at:1), (pv:1899,at:2), (pv:1900,at:4), (pv:1901,at:3), (pv:1902,at:2), (pv:1903,at:3), (pv:1904,at:1), (pv:1905,at:3), (pv:1906,at:1), (pv:1907,at:1), (pv:1908,at:3), (pv:1909,at:2), (pv:1910,at:5), (pv:1911,at:3), (pv:1912,at:7), (pv:1913,at:2), (pv:1914,at:3), (pv:1915,at:2), (pv:1916,at:6), (pv:1917,at:1), (pv:1918,at:8), (pv:1919,at:1), (pv:1920,at:3), (pv:1921,at:5), (pv:1922,at:2), (pv:1923,at:3), (pv:1924,at:2), (pv:1925,at:4), (pv:1926,at:2), (pv:1927,at:6), (pv:1928,at:1), (pv:1929,at:5), (pv:1930,at:2), (pv:1931,at:1), (pv:1932,at:3), (pv:1933,at:1), (pv:1934,at:1), (pv:1935,at:1), (pv:1936,at:3), (pv:1937,at:2), (pv:1938,at:1), (pv:1939,at:1), (pv:1940,at:5), (pv:1941,at:1), (pv:1942,at:2), (pv:1943,at:1), (pv:1944,at:2), (pv:1945,at:3), (pv:1946,at:5), (pv:1947,at:3), (pv:1948,at:2), (pv:1949,at:1), (pv:1950,at:2), (pv:1951,at:1), (pv:1952,at:1), (pv:1953,at:2), (pv:1954,at:2), (pv:1955,at:1), (pv:1956,at:1), (pv:1957,at:2), (pv:1958,at:2), (pv:1959,at:2), (pv:1960,at:1), (pv:1961,at:3), (pv:1962,at:1), (pv:1963,at:2), (pv:1964,at:1), (pv:1965,at:1), (pv:1966,at:1), (pv:1967,at:4), (pv:1968,at:5), (pv:1969,at:1), (pv:1970,at:1), (pv:1971,at:5), (pv:1972,at:5), (pv:1973,at:1), (pv:1974,at:1), (pv:1975,at:1), (pv:1976,at:4), (pv:1977,at:1), (pv:1978,at:1), (pv:1979,at:3), (pv:1980,at:2), (pv:1981,at:3), (pv:1982,at:1), (pv:1983,at:2), (pv:1984,at:1), (pv:1985,at:1), (pv:1986,at:1), (pv:1987,at:3), (pv:1988,at:1), (pv:1989,at:5), (pv:1990,at:3), (pv:1991,at:1), (pv:1992,at:1), (pv:1993,at:4), (pv:1994,at:1), (pv:1995,at:1), (pv:1996,at:1), (pv:1997,at:1), (pv:1998,at:2), (pv:1999,at:1), (pv:2000,at:3), (pv:2001,at:5), (pv:2002,at:1), (pv:2003,at:1), (pv:2004,at:3), (pv:2005,at:2), (pv:2006,at:7), (pv:2007,at:1), (pv:2008,at:7), (pv:2009,at:7), (pv:2010,at:3), (pv:2011,at:2), (pv:2012,at:7), (pv:2013,at:1), (pv:2014,at:7), (pv:2015,at:2), (pv:2016,at:1), (pv:2017,at:1), (pv:2018,at:3), (pv:2019,at:1), (pv:2020,at:4), (pv:2021,at:5), (pv:2022,at:4), (pv:2023,at:1), (pv:2024,at:3), (pv:2025,at:2), (pv:2026,at:2), (pv:2027,at:1), (pv:2028,at:1), (pv:2029,at:3), (pv:2030,at:3), (pv:2031,at:1), (pv:2032,at:1), (pv:2033,at:7), (pv:2034,at:1), (pv:2035,at:1), (pv:2036,at:2), (pv:2037,at:2), (pv:2038,at:1), (pv:2039,at:1), (pv:2040,at:5), (pv:2041,at:3), (pv:2042,at:6), (pv:2043,at:1), (pv:2044,at:5), (pv:2045,at:2), (pv:2046,at:4), (pv:2047,at:4), (pv:2048,at:6), (pv:2049,at:1), (pv:2050,at:1), (pv:2051,at:5), (pv:2052,at:4), (pv:2053,at:10), (pv:2054,at:4), (pv:2055,at:1), (pv:2056,at:2), (pv:2057,at:1), (pv:2058,at:1), (pv:2059,at:1), (pv:2060,at:1), (pv:2061,at:1), (pv:2062,at:1), (pv:2063,at:2), (pv:2064,at:2), (pv:2065,at:2), (pv:2066,at:2), (pv:2067,at:3), (pv:2068,at:4), (pv:2069,at:2), (pv:2070,at:3), (pv:2071,at:2), (pv:2072,at:1), (pv:2073,at:3), (pv:2074,at:3), (pv:2075,at:3), (pv:2076,at:2), (pv:2077,at:2), (pv:2078,at:3), (pv:2079,at:3), (pv:2080,at:2), (pv:2081,at:1), (pv:2082,at:3), (pv:2083,at:1), (pv:2084,at:3), (pv:2085,at:2), (pv:2086,at:5), (pv:2087,at:2), (pv:2088,at:1), (pv:2089,at:2), (pv:2090,at:1), (pv:2091,at:3), (pv:2092,at:1), (pv:2093,at:2), (pv:2094,at:2), (pv:2095,at:2), (pv:2096,at:3), (pv:2097,at:4), (pv:2098,at:5), (pv:2099,at:1), (pv:2100,at:3), (pv:2101,at:2), (pv:2102,at:7), (pv:2103,at:2), (pv:2104,at:3), (pv:2105,at:2), (pv:2106,at:1), (pv:2107,at:2), (pv:2108,at:1), (pv:2109,at:1), (pv:2110,at:3), (pv:2111,at:5), (pv:2112,at:2), (pv:2113,at:4), (pv:2114,at:1), (pv:2115,at:4), (pv:2116,at:1), (pv:2117,at:4), (pv:2118,at:1), (pv:2119,at:1), (pv:2120,at:5), (pv:2121,at:4), (pv:2122,at:2), (pv:2123,at:4), (pv:2124,at:1), (pv:2125,at:3), (pv:2126,at:2), (pv:2127,at:1), (pv:2128,at:5), (pv:2129,at:1), (pv:2130,at:1), (pv:2131,at:4), (pv:2132,at:1), (pv:2133,at:2), (pv:2134,at:1), (pv:2135,at:3), (pv:2136,at:1), (pv:2137,at:2), (pv:2138,at:4), (pv:2139,at:4), (pv:2140,at:1), (pv:2141,at:1), (pv:2142,at:2), (pv:2143,at:3), (pv:2144,at:2), (pv:2145,at:1), (pv:2146,at:4), (pv:2147,at:2), (pv:2148,at:2), (pv:2149,at:6), (pv:2150,at:1), (pv:2151,at:2), (pv:2152,at:2), (pv:2153,at:1), (pv:2154,at:4), (pv:2155,at:1), (pv:2156,at:5), (pv:2157,at:3), (pv:2158,at:2), (pv:2159,at:1), (pv:2160,at:1), (pv:2161,at:3), (pv:2162,at:3), (pv:2163,at:2), (pv:2164,at:1), (pv:2165,at:3), (pv:2166,at:2), (pv:2167,at:2), (pv:2168,at:1), (pv:2169,at:3), (pv:2170,at:2), (pv:2171,at:4), (pv:2172,at:1), (pv:2173,at:2), (pv:2174,at:1), (pv:2175,at:1), (pv:2176,at:3), (pv:2177,at:3), (pv:2178,at:2), (pv:2179,at:3), (pv:2180,at:1), (pv:2181,at:2), (pv:2182,at:1), (pv:2183,at:1), (pv:2184,at:1), (pv:2185,at:2), (pv:2186,at:5), (pv:2187,at:1), (pv:2188,at:3), (pv:2189,at:2), (pv:2190,at:2), (pv:2191,at:1), (pv:2192,at:1), (pv:2193,at:2), (pv:2194,at:4), (pv:2195,at:1), (pv:2196,at:1), (pv:2197,at:1), (pv:2198,at:11), (pv:2199,at:1), (pv:2200,at:2), (pv:2201,at:1), (pv:2202,at:2), (pv:2203,at:5), (pv:2204,at:4), (pv:2205,at:1), (pv:2206,at:2), (pv:2207,at:1), (pv:2208,at:2), (pv:2209,at:1), (pv:2210,at:1), (pv:2211,at:2), (pv:2212,at:1), (pv:2213,at:1), (pv:2214,at:3), (pv:2215,at:1), (pv:2216,at:1), (pv:2217,at:2), (pv:2218,at:9), (pv:2219,at:3), (pv:2220,at:3), (pv:2221,at:1), (pv:2222,at:4), (pv:2223,at:2), (pv:2224,at:2), (pv:2225,at:2), (pv:2226,at:3), (pv:2227,at:1), (pv:2228,at:2), (pv:2229,at:2), (pv:2230,at:1), (pv:2231,at:5), (pv:2232,at:8), (pv:2233,at:1), (pv:2234,at:4), (pv:2235,at:1), (pv:2236,at:1), (pv:2237,at:1), (pv:2238,at:1), (pv:2239,at:1), (pv:2240,at:1), (pv:2241,at:3), (pv:2242,at:3), (pv:2243,at:2), (pv:2244,at:4), (pv:2245,at:3), (pv:2246,at:2), (pv:2247,at:2), (pv:2248,at:2), (pv:2249,at:1), (pv:2250,at:1), (pv:2251,at:2), (pv:2252,at:1), (pv:2253,at:1), (pv:2254,at:2), (pv:2255,at:1), (pv:2256,at:1), (pv:2257,at:1), (pv:2258,at:1), (pv:2259,at:1), (pv:2260,at:1), (pv:2261,at:3), (pv:2262,at:1), (pv:2263,at:2), (pv:2264,at:2), (pv:2265,at:7), (pv:2266,at:1), (pv:2267,at:5), (pv:2268,at:5), (pv:2269,at:9), (pv:2270,at:2), (pv:2271,at:1), (pv:2272,at:2), (pv:2273,at:2), (pv:2274,at:1), (pv:2275,at:3), (pv:2276,at:1), (pv:2277,at:3), (pv:2278,at:2), (pv:2279,at:1), (pv:2280,at:4), (pv:2281,at:2), (pv:2282,at:1), (pv:2283,at:1), (pv:2284,at:1), (pv:2285,at:1), (pv:2286,at:1), (pv:2287,at:1), (pv:2288,at:4), (pv:2289,at:1), (pv:2290,at:1), (pv:2291,at:2), (pv:2292,at:2), (pv:2293,at:1), (pv:2294,at:1), (pv:2295,at:1), (pv:2296,at:4), (pv:2297,at:1), (pv:2298,at:9), (pv:2299,at:1), (pv:2300,at:1), (pv:2301,at:1), (pv:2302,at:1), (pv:2303,at:7), (pv:2304,at:1), (pv:2305,at:2), (pv:2306,at:2), (pv:2307,at:3), (pv:2308,at:2), (pv:2309,at:1), (pv:2310,at:1), (pv:2311,at:5), (pv:2312,at:5), (pv:2313,at:1), (pv:2314,at:2), (pv:2315,at:1), (pv:2316,at:1), (pv:2317,at:2), (pv:2318,at:2), (pv:2319,at:4), (pv:2320,at:1), (pv:2321,at:1), (pv:2322,at:2), (pv:2323,at:2), (pv:2324,at:4), (pv:2327,at:2), (pv:2328,at:4), (pv:2329,at:2), (pv:2330,at:2), (pv:2331,at:1), (pv:2341,at:1), (pv:2346,at:5), (pv:2348,at:1), (pv:2349,at:1), (pv:2351,at:2), (pv:2359,at:1)]
[INFO ] fr.inria.astor.approaches.jgenprog.JGenProg.showResults(JGenProg.java:342) - 
pvariants_with_transformed_ingredients: [(pv:2,at:2), (pv:3,at:5), (pv:4,at:1), (pv:5,at:1), (pv:6,at:3), (pv:7,at:2), (pv:8,at:1), (pv:9,at:3), (pv:10,at:2), (pv:11,at:2), (pv:12,at:1), (pv:13,at:3), (pv:14,at:5), (pv:15,at:1), (pv:16,at:1), (pv:17,at:2), (pv:18,at:3), (pv:19,at:14), (pv:20,at:1), (pv:21,at:2), (pv:22,at:1), (pv:23,at:1), (pv:24,at:2), (pv:25,at:1), (pv:26,at:1), (pv:27,at:1), (pv:28,at:1), (pv:29,at:2), (pv:30,at:2), (pv:31,at:6), (pv:32,at:8), (pv:33,at:2), (pv:34,at:1), (pv:35,at:1), (pv:36,at:2), (pv:37,at:1), (pv:38,at:1), (pv:39,at:7), (pv:40,at:1), (pv:41,at:2), (pv:42,at:1), (pv:43,at:10), (pv:44,at:1), (pv:45,at:4), (pv:46,at:5), (pv:47,at:3), (pv:48,at:1), (pv:49,at:1), (pv:50,at:2), (pv:51,at:1), (pv:52,at:1), (pv:53,at:2), (pv:54,at:4), (pv:55,at:1), (pv:56,at:4), (pv:57,at:4), (pv:58,at:5), (pv:59,at:1), (pv:60,at:1), (pv:61,at:1), (pv:62,at:1), (pv:63,at:1), (pv:64,at:3), (pv:65,at:1), (pv:66,at:5), (pv:67,at:2), (pv:68,at:2), (pv:69,at:2), (pv:70,at:1), (pv:71,at:1), (pv:72,at:4), (pv:73,at:2), (pv:74,at:2), (pv:75,at:1), (pv:76,at:1), (pv:77,at:1), (pv:78,at:4), (pv:79,at:3), (pv:80,at:1), (pv:81,at:2), (pv:82,at:3), (pv:83,at:2), (pv:84,at:1), (pv:85,at:1), (pv:86,at:1), (pv:87,at:1), (pv:88,at:2), (pv:89,at:1), (pv:90,at:3), (pv:91,at:2), (pv:92,at:2), (pv:93,at:1), (pv:94,at:1), (pv:95,at:1), (pv:96,at:1), (pv:97,at:2), (pv:98,at:1), (pv:99,at:2), (pv:100,at:7), (pv:101,at:2), (pv:102,at:4), (pv:103,at:4), (pv:104,at:1), (pv:105,at:1), (pv:106,at:1), (pv:107,at:1), (pv:108,at:1), (pv:109,at:4), (pv:110,at:1), (pv:111,at:10), (pv:112,at:2), (pv:113,at:1), (pv:114,at:1), (pv:115,at:1), (pv:116,at:2), (pv:117,at:1), (pv:118,at:4), (pv:119,at:1), (pv:120,at:1), (pv:121,at:3), (pv:122,at:2), (pv:123,at:2), (pv:124,at:1), (pv:125,at:3), (pv:126,at:1), (pv:127,at:3), (pv:128,at:1), (pv:129,at:7), (pv:130,at:1), (pv:131,at:1), (pv:132,at:2), (pv:133,at:13), (pv:134,at:1), (pv:135,at:1), (pv:136,at:2), (pv:137,at:2), (pv:138,at:1), (pv:139,at:1), (pv:140,at:1), (pv:141,at:2), (pv:142,at:1), (pv:143,at:1), (pv:144,at:1), (pv:145,at:1), (pv:146,at:1), (pv:147,at:2), (pv:148,at:3), (pv:149,at:1), (pv:150,at:1), (pv:151,at:1), (pv:152,at:1), (pv:153,at:3), (pv:154,at:2), (pv:155,at:2), (pv:156,at:1), (pv:157,at:2), (pv:158,at:4), (pv:159,at:1), (pv:160,at:2), (pv:161,at:2), (pv:162,at:3), (pv:163,at:6), (pv:164,at:1), (pv:165,at:1), (pv:166,at:1), (pv:167,at:1), (pv:168,at:3), (pv:169,at:2), (pv:170,at:1), (pv:171,at:1), (pv:172,at:4), (pv:173,at:2), (pv:174,at:5), (pv:175,at:1), (pv:176,at:2), (pv:177,at:1), (pv:178,at:2), (pv:179,at:1), (pv:180,at:1), (pv:181,at:5), (pv:182,at:3), (pv:183,at:1), (pv:184,at:1), (pv:185,at:1), (pv:186,at:1), (pv:187,at:7), (pv:188,at:1), (pv:189,at:2), (pv:190,at:1), (pv:191,at:1), (pv:192,at:1), (pv:193,at:1), (pv:194,at:1), (pv:195,at:2), (pv:196,at:2), (pv:197,at:2), (pv:198,at:1), (pv:199,at:1), (pv:200,at:2), (pv:201,at:5), (pv:202,at:1), (pv:203,at:1), (pv:204,at:4), (pv:205,at:2), (pv:206,at:3), (pv:207,at:3), (pv:208,at:2), (pv:209,at:1), (pv:210,at:1), (pv:211,at:1), (pv:212,at:3), (pv:213,at:1), (pv:214,at:3), (pv:215,at:2), (pv:216,at:8), (pv:217,at:1), (pv:218,at:1), (pv:219,at:3), (pv:220,at:2), (pv:221,at:1), (pv:222,at:1), (pv:223,at:1), (pv:224,at:1), (pv:225,at:1), (pv:226,at:1), (pv:227,at:1), (pv:228,at:7), (pv:229,at:1), (pv:230,at:1), (pv:231,at:2), (pv:232,at:5), (pv:233,at:2), (pv:234,at:3), (pv:235,at:1), (pv:236,at:4), (pv:237,at:3), (pv:238,at:1), (pv:239,at:1), (pv:240,at:1), (pv:241,at:1), (pv:242,at:1), (pv:243,at:1), (pv:244,at:3), (pv:245,at:3), (pv:246,at:1), (pv:247,at:4), (pv:248,at:1), (pv:249,at:2), (pv:250,at:2), (pv:251,at:1), (pv:252,at:1), (pv:253,at:1), (pv:254,at:1), (pv:255,at:1), (pv:256,at:1), (pv:257,at:1), (pv:258,at:2), (pv:259,at:4), (pv:260,at:1), (pv:261,at:2), (pv:262,at:1), (pv:263,at:1), (pv:264,at:5), (pv:265,at:3), (pv:266,at:5), (pv:267,at:1), (pv:268,at:1), (pv:269,at:3), (pv:270,at:3), (pv:271,at:1), (pv:272,at:2), (pv:273,at:2), (pv:274,at:3), (pv:275,at:1), (pv:276,at:1), (pv:277,at:1), (pv:278,at:3), (pv:279,at:4), (pv:280,at:2), (pv:281,at:1), (pv:282,at:1), (pv:283,at:2), (pv:284,at:7), (pv:285,at:2), (pv:286,at:1), (pv:287,at:1), (pv:288,at:1), (pv:289,at:1), (pv:290,at:5), (pv:291,at:1), (pv:292,at:3), (pv:293,at:2), (pv:294,at:1), (pv:295,at:1), (pv:296,at:4), (pv:297,at:1), (pv:298,at:4), (pv:299,at:2), (pv:300,at:1), (pv:301,at:1), (pv:302,at:1), (pv:303,at:4), (pv:304,at:2), (pv:305,at:1), (pv:306,at:2), (pv:307,at:2), (pv:308,at:1), (pv:309,at:1), (pv:310,at:2), (pv:311,at:1), (pv:312,at:2), (pv:313,at:3), (pv:314,at:1), (pv:315,at:4), (pv:316,at:1), (pv:317,at:1), (pv:318,at:2), (pv:319,at:3), (pv:320,at:2), (pv:321,at:2), (pv:322,at:2), (pv:323,at:2), (pv:324,at:1), (pv:325,at:3), (pv:326,at:2), (pv:327,at:1), (pv:328,at:3), (pv:329,at:5), (pv:330,at:1), (pv:331,at:5), (pv:332,at:3), (pv:333,at:2), (pv:334,at:1), (pv:335,at:3), (pv:336,at:1), (pv:337,at:6), (pv:338,at:3), (pv:339,at:1), (pv:340,at:4), (pv:341,at:2), (pv:342,at:1), (pv:343,at:7), (pv:344,at:1), (pv:345,at:1), (pv:346,at:1), (pv:347,at:1), (pv:348,at:1), (pv:349,at:2), (pv:350,at:1), (pv:351,at:8), (pv:352,at:1), (pv:353,at:2), (pv:354,at:5), (pv:355,at:1), (pv:356,at:1), (pv:357,at:1), (pv:358,at:2), (pv:359,at:1), (pv:360,at:1), (pv:361,at:1), (pv:362,at:2), (pv:363,at:4), (pv:364,at:1), (pv:365,at:3), (pv:366,at:3), (pv:367,at:1), (pv:368,at:1), (pv:369,at:2), (pv:370,at:3), (pv:371,at:1), (pv:372,at:1), (pv:373,at:3), (pv:374,at:1), (pv:375,at:1), (pv:376,at:4), (pv:377,at:1), (pv:378,at:3), (pv:379,at:4), (pv:380,at:7), (pv:381,at:4), (pv:382,at:1), (pv:383,at:4), (pv:384,at:3), (pv:385,at:2), (pv:386,at:2), (pv:387,at:2), (pv:388,at:1), (pv:389,at:1), (pv:390,at:2), (pv:391,at:1), (pv:392,at:1), (pv:393,at:1), (pv:394,at:1), (pv:395,at:1), (pv:396,at:2), (pv:397,at:1), (pv:398,at:3), (pv:399,at:5), (pv:400,at:7), (pv:401,at:4), (pv:402,at:2), (pv:403,at:1), (pv:404,at:1), (pv:405,at:4), (pv:406,at:3), (pv:407,at:4), (pv:408,at:1), (pv:409,at:1), (pv:410,at:1), (pv:411,at:1), (pv:412,at:2), (pv:413,at:1), (pv:414,at:2), (pv:415,at:3), (pv:416,at:1), (pv:417,at:1), (pv:418,at:1), (pv:419,at:1), (pv:420,at:2), (pv:421,at:7), (pv:422,at:7), (pv:423,at:11), (pv:424,at:3), (pv:425,at:1), (pv:426,at:1), (pv:427,at:1), (pv:428,at:1), (pv:429,at:2), (pv:430,at:3), (pv:431,at:1), (pv:432,at:1), (pv:433,at:1), (pv:434,at:1), (pv:435,at:4), (pv:436,at:1), (pv:437,at:1), (pv:438,at:1), (pv:439,at:2), (pv:440,at:4), (pv:441,at:1), (pv:442,at:1), (pv:443,at:1), (pv:444,at:1), (pv:445,at:3), (pv:446,at:1), (pv:447,at:3), (pv:448,at:2), (pv:449,at:2), (pv:450,at:1), (pv:451,at:3), (pv:452,at:1), (pv:453,at:1), (pv:454,at:1), (pv:455,at:3), (pv:456,at:1), (pv:457,at:1), (pv:458,at:1), (pv:459,at:4), (pv:460,at:1), (pv:461,at:1), (pv:462,at:1), (pv:463,at:4), (pv:464,at:5), (pv:465,at:1), (pv:466,at:1), (pv:467,at:2), (pv:468,at:3), (pv:469,at:2), (pv:470,at:1), (pv:471,at:5), (pv:472,at:1), (pv:473,at:1), (pv:474,at:5), (pv:475,at:1), (pv:476,at:1), (pv:477,at:1), (pv:478,at:1), (pv:479,at:1), (pv:480,at:1), (pv:481,at:2), (pv:482,at:1), (pv:483,at:1), (pv:484,at:4), (pv:485,at:6), (pv:486,at:1), (pv:487,at:1), (pv:488,at:1), (pv:489,at:1), (pv:490,at:1), (pv:491,at:1), (pv:492,at:1), (pv:493,at:1), (pv:494,at:3), (pv:495,at:2), (pv:496,at:8), (pv:497,at:1), (pv:498,at:1), (pv:499,at:1), (pv:500,at:4), (pv:501,at:2), (pv:502,at:1), (pv:503,at:1), (pv:504,at:1), (pv:505,at:1), (pv:506,at:2), (pv:507,at:1), (pv:508,at:1), (pv:509,at:9), (pv:510,at:2), (pv:511,at:7), (pv:512,at:1), (pv:513,at:1), (pv:514,at:1), (pv:515,at:4), (pv:516,at:3), (pv:517,at:1), (pv:518,at:3), (pv:519,at:5), (pv:520,at:7), (pv:521,at:5), (pv:522,at:2), (pv:523,at:1), (pv:524,at:1), (pv:525,at:3), (pv:526,at:1), (pv:527,at:1), (pv:528,at:1), (pv:529,at:2), (pv:530,at:3), (pv:531,at:8), (pv:532,at:3), (pv:533,at:1), (pv:534,at:1), (pv:535,at:1), (pv:536,at:1), (pv:537,at:1), (pv:538,at:2), (pv:539,at:2), (pv:540,at:2), (pv:541,at:1), (pv:542,at:4), (pv:543,at:1), (pv:544,at:1), (pv:545,at:1), (pv:546,at:4), (pv:547,at:3), (pv:548,at:3), (pv:549,at:1), (pv:550,at:4), (pv:551,at:1), (pv:552,at:2), (pv:553,at:4), (pv:554,at:1), (pv:555,at:1), (pv:556,at:1), (pv:557,at:4), (pv:558,at:2), (pv:559,at:4), (pv:560,at:2), (pv:561,at:1), (pv:562,at:1), (pv:563,at:1), (pv:564,at:2), (pv:565,at:1), (pv:566,at:3), (pv:567,at:3), (pv:568,at:2), (pv:569,at:1), (pv:570,at:1), (pv:571,at:5), (pv:572,at:2), (pv:573,at:10), (pv:574,at:1), (pv:575,at:6), (pv:576,at:1), (pv:577,at:1), (pv:578,at:2), (pv:579,at:1), (pv:580,at:1), (pv:581,at:1), (pv:582,at:2), (pv:583,at:2), (pv:584,at:2), (pv:585,at:4), (pv:586,at:1), (pv:587,at:1), (pv:588,at:1), (pv:589,at:2), (pv:590,at:3), (pv:591,at:3), (pv:592,at:1), (pv:593,at:16), (pv:594,at:3), (pv:595,at:1), (pv:596,at:2), (pv:597,at:1), (pv:598,at:2), (pv:599,at:3), (pv:600,at:1), (pv:601,at:2), (pv:602,at:3), (pv:603,at:1), (pv:604,at:1), (pv:605,at:2), (pv:606,at:3), (pv:607,at:1), (pv:608,at:1), (pv:609,at:1), (pv:610,at:1), (pv:611,at:2), (pv:612,at:1), (pv:613,at:2), (pv:614,at:3), (pv:615,at:3), (pv:616,at:2), (pv:617,at:2), (pv:618,at:1), (pv:619,at:4), (pv:620,at:1), (pv:621,at:2), (pv:622,at:3), (pv:623,at:2), (pv:624,at:2), (pv:625,at:2), (pv:626,at:2), (pv:627,at:2), (pv:628,at:10), (pv:629,at:1), (pv:630,at:6), (pv:631,at:1), (pv:632,at:1), (pv:633,at:4), (pv:634,at:1), (pv:635,at:6), (pv:636,at:3), (pv:637,at:5), (pv:638,at:1), (pv:639,at:2), (pv:640,at:9), (pv:641,at:1), (pv:642,at:7), (pv:643,at:1), (pv:644,at:1), (pv:645,at:8), (pv:646,at:1), (pv:647,at:1), (pv:648,at:1), (pv:649,at:1), (pv:650,at:2), (pv:651,at:2), (pv:652,at:1), (pv:653,at:2), (pv:654,at:6), (pv:655,at:1), (pv:656,at:1), (pv:657,at:8), (pv:658,at:2), (pv:659,at:1), (pv:660,at:1), (pv:661,at:1), (pv:662,at:1), (pv:663,at:1), (pv:664,at:2), (pv:665,at:3), (pv:666,at:1), (pv:667,at:4), (pv:668,at:1), (pv:669,at:1), (pv:670,at:3), (pv:671,at:1), (pv:672,at:5), (pv:673,at:2), (pv:674,at:4), (pv:675,at:3), (pv:676,at:6), (pv:677,at:1), (pv:678,at:2), (pv:679,at:1), (pv:680,at:1), (pv:681,at:1), (pv:682,at:1), (pv:683,at:1), (pv:684,at:1), (pv:685,at:1), (pv:686,at:2), (pv:687,at:1), (pv:688,at:3), (pv:689,at:1), (pv:690,at:1), (pv:691,at:1), (pv:692,at:1), (pv:693,at:4), (pv:694,at:3), (pv:695,at:1), (pv:696,at:1), (pv:697,at:1), (pv:698,at:1), (pv:699,at:4), (pv:700,at:4), (pv:701,at:14), (pv:702,at:2), (pv:703,at:1), (pv:704,at:2), (pv:705,at:7), (pv:706,at:1), (pv:707,at:1), (pv:708,at:1), (pv:709,at:1), (pv:710,at:4), (pv:711,at:1), (pv:712,at:1), (pv:713,at:3), (pv:714,at:1), (pv:715,at:1), (pv:716,at:1), (pv:717,at:1), (pv:718,at:1), (pv:719,at:1), (pv:720,at:1), (pv:721,at:1), (pv:722,at:3), (pv:723,at:7), (pv:724,at:4), (pv:725,at:3), (pv:726,at:1), (pv:727,at:1), (pv:728,at:1), (pv:729,at:3), (pv:730,at:3), (pv:731,at:1), (pv:732,at:1), (pv:733,at:6), (pv:734,at:8), (pv:735,at:3), (pv:736,at:5), (pv:737,at:2), (pv:738,at:2), (pv:739,at:2), (pv:740,at:12), (pv:741,at:3), (pv:742,at:1), (pv:743,at:5), (pv:744,at:3), (pv:745,at:1), (pv:746,at:1), (pv:747,at:3), (pv:748,at:3), (pv:749,at:1), (pv:750,at:1), (pv:751,at:2), (pv:752,at:1), (pv:753,at:2), (pv:754,at:2), (pv:755,at:3), (pv:756,at:5), (pv:757,at:4), (pv:758,at:1), (pv:759,at:1), (pv:760,at:3), (pv:761,at:3), (pv:762,at:2), (pv:763,at:2), (pv:764,at:1), (pv:765,at:2), (pv:766,at:1), (pv:767,at:1), (pv:768,at:7), (pv:769,at:2), (pv:770,at:2), (pv:771,at:1), (pv:772,at:1), (pv:773,at:5), (pv:774,at:1), (pv:775,at:2), (pv:776,at:1), (pv:777,at:1), (pv:778,at:6), (pv:779,at:1), (pv:780,at:1), (pv:781,at:3), (pv:782,at:2), (pv:783,at:4), (pv:784,at:1), (pv:785,at:3), (pv:786,at:2), (pv:787,at:1), (pv:788,at:3), (pv:789,at:1), (pv:790,at:2), (pv:791,at:1), (pv:792,at:1), (pv:793,at:9), (pv:794,at:1), (pv:795,at:1), (pv:796,at:3), (pv:797,at:4), (pv:798,at:2), (pv:799,at:2), (pv:800,at:1), (pv:801,at:6), (pv:802,at:3), (pv:803,at:6), (pv:804,at:1), (pv:805,at:1), (pv:806,at:1), (pv:807,at:1), (pv:808,at:1), (pv:809,at:1), (pv:810,at:1), (pv:811,at:2), (pv:812,at:1), (pv:813,at:3), (pv:814,at:1), (pv:815,at:2), (pv:816,at:6), (pv:817,at:2), (pv:818,at:1), (pv:819,at:1), (pv:820,at:1), (pv:821,at:1), (pv:822,at:3), (pv:823,at:2), (pv:824,at:1), (pv:825,at:2), (pv:826,at:1), (pv:827,at:2), (pv:828,at:1), (pv:829,at:4), (pv:830,at:2), (pv:831,at:1), (pv:832,at:2), (pv:833,at:1), (pv:834,at:1), (pv:835,at:2), (pv:836,at:1), (pv:837,at:2), (pv:838,at:9), (pv:839,at:1), (pv:840,at:4), (pv:841,at:1), (pv:842,at:1), (pv:843,at:3), (pv:844,at:3), (pv:845,at:2), (pv:846,at:1), (pv:847,at:3), (pv:848,at:1), (pv:849,at:3), (pv:850,at:3), (pv:851,at:1), (pv:852,at:1), (pv:853,at:2), (pv:854,at:1), (pv:855,at:1), (pv:856,at:3), (pv:857,at:1), (pv:858,at:1), (pv:859,at:3), (pv:860,at:3), (pv:861,at:1), (pv:862,at:1), (pv:863,at:1), (pv:864,at:1), (pv:865,at:1), (pv:866,at:1), (pv:867,at:2), (pv:868,at:3), (pv:869,at:1), (pv:870,at:2), (pv:871,at:1), (pv:872,at:18), (pv:873,at:1), (pv:874,at:2), (pv:875,at:3), (pv:876,at:5), (pv:877,at:3), (pv:878,at:1), (pv:879,at:3), (pv:880,at:2), (pv:881,at:15), (pv:882,at:3), (pv:883,at:1), (pv:884,at:3), (pv:885,at:1), (pv:886,at:2), (pv:887,at:1), (pv:888,at:5), (pv:889,at:1), (pv:890,at:2), (pv:891,at:1), (pv:892,at:1), (pv:893,at:3), (pv:894,at:1), (pv:895,at:3), (pv:896,at:1), (pv:897,at:1), (pv:898,at:2), (pv:899,at:1), (pv:900,at:3), (pv:901,at:1), (pv:902,at:1), (pv:903,at:2), (pv:904,at:2), (pv:905,at:5), (pv:906,at:3), (pv:907,at:2), (pv:908,at:1), (pv:909,at:2), (pv:910,at:4), (pv:911,at:1), (pv:912,at:2), (pv:913,at:1), (pv:914,at:1), (pv:915,at:4), (pv:916,at:1), (pv:917,at:6), (pv:918,at:6), (pv:919,at:4), (pv:920,at:2), (pv:921,at:1), (pv:922,at:2), (pv:923,at:2), (pv:924,at:2), (pv:925,at:2), (pv:926,at:3), (pv:927,at:1), (pv:928,at:3), (pv:929,at:3), (pv:930,at:7), (pv:931,at:5), (pv:932,at:1), (pv:933,at:1), (pv:934,at:1), (pv:935,at:2), (pv:936,at:2), (pv:937,at:3), (pv:938,at:1), (pv:939,at:1), (pv:940,at:1), (pv:941,at:1), (pv:942,at:5), (pv:943,at:3), (pv:944,at:4), (pv:945,at:3), (pv:946,at:2), (pv:947,at:2), (pv:948,at:1), (pv:949,at:3), (pv:950,at:2), (pv:951,at:4), (pv:952,at:1), (pv:953,at:2), (pv:954,at:2), (pv:955,at:1), (pv:956,at:3), (pv:957,at:2), (pv:958,at:4), (pv:959,at:1), (pv:960,at:7), (pv:961,at:3), (pv:962,at:1), (pv:963,at:1), (pv:964,at:2), (pv:965,at:6), (pv:966,at:1), (pv:967,at:2), (pv:968,at:1), (pv:969,at:2), (pv:970,at:3), (pv:971,at:2), (pv:972,at:8), (pv:973,at:11), (pv:974,at:1), (pv:975,at:4), (pv:976,at:1), (pv:977,at:4), (pv:978,at:6), (pv:979,at:1), (pv:980,at:1), (pv:981,at:2), (pv:982,at:6), (pv:983,at:3), (pv:984,at:1), (pv:985,at:3), (pv:986,at:3), (pv:987,at:1), (pv:988,at:1), (pv:989,at:1), (pv:990,at:1), (pv:991,at:3), (pv:992,at:4), (pv:993,at:5), (pv:994,at:1), (pv:995,at:1), (pv:996,at:4), (pv:997,at:2), (pv:998,at:1), (pv:999,at:4), (pv:1000,at:2), (pv:1001,at:1), (pv:1002,at:1), (pv:1003,at:1), (pv:1004,at:4), (pv:1005,at:1), (pv:1006,at:1), (pv:1007,at:2), (pv:1008,at:2), (pv:1009,at:1), (pv:1010,at:4), (pv:1011,at:1), (pv:1012,at:3), (pv:1013,at:2), (pv:1014,at:2), (pv:1015,at:1), (pv:1016,at:3), (pv:1017,at:1), (pv:1018,at:4), (pv:1019,at:1), (pv:1020,at:1), (pv:1021,at:1), (pv:1022,at:1), (pv:1023,at:1), (pv:1024,at:1), (pv:1025,at:5), (pv:1026,at:1), (pv:1027,at:1), (pv:1028,at:1), (pv:1029,at:1), (pv:1030,at:1), (pv:1031,at:3), (pv:1032,at:2), (pv:1033,at:1), (pv:1034,at:4), (pv:1035,at:2), (pv:1036,at:2), (pv:1037,at:1), (pv:1038,at:2), (pv:1039,at:5), (pv:1040,at:1), (pv:1041,at:2), (pv:1042,at:1), (pv:1043,at:3), (pv:1044,at:3), (pv:1045,at:8), (pv:1046,at:1), (pv:1047,at:4), (pv:1048,at:2), (pv:1049,at:1), (pv:1050,at:8), (pv:1051,at:1), (pv:1052,at:2), (pv:1053,at:1), (pv:1054,at:1), (pv:1055,at:2), (pv:1056,at:3), (pv:1057,at:3), (pv:1058,at:4), (pv:1059,at:4), (pv:1060,at:1), (pv:1061,at:1), (pv:1062,at:2), (pv:1063,at:1), (pv:1064,at:1), (pv:1065,at:5), (pv:1066,at:1), (pv:1067,at:1), (pv:1068,at:1), (pv:1069,at:4), (pv:1070,at:4), (pv:1071,at:1), (pv:1072,at:3), (pv:1073,at:2), (pv:1074,at:2), (pv:1075,at:3), (pv:1076,at:1), (pv:1077,at:1), (pv:1078,at:2), (pv:1079,at:1), (pv:1080,at:2), (pv:1081,at:3), (pv:1082,at:2), (pv:1083,at:7), (pv:1084,at:8), (pv:1085,at:3), (pv:1086,at:1), (pv:1087,at:2), (pv:1088,at:3), (pv:1089,at:3), (pv:1090,at:1), (pv:1091,at:1), (pv:1092,at:4), (pv:1093,at:1), (pv:1094,at:2), (pv:1095,at:6), (pv:1096,at:3), (pv:1097,at:1), (pv:1098,at:1), (pv:1099,at:1), (pv:1100,at:1), (pv:1101,at:1), (pv:1102,at:2), (pv:1103,at:1), (pv:1104,at:3), (pv:1105,at:2), (pv:1106,at:4), (pv:1107,at:1), (pv:1108,at:4), (pv:1109,at:4), (pv:1110,at:3), (pv:1111,at:1), (pv:1112,at:1), (pv:1113,at:4), (pv:1114,at:2), (pv:1115,at:1), (pv:1116,at:1), (pv:1117,at:1), (pv:1118,at:2), (pv:1119,at:4), (pv:1120,at:2), (pv:1121,at:1), (pv:1122,at:5), (pv:1123,at:4), (pv:1124,at:4), (pv:1125,at:3), (pv:1126,at:1), (pv:1127,at:2), (pv:1128,at:1), (pv:1129,at:1), (pv:1130,at:5), (pv:1131,at:3), (pv:1132,at:1), (pv:1133,at:1), (pv:1134,at:1), (pv:1135,at:1), (pv:1136,at:1), (pv:1137,at:1), (pv:1138,at:1), (pv:1139,at:3), (pv:1140,at:5), (pv:1141,at:3), (pv:1142,at:3), (pv:1143,at:4), (pv:1144,at:1), (pv:1145,at:3), (pv:1146,at:5), (pv:1147,at:2), (pv:1148,at:1), (pv:1149,at:3), (pv:1150,at:2), (pv:1151,at:6), (pv:1152,at:1), (pv:1153,at:1), (pv:1154,at:6), (pv:1155,at:1), (pv:1156,at:10), (pv:1157,at:4), (pv:1158,at:2), (pv:1159,at:3), (pv:1160,at:2), (pv:1161,at:5), (pv:1162,at:7), (pv:1163,at:5), (pv:1164,at:2), (pv:1165,at:4), (pv:1166,at:1), (pv:1167,at:9), (pv:1168,at:1), (pv:1169,at:9), (pv:1170,at:3), (pv:1171,at:1), (pv:1172,at:10), (pv:1173,at:2), (pv:1174,at:4), (pv:1175,at:1), (pv:1176,at:4), (pv:1177,at:1), (pv:1178,at:5), (pv:1179,at:3), (pv:1180,at:1), (pv:1181,at:2), (pv:1182,at:2), (pv:1183,at:1), (pv:1184,at:3), (pv:1185,at:4), (pv:1186,at:4), (pv:1187,at:3), (pv:1188,at:3), (pv:1189,at:5), (pv:1190,at:1), (pv:1191,at:2), (pv:1192,at:3), (pv:1193,at:1), (pv:1194,at:2), (pv:1195,at:1), (pv:1196,at:2), (pv:1197,at:4), (pv:1198,at:1), (pv:1199,at:4), (pv:1200,at:1), (pv:1201,at:1), (pv:1202,at:2), (pv:1203,at:3), (pv:1204,at:1), (pv:1205,at:1), (pv:1206,at:1), (pv:1207,at:3), (pv:1208,at:2), (pv:1209,at:1), (pv:1210,at:1), (pv:1211,at:3), (pv:1212,at:1), (pv:1213,at:1), (pv:1214,at:4), (pv:1215,at:1), (pv:1216,at:1), (pv:1217,at:1), (pv:1218,at:3), (pv:1219,at:1), (pv:1220,at:3), (pv:1221,at:8), (pv:1222,at:1), (pv:1223,at:4), (pv:1224,at:6), (pv:1225,at:4), (pv:1226,at:4), (pv:1227,at:1), (pv:1228,at:1), (pv:1229,at:1), (pv:1230,at:1), (pv:1231,at:4), (pv:1232,at:2), (pv:1233,at:5), (pv:1234,at:4), (pv:1235,at:1), (pv:1236,at:1), (pv:1237,at:1), (pv:1238,at:4), (pv:1239,at:4), (pv:1240,at:2), (pv:1241,at:1), (pv:1242,at:1), (pv:1243,at:1), (pv:1244,at:1), (pv:1245,at:1), (pv:1246,at:1), (pv:1247,at:4), (pv:1248,at:3), (pv:1249,at:2), (pv:1250,at:6), (pv:1251,at:1), (pv:1252,at:2), (pv:1253,at:1), (pv:1254,at:3), (pv:1255,at:2), (pv:1256,at:4), (pv:1257,at:1), (pv:1258,at:1), (pv:1259,at:1), (pv:1260,at:1), (pv:1261,at:1), (pv:1262,at:2), (pv:1263,at:1), (pv:1264,at:3), (pv:1265,at:3), (pv:1266,at:4), (pv:1267,at:1), (pv:1268,at:7), (pv:1269,at:1), (pv:1270,at:1), (pv:1271,at:2), (pv:1272,at:6), (pv:1273,at:7), (pv:1274,at:1), (pv:1275,at:8), (pv:1276,at:1), (pv:1277,at:1), (pv:1278,at:1), (pv:1279,at:1), (pv:1280,at:6), (pv:1281,at:2), (pv:1282,at:8), (pv:1283,at:2), (pv:1284,at:1), (pv:1285,at:1), (pv:1286,at:1), (pv:1287,at:4), (pv:1288,at:3), (pv:1289,at:4), (pv:1290,at:1), (pv:1291,at:4), (pv:1292,at:2), (pv:1293,at:5), (pv:1294,at:2), (pv:1295,at:4), (pv:1296,at:4), (pv:1297,at:1), (pv:1298,at:1), (pv:1299,at:5), (pv:1300,at:1), (pv:1301,at:7), (pv:1302,at:8), (pv:1303,at:1), (pv:1304,at:1), (pv:1305,at:8), (pv:1306,at:1), (pv:1307,at:1), (pv:1308,at:3), (pv:1309,at:1), (pv:1310,at:1), (pv:1311,at:5), (pv:1312,at:1), (pv:1313,at:2), (pv:1314,at:2), (pv:1315,at:5), (pv:1316,at:1), (pv:1317,at:1), (pv:1318,at:2), (pv:1319,at:1), (pv:1320,at:4), (pv:1321,at:2), (pv:1322,at:1), (pv:1323,at:6), (pv:1324,at:1), (pv:1325,at:1), (pv:1326,at:4), (pv:1327,at:2), (pv:1328,at:1), (pv:1329,at:3), (pv:1330,at:3), (pv:1331,at:1), (pv:1332,at:1), (pv:1333,at:1), (pv:1334,at:5), (pv:1335,at:1), (pv:1336,at:1), (pv:1337,at:4), (pv:1338,at:1), (pv:1339,at:1), (pv:1340,at:2), (pv:1341,at:1), (pv:1342,at:2), (pv:1343,at:1), (pv:1344,at:1), (pv:1345,at:1), (pv:1346,at:8), (pv:1347,at:3), (pv:1348,at:2), (pv:1349,at:2), (pv:1350,at:5), (pv:1351,at:2), (pv:1352,at:1), (pv:1353,at:2), (pv:1354,at:2), (pv:1355,at:1), (pv:1356,at:1), (pv:1357,at:5), (pv:1358,at:1), (pv:1359,at:1), (pv:1360,at:4), (pv:1361,at:3), (pv:1362,at:1), (pv:1363,at:1), (pv:1364,at:1), (pv:1365,at:4), (pv:1366,at:1), (pv:1367,at:1), (pv:1368,at:1), (pv:1369,at:9), (pv:1370,at:1), (pv:1371,at:8), (pv:1372,at:2), (pv:1373,at:5), (pv:1374,at:1), (pv:1375,at:5), (pv:1376,at:3), (pv:1377,at:1), (pv:1378,at:3), (pv:1379,at:3), (pv:1380,at:3), (pv:1381,at:1), (pv:1382,at:3), (pv:1383,at:2), (pv:1384,at:2), (pv:1385,at:1), (pv:1386,at:2), (pv:1387,at:2), (pv:1388,at:2), (pv:1389,at:6), (pv:1390,at:3), (pv:1391,at:2), (pv:1392,at:2), (pv:1393,at:6), (pv:1394,at:3), (pv:1395,at:2), (pv:1396,at:2), (pv:1397,at:3), (pv:1398,at:2), (pv:1399,at:2), (pv:1400,at:1), (pv:1401,at:3), (pv:1402,at:1), (pv:1403,at:5), (pv:1404,at:1), (pv:1405,at:1), (pv:1406,at:3), (pv:1407,at:2), (pv:1408,at:3), (pv:1409,at:1), (pv:1410,at:1), (pv:1411,at:3), (pv:1412,at:3), (pv:1413,at:2), (pv:1414,at:1), (pv:1415,at:2), (pv:1416,at:2), (pv:1417,at:1), (pv:1418,at:1), (pv:1419,at:1), (pv:1420,at:2), (pv:1421,at:1), (pv:1422,at:2), (pv:1423,at:4), (pv:1424,at:5), (pv:1425,at:2), (pv:1426,at:1), (pv:1427,at:1), (pv:1428,at:4), (pv:1429,at:1), (pv:1430,at:3), (pv:1431,at:1), (pv:1432,at:1), (pv:1433,at:1), (pv:1434,at:1), (pv:1435,at:4), (pv:1436,at:6), (pv:1437,at:3), (pv:1438,at:1), (pv:1439,at:1), (pv:1440,at:2), (pv:1441,at:2), (pv:1442,at:1), (pv:1443,at:2), (pv:1444,at:2), (pv:1445,at:2), (pv:1446,at:2), (pv:1447,at:3), (pv:1448,at:2), (pv:1449,at:2), (pv:1450,at:7), (pv:1451,at:3), (pv:1452,at:2), (pv:1453,at:1), (pv:1454,at:2), (pv:1455,at:3), (pv:1456,at:2), (pv:1457,at:3), (pv:1458,at:2), (pv:1459,at:1), (pv:1460,at:5), (pv:1461,at:1), (pv:1462,at:1), (pv:1463,at:3), (pv:1464,at:1), (pv:1465,at:3), (pv:1466,at:1), (pv:1467,at:2), (pv:1468,at:1), (pv:1469,at:1), (pv:1470,at:1), (pv:1471,at:7), (pv:1472,at:8), (pv:1473,at:2), (pv:1474,at:6), (pv:1475,at:1), (pv:1476,at:1), (pv:1477,at:2), (pv:1478,at:4), (pv:1479,at:2), (pv:1480,at:1), (pv:1481,at:7), (pv:1482,at:3), (pv:1483,at:9), (pv:1484,at:2), (pv:1485,at:2), (pv:1486,at:2), (pv:1487,at:3), (pv:1488,at:4), (pv:1489,at:1), (pv:1490,at:2), (pv:1491,at:3), (pv:1492,at:1), (pv:1493,at:8), (pv:1494,at:1), (pv:1495,at:3), (pv:1496,at:1), (pv:1497,at:2), (pv:1498,at:2), (pv:1499,at:1), (pv:1500,at:1), (pv:1501,at:2), (pv:1502,at:2), (pv:1503,at:2), (pv:1504,at:4), (pv:1505,at:1), (pv:1506,at:1), (pv:1507,at:1), (pv:1508,at:1), (pv:1509,at:2), (pv:1510,at:2), (pv:1511,at:1), (pv:1512,at:2), (pv:1513,at:6), (pv:1514,at:4), (pv:1515,at:1), (pv:1516,at:2), (pv:1517,at:2), (pv:1518,at:4), (pv:1519,at:5), (pv:1520,at:2), (pv:1521,at:3), (pv:1522,at:1), (pv:1523,at:3), (pv:1524,at:1), (pv:1525,at:10), (pv:1526,at:8), (pv:1527,at:1), (pv:1528,at:3), (pv:1529,at:1), (pv:1530,at:1), (pv:1531,at:1), (pv:1532,at:2), (pv:1533,at:1), (pv:1534,at:2), (pv:1535,at:1), (pv:1536,at:3), (pv:1537,at:1), (pv:1538,at:5), (pv:1539,at:2), (pv:1540,at:4), (pv:1541,at:1), (pv:1542,at:2), (pv:1543,at:2), (pv:1544,at:3), (pv:1545,at:1), (pv:1546,at:1), (pv:1547,at:2), (pv:1548,at:8), (pv:1549,at:4), (pv:1550,at:2), (pv:1551,at:1), (pv:1552,at:2), (pv:1553,at:2), (pv:1554,at:1), (pv:1555,at:3), (pv:1556,at:1), (pv:1557,at:3), (pv:1558,at:2), (pv:1559,at:1), (pv:1560,at:5), (pv:1561,at:7), (pv:1562,at:1), (pv:1563,at:6), (pv:1564,at:1), (pv:1565,at:2), (pv:1566,at:2), (pv:1567,at:1), (pv:1568,at:3), (pv:1569,at:1), (pv:1570,at:1), (pv:1571,at:1), (pv:1572,at:2), (pv:1573,at:1), (pv:1574,at:1), (pv:1575,at:1), (pv:1576,at:1), (pv:1577,at:1), (pv:1578,at:5), (pv:1579,at:1), (pv:1580,at:1), (pv:1581,at:5), (pv:1582,at:3), (pv:1583,at:1), (pv:1584,at:1), (pv:1585,at:9), (pv:1586,at:1), (pv:1587,at:3), (pv:1588,at:2), (pv:1589,at:3), (pv:1590,at:1), (pv:1591,at:5), (pv:1592,at:6), (pv:1593,at:5), (pv:1594,at:2), (pv:1595,at:1), (pv:1596,at:1), (pv:1597,at:2), (pv:1598,at:2), (pv:1599,at:1), (pv:1600,at:3), (pv:1601,at:1), (pv:1602,at:3), (pv:1603,at:3), (pv:1604,at:7), (pv:1605,at:1), (pv:1606,at:3), (pv:1607,at:1), (pv:1608,at:4), (pv:1609,at:4), (pv:1610,at:4), (pv:1611,at:1), (pv:1612,at:4), (pv:1613,at:1), (pv:1614,at:1), (pv:1615,at:2), (pv:1616,at:2), (pv:1617,at:1), (pv:1618,at:2), (pv:1619,at:1), (pv:1620,at:10), (pv:1621,at:1), (pv:1622,at:2), (pv:1623,at:3), (pv:1624,at:2), (pv:1625,at:1), (pv:1626,at:1), (pv:1627,at:4), (pv:1628,at:1), (pv:1629,at:1), (pv:1630,at:3), (pv:1631,at:4), (pv:1632,at:2), (pv:1633,at:1), (pv:1634,at:1), (pv:1635,at:1), (pv:1636,at:1), (pv:1637,at:7), (pv:1638,at:2), (pv:1639,at:1), (pv:1640,at:3), (pv:1641,at:1), (pv:1642,at:2), (pv:1643,at:1), (pv:1644,at:2), (pv:1645,at:3), (pv:1646,at:1), (pv:1647,at:1), (pv:1648,at:1), (pv:1649,at:1), (pv:1650,at:2), (pv:1651,at:1), (pv:1652,at:1), (pv:1653,at:8), (pv:1654,at:1), (pv:1655,at:1), (pv:1656,at:2), (pv:1657,at:1), (pv:1658,at:2), (pv:1659,at:1), (pv:1660,at:1), (pv:1661,at:5), (pv:1662,at:1), (pv:1663,at:2), (pv:1664,at:9), (pv:1665,at:4), (pv:1666,at:1), (pv:1667,at:5), (pv:1668,at:2), (pv:1669,at:2), (pv:1670,at:2), (pv:1671,at:2), (pv:1672,at:4), (pv:1673,at:3), (pv:1674,at:3), (pv:1675,at:2), (pv:1676,at:2), (pv:1677,at:1), (pv:1678,at:2), (pv:1679,at:1), (pv:1680,at:2), (pv:1681,at:1), (pv:1682,at:1), (pv:1683,at:1), (pv:1684,at:1), (pv:1685,at:1), (pv:1686,at:5), (pv:1687,at:1), (pv:1688,at:2), (pv:1689,at:2), (pv:1690,at:1), (pv:1691,at:4), (pv:1692,at:2), (pv:1693,at:4), (pv:1694,at:6), (pv:1695,at:2), (pv:1696,at:3), (pv:1697,at:1), (pv:1698,at:1), (pv:1699,at:1), (pv:1700,at:1), (pv:1701,at:1), (pv:1702,at:4), (pv:1703,at:5), (pv:1704,at:5), (pv:1705,at:3), (pv:1706,at:2), (pv:1707,at:5), (pv:1708,at:4), (pv:1709,at:2), (pv:1710,at:1), (pv:1711,at:2), (pv:1712,at:1), (pv:1713,at:1), (pv:1714,at:1), (pv:1715,at:5), (pv:1716,at:1), (pv:1717,at:1), (pv:1718,at:2), (pv:1719,at:3), (pv:1720,at:2), (pv:1721,at:1), (pv:1722,at:1), (pv:1723,at:1), (pv:1724,at:1), (pv:1725,at:1), (pv:1726,at:2), (pv:1727,at:1), (pv:1728,at:5), (pv:1729,at:1), (pv:1730,at:3), (pv:1731,at:6), (pv:1732,at:6), (pv:1733,at:3), (pv:1734,at:1), (pv:1735,at:2), (pv:1736,at:1), (pv:1737,at:7), (pv:1738,at:2), (pv:1739,at:2), (pv:1740,at:2), (pv:1741,at:3), (pv:1742,at:2), (pv:1743,at:2), (pv:1744,at:1), (pv:1745,at:1), (pv:1746,at:2), (pv:1747,at:5), (pv:1748,at:2), (pv:1749,at:3), (pv:1750,at:1), (pv:1751,at:1), (pv:1752,at:2), (pv:1753,at:4), (pv:1754,at:3), (pv:1755,at:2), (pv:1756,at:7), (pv:1757,at:4), (pv:1758,at:3), (pv:1759,at:4), (pv:1760,at:1), (pv:1761,at:4), (pv:1762,at:2), (pv:1763,at:1), (pv:1764,at:1), (pv:1765,at:2), (pv:1766,at:1), (pv:1767,at:7), (pv:1768,at:1), (pv:1769,at:7), (pv:1770,at:1), (pv:1771,at:3), (pv:1772,at:1), (pv:1773,at:2), (pv:1774,at:1), (pv:1775,at:1), (pv:1776,at:2), (pv:1777,at:1), (pv:1778,at:12), (pv:1779,at:9), (pv:1780,at:1), (pv:1781,at:2), (pv:1782,at:4), (pv:1783,at:2), (pv:1784,at:4), (pv:1785,at:3), (pv:1786,at:1), (pv:1787,at:2), (pv:1788,at:6), (pv:1789,at:1), (pv:1790,at:2), (pv:1791,at:1), (pv:1792,at:9), (pv:1793,at:1), (pv:1794,at:1), (pv:1795,at:2), (pv:1796,at:2), (pv:1797,at:1), (pv:1798,at:1), (pv:1799,at:1), (pv:1800,at:2), (pv:1801,at:2), (pv:1802,at:13), (pv:1803,at:5), (pv:1804,at:2), (pv:1805,at:2), (pv:1806,at:2), (pv:1807,at:2), (pv:1808,at:2), (pv:1809,at:4), (pv:1810,at:2), (pv:1811,at:2), (pv:1812,at:2), (pv:1813,at:1), (pv:1814,at:1), (pv:1815,at:5), (pv:1816,at:1), (pv:1817,at:1), (pv:1818,at:3), (pv:1819,at:4), (pv:1820,at:1), (pv:1821,at:1), (pv:1822,at:1), (pv:1823,at:7), (pv:1824,at:1), (pv:1825,at:4), (pv:1826,at:1), (pv:1827,at:1), (pv:1828,at:5), (pv:1829,at:3), (pv:1830,at:2), (pv:1831,at:3), (pv:1832,at:3), (pv:1833,at:4), (pv:1834,at:1), (pv:1835,at:5), (pv:1836,at:1), (pv:1837,at:1), (pv:1838,at:2), (pv:1839,at:1), (pv:1840,at:1), (pv:1841,at:2), (pv:1842,at:2), (pv:1843,at:1), (pv:1844,at:2), (pv:1845,at:1), (pv:1846,at:2), (pv:1847,at:1), (pv:1848,at:1), (pv:1849,at:1), (pv:1850,at:1), (pv:1851,at:3), (pv:1852,at:3), (pv:1853,at:1), (pv:1854,at:2), (pv:1855,at:1), (pv:1856,at:1), (pv:1857,at:2), (pv:1858,at:1), (pv:1859,at:1), (pv:1860,at:2), (pv:1861,at:1), (pv:1862,at:3), (pv:1863,at:4), (pv:1864,at:2), (pv:1865,at:2), (pv:1866,at:1), (pv:1867,at:2), (pv:1868,at:2), (pv:1869,at:2), (pv:1870,at:4), (pv:1871,at:3), (pv:1872,at:3), (pv:1873,at:1), (pv:1874,at:1), (pv:1875,at:1), (pv:1876,at:2), (pv:1877,at:3), (pv:1878,at:3), (pv:1879,at:1), (pv:1880,at:5), (pv:1881,at:1), (pv:1882,at:1), (pv:1883,at:4), (pv:1884,at:1), (pv:1885,at:3), (pv:1886,at:2), (pv:1887,at:2), (pv:1888,at:1), (pv:1889,at:1), (pv:1890,at:1), (pv:1891,at:2), (pv:1892,at:1), (pv:1893,at:2), (pv:1894,at:1), (pv:1895,at:1), (pv:1896,at:1), (pv:1897,at:5), (pv:1898,at:1), (pv:1899,at:2), (pv:1900,at:4), (pv:1901,at:3), (pv:1902,at:2), (pv:1903,at:3), (pv:1904,at:1), (pv:1905,at:3), (pv:1906,at:1), (pv:1907,at:1), (pv:1908,at:3), (pv:1909,at:2), (pv:1910,at:5), (pv:1911,at:3), (pv:1912,at:7), (pv:1913,at:2), (pv:1914,at:3), (pv:1915,at:2), (pv:1916,at:6), (pv:1917,at:1), (pv:1918,at:8), (pv:1919,at:1), (pv:1920,at:3), (pv:1921,at:5), (pv:1922,at:2), (pv:1923,at:3), (pv:1924,at:2), (pv:1925,at:4), (pv:1926,at:2), (pv:1927,at:6), (pv:1928,at:1), (pv:1929,at:5), (pv:1930,at:2), (pv:1931,at:1), (pv:1932,at:3), (pv:1933,at:1), (pv:1934,at:1), (pv:1935,at:1), (pv:1936,at:3), (pv:1937,at:2), (pv:1938,at:1), (pv:1939,at:1), (pv:1940,at:5), (pv:1941,at:1), (pv:1942,at:2), (pv:1943,at:1), (pv:1944,at:2), (pv:1945,at:3), (pv:1946,at:5), (pv:1947,at:3), (pv:1948,at:2), (pv:1949,at:1), (pv:1950,at:2), (pv:1951,at:1), (pv:1952,at:1), (pv:1953,at:2), (pv:1954,at:2), (pv:1955,at:1), (pv:1956,at:1), (pv:1957,at:2), (pv:1958,at:2), (pv:1959,at:2), (pv:1960,at:1), (pv:1961,at:3), (pv:1962,at:1), (pv:1963,at:2), (pv:1964,at:1), (pv:1965,at:1), (pv:1966,at:1), (pv:1967,at:4), (pv:1968,at:5), (pv:1969,at:1), (pv:1970,at:1), (pv:1971,at:5), (pv:1972,at:5), (pv:1973,at:1), (pv:1974,at:1), (pv:1975,at:1), (pv:1976,at:4), (pv:1977,at:1), (pv:1978,at:1), (pv:1979,at:3), (pv:1980,at:2), (pv:1981,at:3), (pv:1982,at:1), (pv:1983,at:2), (pv:1984,at:1), (pv:1985,at:1), (pv:1986,at:1), (pv:1987,at:3), (pv:1988,at:1), (pv:1989,at:5), (pv:1990,at:3), (pv:1991,at:1), (pv:1992,at:1), (pv:1993,at:4), (pv:1994,at:1), (pv:1995,at:1), (pv:1996,at:1), (pv:1997,at:1), (pv:1998,at:2), (pv:1999,at:1), (pv:2000,at:3), (pv:2001,at:5), (pv:2002,at:1), (pv:2003,at:1), (pv:2004,at:3), (pv:2005,at:2), (pv:2006,at:7), (pv:2007,at:1), (pv:2008,at:7), (pv:2009,at:7), (pv:2010,at:3), (pv:2011,at:2), (pv:2012,at:7), (pv:2013,at:1), (pv:2014,at:7), (pv:2015,at:2), (pv:2016,at:1), (pv:2017,at:1), (pv:2018,at:3), (pv:2019,at:1), (pv:2020,at:4), (pv:2021,at:5), (pv:2022,at:4), (pv:2023,at:1), (pv:2024,at:3), (pv:2025,at:2), (pv:2026,at:2), (pv:2027,at:1), (pv:2028,at:1), (pv:2029,at:3), (pv:2030,at:3), (pv:2031,at:1), (pv:2032,at:1), (pv:2033,at:7), (pv:2034,at:1), (pv:2035,at:1), (pv:2036,at:2), (pv:2037,at:2), (pv:2038,at:1), (pv:2039,at:1), (pv:2040,at:5), (pv:2041,at:3), (pv:2042,at:6), (pv:2043,at:1), (pv:2044,at:5), (pv:2045,at:2), (pv:2046,at:4), (pv:2047,at:4), (pv:2048,at:6), (pv:2049,at:1), (pv:2050,at:1), (pv:2051,at:5), (pv:2052,at:4), (pv:2053,at:10), (pv:2054,at:4), (pv:2055,at:1), (pv:2056,at:2), (pv:2057,at:1), (pv:2058,at:1), (pv:2059,at:1), (pv:2060,at:1), (pv:2061,at:1), (pv:2062,at:1), (pv:2063,at:2), (pv:2064,at:2), (pv:2065,at:2), (pv:2066,at:2), (pv:2067,at:3), (pv:2068,at:4), (pv:2069,at:2), (pv:2070,at:3), (pv:2071,at:2), (pv:2072,at:1), (pv:2073,at:3), (pv:2074,at:3), (pv:2075,at:3), (pv:2076,at:2), (pv:2077,at:2), (pv:2078,at:3), (pv:2079,at:3), (pv:2080,at:2), (pv:2081,at:1), (pv:2082,at:3), (pv:2083,at:1), (pv:2084,at:3), (pv:2085,at:2), (pv:2086,at:5), (pv:2087,at:2), (pv:2088,at:1), (pv:2089,at:2), (pv:2090,at:1), (pv:2091,at:3), (pv:2092,at:1), (pv:2093,at:2), (pv:2094,at:2), (pv:2095,at:2), (pv:2096,at:3), (pv:2097,at:4), (pv:2098,at:5), (pv:2099,at:1), (pv:2100,at:3), (pv:2101,at:2), (pv:2102,at:7), (pv:2103,at:2), (pv:2104,at:3), (pv:2105,at:2), (pv:2106,at:1), (pv:2107,at:2), (pv:2108,at:1), (pv:2109,at:1), (pv:2110,at:3), (pv:2111,at:5), (pv:2112,at:2), (pv:2113,at:4), (pv:2114,at:1), (pv:2115,at:4), (pv:2116,at:1), (pv:2117,at:4), (pv:2118,at:1), (pv:2119,at:1), (pv:2120,at:5), (pv:2121,at:4), (pv:2122,at:2), (pv:2123,at:4), (pv:2124,at:1), (pv:2125,at:3), (pv:2126,at:2), (pv:2127,at:1), (pv:2128,at:5), (pv:2129,at:1), (pv:2130,at:1), (pv:2131,at:4), (pv:2132,at:1), (pv:2133,at:2), (pv:2134,at:1), (pv:2135,at:3), (pv:2136,at:1), (pv:2137,at:2), (pv:2138,at:4), (pv:2139,at:4), (pv:2140,at:1), (pv:2141,at:1), (pv:2142,at:2), (pv:2143,at:3), (pv:2144,at:2), (pv:2145,at:1), (pv:2146,at:4), (pv:2147,at:2), (pv:2148,at:2), (pv:2149,at:6), (pv:2150,at:1), (pv:2151,at:2), (pv:2152,at:2), (pv:2153,at:1), (pv:2154,at:4), (pv:2155,at:1), (pv:2156,at:5), (pv:2157,at:3), (pv:2158,at:2), (pv:2159,at:1), (pv:2160,at:1), (pv:2161,at:3), (pv:2162,at:3), (pv:2163,at:2), (pv:2164,at:1), (pv:2165,at:3), (pv:2166,at:2), (pv:2167,at:2), (pv:2168,at:1), (pv:2169,at:3), (pv:2170,at:2), (pv:2171,at:4), (pv:2172,at:1), (pv:2173,at:2), (pv:2174,at:1), (pv:2175,at:1), (pv:2176,at:3), (pv:2177,at:3), (pv:2178,at:2), (pv:2179,at:3), (pv:2180,at:1), (pv:2181,at:2), (pv:2182,at:1), (pv:2183,at:1), (pv:2184,at:1), (pv:2185,at:2), (pv:2186,at:5), (pv:2187,at:1), (pv:2188,at:3), (pv:2189,at:2), (pv:2190,at:2), (pv:2191,at:1), (pv:2192,at:1), (pv:2193,at:2), (pv:2194,at:4), (pv:2195,at:1), (pv:2196,at:1), (pv:2197,at:1), (pv:2198,at:11), (pv:2199,at:1), (pv:2200,at:2), (pv:2201,at:1), (pv:2202,at:2), (pv:2203,at:5), (pv:2204,at:4), (pv:2205,at:1), (pv:2206,at:2), (pv:2207,at:1), (pv:2208,at:2), (pv:2209,at:1), (pv:2210,at:1), (pv:2211,at:2), (pv:2212,at:1), (pv:2213,at:1), (pv:2214,at:3), (pv:2215,at:1), (pv:2216,at:1), (pv:2217,at:2), (pv:2218,at:9), (pv:2219,at:3), (pv:2220,at:3), (pv:2221,at:1), (pv:2222,at:4), (pv:2223,at:2), (pv:2224,at:2), (pv:2225,at:2), (pv:2226,at:3), (pv:2227,at:1), (pv:2228,at:2), (pv:2229,at:2), (pv:2230,at:1), (pv:2231,at:5), (pv:2232,at:8), (pv:2233,at:1), (pv:2234,at:4), (pv:2235,at:1), (pv:2236,at:1), (pv:2237,at:1), (pv:2238,at:1), (pv:2239,at:1), (pv:2240,at:1), (pv:2241,at:3), (pv:2242,at:3), (pv:2243,at:2), (pv:2244,at:4), (pv:2245,at:3), (pv:2246,at:2), (pv:2247,at:2), (pv:2248,at:2), (pv:2249,at:1), (pv:2250,at:1), (pv:2251,at:2), (pv:2252,at:1), (pv:2253,at:1), (pv:2254,at:2), (pv:2255,at:1), (pv:2256,at:1), (pv:2257,at:1), (pv:2258,at:1), (pv:2259,at:1), (pv:2260,at:1), (pv:2261,at:3), (pv:2262,at:1), (pv:2263,at:2), (pv:2264,at:2), (pv:2265,at:7), (pv:2266,at:1), (pv:2267,at:5), (pv:2268,at:5), (pv:2269,at:9), (pv:2270,at:2), (pv:2271,at:1), (pv:2272,at:2), (pv:2273,at:2), (pv:2274,at:1), (pv:2275,at:3), (pv:2276,at:1), (pv:2277,at:3), (pv:2278,at:2), (pv:2279,at:1), (pv:2280,at:4), (pv:2281,at:2), (pv:2282,at:1), (pv:2283,at:1), (pv:2284,at:1), (pv:2285,at:1), (pv:2286,at:1), (pv:2287,at:1), (pv:2288,at:4), (pv:2289,at:1), (pv:2290,at:1), (pv:2291,at:2), (pv:2292,at:2), (pv:2293,at:1), (pv:2294,at:1), (pv:2295,at:1), (pv:2296,at:4), (pv:2297,at:1), (pv:2298,at:9), (pv:2299,at:1), (pv:2300,at:1), (pv:2301,at:1), (pv:2302,at:1), (pv:2303,at:7), (pv:2304,at:1), (pv:2305,at:2), (pv:2306,at:2), (pv:2307,at:3), (pv:2308,at:2), (pv:2309,at:1), (pv:2310,at:1), (pv:2311,at:5), (pv:2312,at:5), (pv:2313,at:1), (pv:2314,at:2), (pv:2315,at:1), (pv:2316,at:1), (pv:2317,at:2), (pv:2318,at:2), (pv:2319,at:4), (pv:2320,at:1), (pv:2321,at:1), (pv:2322,at:2), (pv:2323,at:2), (pv:2324,at:4), (pv:2327,at:2), (pv:2328,at:4), (pv:2329,at:2), (pv:2330,at:2), (pv:2331,at:1), (pv:2341,at:1), (pv:2346,at:5), (pv:2348,at:1), (pv:2349,at:1), (pv:2351,at:2), (pv:2359,at:1)]
[INFO ] fr.inria.main.evolution.AstorMain.run(AstorMain.java:163) - Time Total(s): 10917.753
