Warning: no access to tty (Bad file descriptor).
Thus no job control in this shell.
tput: No value for $TERM and no -T specified
Node: wh26.sciclone.wm.edu
[INFO ] fr.inria.main.AbstractMain.processArguments(AbstractMain.java:295) - command line arguments: [-out  /local/scr/mtufano/Time/24/b/random-global-embeddings/2  -jvm4testexecution  /usr/local/jdk1.7.0_80/bin/  -loglevel  INFO  -maxVarCombination  1000  -maxgen  1000000  -population  1  -maxtime  180  -timezone  America/New_York  -customop  fr.inria.astor.approaches.jgenprog.operators.InsertAfterOp:fr.inria.astor.approaches.jgenprog.operators.InsertBeforeOp:fr.inria.astor.approaches.jgenprog.operators.ReplaceOp  -seed  2  -javacompliancelevel  5  -package  org.joda  -binjavafolder  build/classes/  -bintestfolder  build/tests/  -srcjavafolder  src/main/java/  -srctestfolder  src/test/java/  -learningdir  ../../out/learningdir/Time/24/b/  -location  ../../dat/defects4j/Time/24/b/  -failing  org.joda.time.format.TestDateTimeFormatter  -dependencies  ../../dat/libs/Time/joda-convert-1.2.jar  -scope  fr.inria.astor.core.loop.spaces.ingredients.scopes.ctscopes.CtGlobalIngredientScope  -ingredientstrategy  fr.inria.astor.core.loop.spaces.ingredients.ingredientSearch.EfficientIngredientStrategy  -transformingredient  -classestoinstrument  org.joda.time.base.AbstractPartial:org.joda.time.LocalDateTime:org.joda.time.tz.FixedDateTimeZone:org.joda.time.field.RemainderDateTimeField:org.joda.time.base.BaseLocal:org.joda.time.field.PreciseDateTimeField:org.joda.time.ReadablePartial:org.joda.time.field.FieldUtils:org.joda.time.format.FormatUtils:org.joda.time.field.DividedDateTimeField:org.joda.time.Instant:org.joda.time.format.DateTimeParserBucket:org.joda.time.ReadableInstant:org.joda.time.format.DateTimeParser:org.joda.time.field.DecoratedDurationField:org.joda.time.field.OffsetDateTimeField:org.joda.time.DateTimeField:org.joda.time.chrono.JulianChronology:org.joda.time.chrono.BasicMonthOfYearDateTimeField:org.joda.time.base.BaseDateTime:org.joda.time.chrono.BasicWeekOfWeekyearDateTimeField:org.joda.time.tz.Provider:org.joda.time.format.DateTimePrinter:org.joda.time.DateTimeFieldType:org.joda.time.field.ScaledDurationField:org.joda.time.tz.DateTimeZoneBuilder:org.joda.time.format.DateTimeFormatter:org.joda.time.chrono.GJMonthOfYearDateTimeField:org.joda.time.field.ImpreciseDateTimeField:org.joda.time.chrono.LimitChronology:org.joda.time.chrono.GJEraDateTimeField:org.joda.time.DateTimeZone:org.joda.time.field.BaseDateTimeField:org.joda.time.base.AbstractInstant:org.joda.time.DateTimeUtils:org.joda.time.chrono.BasicGJChronology:org.joda.time.chrono.GJChronology:org.joda.time.chrono.BuddhistChronology:org.joda.time.field.DelegatedDateTimeField:org.joda.time.chrono.ISOYearOfEraDateTimeField:org.joda.time.DateTime:org.joda.time.chrono.BasicSingleEraDateTimeField:org.joda.time.chrono.ISOChronology:org.joda.time.format.ISODateTimeFormat:org.joda.time.DurationField:org.joda.time.field.DecoratedDateTimeField:org.joda.time.chrono.BaseChronology:org.joda.time.chrono.GJYearOfEraDateTimeField:org.joda.time.LocalDate:org.joda.time.tz.CachedDateTimeZone:org.joda.time.field.MillisDurationField:org.joda.time.field.SkipUndoDateTimeField:org.joda.time.chrono.GJDayOfWeekDateTimeField:org.joda.time.field.PreciseDurationDateTimeField:org.joda.time.chrono.BasicDayOfYearDateTimeField:org.joda.time.IllegalFieldValueException:org.joda.time.chrono.GregorianChronology:org.joda.time.ReadWritableInstant:org.joda.time.chrono.AssembledChronology:org.joda.time.DurationFieldType:org.joda.time.field.UnsupportedDateTimeField:org.joda.time.tz.DefaultNameProvider:org.joda.time.field.BaseDurationField:org.joda.time.field.SkipDateTimeField:org.joda.time.ReadableInterval:org.joda.time.chrono.BasicChronology:org.joda.time.field.UnsupportedDurationField:org.joda.time.Chronology:org.joda.time.format.DateTimeFormat:org.joda.time.format.DateTimeFormatterBuilder:org.joda.time.chrono.BasicYearDateTimeField:org.joda.time.chrono.BasicDayOfMonthDateTimeField:org.joda.time.base.AbstractDateTime:org.joda.time.JodaTimePermission:org.joda.time.chrono.BasicWeekyearDateTimeField:org.joda.time.tz.NameProvider:org.joda.time.ReadableDateTime:org.joda.time.field.ZeroIsMaxDateTimeField:org.joda.time.chrono.ZonedChronology:org.joda.time.field.PreciseDurationField:org.joda.time.tz.ZoneInfoProvider:  -regressiontestcases4fl  org.joda.time.TestDateMidnight_Constructors:org.joda.time.TestDateTimeComparator:org.joda.time.TestDateTimeZone:org.joda.time.TestDateTimeZoneCutover:org.joda.time.TestDateTime_Constructors:org.joda.time.TestIllegalFieldValueException:org.joda.time.TestInstant_Constructors:org.joda.time.TestInterval_Constructors:org.joda.time.TestLocalDateTime_Constructors:org.joda.time.TestLocalDate_Constructors:org.joda.time.TestLocalTime_Constructors:org.joda.time.TestMonthDay_Constructors:org.joda.time.TestMutableDateTime_Constructors:org.joda.time.TestMutableInterval_Constructors:org.joda.time.TestStringConvert:org.joda.time.TestTimeOfDay_Constructors:org.joda.time.TestYearMonthDay_Constructors:org.joda.time.TestYearMonth_Constructors:org.joda.time.chrono.TestGJChronology:org.joda.time.chrono.TestISOChronology:org.joda.time.convert.TestStringConverter:org.joda.time.format.TestDateTimeFormat:org.joda.time.format.TestDateTimeFormatStyle:org.joda.time.format.TestDateTimeFormatter:org.joda.time.format.TestDateTimeFormatterBuilder:org.joda.time.format.TestISODateTimeFormatParsing:org.joda.time.tz.TestBuilder:org.joda.time.tz.TestCompiler:]
[INFO ] fr.inria.astor.core.manipulation.MutationSupporter.buildModel(MutationSupporter.java:76) - building model: /local/scr/mtufano/Time/24/b/random-global-embeddings/2/AstorMain-b//src//default, compliance level: 5
[INFO ] fr.inria.astor.core.manipulation.MutationSupporter.buildModel(MutationSupporter.java:85) - Classpath for building SpoonModel [/sciclone/data20/mtufano/deeprepair/bin/eval/../../dat/libs/Time/joda-convert-1.2.jar]
[INFO ] fr.inria.astor.core.setup.ProjectRepairFacade.calculateSuspicious(ProjectRepairFacade.java:215) - -Executing Gzoltar classpath: /local/scr/mtufano/Time/24/b/random-global-embeddings/2/AstorMain-b//bin//default from 28 classes with test cases
[INFO ] fr.inria.astor.core.faultlocalization.GZoltarFaultLocalization.searchSuspicious(GZoltarFaultLocalization.java:37) - Gzoltar fault localization: min susp value parameter: 0.1
[INFO ] fr.inria.astor.core.faultlocalization.GZoltarFaultLocalization.searchSuspicious(GZoltarFaultLocalization.java:57) - -gz-Adding classpath: [/local/scr/mtufano/Time/24/b/random-global-embeddings/2/AstorMain-b//bin//default, /sciclone/data20/mtufano/deeprepair/bin/eval/../../dat/libs/Time/joda-convert-1.2.jar]
[INFO ] fr.inria.astor.core.faultlocalization.GZoltarFaultLocalization.searchSuspicious(GZoltarFaultLocalization.java:76) - Test failt: org.joda.time.format.TestDateTimeFormatter#testParseLocalDate_weekyear_month_week_2010
[INFO ] fr.inria.astor.core.faultlocalization.GZoltarFaultLocalization.searchSuspicious(GZoltarFaultLocalization.java:76) - Test failt: org.joda.time.format.TestDateTimeFormatter#testParseLocalDate_weekyear_month_week_2011
[INFO ] fr.inria.astor.core.faultlocalization.GZoltarFaultLocalization.searchSuspicious(GZoltarFaultLocalization.java:76) - Test failt: org.joda.time.format.TestDateTimeFormatter#testParseLocalDate_weekyear_month_week_2012
[INFO ] fr.inria.astor.core.faultlocalization.GZoltarFaultLocalization.searchSuspicious(GZoltarFaultLocalization.java:76) - Test failt: org.joda.time.format.TestDateTimeFormatter#testParseLocalDate_year_month_week_2010
[INFO ] fr.inria.astor.core.faultlocalization.GZoltarFaultLocalization.searchSuspicious(GZoltarFaultLocalization.java:76) - Test failt: org.joda.time.format.TestDateTimeFormatter#testParseLocalDate_year_month_week_2011
[INFO ] fr.inria.astor.core.faultlocalization.GZoltarFaultLocalization.searchSuspicious(GZoltarFaultLocalization.java:76) - Test failt: org.joda.time.format.TestDateTimeFormatter#testParseLocalDate_year_month_week_2012
[INFO ] fr.inria.astor.core.faultlocalization.GZoltarFaultLocalization.searchSuspicious(GZoltarFaultLocalization.java:76) - Test failt: org.joda.time.format.TestDateTimeFormatter#testParseLocalDate_year_month_week_2016
[INFO ] fr.inria.astor.core.faultlocalization.GZoltarFaultLocalization.searchSuspicious(GZoltarFaultLocalization.java:76) - Test failt: org.joda.time.format.TestDateTimeFormatter#testZoneShortNameNearTransition
[INFO ] fr.inria.astor.core.faultlocalization.GZoltarFaultLocalization.searchSuspicious(GZoltarFaultLocalization.java:76) - Test failt: org.joda.time.format.TestDateTimeFormatter#testZoneNameNearTransition
[INFO ] fr.inria.astor.core.faultlocalization.GZoltarFaultLocalization.searchSuspicious(GZoltarFaultLocalization.java:76) - Test failt: org.joda.time.format.TestDateTimeFormatStyle#testForStyle_fullDateTime
[INFO ] fr.inria.astor.core.faultlocalization.GZoltarFaultLocalization.searchSuspicious(GZoltarFaultLocalization.java:76) - Test failt: org.joda.time.format.TestDateTimeFormatStyle#testForStyle_mediumLongDateTime
[INFO ] fr.inria.astor.core.faultlocalization.GZoltarFaultLocalization.searchSuspicious(GZoltarFaultLocalization.java:76) - Test failt: org.joda.time.format.TestDateTimeFormatStyle#testForStyle_fullTime
[INFO ] fr.inria.astor.core.faultlocalization.GZoltarFaultLocalization.searchSuspicious(GZoltarFaultLocalization.java:76) - Test failt: org.joda.time.format.TestDateTimeFormatStyle#testForStyle_shortLongDateTime
[INFO ] fr.inria.astor.core.faultlocalization.GZoltarFaultLocalization.searchSuspicious(GZoltarFaultLocalization.java:76) - Test failt: org.joda.time.format.TestDateTimeFormatStyle#testForStyle_longTime
[INFO ] fr.inria.astor.core.faultlocalization.GZoltarFaultLocalization.searchSuspicious(GZoltarFaultLocalization.java:76) - Test failt: org.joda.time.format.TestDateTimeFormatStyle#testForStyle_mediumFullDateTime
[INFO ] fr.inria.astor.core.faultlocalization.GZoltarFaultLocalization.searchSuspicious(GZoltarFaultLocalization.java:76) - Test failt: org.joda.time.format.TestDateTimeFormatStyle#testForStyle_shortFullDateTime
[INFO ] fr.inria.astor.core.faultlocalization.GZoltarFaultLocalization.searchSuspicious(GZoltarFaultLocalization.java:76) - Test failt: org.joda.time.format.TestDateTimeFormatStyle#testForStyle_longDateTime
[INFO ] fr.inria.astor.core.faultlocalization.GZoltarFaultLocalization.searchSuspicious(GZoltarFaultLocalization.java:76) - Test failt: org.joda.time.TestDateTimeZone#testGetShortName
[INFO ] fr.inria.astor.core.faultlocalization.GZoltarFaultLocalization.searchSuspicious(GZoltarFaultLocalization.java:76) - Test failt: org.joda.time.TestDateTimeZone#testGetName
[INFO ] fr.inria.astor.core.faultlocalization.GZoltarFaultLocalization.searchSuspicious(GZoltarFaultLocalization.java:76) - Test failt: org.joda.time.format.TestDateTimeFormat#testFormat_zoneText
[INFO ] fr.inria.astor.core.faultlocalization.GZoltarFaultLocalization.searchSuspicious(GZoltarFaultLocalization.java:76) - Test failt: org.joda.time.format.TestDateTimeFormat#testFormat_zoneLongText
[INFO ] fr.inria.astor.core.faultlocalization.GZoltarFaultLocalization.searchSuspicious(GZoltarFaultLocalization.java:81) - Gzoltar Test Result Total:1038, fails: 21, GZoltar suspicious 5834
[INFO ] fr.inria.astor.core.faultlocalization.GZoltarFaultLocalization.searchSuspicious(GZoltarFaultLocalization.java:123) - Gzoltar found: 874 with susp > 0.1, we consider: 874
[INFO ] fr.inria.astor.approaches.jgenprog.JGenProg.initPopulation(JGenProg.java:80) - 
---- Initial suspicious size: 874
[INFO ] fr.inria.astor.core.loop.population.ProgramVariantFactory.createProgramInstance(ProgramVariantFactory.java:126) - -any mod point created for suspicious Candidate [className=org.joda.time.format.DateTimeFormat, methodName=org.joda.time.format.DateTimeFormat{parsePatternTo(Lorg/joda/time/format/DateTimeFormatterBuilder;Ljava/lang/String;)V 0.0, lineNumber=533, susp=0.7559289460184544]
[INFO ] fr.inria.astor.core.loop.population.ProgramVariantFactory.createProgramInstance(ProgramVariantFactory.java:126) - -any mod point created for suspicious Candidate [className=org.joda.time.format.DateTimeFormatterBuilder$TimeZoneName, methodName=org.joda.time.format.DateTimeFormatterBuilder$TimeZoneName{printTo(Ljava/lang/StringBuffer;JLorg/joda/time/Chronology;ILorg/joda/time/DateTimeZone;Ljava/util/Locale;)V 0.0, lineNumber=2422, susp=0.7262730392025629]
[INFO ] fr.inria.astor.core.loop.population.ProgramVariantFactory.createProgramInstance(ProgramVariantFactory.java:126) - -any mod point created for suspicious Candidate [className=org.joda.time.format.DateTimeFormatterBuilder$TimeZoneName, methodName=org.joda.time.format.DateTimeFormatterBuilder$TimeZoneName{print(JLorg/joda/time/DateTimeZone;Ljava/util/Locale;)Ljava/lang/String; 0.0, lineNumber=2438, susp=0.6900655593423543]
[INFO ] fr.inria.astor.core.loop.population.ProgramVariantFactory.createProgramInstance(ProgramVariantFactory.java:126) - -any mod point created for suspicious Candidate [className=org.joda.time.format.DateTimeFormat, methodName=org.joda.time.format.DateTimeFormat{parsePatternTo(Lorg/joda/time/format/DateTimeFormatterBuilder;Ljava/lang/String;)V 0.0, lineNumber=538, susp=0.6900655593423543]
[INFO ] fr.inria.astor.core.loop.population.ProgramVariantFactory.createProgramInstance(ProgramVariantFactory.java:126) - -any mod point created for suspicious Candidate [className=org.joda.time.format.DateTimeFormat, methodName=org.joda.time.format.DateTimeFormat{parsePatternTo(Lorg/joda/time/format/DateTimeFormatterBuilder;Ljava/lang/String;)V 0.0, lineNumber=511, susp=0.545544725589981]
[INFO ] fr.inria.astor.core.loop.population.ProgramVariantFactory.createProgramInstance(ProgramVariantFactory.java:126) - -any mod point created for suspicious Candidate [className=org.joda.time.format.DateTimeFormat, methodName=org.joda.time.format.DateTimeFormat{parsePatternTo(Lorg/joda/time/format/DateTimeFormatterBuilder;Ljava/lang/String;)V 0.0, lineNumber=512, susp=0.545544725589981]
[INFO ] fr.inria.astor.core.loop.population.ProgramVariantFactory.createProgramInstance(ProgramVariantFactory.java:126) - -any mod point created for suspicious Candidate [className=org.joda.time.format.DateTimeFormat, methodName=org.joda.time.format.DateTimeFormat{parsePatternTo(Lorg/joda/time/format/DateTimeFormatterBuilder;Ljava/lang/String;)V 0.0, lineNumber=499, susp=0.4364357804719848]
[INFO ] fr.inria.astor.core.loop.population.ProgramVariantFactory.createProgramInstance(ProgramVariantFactory.java:126) - -any mod point created for suspicious Candidate [className=org.joda.time.format.DateTimeFormat, methodName=org.joda.time.format.DateTimeFormat{parsePatternTo(Lorg/joda/time/format/DateTimeFormatterBuilder;Ljava/lang/String;)V 0.0, lineNumber=500, susp=0.4364357804719848]
[INFO ] fr.inria.astor.core.loop.population.ProgramVariantFactory.createProgramInstance(ProgramVariantFactory.java:126) - -any mod point created for suspicious Candidate [className=org.joda.time.format.DateTimeFormat, methodName=org.joda.time.format.DateTimeFormat{parsePatternTo(Lorg/joda/time/format/DateTimeFormatterBuilder;Ljava/lang/String;)V 0.0, lineNumber=508, susp=0.4364357804719848]
[INFO ] fr.inria.astor.core.loop.population.ProgramVariantFactory.createProgramInstance(ProgramVariantFactory.java:126) - -any mod point created for suspicious Candidate [className=org.joda.time.format.DateTimeFormat, methodName=org.joda.time.format.DateTimeFormat{parsePatternTo(Lorg/joda/time/format/DateTimeFormatterBuilder;Ljava/lang/String;)V 0.0, lineNumber=509, susp=0.4364357804719848]
[INFO ] fr.inria.astor.core.loop.population.ProgramVariantFactory.createProgramInstance(ProgramVariantFactory.java:126) - -any mod point created for suspicious Candidate [className=org.joda.time.format.DateTimeFormat$StyleFormatter, methodName=org.joda.time.format.DateTimeFormat$StyleFormatter{getPattern(Ljava/util/Locale;)Ljava/lang/String; 0.0, lineNumber=842, susp=0.41403933560541256]
[INFO ] fr.inria.astor.core.loop.population.ProgramVariantFactory.createProgramInstance(ProgramVariantFactory.java:126) - -any mod point created for suspicious Candidate [className=org.joda.time.format.DateTimeFormat$StyleFormatter, methodName=org.joda.time.format.DateTimeFormat$StyleFormatter{printTo(Ljava/lang/StringBuffer;JLorg/joda/time/Chronology;ILorg/joda/time/DateTimeZone;Ljava/util/Locale;)V 0.0, lineNumber=789, susp=0.41147559989891175]
[INFO ] fr.inria.astor.core.loop.population.ProgramVariantFactory.createProgramInstance(ProgramVariantFactory.java:126) - -any mod point created for suspicious Candidate [className=org.joda.time.format.DateTimeFormat$StyleFormatter, methodName=org.joda.time.format.DateTimeFormat$StyleFormatter{getFormatter(Ljava/util/Locale;)Lorg/joda/time/format/DateTimeFormatter; 0.0, lineNumber=828, susp=0.41147559989891175]
[INFO ] fr.inria.astor.core.loop.population.ProgramVariantFactory.createProgramInstance(ProgramVariantFactory.java:126) - -any mod point created for suspicious Candidate [className=org.joda.time.format.DateTimeFormat, methodName=org.joda.time.format.DateTimeFormat{createFormatterForStyleIndex(II)Lorg/joda/time/format/DateTimeFormatter; 0.0, lineNumber=736, susp=0.41147559989891175]
[INFO ] fr.inria.astor.core.loop.population.ProgramVariantFactory.createProgramInstance(ProgramVariantFactory.java:126) - -any mod point created for suspicious Candidate [className=org.joda.time.format.DateTimeFormat, methodName=org.joda.time.format.DateTimeFormat{parsePatternTo(Lorg/joda/time/format/DateTimeFormatterBuilder;Ljava/lang/String;)V 0.0, lineNumber=549, susp=0.39933499538383305]
[INFO ] fr.inria.astor.core.loop.population.ProgramVariantFactory.createProgramInstance(ProgramVariantFactory.java:126) - -any mod point created for suspicious Candidate [className=org.joda.time.format.DateTimeFormat, methodName=org.joda.time.format.DateTimeFormat{parsePatternTo(Lorg/joda/time/format/DateTimeFormatterBuilder;Ljava/lang/String;)V 0.0, lineNumber=550, susp=0.39933499538383305]
[INFO ] fr.inria.astor.core.loop.population.ProgramVariantFactory.createProgramInstance(ProgramVariantFactory.java:126) - -any mod point created for suspicious Candidate [className=org.joda.time.format.DateTimeFormat, methodName=org.joda.time.format.DateTimeFormat{parseToken(Ljava/lang/String;[I)Ljava/lang/String; 0.0, lineNumber=593, susp=0.3933978962347216]
[INFO ] fr.inria.astor.core.loop.population.ProgramVariantFactory.createProgramInstance(ProgramVariantFactory.java:126) - -any mod point created for suspicious Candidate [className=org.joda.time.format.DateTimeFormat, methodName=org.joda.time.format.DateTimeFormat{selectStyle(C)I 0.0, lineNumber=755, susp=0.3903600291794133]
[INFO ] fr.inria.astor.core.loop.population.ProgramVariantFactory.createProgramInstance(ProgramVariantFactory.java:126) - -any mod point created for suspicious Candidate [className=org.joda.time.format.DateTimeFormat, methodName=org.joda.time.format.DateTimeFormat{selectStyle(C)I 0.0, lineNumber=753, susp=0.3903600291794133]
[INFO ] fr.inria.astor.core.loop.population.ProgramVariantFactory.createProgramInstance(ProgramVariantFactory.java:126) - -any mod point created for suspicious Candidate [className=org.joda.time.format.DateTimeFormat, methodName=org.joda.time.format.DateTimeFormat{createFormatterForPattern(Ljava/lang/String;)Lorg/joda/time/format/DateTimeFormatter; 0.0, lineNumber=687, susp=0.38662954058932786]
[INFO ] fr.inria.astor.core.loop.population.ProgramVariantFactory.createProgramInstance(ProgramVariantFactory.java:126) - -any mod point created for suspicious Candidate [className=org.joda.time.format.DateTimeFormatterBuilder$CharacterLiteral, methodName=org.joda.time.format.DateTimeFormatterBuilder$CharacterLiteral{printTo(Ljava/lang/StringBuffer;Lorg/joda/time/ReadablePartial;Ljava/util/Locale;)V 0.0, lineNumber=1162, susp=0.3600411499115478]
[INFO ] fr.inria.astor.core.loop.population.ProgramVariantFactory.createProgramInstance(ProgramVariantFactory.java:126) - -any mod point created for suspicious Candidate [className=org.joda.time.format.DateTimeFormatterBuilder$Composite, methodName=org.joda.time.format.DateTimeFormatterBuilder$Composite{printTo(Ljava/lang/StringBuffer;Lorg/joda/time/ReadablePartial;Ljava/util/Locale;)V 0.0, lineNumber=2560, susp=0.3600411499115478]
[INFO ] fr.inria.astor.core.loop.population.ProgramVariantFactory.createProgramInstance(ProgramVariantFactory.java:126) - -any mod point created for suspicious Candidate [className=org.joda.time.format.DateTimeFormatterBuilder$PaddedNumber, methodName=org.joda.time.format.DateTimeFormatterBuilder$PaddedNumber{printTo(Ljava/lang/StringBuffer;Lorg/joda/time/ReadablePartial;Ljava/util/Locale;)V 0.0, lineNumber=1432, susp=0.3600411499115478]
[INFO ] fr.inria.astor.core.loop.population.ProgramVariantFactory.createProgramInstance(ProgramVariantFactory.java:126) - -any mod point created for suspicious Candidate [className=org.joda.time.format.DateTimeFormatterBuilder$PaddedNumber, methodName=org.joda.time.format.DateTimeFormatterBuilder$PaddedNumber{printTo(Ljava/lang/StringBuffer;Lorg/joda/time/ReadablePartial;Ljava/util/Locale;)V 0.0, lineNumber=1436, susp=0.3600411499115478]
[INFO ] fr.inria.astor.core.loop.population.ProgramVariantFactory.createProgramInstance(ProgramVariantFactory.java:126) - -any mod point created for suspicious Candidate [className=org.joda.time.format.DateTimeFormatter, methodName=org.joda.time.format.DateTimeFormatter{printTo(Ljava/lang/StringBuffer;Lorg/joda/time/ReadablePartial;)V 0.0, lineNumber=536, susp=0.3600411499115478]
[INFO ] fr.inria.astor.core.loop.population.ProgramVariantFactory.createProgramInstance(ProgramVariantFactory.java:126) - -any mod point created for suspicious Candidate [className=org.joda.time.format.DateTimeFormat, methodName=org.joda.time.format.DateTimeFormat{parsePatternTo(Lorg/joda/time/format/DateTimeFormatterBuilder;Ljava/lang/String;)V 0.0, lineNumber=424, susp=0.35874800166708765]
[INFO ] fr.inria.astor.core.loop.population.ProgramVariantFactory.createProgramInstance(ProgramVariantFactory.java:126) - -any mod point created for suspicious Candidate [className=org.joda.time.format.DateTimeFormat, methodName=org.joda.time.format.DateTimeFormat{parsePatternTo(Lorg/joda/time/format/DateTimeFormatterBuilder;Ljava/lang/String;)V 0.0, lineNumber=563, susp=0.3551424026022887]
[INFO ] fr.inria.astor.core.loop.population.ProgramVariantFactory.createProgramInstance(ProgramVariantFactory.java:126) - -any mod point created for suspicious Candidate [className=org.joda.time.format.DateTimeFormat, methodName=org.joda.time.format.DateTimeFormat{parsePatternTo(Lorg/joda/time/format/DateTimeFormatterBuilder;Ljava/lang/String;)V 0.0, lineNumber=479, susp=0.3539961627023943]
[INFO ] fr.inria.astor.core.loop.population.ProgramVariantFactory.createProgramInstance(ProgramVariantFactory.java:126) - -any mod point created for suspicious Candidate [className=org.joda.time.format.DateTimeFormat, methodName=org.joda.time.format.DateTimeFormat{parsePatternTo(Lorg/joda/time/format/DateTimeFormatterBuilder;Ljava/lang/String;)V 0.0, lineNumber=477, susp=0.3423683940087303]
[INFO ] fr.inria.astor.core.loop.population.ProgramVariantFactory.createProgramInstance(ProgramVariantFactory.java:126) - -any mod point created for suspicious Candidate [className=org.joda.time.format.DateTimeFormat, methodName=org.joda.time.format.DateTimeFormat{parsePatternTo(Lorg/joda/time/format/DateTimeFormatterBuilder;Ljava/lang/String;)V 0.0, lineNumber=470, susp=0.3256694736394648]
[INFO ] fr.inria.astor.core.loop.population.ProgramVariantFactory.createProgramInstance(ProgramVariantFactory.java:126) - -any mod point created for suspicious Candidate [className=org.joda.time.format.DateTimeFormat, methodName=org.joda.time.format.DateTimeFormat{parsePatternTo(Lorg/joda/time/format/DateTimeFormatterBuilder;Ljava/lang/String;)V 0.0, lineNumber=471, susp=0.3256694736394648]
[INFO ] fr.inria.astor.core.loop.population.ProgramVariantFactory.createProgramInstance(ProgramVariantFactory.java:126) - -any mod point created for suspicious Candidate [className=org.joda.time.format.DateTimeFormatterBuilder$Composite, methodName=org.joda.time.format.DateTimeFormatterBuilder$Composite{decompose(Ljava/util/List;Ljava/util/List;Ljava/util/List;)V 0.0, lineNumber=2629, susp=0.3192804962307729]
[INFO ] fr.inria.astor.core.loop.population.ProgramVariantFactory.createProgramInstance(ProgramVariantFactory.java:126) - -any mod point created for suspicious Candidate [className=org.joda.time.format.DateTimeFormatterBuilder$TimeZoneName, methodName=org.joda.time.format.DateTimeFormatterBuilder$TimeZoneName{print(JLorg/joda/time/DateTimeZone;Ljava/util/Locale;)Ljava/lang/String; 0.0, lineNumber=2436, susp=0.3086066999241838]
[INFO ] fr.inria.astor.core.loop.population.ProgramVariantFactory.createProgramInstance(ProgramVariantFactory.java:126) - -any mod point created for suspicious Candidate [className=org.joda.time.format.DateTimeFormat, methodName=org.joda.time.format.DateTimeFormat{parsePatternTo(Lorg/joda/time/format/DateTimeFormatterBuilder;Ljava/lang/String;)V 0.0, lineNumber=490, susp=0.3038948705590345]
[INFO ] fr.inria.astor.core.loop.population.ProgramVariantFactory.createProgramInstance(ProgramVariantFactory.java:126) - -any mod point created for suspicious Candidate [className=org.joda.time.format.DateTimeFormat, methodName=org.joda.time.format.DateTimeFormat{parsePatternTo(Lorg/joda/time/format/DateTimeFormatterBuilder;Ljava/lang/String;)V 0.0, lineNumber=491, susp=0.3038948705590345]
[INFO ] fr.inria.astor.core.loop.population.ProgramVariantFactory.createProgramInstance(ProgramVariantFactory.java:126) - -any mod point created for suspicious Candidate [className=org.joda.time.format.FormatUtils, methodName=org.joda.time.format.FormatUtils{appendPaddedInteger(Ljava/lang/StringBuffer;II)V 0.0, lineNumber=92, susp=0.2825737226729463]
[INFO ] fr.inria.astor.core.loop.population.ProgramVariantFactory.createProgramInstance(ProgramVariantFactory.java:126) - -any mod point created for suspicious Candidate [className=org.joda.time.format.DateTimeFormat, methodName=org.joda.time.format.DateTimeFormat{parsePatternTo(Lorg/joda/time/format/DateTimeFormatterBuilder;Ljava/lang/String;)V 0.0, lineNumber=488, susp=0.2672612419124244]
[INFO ] fr.inria.astor.core.loop.population.ProgramVariantFactory.createProgramInstance(ProgramVariantFactory.java:126) - -any mod point created for suspicious Candidate [className=org.joda.time.DateTimeFieldType$StandardDateTimeFieldType, methodName=org.joda.time.DateTimeFieldType$StandardDateTimeFieldType{getField(Lorg/joda/time/Chronology;)Lorg/joda/time/DateTimeField; 0.0, lineNumber=504, susp=0.25819888974716115]
[INFO ] fr.inria.astor.core.loop.population.ProgramVariantFactory.createProgramInstance(ProgramVariantFactory.java:126) - -any mod point created for suspicious Candidate [className=org.joda.time.format.DateTimeFormat, methodName=org.joda.time.format.DateTimeFormat{parsePatternTo(Lorg/joda/time/format/DateTimeFormatterBuilder;Ljava/lang/String;)V 0.0, lineNumber=530, susp=0.2519763153394848]
[INFO ] fr.inria.astor.core.loop.population.ProgramVariantFactory.createProgramInstance(ProgramVariantFactory.java:126) - -any mod point created for suspicious Candidate [className=org.joda.time.format.DateTimeFormat, methodName=org.joda.time.format.DateTimeFormat{parsePatternTo(Lorg/joda/time/format/DateTimeFormatterBuilder;Ljava/lang/String;)V 0.0, lineNumber=531, susp=0.2519763153394848]
[INFO ] fr.inria.astor.core.loop.population.ProgramVariantFactory.createProgramInstance(ProgramVariantFactory.java:126) - -any mod point created for suspicious Candidate [className=org.joda.time.format.DateTimeFormatterBuilder$StringLiteral, methodName=org.joda.time.format.DateTimeFormatterBuilder$StringLiteral{printTo(Ljava/lang/StringBuffer;JLorg/joda/time/Chronology;ILorg/joda/time/DateTimeZone;Ljava/util/Locale;)V 0.0, lineNumber=1215, susp=0.2519763153394848]
[INFO ] fr.inria.astor.core.loop.population.ProgramVariantFactory.createProgramInstance(ProgramVariantFactory.java:126) - -any mod point created for suspicious Candidate [className=org.joda.time.format.FormatUtils, methodName=org.joda.time.format.FormatUtils{appendPaddedInteger(Ljava/lang/StringBuffer;II)V 0.0, lineNumber=78, susp=0.24000768036865966]
[INFO ] fr.inria.astor.core.loop.population.ProgramVariantFactory.createProgramInstance(ProgramVariantFactory.java:126) - -any mod point created for suspicious Candidate [className=org.joda.time.format.DateTimeFormat, methodName=org.joda.time.format.DateTimeFormat{parsePatternTo(Lorg/joda/time/format/DateTimeFormatterBuilder;Ljava/lang/String;)V 0.0, lineNumber=557, susp=0.2253744679276044]
[INFO ] fr.inria.astor.core.loop.population.ProgramVariantFactory.createProgramInstance(ProgramVariantFactory.java:126) - -any mod point created for suspicious Candidate [className=org.joda.time.format.DateTimeFormatterBuilder$Composite, methodName=org.joda.time.format.DateTimeFormatterBuilder$Composite{addArrayToList(Ljava/util/List;[Ljava/lang/Object;)V 0.0, lineNumber=2637, susp=0.22096287726310634]
[INFO ] fr.inria.astor.core.loop.population.ProgramVariantFactory.createProgramInstance(ProgramVariantFactory.java:126) - -any mod point created for suspicious Candidate [className=org.joda.time.format.DateTimeFormat$StyleFormatter, methodName=org.joda.time.format.DateTimeFormat$StyleFormatter{getPattern(Ljava/util/Locale;)Ljava/lang/String; 0.0, lineNumber=839, susp=0.2182178902359924]
[INFO ] fr.inria.astor.core.loop.population.ProgramVariantFactory.createProgramInstance(ProgramVariantFactory.java:126) - -any mod point created for suspicious Candidate [className=org.joda.time.format.DateTimeFormat$StyleFormatter, methodName=org.joda.time.format.DateTimeFormat$StyleFormatter{getPattern(Ljava/util/Locale;)Ljava/lang/String; 0.0, lineNumber=840, susp=0.2182178902359924]
[INFO ] fr.inria.astor.core.loop.population.ProgramVariantFactory.createProgramInstance(ProgramVariantFactory.java:126) - -any mod point created for suspicious Candidate [className=org.joda.time.format.DateTimeFormatterBuilder, methodName=org.joda.time.format.DateTimeFormatterBuilder{appendLiteral(Ljava/lang/String;)Lorg/joda/time/format/DateTimeFormatterBuilder; 0.0, lineNumber=379, susp=0.21170244960998524]
[INFO ] fr.inria.astor.core.loop.population.ProgramVariantFactory.createProgramInstance(ProgramVariantFactory.java:126) - -any mod point created for suspicious Candidate [className=org.joda.time.chrono.GregorianChronology, methodName=org.joda.time.chrono.GregorianChronology{getMinimumDaysInFirstWeek()I 0.0, lineNumber=45, susp=0.20412414523193148]
[INFO ] fr.inria.astor.core.loop.population.ProgramVariantFactory.createProgramInstance(ProgramVariantFactory.java:126) - -any mod point created for suspicious Candidate [className=org.joda.time.field.FieldUtils, methodName=org.joda.time.field.FieldUtils{verifyValueBounds(Lorg/joda/time/DateTimeFieldType;III)V 0.0, lineNumber=237, susp=0.19879219318187574]
[INFO ] fr.inria.astor.core.loop.population.ProgramVariantFactory.createProgramInstance(ProgramVariantFactory.java:126) - -any mod point created for suspicious Candidate [className=org.joda.time.format.DateTimeFormat, methodName=org.joda.time.format.DateTimeFormat{parsePatternTo(Lorg/joda/time/format/DateTimeFormatterBuilder;Ljava/lang/String;)V 0.0, lineNumber=514, susp=0.19518001458970666]
[INFO ] fr.inria.astor.core.loop.population.ProgramVariantFactory.createProgramInstance(ProgramVariantFactory.java:126) - -any mod point created for suspicious Candidate [className=org.joda.time.format.DateTimeFormat, methodName=org.joda.time.format.DateTimeFormat{parsePatternTo(Lorg/joda/time/format/DateTimeFormatterBuilder;Ljava/lang/String;)V 0.0, lineNumber=515, susp=0.19518001458970666]
[INFO ] fr.inria.astor.core.loop.population.ProgramVariantFactory.createProgramInstance(ProgramVariantFactory.java:126) - -any mod point created for suspicious Candidate [className=org.joda.time.format.DateTimeFormatterBuilder$PaddedNumber, methodName=org.joda.time.format.DateTimeFormatterBuilder$PaddedNumber{printTo(Ljava/lang/StringBuffer;JLorg/joda/time/Chronology;ILorg/joda/time/DateTimeZone;Ljava/util/Locale;)V 0.0, lineNumber=1412, susp=0.18752289237539815]
[INFO ] fr.inria.astor.core.loop.population.ProgramVariantFactory.createProgramInstance(ProgramVariantFactory.java:126) - -any mod point created for suspicious Candidate [className=org.joda.time.format.DateTimeFormatterBuilder$PaddedNumber, methodName=org.joda.time.format.DateTimeFormatterBuilder$PaddedNumber{printTo(Ljava/lang/StringBuffer;JLorg/joda/time/Chronology;ILorg/joda/time/DateTimeZone;Ljava/util/Locale;)V 0.0, lineNumber=1413, susp=0.18752289237539815]
[INFO ] fr.inria.astor.core.loop.population.ProgramVariantFactory.createProgramInstance(ProgramVariantFactory.java:126) - -any mod point created for suspicious Candidate [className=org.joda.time.format.DateTimeFormatter, methodName=org.joda.time.format.DateTimeFormatter{printTo(Ljava/lang/StringBuffer;Lorg/joda/time/ReadableInstant;)V 0.0, lineNumber=460, susp=0.1870439059165649]
[INFO ] fr.inria.astor.core.loop.population.ProgramVariantFactory.createProgramInstance(ProgramVariantFactory.java:126) - -any mod point created for suspicious Candidate [className=org.joda.time.format.DateTimeFormatterBuilder$CharacterLiteral, methodName=org.joda.time.format.DateTimeFormatterBuilder$CharacterLiteral{printTo(Ljava/lang/StringBuffer;JLorg/joda/time/Chronology;ILorg/joda/time/DateTimeZone;Ljava/util/Locale;)V 0.0, lineNumber=1152, susp=0.18609684207969415]
[INFO ] fr.inria.astor.core.loop.population.ProgramVariantFactory.createProgramInstance(ProgramVariantFactory.java:126) - -any mod point created for suspicious Candidate [className=org.joda.time.format.DateTimeFormatterBuilder$Composite, methodName=org.joda.time.format.DateTimeFormatterBuilder$Composite{printTo(Ljava/lang/StringBuffer;JLorg/joda/time/Chronology;ILorg/joda/time/DateTimeZone;Ljava/util/Locale;)V 0.0, lineNumber=2524, susp=0.18609684207969415]
[INFO ] fr.inria.astor.core.loop.population.ProgramVariantFactory.createProgramInstance(ProgramVariantFactory.java:126) - -any mod point created for suspicious Candidate [className=org.joda.time.format.DateTimeFormatter, methodName=org.joda.time.format.DateTimeFormatter{printTo(Ljava/lang/StringBuffer;JLorg/joda/time/Chronology;)V 0.0, lineNumber=630, susp=0.18516401995451032]
[INFO ] fr.inria.astor.core.loop.population.ProgramVariantFactory.createProgramInstance(ProgramVariantFactory.java:126) - -any mod point created for suspicious Candidate [className=org.joda.time.DateTimeFieldType$StandardDateTimeFieldType, methodName=org.joda.time.DateTimeFieldType$StandardDateTimeFieldType{getField(Lorg/joda/time/Chronology;)Lorg/joda/time/DateTimeField; 0.0, lineNumber=498, susp=0.18166499303062542]
[INFO ] fr.inria.astor.core.loop.population.ProgramVariantFactory.createProgramInstance(ProgramVariantFactory.java:126) - -any mod point created for suspicious Candidate [className=org.joda.time.chrono.GregorianChronology, methodName=org.joda.time.chrono.GregorianChronology{getDateTimeMillis(IIII)J 0.0, lineNumber=45, susp=0.1800205749557739]
[INFO ] fr.inria.astor.core.loop.population.ProgramVariantFactory.createProgramInstance(ProgramVariantFactory.java:126) - -any mod point created for suspicious Candidate [className=org.joda.time.DateTimeFieldType$StandardDateTimeFieldType, methodName=org.joda.time.DateTimeFieldType$StandardDateTimeFieldType{getField(Lorg/joda/time/Chronology;)Lorg/joda/time/DateTimeField; 0.0, lineNumber=496, susp=0.17645263142138498]
[INFO ] fr.inria.astor.core.loop.population.ProgramVariantFactory.createProgramInstance(ProgramVariantFactory.java:126) - -any mod point created for suspicious Candidate [className=org.joda.time.DateTimeFieldType$StandardDateTimeFieldType, methodName=org.joda.time.DateTimeFieldType$StandardDateTimeFieldType{getField(Lorg/joda/time/Chronology;)Lorg/joda/time/DateTimeField; 0.0, lineNumber=492, susp=0.17448980471969336]
[INFO ] fr.inria.astor.core.loop.population.ProgramVariantFactory.createProgramInstance(ProgramVariantFactory.java:126) - -any mod point created for suspicious Candidate [className=org.joda.time.format.DateTimeFormat, methodName=org.joda.time.format.DateTimeFormat{selectStyle(C)I 0.0, lineNumber=751, susp=0.1649572197684645]
[INFO ] fr.inria.astor.core.loop.population.ProgramVariantFactory.createProgramInstance(ProgramVariantFactory.java:126) - -any mod point created for suspicious Candidate [className=org.joda.time.format.DateTimeFormat, methodName=org.joda.time.format.DateTimeFormat{selectStyle(C)I 0.0, lineNumber=749, susp=0.1649572197684645]
[INFO ] fr.inria.astor.core.loop.population.ProgramVariantFactory.createProgramInstance(ProgramVariantFactory.java:126) - -any mod point created for suspicious Candidate [className=org.joda.time.field.FieldUtils, methodName=org.joda.time.field.FieldUtils{verifyValueBounds(Lorg/joda/time/DateTimeField;III)V 0.0, lineNumber=219, susp=0.16404433384556402]
[INFO ] fr.inria.astor.core.loop.population.ProgramVariantFactory.createProgramInstance(ProgramVariantFactory.java:126) - -any mod point created for suspicious Candidate [className=org.joda.time.DateTimeZone, methodName=org.joda.time.DateTimeZone{setDefault(Lorg/joda/time/DateTimeZone;)V 0.0, lineNumber=183, susp=0.15727359070153982]
[INFO ] fr.inria.astor.core.loop.population.ProgramVariantFactory.createProgramInstance(ProgramVariantFactory.java:126) - -any mod point created for suspicious Candidate [className=org.joda.time.DateTimeZone, methodName=org.joda.time.DateTimeZone{setDefault(Lorg/joda/time/DateTimeZone;)V 0.0, lineNumber=184, susp=0.15727359070153982]
[INFO ] fr.inria.astor.core.loop.population.ProgramVariantFactory.createProgramInstance(ProgramVariantFactory.java:126) - -any mod point created for suspicious Candidate [className=org.joda.time.DateTimeUtils, methodName=org.joda.time.DateTimeUtils{setCurrentMillisSystem()V 0.0, lineNumber=70, susp=0.1550568413280241]
[INFO ] fr.inria.astor.core.loop.population.ProgramVariantFactory.createProgramInstance(ProgramVariantFactory.java:126) - -any mod point created for suspicious Candidate [className=org.joda.time.DateTimeUtils, methodName=org.joda.time.DateTimeUtils{setCurrentMillisFixed(J)V 0.0, lineNumber=84, susp=0.1550568413280241]
[INFO ] fr.inria.astor.core.loop.population.ProgramVariantFactory.createProgramInstance(ProgramVariantFactory.java:126) - -any mod point created for suspicious Candidate [className=org.joda.time.DateTimeUtils, methodName=org.joda.time.DateTimeUtils{checkPermission()V 0.0, lineNumber=133, susp=0.1550568413280241]
[INFO ] fr.inria.astor.core.loop.population.ProgramVariantFactory.createProgramInstance(ProgramVariantFactory.java:126) - -any mod point created for suspicious Candidate [className=org.joda.time.format.DateTimeFormat, methodName=org.joda.time.format.DateTimeFormat{parsePatternTo(Lorg/joda/time/format/DateTimeFormatterBuilder;Ljava/lang/String;)V 0.0, lineNumber=467, susp=0.1543033499620919]
[INFO ] fr.inria.astor.core.loop.population.ProgramVariantFactory.createProgramInstance(ProgramVariantFactory.java:126) - -any mod point created for suspicious Candidate [className=org.joda.time.format.DateTimeFormat, methodName=org.joda.time.format.DateTimeFormat{parsePatternTo(Lorg/joda/time/format/DateTimeFormatterBuilder;Ljava/lang/String;)V 0.0, lineNumber=468, susp=0.1543033499620919]
[INFO ] fr.inria.astor.core.loop.population.ProgramVariantFactory.createProgramInstance(ProgramVariantFactory.java:126) - -any mod point created for suspicious Candidate [className=org.joda.time.format.DateTimeFormatterBuilder$TwoDigitYear, methodName=org.joda.time.format.DateTimeFormatterBuilder$TwoDigitYear{printTo(Ljava/lang/StringBuffer;JLorg/joda/time/Chronology;ILorg/joda/time/DateTimeZone;Ljava/util/Locale;)V 0.0, lineNumber=1617, susp=0.1543033499620919]
[INFO ] fr.inria.astor.core.loop.population.ProgramVariantFactory.createProgramInstance(ProgramVariantFactory.java:126) - -any mod point created for suspicious Candidate [className=org.joda.time.format.DateTimeFormat, methodName=org.joda.time.format.DateTimeFormat{selectStyle(C)I 0.0, lineNumber=757, susp=0.14547859349066158]
[INFO ] fr.inria.astor.core.loop.population.ProgramVariantFactory.createProgramInstance(ProgramVariantFactory.java:126) - -any mod point created for suspicious Candidate [className=org.joda.time.DateTimeFieldType$StandardDateTimeFieldType, methodName=org.joda.time.DateTimeFieldType$StandardDateTimeFieldType{getField(Lorg/joda/time/Chronology;)Lorg/joda/time/DateTimeField; 0.0, lineNumber=524, susp=0.1411862416005035]
[INFO ] fr.inria.astor.core.loop.population.ProgramVariantFactory.createProgramInstance(ProgramVariantFactory.java:126) - -any mod point created for suspicious Candidate [className=org.joda.time.chrono.GregorianChronology, methodName=org.joda.time.chrono.GregorianChronology{getDateTimeMillis(IIIIIII)J 0.0, lineNumber=45, susp=0.13820519701621964]
[INFO ] fr.inria.astor.core.loop.population.ProgramVariantFactory.createProgramInstance(ProgramVariantFactory.java:126) - -any mod point created for suspicious Candidate [className=org.joda.time.format.DateTimeFormat, methodName=org.joda.time.format.DateTimeFormat{parsePatternTo(Lorg/joda/time/format/DateTimeFormatterBuilder;Ljava/lang/String;)V 0.0, lineNumber=448, susp=0.13801311186847084]
[INFO ] fr.inria.astor.core.loop.population.ProgramVariantFactory.createProgramInstance(ProgramVariantFactory.java:126) - -any mod point created for suspicious Candidate [className=org.joda.time.DateTimeFieldType$StandardDateTimeFieldType, methodName=org.joda.time.DateTimeFieldType$StandardDateTimeFieldType{getField(Lorg/joda/time/Chronology;)Lorg/joda/time/DateTimeField; 0.0, lineNumber=520, susp=0.1374416265488099]
[INFO ] fr.inria.astor.core.loop.population.ProgramVariantFactory.createProgramInstance(ProgramVariantFactory.java:126) - -any mod point created for suspicious Candidate [className=org.joda.time.DateTimeFieldType$StandardDateTimeFieldType, methodName=org.joda.time.DateTimeFieldType$StandardDateTimeFieldType{getField(Lorg/joda/time/Chronology;)Lorg/joda/time/DateTimeField; 0.0, lineNumber=516, susp=0.13522468075656266]
[INFO ] fr.inria.astor.core.loop.population.ProgramVariantFactory.createProgramInstance(ProgramVariantFactory.java:126) - -any mod point created for suspicious Candidate [className=org.joda.time.format.DateTimeFormatterBuilder$TextField, methodName=org.joda.time.format.DateTimeFormatterBuilder$TextField{printTo(Ljava/lang/StringBuffer;JLorg/joda/time/Chronology;ILorg/joda/time/DateTimeZone;Ljava/util/Locale;)V 0.0, lineNumber=1703, susp=0.13468700594029479]
[INFO ] fr.inria.astor.core.loop.population.ProgramVariantFactory.createProgramInstance(ProgramVariantFactory.java:126) - -any mod point created for suspicious Candidate [className=org.joda.time.format.DateTimeFormatterBuilder$TextField, methodName=org.joda.time.format.DateTimeFormatterBuilder$TextField{printTo(Ljava/lang/StringBuffer;JLorg/joda/time/Chronology;ILorg/joda/time/DateTimeZone;Ljava/util/Locale;)V 0.0, lineNumber=1704, susp=0.13468700594029479]
[INFO ] fr.inria.astor.core.loop.population.ProgramVariantFactory.createProgramInstance(ProgramVariantFactory.java:126) - -any mod point created for suspicious Candidate [className=org.joda.time.tz.DateTimeZoneBuilder$DSTZone, methodName=org.joda.time.tz.DateTimeZoneBuilder$DSTZone{previousTransition(J)J 0.0, lineNumber=1262, susp=0.1315903389919538]
[INFO ] fr.inria.astor.core.loop.population.ProgramVariantFactory.createProgramInstance(ProgramVariantFactory.java:126) - -any mod point created for suspicious Candidate [className=org.joda.time.tz.DateTimeZoneBuilder$DSTZone, methodName=org.joda.time.tz.DateTimeZoneBuilder$DSTZone{previousTransition(J)J 0.0, lineNumber=1277, susp=0.1315903389919538]
[INFO ] fr.inria.astor.core.loop.population.ProgramVariantFactory.createProgramInstance(ProgramVariantFactory.java:126) - -any mod point created for suspicious Candidate [className=org.joda.time.tz.DateTimeZoneBuilder$OfYear, methodName=org.joda.time.tz.DateTimeZoneBuilder$OfYear{setDayOfMonthPrevious(Lorg/joda/time/Chronology;J)J 0.0, lineNumber=701, susp=0.1315903389919538]
[INFO ] fr.inria.astor.core.loop.population.ProgramVariantFactory.createProgramInstance(ProgramVariantFactory.java:126) - -any mod point created for suspicious Candidate [className=org.joda.time.format.DateTimeFormat, methodName=org.joda.time.format.DateTimeFormat{parsePatternTo(Lorg/joda/time/format/DateTimeFormatterBuilder;Ljava/lang/String;)V 0.0, lineNumber=451, susp=0.1315903389919538]
[INFO ] fr.inria.astor.core.loop.population.ProgramVariantFactory.createProgramInstance(ProgramVariantFactory.java:130) - Total suspicious from FL: 874,  791
[INFO ] fr.inria.astor.core.loop.population.ProgramVariantFactory.createProgramInstance(ProgramVariantFactory.java:138) - Total ModPoint created: 791
[INFO ] fr.inria.astor.core.loop.population.ProgramVariantFactory.createInitialPopulation(ProgramVariantFactory.java:82) - Creating program variant #1, [Variant id: 1, #gens: 791, #ops: 0, parent:-]
[INFO ] fr.inria.astor.core.setup.ConfigurationProperties.print(ConfigurationProperties.java:63) - ----------------------------
[INFO ] fr.inria.astor.core.setup.ConfigurationProperties.print(ConfigurationProperties.java:64) - ---Configuration properties:---Execution values
[INFO ] fr.inria.astor.core.setup.ConfigurationProperties.print(ConfigurationProperties.java:66) - p:lastJUnitVersion= ./examples/libs/junit-4.11.jar
[INFO ] fr.inria.astor.core.setup.ConfigurationProperties.print(ConfigurationProperties.java:66) - p:alternativecompliancelevel= 4
[INFO ] fr.inria.astor.core.setup.ConfigurationProperties.print(ConfigurationProperties.java:66) - p:ignoredTestCases= 
[INFO ] fr.inria.astor.core.setup.ConfigurationProperties.print(ConfigurationProperties.java:66) - p:workingDirectory= /local/scr/mtufano/Time/24/b/random-global-embeddings/2
[INFO ] fr.inria.astor.core.setup.ConfigurationProperties.print(ConfigurationProperties.java:66) - p:manipulatesuper= false
[INFO ] fr.inria.astor.core.setup.ConfigurationProperties.print(ConfigurationProperties.java:66) - p:validation= process
[INFO ] fr.inria.astor.core.setup.ConfigurationProperties.print(ConfigurationProperties.java:66) - p:jvm4testexecution= /usr/local/jdk1.7.0_80/bin/
[INFO ] fr.inria.astor.core.setup.ConfigurationProperties.print(ConfigurationProperties.java:66) - p:binjavafolder= build/classes/
[INFO ] fr.inria.astor.core.setup.ConfigurationProperties.print(ConfigurationProperties.java:66) - p:evosuiteresultfolder= evosuite
[INFO ] fr.inria.astor.core.setup.ConfigurationProperties.print(ConfigurationProperties.java:66) - p:flthreshold= 0.1
[INFO ] fr.inria.astor.core.setup.ConfigurationProperties.print(ConfigurationProperties.java:66) - p:regressionforfaultlocalization= true
[INFO ] fr.inria.astor.core.setup.ConfigurationProperties.print(ConfigurationProperties.java:66) - p:tmax2= 960000
[INFO ] fr.inria.astor.core.setup.ConfigurationProperties.print(ConfigurationProperties.java:66) - p:tmax1= 120000
[INFO ] fr.inria.astor.core.setup.ConfigurationProperties.print(ConfigurationProperties.java:66) - p:probagenmutation= false
[INFO ] fr.inria.astor.core.setup.ConfigurationProperties.print(ConfigurationProperties.java:66) - p:srctestfolder= src/test/java/
[INFO ] fr.inria.astor.core.setup.ConfigurationProperties.print(ConfigurationProperties.java:66) - p:customop= fr.inria.astor.approaches.jgenprog.operators.InsertAfterOp:fr.inria.astor.approaches.jgenprog.operators.InsertBeforeOp:fr.inria.astor.approaches.jgenprog.operators.ReplaceOp
[INFO ] fr.inria.astor.core.setup.ConfigurationProperties.print(ConfigurationProperties.java:66) - p:forceExecuteRegression= false
[INFO ] fr.inria.astor.core.setup.ConfigurationProperties.print(ConfigurationProperties.java:66) - p:clusteringfilename= clustering.csv
[INFO ] fr.inria.astor.core.setup.ConfigurationProperties.print(ConfigurationProperties.java:66) - p:failing= org.joda.time.format.TestDateTimeFormatter
[INFO ] fr.inria.astor.core.setup.ConfigurationProperties.print(ConfigurationProperties.java:66) - p:evo_buggy_class= true
[INFO ] fr.inria.astor.core.setup.ConfigurationProperties.print(ConfigurationProperties.java:66) - p:numberExecutions= 1
[INFO ] fr.inria.astor.core.setup.ConfigurationProperties.print(ConfigurationProperties.java:66) - p:evo_affected_by_op= true
[INFO ] fr.inria.astor.core.setup.ConfigurationProperties.print(ConfigurationProperties.java:66) - p:population= 1
[INFO ] fr.inria.astor.core.setup.ConfigurationProperties.print(ConfigurationProperties.java:66) - p:clonegranularity= types
[INFO ] fr.inria.astor.core.setup.ConfigurationProperties.print(ConfigurationProperties.java:66) - p:regressiontestcases4fl= org.joda.time.TestDateMidnight_Constructors:org.joda.time.TestDateTimeComparator:org.joda.time.TestDateTimeZone:org.joda.time.TestDateTimeZoneCutover:org.joda.time.TestDateTime_Constructors:org.joda.time.TestIllegalFieldValueException:org.joda.time.TestInstant_Constructors:org.joda.time.TestInterval_Constructors:org.joda.time.TestLocalDateTime_Constructors:org.joda.time.TestLocalDate_Constructors:org.joda.time.TestLocalTime_Constructors:org.joda.time.TestMonthDay_Constructors:org.joda.time.TestMutableDateTime_Constructors:org.joda.time.TestMutableInterval_Constructors:org.joda.time.TestStringConvert:org.joda.time.TestTimeOfDay_Constructors:org.joda.time.TestYearMonthDay_Constructors:org.joda.time.TestYearMonth_Constructors:org.joda.time.chrono.TestGJChronology:org.joda.time.chrono.TestISOChronology:org.joda.time.convert.TestStringConverter:org.joda.time.format.TestDateTimeFormat:org.joda.time.format.TestDateTimeFormatStyle:org.joda.time.format.TestDateTimeFormatter:org.joda.time.format.TestDateTimeFormatterBuilder:org.joda.time.format.TestISODateTimeFormatParsing:org.joda.time.tz.TestBuilder:org.joda.time.tz.TestCompiler:
[INFO ] fr.inria.astor.core.setup.ConfigurationProperties.print(ConfigurationProperties.java:66) - p:savesolution= true
[INFO ] fr.inria.astor.core.setup.ConfigurationProperties.print(ConfigurationProperties.java:66) - p:javacompliancelevel= 5
[INFO ] fr.inria.astor.core.setup.ConfigurationProperties.print(ConfigurationProperties.java:66) - p:uniqueoptogen= false
[INFO ] fr.inria.astor.core.setup.ConfigurationProperties.print(ConfigurationProperties.java:66) - p:projectIdentifier= 
[INFO ] fr.inria.astor.core.setup.ConfigurationProperties.print(ConfigurationProperties.java:66) - p:modificationpointnavigation= weight
[INFO ] fr.inria.astor.core.setup.ConfigurationProperties.print(ConfigurationProperties.java:66) - p:stopfirst= false
[INFO ] fr.inria.astor.core.setup.ConfigurationProperties.print(ConfigurationProperties.java:66) - p:multipointmodification= false
[INFO ] fr.inria.astor.core.setup.ConfigurationProperties.print(ConfigurationProperties.java:66) - p:elementsToMutate= 10
[INFO ] fr.inria.astor.core.setup.ConfigurationProperties.print(ConfigurationProperties.java:66) - p:evoDSE= false
[INFO ] fr.inria.astor.core.setup.ConfigurationProperties.print(ConfigurationProperties.java:66) - p:bintestfolder= build/tests/
[INFO ] fr.inria.astor.core.setup.ConfigurationProperties.print(ConfigurationProperties.java:66) - p:testbystep= false
[INFO ] fr.inria.astor.core.setup.ConfigurationProperties.print(ConfigurationProperties.java:66) - p:version-location= ./math-version/
[INFO ] fr.inria.astor.core.setup.ConfigurationProperties.print(ConfigurationProperties.java:66) - p:reintroduce= PARENTS
[INFO ] fr.inria.astor.core.setup.ConfigurationProperties.print(ConfigurationProperties.java:66) - p:maxGeneration= 1000000
[INFO ] fr.inria.astor.core.setup.ConfigurationProperties.print(ConfigurationProperties.java:66) - p:maxVarCombination= 1000
[INFO ] fr.inria.astor.core.setup.ConfigurationProperties.print(ConfigurationProperties.java:66) - p:maxtime= 180
[INFO ] fr.inria.astor.core.setup.ConfigurationProperties.print(ConfigurationProperties.java:66) - p:evosuitejar= ./lib/evosuite-master-1.0.4-SNAPSHOT.jar
[INFO ] fr.inria.astor.core.setup.ConfigurationProperties.print(ConfigurationProperties.java:66) - p:commandTrunk= 50000
[INFO ] fr.inria.astor.core.setup.ConfigurationProperties.print(ConfigurationProperties.java:66) - p:faultlocalization= fr.inria.astor.core.faultlocalization.GZoltarFaultLocalization
[INFO ] fr.inria.astor.core.setup.ConfigurationProperties.print(ConfigurationProperties.java:66) - p:maxsuspcandidates= 1000
[INFO ] fr.inria.astor.core.setup.ConfigurationProperties.print(ConfigurationProperties.java:66) - p:mode= statement
[INFO ] fr.inria.astor.core.setup.ConfigurationProperties.print(ConfigurationProperties.java:66) - p:learningdir= ../../out/learningdir/Time/24/b/
[INFO ] fr.inria.astor.core.setup.ConfigurationProperties.print(ConfigurationProperties.java:66) - p:jvm4evosuitetestexecution= /usr/local/jdk1.7.0_80/bin/
[INFO ] fr.inria.astor.core.setup.ConfigurationProperties.print(ConfigurationProperties.java:66) - p:filterfaultlocalization= true
[INFO ] fr.inria.astor.core.setup.ConfigurationProperties.print(ConfigurationProperties.java:66) - p:mutationrate= 1 
[INFO ] fr.inria.astor.core.setup.ConfigurationProperties.print(ConfigurationProperties.java:66) - p:pathToMVNRepository= 
[INFO ] fr.inria.astor.core.setup.ConfigurationProperties.print(ConfigurationProperties.java:66) - p:resourcesfolder= /src/main/resources:/src/test/resources:
[INFO ] fr.inria.astor.core.setup.ConfigurationProperties.print(ConfigurationProperties.java:66) - p:timezone= America/New_York
[INFO ] fr.inria.astor.core.setup.ConfigurationProperties.print(ConfigurationProperties.java:66) - p:classestoinstrument= org.joda.time.base.AbstractPartial:org.joda.time.LocalDateTime:org.joda.time.tz.FixedDateTimeZone:org.joda.time.field.RemainderDateTimeField:org.joda.time.base.BaseLocal:org.joda.time.field.PreciseDateTimeField:org.joda.time.ReadablePartial:org.joda.time.field.FieldUtils:org.joda.time.format.FormatUtils:org.joda.time.field.DividedDateTimeField:org.joda.time.Instant:org.joda.time.format.DateTimeParserBucket:org.joda.time.ReadableInstant:org.joda.time.format.DateTimeParser:org.joda.time.field.DecoratedDurationField:org.joda.time.field.OffsetDateTimeField:org.joda.time.DateTimeField:org.joda.time.chrono.JulianChronology:org.joda.time.chrono.BasicMonthOfYearDateTimeField:org.joda.time.base.BaseDateTime:org.joda.time.chrono.BasicWeekOfWeekyearDateTimeField:org.joda.time.tz.Provider:org.joda.time.format.DateTimePrinter:org.joda.time.DateTimeFieldType:org.joda.time.field.ScaledDurationField:org.joda.time.tz.DateTimeZoneBuilder:org.joda.time.format.DateTimeFormatter:org.joda.time.chrono.GJMonthOfYearDateTimeField:org.joda.time.field.ImpreciseDateTimeField:org.joda.time.chrono.LimitChronology:org.joda.time.chrono.GJEraDateTimeField:org.joda.time.DateTimeZone:org.joda.time.field.BaseDateTimeField:org.joda.time.base.AbstractInstant:org.joda.time.DateTimeUtils:org.joda.time.chrono.BasicGJChronology:org.joda.time.chrono.GJChronology:org.joda.time.chrono.BuddhistChronology:org.joda.time.field.DelegatedDateTimeField:org.joda.time.chrono.ISOYearOfEraDateTimeField:org.joda.time.DateTime:org.joda.time.chrono.BasicSingleEraDateTimeField:org.joda.time.chrono.ISOChronology:org.joda.time.format.ISODateTimeFormat:org.joda.time.DurationField:org.joda.time.field.DecoratedDateTimeField:org.joda.time.chrono.BaseChronology:org.joda.time.chrono.GJYearOfEraDateTimeField:org.joda.time.LocalDate:org.joda.time.tz.CachedDateTimeZone:org.joda.time.field.MillisDurationField:org.joda.time.field.SkipUndoDateTimeField:org.joda.time.chrono.GJDayOfWeekDateTimeField:org.joda.time.field.PreciseDurationDateTimeField:org.joda.time.chrono.BasicDayOfYearDateTimeField:org.joda.time.IllegalFieldValueException:org.joda.time.chrono.GregorianChronology:org.joda.time.ReadWritableInstant:org.joda.time.chrono.AssembledChronology:org.joda.time.DurationFieldType:org.joda.time.field.UnsupportedDateTimeField:org.joda.time.tz.DefaultNameProvider:org.joda.time.field.BaseDurationField:org.joda.time.field.SkipDateTimeField:org.joda.time.ReadableInterval:org.joda.time.chrono.BasicChronology:org.joda.time.field.UnsupportedDurationField:org.joda.time.Chronology:org.joda.time.format.DateTimeFormat:org.joda.time.format.DateTimeFormatterBuilder:org.joda.time.chrono.BasicYearDateTimeField:org.joda.time.chrono.BasicDayOfMonthDateTimeField:org.joda.time.base.AbstractDateTime:org.joda.time.JodaTimePermission:org.joda.time.chrono.BasicWeekyearDateTimeField:org.joda.time.tz.NameProvider:org.joda.time.ReadableDateTime:org.joda.time.field.ZeroIsMaxDateTimeField:org.joda.time.chrono.ZonedChronology:org.joda.time.field.PreciseDurationField:org.joda.time.tz.ZoneInfoProvider:
[INFO ] fr.inria.astor.core.setup.ConfigurationProperties.print(ConfigurationProperties.java:66) - p:evoRunOnBuggyClass= true
[INFO ] fr.inria.astor.core.setup.ConfigurationProperties.print(ConfigurationProperties.java:66) - p:compiler= fr.inria.astor.core.manipulation.bytecode.compiler.SpoonClassCompiler
[INFO ] fr.inria.astor.core.setup.ConfigurationProperties.print(ConfigurationProperties.java:66) - p:dependenciespath= ../../dat/libs/Time/joda-convert-1.2.jar
[INFO ] fr.inria.astor.core.setup.ConfigurationProperties.print(ConfigurationProperties.java:66) - p:skipfaultlocalization= false
[INFO ] fr.inria.astor.core.setup.ConfigurationProperties.print(ConfigurationProperties.java:66) - p:packageToInstrument= org.joda
[INFO ] fr.inria.astor.core.setup.ConfigurationProperties.print(ConfigurationProperties.java:66) - p:scope= fr.inria.astor.core.loop.spaces.ingredients.scopes.ctscopes.CtGlobalIngredientScope
[INFO ] fr.inria.astor.core.setup.ConfigurationProperties.print(ConfigurationProperties.java:66) - p:transformingredient= true
[INFO ] fr.inria.astor.core.setup.ConfigurationProperties.print(ConfigurationProperties.java:66) - p:fitnessfunction= fr.inria.astor.core.loop.population.TestCaseFitnessFunction
[INFO ] fr.inria.astor.core.setup.ConfigurationProperties.print(ConfigurationProperties.java:66) - p:pvariantfoldername= variant-
[INFO ] fr.inria.astor.core.setup.ConfigurationProperties.print(ConfigurationProperties.java:66) - p:srcjavafolder= src/main/java/
[INFO ] fr.inria.astor.core.setup.ConfigurationProperties.print(ConfigurationProperties.java:66) - p:populationcontroller= fr.inria.astor.core.loop.population.TestCaseBasedFitnessPopulationController
[INFO ] fr.inria.astor.core.setup.ConfigurationProperties.print(ConfigurationProperties.java:66) - p:ignoreflakyinfl= false
[INFO ] fr.inria.astor.core.setup.ConfigurationProperties.print(ConfigurationProperties.java:66) - p:applyCrossover= false
[INFO ] fr.inria.astor.core.setup.ConfigurationProperties.print(ConfigurationProperties.java:66) - p:saveall= false
[INFO ] fr.inria.astor.core.setup.ConfigurationProperties.print(ConfigurationProperties.java:66) - p:seed= 2
[INFO ] fr.inria.astor.core.setup.ConfigurationProperties.print(ConfigurationProperties.java:66) - p:resetoperations= false
[INFO ] fr.inria.astor.core.setup.ConfigurationProperties.print(ConfigurationProperties.java:66) - p:location= ../../dat/defects4j/Time/24/b/
[INFO ] fr.inria.astor.core.setup.ConfigurationProperties.print(ConfigurationProperties.java:66) - p:ingredientstrategy= fr.inria.astor.core.loop.spaces.ingredients.ingredientSearch.EfficientIngredientStrategy
[INFO ] fr.inria.astor.core.setup.ConfigurationProperties.print(ConfigurationProperties.java:66) - p:allpoints= false
[INFO ] fr.inria.astor.core.setup.ConfigurationProperties.print(ConfigurationProperties.java:66) - p:bugId= 280
[INFO ] fr.inria.astor.core.setup.ConfigurationProperties.print(ConfigurationProperties.java:66) - p:evosuitetimeout= 120
[INFO ] fr.inria.astor.core.setup.ConfigurationProperties.print(ConfigurationProperties.java:68) - ----------------------------
[INFO ] fr.inria.astor.core.loop.AstorCoreEngine.startEvolution(AstorCoreEngine.java:119) - 
----Starting Solution Search
[ERROR] fr.inria.astor.core.validation.executors.JUnitIndirectExecutorProcess.getTestResult(JUnitIndirectExecutorProcess.java:72) - Error reading the validation process
 output: 
America/New_York
Exception in thread "main" java.lang.ExceptionInInitializerError
	at org.joda.time.format.TestDateTimeFormatter.<clinit>(TestDateTimeFormatter.java:53)
	at java.lang.Class.forName0(Native Method)
	at java.lang.Class.forName(Class.java:195)
	at JUnitExternalExecutor.getClassesToRun(JUnitExternalExecutor.java:84)
	at JUnitExternalExecutor.run(JUnitExternalExecutor.java:72)
	at JUnitExternalExecutor.main(JUnitExternalExecutor.java:63)
Caused by: org.joda.time.IllegalFieldValueException: Value 83 for dayOfMonth must be in the range [1,31]
	at org.joda.time.field.FieldUtils.verifyValueBounds(FieldUtils.java:96)
	at org.joda.time.chrono.BasicChronology.getDateMidnightMillis(BasicChronology.java:349)
	at org.joda.time.chrono.BasicChronology.getDateTimeMillis(BasicChronology.java:92)
	at org.joda.time.chrono.GregorianChronology.getDateTimeMillis(GregorianChronology.java:2)
	at org.joda.time.chrono.GJChronology.convertByYear(GJChronology.java:6)
	at org.joda.time.chrono.GJChronology.julianToGregorianByYear(GJChronology.java:254)
	at org.joda.time.chrono.GJChronology.assemble(GJChronology.java:207)
	at org.joda.time.chrono.AssembledChronology.setFields(AssembledChronology.java:274)
	at org.joda.time.chrono.AssembledChronology.<init>(AssembledChronology.java:84)
	at org.joda.time.chrono.GJChronology.<init>(GJChronology.java:90)
	at org.joda.time.chrono.GJChronology.getInstance(GJChronology.java:60)
	at org.joda.time.chrono.GJChronology.getInstance(GJChronology.java:35)
	at org.joda.time.chrono.BuddhistChronology.getInstance(BuddhistChronology.java:110)
	at org.joda.time.chrono.BuddhistChronology.<clinit>(BuddhistChronology.java:74)
	... 6 more
 
 error: 
[ERROR] fr.inria.astor.core.validation.executors.JUnitIndirectExecutorProcess.getTestResult(JUnitIndirectExecutorProcess.java:72) - Error reading the validation process
 output: 
America/New_York
Exception in thread "main" java.lang.ExceptionInInitializerError
	at org.joda.time.format.TestDateTimeFormatter.<clinit>(TestDateTimeFormatter.java:53)
	at java.lang.Class.forName0(Native Method)
	at java.lang.Class.forName(Class.java:195)
	at JUnitExternalExecutor.getClassesToRun(JUnitExternalExecutor.java:84)
	at JUnitExternalExecutor.run(JUnitExternalExecutor.java:72)
	at JUnitExternalExecutor.main(JUnitExternalExecutor.java:63)
Caused by: org.joda.time.IllegalFieldValueException: Value 83 for dayOfMonth must be in the range [1,31]
	at org.joda.time.field.FieldUtils.verifyValueBounds(FieldUtils.java:96)
	at org.joda.time.chrono.BasicChronology.getDateMidnightMillis(BasicChronology.java:349)
	at org.joda.time.chrono.BasicChronology.getDateTimeMillis(BasicChronology.java:92)
	at org.joda.time.chrono.GregorianChronology.getDateTimeMillis(GregorianChronology.java:2)
	at org.joda.time.chrono.GJChronology.convertByYear(GJChronology.java:6)
	at org.joda.time.chrono.GJChronology.julianToGregorianByYear(GJChronology.java:254)
	at org.joda.time.chrono.GJChronology.assemble(GJChronology.java:207)
	at org.joda.time.chrono.AssembledChronology.setFields(AssembledChronology.java:274)
	at org.joda.time.chrono.AssembledChronology.<init>(AssembledChronology.java:84)
	at org.joda.time.chrono.GJChronology.<init>(GJChronology.java:90)
	at org.joda.time.chrono.GJChronology.getInstance(GJChronology.java:60)
	at org.joda.time.chrono.GJChronology.getInstance(GJChronology.java:35)
	at org.joda.time.chrono.BuddhistChronology.getInstance(BuddhistChronology.java:110)
	at org.joda.time.chrono.BuddhistChronology.<clinit>(BuddhistChronology.java:74)
	... 6 more
 
 error: 
[INFO ] fr.inria.astor.core.validation.executors.JUnitExecutorProcess.execute(JUnitExecutorProcess.java:120) - The Process that runs JUnit test cases had problems: process hasn't exited
[ERROR] fr.inria.astor.core.validation.executors.JUnitIndirectExecutorProcess.getTestResult(JUnitIndirectExecutorProcess.java:72) - Error reading the validation process
 output: 
America/New_York
Exception in thread "main" java.lang.ExceptionInInitializerError
	at org.joda.time.format.TestDateTimeFormatter.<clinit>(TestDateTimeFormatter.java:53)
	at java.lang.Class.forName0(Native Method)
	at java.lang.Class.forName(Class.java:195)
	at JUnitExternalExecutor.getClassesToRun(JUnitExternalExecutor.java:84)
	at JUnitExternalExecutor.run(JUnitExternalExecutor.java:72)
	at JUnitExternalExecutor.main(JUnitExternalExecutor.java:63)
Caused by: org.joda.time.IllegalFieldValueException: Value 204119 for dayOfMonth must be in the range [1,31]
	at org.joda.time.field.FieldUtils.verifyValueBounds(FieldUtils.java:96)
	at org.joda.time.chrono.BasicChronology.getDateMidnightMillis(BasicChronology.java:349)
	at org.joda.time.chrono.BasicChronology.getDateTimeMillis(BasicChronology.java:92)
	at org.joda.time.chrono.GregorianChronology.getDateTimeMillis(GregorianChronology.java:2)
	at org.joda.time.chrono.GJChronology.convertByYear(GJChronology.java:6)
	at org.joda.time.chrono.GJChronology.julianToGregorianByYear(GJChronology.java:254)
	at org.joda.time.chrono.GJChronology.assemble(GJChronology.java:207)
	at org.joda.time.chrono.AssembledChronology.setFields(AssembledChronology.java:274)
	at org.joda.time.chrono.AssembledChronology.<init>(AssembledChronology.java:84)
	at org.joda.time.chrono.GJChronology.<init>(GJChronology.java:90)
	at org.joda.time.chrono.GJChronology.getInstance(GJChronology.java:60)
	at org.joda.time.chrono.GJChronology.getInstance(GJChronology.java:35)
	at org.joda.time.chrono.BuddhistChronology.getInstance(BuddhistChronology.java:110)
	at org.joda.time.chrono.BuddhistChronology.<clinit>(BuddhistChronology.java:74)
	... 6 more
 
 error: 
[ERROR] fr.inria.astor.core.validation.executors.JUnitIndirectExecutorProcess.getTestResult(JUnitIndirectExecutorProcess.java:72) - Error reading the validation process
 output: 
America/New_York
Exception in thread "main" java.lang.ExceptionInInitializerError
	at org.joda.time.format.TestDateTimeFormatter.<clinit>(TestDateTimeFormatter.java:53)
	at java.lang.Class.forName0(Native Method)
	at java.lang.Class.forName(Class.java:195)
	at JUnitExternalExecutor.getClassesToRun(JUnitExternalExecutor.java:84)
	at JUnitExternalExecutor.run(JUnitExternalExecutor.java:72)
	at JUnitExternalExecutor.main(JUnitExternalExecutor.java:63)
Caused by: org.joda.time.IllegalFieldValueException: Value 204119 for dayOfMonth must be in the range [1,31]
	at org.joda.time.field.FieldUtils.verifyValueBounds(FieldUtils.java:96)
	at org.joda.time.chrono.BasicChronology.getDateMidnightMillis(BasicChronology.java:349)
	at org.joda.time.chrono.BasicChronology.getDateTimeMillis(BasicChronology.java:92)
	at org.joda.time.chrono.GregorianChronology.getDateTimeMillis(GregorianChronology.java:2)
	at org.joda.time.chrono.GJChronology.convertByYear(GJChronology.java:6)
	at org.joda.time.chrono.GJChronology.julianToGregorianByYear(GJChronology.java:254)
	at org.joda.time.chrono.GJChronology.assemble(GJChronology.java:207)
	at org.joda.time.chrono.AssembledChronology.setFields(AssembledChronology.java:274)
	at org.joda.time.chrono.AssembledChronology.<init>(AssembledChronology.java:84)
	at org.joda.time.chrono.GJChronology.<init>(GJChronology.java:90)
	at org.joda.time.chrono.GJChronology.getInstance(GJChronology.java:60)
	at org.joda.time.chrono.GJChronology.getInstance(GJChronology.java:35)
	at org.joda.time.chrono.BuddhistChronology.getInstance(BuddhistChronology.java:110)
	at org.joda.time.chrono.BuddhistChronology.<clinit>(BuddhistChronology.java:74)
	... 6 more
 
 error: 
[INFO ] fr.inria.astor.core.validation.executors.JUnitExecutorProcess.execute(JUnitExecutorProcess.java:120) - The Process that runs JUnit test cases had problems: process hasn't exited
[INFO ] fr.inria.astor.core.loop.AstorCoreEngine.belowMaxTime(AstorCoreEngine.java:203) - 
 No more time for operating
[INFO ] fr.inria.astor.core.loop.AstorCoreEngine.startEvolution(AstorCoreEngine.java:143) - Time Repair Loop (s): 10868.637
[INFO ] fr.inria.astor.core.loop.AstorCoreEngine.showResults(AstorCoreEngine.java:165) - 
----SUMMARY_EXECUTION---
[INFO ] fr.inria.astor.approaches.jgenprog.JGenProg.showResults(JGenProg.java:332) - 
successful_ing_attempts (#trials 0, totalAttps 0): []
[INFO ] fr.inria.astor.approaches.jgenprog.JGenProg.showResults(JGenProg.java:334) - 
failing_ing_attempts (#trials 737, totalAttps 3865): [1, 1, 5, 8, 1, 1, 2, 11, 4, 3, 7, 7, 2, 1, 43, 3, 1, 4, 1, 19, 15, 3, 3, 2, 1, 2, 1, 15, 10, 5, 8, 1, 47, 1, 3, 2, 5, 3, 2, 6, 33, 6, 11, 6, 2, 5, 8, 7, 2, 8, 9, 2, 12, 38, 1, 9, 9, 7, 10, 10, 2, 24, 5, 9, 2, 1, 5, 2, 4, 2, 7, 2, 3, 16, 2, 1, 2, 2, 4, 14, 6, 1, 3, 1, 4, 1, 6, 1, 10, 2, 25, 5, 1, 3, 1, 11, 1, 5, 1, 8, 4, 13, 4, 2, 4, 13, 1, 7, 7, 3, 2, 9, 2, 2, 1, 13, 8, 9, 3, 1, 2, 4, 5, 5, 3, 2, 2, 13, 1, 1, 1, 5, 27, 5, 7, 1, 1, 6, 10, 1, 1, 1, 1, 1, 1, 4, 7, 3, 4, 5, 3, 4, 3, 5, 1, 1, 6, 7, 5, 3, 2, 3, 2, 2, 5, 5, 1, 4, 3, 3, 1, 1, 10, 1, 7, 7, 22, 3, 3, 3, 2, 6, 4, 4, 3, 4, 1, 2, 3, 12, 7, 8, 5, 10, 18, 1, 1, 4, 3, 2, 16, 11, 10, 1, 5, 8, 2, 9, 5, 1, 5, 1, 8, 1, 4, 6, 1, 2, 10, 11, 1, 2, 2, 2, 1, 3, 5, 2, 3, 28, 2, 1, 1, 1, 2, 5, 5, 14, 2, 3, 6, 1, 5, 3, 14, 6, 1, 2, 7, 7, 12, 4, 1, 10, 7, 6, 1, 2, 4, 1, 4, 4, 9, 11, 3, 1, 5, 4, 4, 2, 1, 14, 4, 1, 3, 18, 6, 15, 8, 8, 16, 4, 4, 10, 2, 15, 10, 2, 3, 2, 4, 6, 4, 2, 3, 3, 6, 1, 1, 4, 11, 2, 1, 1, 7, 2, 4, 12, 4, 1, 2, 5, 4, 4, 8, 8, 1, 4, 4, 4, 5, 9, 2, 34, 3, 2, 1, 1, 4, 1, 5, 18, 5, 14, 3, 9, 2, 7, 3, 4, 6, 3, 6, 10, 5, 1, 13, 13, 10, 1, 1, 4, 7, 6, 7, 1, 3, 1, 3, 1, 7, 3, 8, 5, 2, 1, 4, 6, 16, 6, 5, 9, 13, 1, 1, 2, 1, 1, 1, 2, 2, 3, 1, 9, 17, 3, 5, 18, 3, 10, 3, 4, 3, 3, 7, 9, 1, 10, 2, 5, 7, 2, 4, 9, 4, 3, 2, 5, 2, 17, 1, 4, 6, 1, 2, 7, 1, 2, 1, 1, 3, 4, 6, 3, 3, 10, 6, 7, 3, 2, 31, 3, 7, 7, 4, 24, 10, 4, 4, 3, 5, 5, 6, 2, 7, 1, 8, 2, 6, 3, 3, 5, 4, 6, 2, 12, 3, 1, 7, 1, 1, 2, 1, 2, 1, 4, 1, 3, 1, 9, 1, 1, 4, 1, 3, 2, 2, 4, 1, 2, 2, 2, 19, 28, 3, 34, 1, 18, 2, 6, 2, 1, 4, 3, 2, 8, 4, 2, 8, 3, 8, 3, 7, 3, 1, 5, 22, 2, 5, 1, 1, 3, 7, 4, 5, 3, 1, 1, 8, 17, 2, 12, 24, 5, 2, 1, 3, 1, 13, 5, 5, 1, 4, 8, 9, 6, 1, 1, 2, 4, 4, 1, 1, 8, 4, 3, 20, 6, 2, 6, 1, 3, 4, 6, 4, 6, 1, 13, 4, 3, 11, 4, 1, 9, 5, 2, 2, 4, 6, 1, 6, 2, 1, 1, 7, 8, 1, 5, 4, 10, 1, 1, 3, 2, 6, 4, 48, 1, 1, 4, 1, 2, 15, 1, 3, 1, 4, 2, 18, 1, 3, 6, 7, 2, 12, 1, 8, 2, 6, 2, 2, 7, 9, 1, 26, 1, 5, 1, 2, 3, 3, 4, 1, 6, 8, 2, 4, 8, 1, 6, 8, 1, 3, 1, 3, 3, 3, 6, 2, 2, 15, 4, 2, 6, 1, 3, 4, 2, 15, 3, 2, 2, 8, 4, 4, 2, 1, 1, 33, 6, 5, 4, 4, 2, 5, 5, 5, 1, 8, 1, 6, 10, 2, 4, 4, 2, 2, 4, 7, 1, 4, 2, 6, 8, 4, 7, 4, 3, 15, 11, 8, 13, 8, 1, 2, 3, 29, 8, 13, 1, 3, 6, 2, 1, 3, 1, 1, 2, 4, 3, 5, 4, 2, 2, 6, 1, 3, 3, 1, 7, 1, 1, 3, 1, 3, 6, 1, 9, 5, 1, 2, 3, 1, 3, 1, 1, 7]
[INFO ] fr.inria.astor.approaches.jgenprog.JGenProg.showResults(JGenProg.java:337) - 
total Patch Attempts (0): []
[INFO ] fr.inria.astor.approaches.jgenprog.JGenProg.showResults(JGenProg.java:339) - 
successful_ing_attempts_by_patch: []
[INFO ] fr.inria.astor.approaches.jgenprog.JGenProg.showResults(JGenProg.java:340) - 
failing_ing_attempts_by_patch: [(pv:2,at:1), (pv:3,at:1), (pv:4,at:5), (pv:5,at:8), (pv:6,at:1), (pv:7,at:1), (pv:8,at:2), (pv:9,at:11), (pv:10,at:4), (pv:11,at:3), (pv:12,at:7), (pv:13,at:7), (pv:14,at:2), (pv:15,at:1), (pv:16,at:43), (pv:17,at:3), (pv:18,at:1), (pv:19,at:4), (pv:20,at:1), (pv:21,at:19), (pv:22,at:15), (pv:23,at:3), (pv:24,at:3), (pv:25,at:2), (pv:26,at:1), (pv:27,at:2), (pv:28,at:1), (pv:29,at:15), (pv:30,at:10), (pv:31,at:5), (pv:32,at:8), (pv:33,at:1), (pv:34,at:47), (pv:35,at:1), (pv:36,at:3), (pv:37,at:2), (pv:38,at:5), (pv:39,at:3), (pv:40,at:2), (pv:41,at:6), (pv:42,at:33), (pv:43,at:6), (pv:44,at:11), (pv:45,at:6), (pv:46,at:2), (pv:47,at:5), (pv:48,at:8), (pv:49,at:7), (pv:50,at:2), (pv:51,at:8), (pv:52,at:9), (pv:53,at:2), (pv:54,at:12), (pv:55,at:38), (pv:56,at:1), (pv:57,at:9), (pv:58,at:9), (pv:59,at:7), (pv:60,at:10), (pv:61,at:10), (pv:62,at:2), (pv:63,at:24), (pv:64,at:5), (pv:65,at:9), (pv:66,at:2), (pv:67,at:1), (pv:68,at:5), (pv:69,at:2), (pv:70,at:4), (pv:71,at:2), (pv:72,at:7), (pv:73,at:2), (pv:74,at:3), (pv:75,at:16), (pv:76,at:2), (pv:77,at:1), (pv:78,at:2), (pv:79,at:2), (pv:80,at:4), (pv:81,at:14), (pv:82,at:6), (pv:83,at:1), (pv:84,at:3), (pv:85,at:1), (pv:86,at:4), (pv:87,at:1), (pv:88,at:6), (pv:89,at:1), (pv:90,at:10), (pv:91,at:2), (pv:92,at:25), (pv:93,at:5), (pv:94,at:1), (pv:95,at:3), (pv:96,at:1), (pv:97,at:11), (pv:98,at:1), (pv:99,at:5), (pv:100,at:1), (pv:101,at:8), (pv:102,at:4), (pv:103,at:13), (pv:104,at:4), (pv:105,at:2), (pv:106,at:4), (pv:107,at:13), (pv:108,at:1), (pv:109,at:7), (pv:110,at:7), (pv:111,at:3), (pv:112,at:2), (pv:113,at:9), (pv:114,at:2), (pv:115,at:2), (pv:116,at:1), (pv:117,at:13), (pv:118,at:8), (pv:119,at:9), (pv:120,at:3), (pv:121,at:1), (pv:122,at:2), (pv:123,at:4), (pv:124,at:5), (pv:125,at:5), (pv:126,at:3), (pv:127,at:2), (pv:128,at:2), (pv:129,at:13), (pv:130,at:1), (pv:131,at:1), (pv:132,at:1), (pv:133,at:5), (pv:134,at:27), (pv:135,at:5), (pv:136,at:7), (pv:137,at:1), (pv:138,at:1), (pv:139,at:6), (pv:140,at:10), (pv:141,at:1), (pv:142,at:1), (pv:143,at:1), (pv:144,at:1), (pv:145,at:1), (pv:146,at:1), (pv:147,at:4), (pv:148,at:7), (pv:149,at:3), (pv:150,at:4), (pv:151,at:5), (pv:152,at:3), (pv:153,at:4), (pv:154,at:3), (pv:155,at:5), (pv:156,at:1), (pv:157,at:1), (pv:158,at:6), (pv:159,at:7), (pv:160,at:5), (pv:161,at:3), (pv:162,at:2), (pv:163,at:3), (pv:164,at:2), (pv:165,at:2), (pv:166,at:5), (pv:167,at:5), (pv:168,at:1), (pv:169,at:4), (pv:170,at:3), (pv:171,at:3), (pv:172,at:1), (pv:173,at:1), (pv:174,at:10), (pv:175,at:1), (pv:176,at:7), (pv:177,at:7), (pv:178,at:22), (pv:179,at:3), (pv:180,at:3), (pv:181,at:3), (pv:182,at:2), (pv:183,at:6), (pv:184,at:4), (pv:185,at:4), (pv:186,at:3), (pv:187,at:4), (pv:188,at:1), (pv:189,at:2), (pv:190,at:3), (pv:191,at:12), (pv:192,at:7), (pv:193,at:8), (pv:194,at:5), (pv:195,at:10), (pv:196,at:18), (pv:197,at:1), (pv:198,at:1), (pv:199,at:4), (pv:200,at:3), (pv:201,at:2), (pv:202,at:16), (pv:203,at:11), (pv:204,at:10), (pv:205,at:1), (pv:206,at:5), (pv:207,at:8), (pv:208,at:2), (pv:209,at:9), (pv:210,at:5), (pv:211,at:1), (pv:212,at:5), (pv:213,at:1), (pv:214,at:8), (pv:215,at:1), (pv:216,at:4), (pv:217,at:6), (pv:218,at:1), (pv:219,at:2), (pv:220,at:10), (pv:221,at:11), (pv:222,at:1), (pv:223,at:2), (pv:224,at:2), (pv:225,at:2), (pv:226,at:1), (pv:227,at:3), (pv:228,at:5), (pv:229,at:2), (pv:230,at:3), (pv:231,at:28), (pv:232,at:2), (pv:233,at:1), (pv:234,at:1), (pv:235,at:1), (pv:236,at:2), (pv:237,at:5), (pv:238,at:5), (pv:239,at:14), (pv:240,at:2), (pv:241,at:3), (pv:242,at:6), (pv:243,at:1), (pv:244,at:5), (pv:245,at:3), (pv:246,at:14), (pv:247,at:6), (pv:248,at:1), (pv:249,at:2), (pv:250,at:7), (pv:251,at:7), (pv:252,at:12), (pv:253,at:4), (pv:254,at:1), (pv:255,at:10), (pv:256,at:7), (pv:257,at:6), (pv:258,at:1), (pv:259,at:2), (pv:260,at:4), (pv:261,at:1), (pv:262,at:4), (pv:263,at:4), (pv:264,at:9), (pv:265,at:11), (pv:266,at:3), (pv:267,at:1), (pv:268,at:5), (pv:269,at:4), (pv:270,at:4), (pv:271,at:2), (pv:272,at:1), (pv:273,at:14), (pv:274,at:4), (pv:275,at:1), (pv:276,at:3), (pv:277,at:18), (pv:278,at:6), (pv:279,at:15), (pv:280,at:8), (pv:281,at:8), (pv:282,at:16), (pv:283,at:4), (pv:284,at:4), (pv:285,at:10), (pv:286,at:2), (pv:287,at:15), (pv:288,at:10), (pv:289,at:2), (pv:290,at:3), (pv:291,at:2), (pv:292,at:4), (pv:293,at:6), (pv:294,at:4), (pv:295,at:2), (pv:296,at:3), (pv:297,at:3), (pv:298,at:6), (pv:299,at:1), (pv:300,at:1), (pv:301,at:4), (pv:302,at:11), (pv:303,at:2), (pv:304,at:1), (pv:305,at:1), (pv:306,at:7), (pv:307,at:2), (pv:308,at:4), (pv:309,at:12), (pv:310,at:4), (pv:311,at:1), (pv:312,at:2), (pv:313,at:5), (pv:314,at:4), (pv:315,at:4), (pv:316,at:8), (pv:317,at:8), (pv:318,at:1), (pv:319,at:4), (pv:320,at:4), (pv:321,at:4), (pv:322,at:5), (pv:323,at:9), (pv:324,at:2), (pv:325,at:34), (pv:326,at:3), (pv:327,at:2), (pv:328,at:1), (pv:329,at:1), (pv:330,at:4), (pv:331,at:1), (pv:332,at:5), (pv:333,at:18), (pv:334,at:5), (pv:335,at:14), (pv:336,at:3), (pv:337,at:9), (pv:338,at:2), (pv:339,at:7), (pv:340,at:3), (pv:341,at:4), (pv:342,at:6), (pv:343,at:3), (pv:344,at:6), (pv:345,at:10), (pv:346,at:5), (pv:347,at:1), (pv:348,at:13), (pv:349,at:13), (pv:350,at:10), (pv:351,at:1), (pv:352,at:1), (pv:353,at:4), (pv:354,at:7), (pv:355,at:6), (pv:356,at:7), (pv:357,at:1), (pv:358,at:3), (pv:359,at:1), (pv:360,at:3), (pv:361,at:1), (pv:362,at:7), (pv:363,at:3), (pv:364,at:8), (pv:365,at:5), (pv:366,at:2), (pv:367,at:1), (pv:368,at:4), (pv:369,at:6), (pv:370,at:16), (pv:371,at:6), (pv:372,at:5), (pv:373,at:9), (pv:374,at:13), (pv:375,at:1), (pv:376,at:1), (pv:377,at:2), (pv:378,at:1), (pv:379,at:1), (pv:380,at:1), (pv:381,at:2), (pv:382,at:2), (pv:383,at:3), (pv:384,at:1), (pv:385,at:9), (pv:386,at:17), (pv:387,at:3), (pv:388,at:5), (pv:389,at:18), (pv:390,at:3), (pv:391,at:10), (pv:392,at:3), (pv:393,at:4), (pv:394,at:3), (pv:395,at:3), (pv:396,at:7), (pv:397,at:9), (pv:398,at:1), (pv:399,at:10), (pv:400,at:2), (pv:401,at:5), (pv:402,at:7), (pv:403,at:2), (pv:404,at:4), (pv:405,at:9), (pv:406,at:4), (pv:407,at:3), (pv:408,at:2), (pv:409,at:5), (pv:410,at:2), (pv:411,at:17), (pv:412,at:1), (pv:413,at:4), (pv:414,at:6), (pv:415,at:1), (pv:416,at:2), (pv:417,at:7), (pv:418,at:1), (pv:419,at:2), (pv:420,at:1), (pv:421,at:1), (pv:422,at:3), (pv:423,at:4), (pv:424,at:6), (pv:425,at:3), (pv:426,at:3), (pv:427,at:10), (pv:428,at:6), (pv:429,at:7), (pv:430,at:3), (pv:431,at:2), (pv:432,at:31), (pv:433,at:3), (pv:434,at:7), (pv:435,at:7), (pv:436,at:4), (pv:437,at:24), (pv:438,at:10), (pv:439,at:4), (pv:440,at:4), (pv:441,at:3), (pv:442,at:5), (pv:443,at:5), (pv:444,at:6), (pv:445,at:2), (pv:446,at:7), (pv:447,at:1), (pv:448,at:8), (pv:449,at:2), (pv:450,at:6), (pv:451,at:3), (pv:452,at:3), (pv:453,at:5), (pv:454,at:4), (pv:455,at:6), (pv:456,at:2), (pv:457,at:12), (pv:458,at:3), (pv:459,at:1), (pv:460,at:7), (pv:461,at:1), (pv:462,at:1), (pv:463,at:2), (pv:464,at:1), (pv:465,at:2), (pv:466,at:1), (pv:467,at:4), (pv:468,at:1), (pv:469,at:3), (pv:470,at:1), (pv:471,at:9), (pv:472,at:1), (pv:473,at:1), (pv:474,at:4), (pv:475,at:1), (pv:476,at:3), (pv:477,at:2), (pv:478,at:2), (pv:479,at:4), (pv:480,at:1), (pv:481,at:2), (pv:482,at:2), (pv:483,at:2), (pv:484,at:19), (pv:485,at:28), (pv:486,at:3), (pv:487,at:34), (pv:488,at:1), (pv:489,at:18), (pv:490,at:2), (pv:491,at:6), (pv:492,at:2), (pv:493,at:1), (pv:494,at:4), (pv:495,at:3), (pv:496,at:2), (pv:497,at:8), (pv:498,at:4), (pv:499,at:2), (pv:500,at:8), (pv:501,at:3), (pv:502,at:8), (pv:503,at:3), (pv:504,at:7), (pv:505,at:3), (pv:506,at:1), (pv:507,at:5), (pv:508,at:22), (pv:509,at:2), (pv:510,at:5), (pv:511,at:1), (pv:512,at:1), (pv:513,at:3), (pv:514,at:7), (pv:515,at:4), (pv:516,at:5), (pv:517,at:3), (pv:518,at:1), (pv:519,at:1), (pv:520,at:8), (pv:521,at:17), (pv:522,at:2), (pv:523,at:12), (pv:524,at:24), (pv:525,at:5), (pv:526,at:2), (pv:527,at:1), (pv:528,at:3), (pv:529,at:1), (pv:530,at:13), (pv:531,at:5), (pv:532,at:5), (pv:533,at:1), (pv:534,at:4), (pv:535,at:8), (pv:536,at:9), (pv:537,at:6), (pv:538,at:1), (pv:539,at:1), (pv:540,at:2), (pv:541,at:4), (pv:542,at:4), (pv:543,at:1), (pv:544,at:1), (pv:545,at:8), (pv:546,at:4), (pv:547,at:3), (pv:548,at:20), (pv:549,at:6), (pv:550,at:2), (pv:551,at:6), (pv:552,at:1), (pv:553,at:3), (pv:554,at:4), (pv:555,at:6), (pv:556,at:4), (pv:557,at:6), (pv:558,at:1), (pv:559,at:13), (pv:560,at:4), (pv:561,at:3), (pv:562,at:11), (pv:563,at:4), (pv:564,at:1), (pv:565,at:9), (pv:566,at:5), (pv:567,at:2), (pv:568,at:2), (pv:569,at:4), (pv:570,at:6), (pv:571,at:1), (pv:572,at:6), (pv:573,at:2), (pv:574,at:1), (pv:575,at:1), (pv:576,at:7), (pv:577,at:8), (pv:578,at:1), (pv:579,at:5), (pv:580,at:4), (pv:581,at:10), (pv:582,at:1), (pv:583,at:1), (pv:584,at:3), (pv:585,at:2), (pv:586,at:6), (pv:587,at:4), (pv:588,at:48), (pv:589,at:1), (pv:590,at:1), (pv:591,at:4), (pv:592,at:1), (pv:593,at:2), (pv:594,at:15), (pv:595,at:1), (pv:596,at:3), (pv:597,at:1), (pv:598,at:4), (pv:599,at:2), (pv:600,at:18), (pv:601,at:1), (pv:602,at:3), (pv:603,at:6), (pv:604,at:7), (pv:605,at:2), (pv:606,at:12), (pv:607,at:1), (pv:608,at:8), (pv:609,at:2), (pv:610,at:6), (pv:611,at:2), (pv:612,at:2), (pv:613,at:7), (pv:614,at:9), (pv:615,at:1), (pv:616,at:26), (pv:617,at:1), (pv:618,at:5), (pv:619,at:1), (pv:620,at:2), (pv:621,at:3), (pv:622,at:3), (pv:623,at:4), (pv:624,at:1), (pv:625,at:6), (pv:626,at:8), (pv:627,at:2), (pv:628,at:4), (pv:629,at:8), (pv:630,at:1), (pv:631,at:6), (pv:632,at:8), (pv:633,at:1), (pv:634,at:3), (pv:635,at:1), (pv:636,at:3), (pv:637,at:3), (pv:638,at:3), (pv:639,at:6), (pv:640,at:2), (pv:641,at:2), (pv:642,at:15), (pv:643,at:4), (pv:644,at:2), (pv:645,at:6), (pv:646,at:1), (pv:647,at:3), (pv:648,at:4), (pv:649,at:2), (pv:650,at:15), (pv:651,at:3), (pv:652,at:2), (pv:653,at:2), (pv:654,at:8), (pv:655,at:4), (pv:656,at:4), (pv:657,at:2), (pv:658,at:1), (pv:659,at:1), (pv:660,at:33), (pv:661,at:6), (pv:662,at:5), (pv:663,at:4), (pv:664,at:4), (pv:665,at:2), (pv:666,at:5), (pv:667,at:5), (pv:668,at:5), (pv:669,at:1), (pv:670,at:8), (pv:671,at:1), (pv:672,at:6), (pv:673,at:10), (pv:674,at:2), (pv:675,at:4), (pv:676,at:4), (pv:677,at:2), (pv:678,at:2), (pv:679,at:4), (pv:680,at:7), (pv:681,at:1), (pv:682,at:4), (pv:683,at:2), (pv:684,at:6), (pv:685,at:8), (pv:686,at:4), (pv:687,at:7), (pv:688,at:4), (pv:689,at:3), (pv:690,at:15), (pv:691,at:11), (pv:692,at:8), (pv:693,at:13), (pv:694,at:8), (pv:695,at:1), (pv:696,at:2), (pv:697,at:3), (pv:698,at:29), (pv:699,at:8), (pv:700,at:13), (pv:701,at:1), (pv:702,at:3), (pv:703,at:6), (pv:704,at:2), (pv:705,at:1), (pv:706,at:3), (pv:707,at:1), (pv:708,at:1), (pv:709,at:2), (pv:710,at:4), (pv:711,at:3), (pv:712,at:5), (pv:713,at:4), (pv:714,at:2), (pv:715,at:2), (pv:716,at:6), (pv:717,at:1), (pv:718,at:3), (pv:719,at:3), (pv:720,at:1), (pv:721,at:7), (pv:722,at:1), (pv:723,at:1), (pv:724,at:3), (pv:725,at:1), (pv:726,at:3), (pv:727,at:6), (pv:728,at:1), (pv:729,at:9), (pv:730,at:5), (pv:731,at:1), (pv:732,at:2), (pv:733,at:3), (pv:734,at:1), (pv:735,at:3), (pv:736,at:1), (pv:737,at:1), (pv:738,at:7)]
[INFO ] fr.inria.astor.approaches.jgenprog.JGenProg.showResults(JGenProg.java:342) - 
pvariants_with_transformed_ingredients: [(pv:2,at:1), (pv:3,at:1), (pv:4,at:5), (pv:5,at:8), (pv:6,at:1), (pv:7,at:1), (pv:8,at:2), (pv:9,at:11), (pv:10,at:4), (pv:11,at:3), (pv:12,at:7), (pv:13,at:7), (pv:14,at:2), (pv:15,at:1), (pv:16,at:43), (pv:17,at:3), (pv:18,at:1), (pv:19,at:4), (pv:20,at:1), (pv:21,at:19), (pv:22,at:15), (pv:23,at:3), (pv:24,at:3), (pv:25,at:2), (pv:26,at:1), (pv:27,at:2), (pv:28,at:1), (pv:29,at:15), (pv:30,at:10), (pv:31,at:5), (pv:32,at:8), (pv:33,at:1), (pv:34,at:47), (pv:35,at:1), (pv:36,at:3), (pv:37,at:2), (pv:38,at:5), (pv:39,at:3), (pv:40,at:2), (pv:41,at:6), (pv:42,at:33), (pv:43,at:6), (pv:44,at:11), (pv:45,at:6), (pv:46,at:2), (pv:47,at:5), (pv:48,at:8), (pv:49,at:7), (pv:50,at:2), (pv:51,at:8), (pv:52,at:9), (pv:53,at:2), (pv:54,at:12), (pv:55,at:38), (pv:56,at:1), (pv:57,at:9), (pv:58,at:9), (pv:59,at:7), (pv:60,at:10), (pv:61,at:10), (pv:62,at:2), (pv:63,at:24), (pv:64,at:5), (pv:65,at:9), (pv:66,at:2), (pv:67,at:1), (pv:68,at:5), (pv:69,at:2), (pv:70,at:4), (pv:71,at:2), (pv:72,at:7), (pv:73,at:2), (pv:74,at:3), (pv:75,at:16), (pv:76,at:2), (pv:77,at:1), (pv:78,at:2), (pv:79,at:2), (pv:80,at:4), (pv:81,at:14), (pv:82,at:6), (pv:83,at:1), (pv:84,at:3), (pv:85,at:1), (pv:86,at:4), (pv:87,at:1), (pv:88,at:6), (pv:89,at:1), (pv:90,at:10), (pv:91,at:2), (pv:92,at:25), (pv:93,at:5), (pv:94,at:1), (pv:95,at:3), (pv:96,at:1), (pv:97,at:11), (pv:98,at:1), (pv:99,at:5), (pv:100,at:1), (pv:101,at:8), (pv:102,at:4), (pv:103,at:13), (pv:104,at:4), (pv:105,at:2), (pv:106,at:4), (pv:107,at:13), (pv:108,at:1), (pv:109,at:7), (pv:110,at:7), (pv:111,at:3), (pv:112,at:2), (pv:113,at:9), (pv:114,at:2), (pv:115,at:2), (pv:116,at:1), (pv:117,at:13), (pv:118,at:8), (pv:119,at:9), (pv:120,at:3), (pv:121,at:1), (pv:122,at:2), (pv:123,at:4), (pv:124,at:5), (pv:125,at:5), (pv:126,at:3), (pv:127,at:2), (pv:128,at:2), (pv:129,at:13), (pv:130,at:1), (pv:131,at:1), (pv:132,at:1), (pv:133,at:5), (pv:134,at:27), (pv:135,at:5), (pv:136,at:7), (pv:137,at:1), (pv:138,at:1), (pv:139,at:6), (pv:140,at:10), (pv:141,at:1), (pv:142,at:1), (pv:143,at:1), (pv:144,at:1), (pv:145,at:1), (pv:146,at:1), (pv:147,at:4), (pv:148,at:7), (pv:149,at:3), (pv:150,at:4), (pv:151,at:5), (pv:152,at:3), (pv:153,at:4), (pv:154,at:3), (pv:155,at:5), (pv:156,at:1), (pv:157,at:1), (pv:158,at:6), (pv:159,at:7), (pv:160,at:5), (pv:161,at:3), (pv:162,at:2), (pv:163,at:3), (pv:164,at:2), (pv:165,at:2), (pv:166,at:5), (pv:167,at:5), (pv:168,at:1), (pv:169,at:4), (pv:170,at:3), (pv:171,at:3), (pv:172,at:1), (pv:173,at:1), (pv:174,at:10), (pv:175,at:1), (pv:176,at:7), (pv:177,at:7), (pv:178,at:22), (pv:179,at:3), (pv:180,at:3), (pv:181,at:3), (pv:182,at:2), (pv:183,at:6), (pv:184,at:4), (pv:185,at:4), (pv:186,at:3), (pv:187,at:4), (pv:188,at:1), (pv:189,at:2), (pv:190,at:3), (pv:191,at:12), (pv:192,at:7), (pv:193,at:8), (pv:194,at:5), (pv:195,at:10), (pv:196,at:18), (pv:197,at:1), (pv:198,at:1), (pv:199,at:4), (pv:200,at:3), (pv:201,at:2), (pv:202,at:16), (pv:203,at:11), (pv:204,at:10), (pv:205,at:1), (pv:206,at:5), (pv:207,at:8), (pv:208,at:2), (pv:209,at:9), (pv:210,at:5), (pv:211,at:1), (pv:212,at:5), (pv:213,at:1), (pv:214,at:8), (pv:215,at:1), (pv:216,at:4), (pv:217,at:6), (pv:218,at:1), (pv:219,at:2), (pv:220,at:10), (pv:221,at:11), (pv:222,at:1), (pv:223,at:2), (pv:224,at:2), (pv:225,at:2), (pv:226,at:1), (pv:227,at:3), (pv:228,at:5), (pv:229,at:2), (pv:230,at:3), (pv:231,at:28), (pv:232,at:2), (pv:233,at:1), (pv:234,at:1), (pv:235,at:1), (pv:236,at:2), (pv:237,at:5), (pv:238,at:5), (pv:239,at:14), (pv:240,at:2), (pv:241,at:3), (pv:242,at:6), (pv:243,at:1), (pv:244,at:5), (pv:245,at:3), (pv:246,at:14), (pv:247,at:6), (pv:248,at:1), (pv:249,at:2), (pv:250,at:7), (pv:251,at:7), (pv:252,at:12), (pv:253,at:4), (pv:254,at:1), (pv:255,at:10), (pv:256,at:7), (pv:257,at:6), (pv:258,at:1), (pv:259,at:2), (pv:260,at:4), (pv:261,at:1), (pv:262,at:4), (pv:263,at:4), (pv:264,at:9), (pv:265,at:11), (pv:266,at:3), (pv:267,at:1), (pv:268,at:5), (pv:269,at:4), (pv:270,at:4), (pv:271,at:2), (pv:272,at:1), (pv:273,at:14), (pv:274,at:4), (pv:275,at:1), (pv:276,at:3), (pv:277,at:18), (pv:278,at:6), (pv:279,at:15), (pv:280,at:8), (pv:281,at:8), (pv:282,at:16), (pv:283,at:4), (pv:284,at:4), (pv:285,at:10), (pv:286,at:2), (pv:287,at:15), (pv:288,at:10), (pv:289,at:2), (pv:290,at:3), (pv:291,at:2), (pv:292,at:4), (pv:293,at:6), (pv:294,at:4), (pv:295,at:2), (pv:296,at:3), (pv:297,at:3), (pv:298,at:6), (pv:299,at:1), (pv:300,at:1), (pv:301,at:4), (pv:302,at:11), (pv:303,at:2), (pv:304,at:1), (pv:305,at:1), (pv:306,at:7), (pv:307,at:2), (pv:308,at:4), (pv:309,at:12), (pv:310,at:4), (pv:311,at:1), (pv:312,at:2), (pv:313,at:5), (pv:314,at:4), (pv:315,at:4), (pv:316,at:8), (pv:317,at:8), (pv:318,at:1), (pv:319,at:4), (pv:320,at:4), (pv:321,at:4), (pv:322,at:5), (pv:323,at:9), (pv:324,at:2), (pv:325,at:34), (pv:326,at:3), (pv:327,at:2), (pv:328,at:1), (pv:329,at:1), (pv:330,at:4), (pv:331,at:1), (pv:332,at:5), (pv:333,at:18), (pv:334,at:5), (pv:335,at:14), (pv:336,at:3), (pv:337,at:9), (pv:338,at:2), (pv:339,at:7), (pv:340,at:3), (pv:341,at:4), (pv:342,at:6), (pv:343,at:3), (pv:344,at:6), (pv:345,at:10), (pv:346,at:5), (pv:347,at:1), (pv:348,at:13), (pv:349,at:13), (pv:350,at:10), (pv:351,at:1), (pv:352,at:1), (pv:353,at:4), (pv:354,at:7), (pv:355,at:6), (pv:356,at:7), (pv:357,at:1), (pv:358,at:3), (pv:359,at:1), (pv:360,at:3), (pv:361,at:1), (pv:362,at:7), (pv:363,at:3), (pv:364,at:8), (pv:365,at:5), (pv:366,at:2), (pv:367,at:1), (pv:368,at:4), (pv:369,at:6), (pv:370,at:16), (pv:371,at:6), (pv:372,at:5), (pv:373,at:9), (pv:374,at:13), (pv:375,at:1), (pv:376,at:1), (pv:377,at:2), (pv:378,at:1), (pv:379,at:1), (pv:380,at:1), (pv:381,at:2), (pv:382,at:2), (pv:383,at:3), (pv:384,at:1), (pv:385,at:9), (pv:386,at:17), (pv:387,at:3), (pv:388,at:5), (pv:389,at:18), (pv:390,at:3), (pv:391,at:10), (pv:392,at:3), (pv:393,at:4), (pv:394,at:3), (pv:395,at:3), (pv:396,at:7), (pv:397,at:9), (pv:398,at:1), (pv:399,at:10), (pv:400,at:2), (pv:401,at:5), (pv:402,at:7), (pv:403,at:2), (pv:404,at:4), (pv:405,at:9), (pv:406,at:4), (pv:407,at:3), (pv:408,at:2), (pv:409,at:5), (pv:410,at:2), (pv:411,at:17), (pv:412,at:1), (pv:413,at:4), (pv:414,at:6), (pv:415,at:1), (pv:416,at:2), (pv:417,at:7), (pv:418,at:1), (pv:419,at:2), (pv:420,at:1), (pv:421,at:1), (pv:422,at:3), (pv:423,at:4), (pv:424,at:6), (pv:425,at:3), (pv:426,at:3), (pv:427,at:10), (pv:428,at:6), (pv:429,at:7), (pv:430,at:3), (pv:431,at:2), (pv:432,at:31), (pv:433,at:3), (pv:434,at:7), (pv:435,at:7), (pv:436,at:4), (pv:437,at:24), (pv:438,at:10), (pv:439,at:4), (pv:440,at:4), (pv:441,at:3), (pv:442,at:5), (pv:443,at:5), (pv:444,at:6), (pv:445,at:2), (pv:446,at:7), (pv:447,at:1), (pv:448,at:8), (pv:449,at:2), (pv:450,at:6), (pv:451,at:3), (pv:452,at:3), (pv:453,at:5), (pv:454,at:4), (pv:455,at:6), (pv:456,at:2), (pv:457,at:12), (pv:458,at:3), (pv:459,at:1), (pv:460,at:7), (pv:461,at:1), (pv:462,at:1), (pv:463,at:2), (pv:464,at:1), (pv:465,at:2), (pv:466,at:1), (pv:467,at:4), (pv:468,at:1), (pv:469,at:3), (pv:470,at:1), (pv:471,at:9), (pv:472,at:1), (pv:473,at:1), (pv:474,at:4), (pv:475,at:1), (pv:476,at:3), (pv:477,at:2), (pv:478,at:2), (pv:479,at:4), (pv:480,at:1), (pv:481,at:2), (pv:482,at:2), (pv:483,at:2), (pv:484,at:19), (pv:485,at:28), (pv:486,at:3), (pv:487,at:34), (pv:488,at:1), (pv:489,at:18), (pv:490,at:2), (pv:491,at:6), (pv:492,at:2), (pv:493,at:1), (pv:494,at:4), (pv:495,at:3), (pv:496,at:2), (pv:497,at:8), (pv:498,at:4), (pv:499,at:2), (pv:500,at:8), (pv:501,at:3), (pv:502,at:8), (pv:503,at:3), (pv:504,at:7), (pv:505,at:3), (pv:506,at:1), (pv:507,at:5), (pv:508,at:22), (pv:509,at:2), (pv:510,at:5), (pv:511,at:1), (pv:512,at:1), (pv:513,at:3), (pv:514,at:7), (pv:515,at:4), (pv:516,at:5), (pv:517,at:3), (pv:518,at:1), (pv:519,at:1), (pv:520,at:8), (pv:521,at:17), (pv:522,at:2), (pv:523,at:12), (pv:524,at:24), (pv:525,at:5), (pv:526,at:2), (pv:527,at:1), (pv:528,at:3), (pv:529,at:1), (pv:530,at:13), (pv:531,at:5), (pv:532,at:5), (pv:533,at:1), (pv:534,at:4), (pv:535,at:8), (pv:536,at:9), (pv:537,at:6), (pv:538,at:1), (pv:539,at:1), (pv:540,at:2), (pv:541,at:4), (pv:542,at:4), (pv:543,at:1), (pv:544,at:1), (pv:545,at:8), (pv:546,at:4), (pv:547,at:3), (pv:548,at:20), (pv:549,at:6), (pv:550,at:2), (pv:551,at:6), (pv:552,at:1), (pv:553,at:3), (pv:554,at:4), (pv:555,at:6), (pv:556,at:4), (pv:557,at:6), (pv:558,at:1), (pv:559,at:13), (pv:560,at:4), (pv:561,at:3), (pv:562,at:11), (pv:563,at:4), (pv:564,at:1), (pv:565,at:9), (pv:566,at:5), (pv:567,at:2), (pv:568,at:2), (pv:569,at:4), (pv:570,at:6), (pv:571,at:1), (pv:572,at:6), (pv:573,at:2), (pv:574,at:1), (pv:575,at:1), (pv:576,at:7), (pv:577,at:8), (pv:578,at:1), (pv:579,at:5), (pv:580,at:4), (pv:581,at:10), (pv:582,at:1), (pv:583,at:1), (pv:584,at:3), (pv:585,at:2), (pv:586,at:6), (pv:587,at:4), (pv:588,at:48), (pv:589,at:1), (pv:590,at:1), (pv:591,at:4), (pv:592,at:1), (pv:593,at:2), (pv:594,at:15), (pv:595,at:1), (pv:596,at:3), (pv:597,at:1), (pv:598,at:4), (pv:599,at:2), (pv:600,at:18), (pv:601,at:1), (pv:602,at:3), (pv:603,at:6), (pv:604,at:7), (pv:605,at:2), (pv:606,at:12), (pv:607,at:1), (pv:608,at:8), (pv:609,at:2), (pv:610,at:6), (pv:611,at:2), (pv:612,at:2), (pv:613,at:7), (pv:614,at:9), (pv:615,at:1), (pv:616,at:26), (pv:617,at:1), (pv:618,at:5), (pv:619,at:1), (pv:620,at:2), (pv:621,at:3), (pv:622,at:3), (pv:623,at:4), (pv:624,at:1), (pv:625,at:6), (pv:626,at:8), (pv:627,at:2), (pv:628,at:4), (pv:629,at:8), (pv:630,at:1), (pv:631,at:6), (pv:632,at:8), (pv:633,at:1), (pv:634,at:3), (pv:635,at:1), (pv:636,at:3), (pv:637,at:3), (pv:638,at:3), (pv:639,at:6), (pv:640,at:2), (pv:641,at:2), (pv:642,at:15), (pv:643,at:4), (pv:644,at:2), (pv:645,at:6), (pv:646,at:1), (pv:647,at:3), (pv:648,at:4), (pv:649,at:2), (pv:650,at:15), (pv:651,at:3), (pv:652,at:2), (pv:653,at:2), (pv:654,at:8), (pv:655,at:4), (pv:656,at:4), (pv:657,at:2), (pv:658,at:1), (pv:659,at:1), (pv:660,at:33), (pv:661,at:6), (pv:662,at:5), (pv:663,at:4), (pv:664,at:4), (pv:665,at:2), (pv:666,at:5), (pv:667,at:5), (pv:668,at:5), (pv:669,at:1), (pv:670,at:8), (pv:671,at:1), (pv:672,at:6), (pv:673,at:10), (pv:674,at:2), (pv:675,at:4), (pv:676,at:4), (pv:677,at:2), (pv:678,at:2), (pv:679,at:4), (pv:680,at:7), (pv:681,at:1), (pv:682,at:4), (pv:683,at:2), (pv:684,at:6), (pv:685,at:8), (pv:686,at:4), (pv:687,at:7), (pv:688,at:4), (pv:689,at:3), (pv:690,at:15), (pv:691,at:11), (pv:692,at:8), (pv:693,at:13), (pv:694,at:8), (pv:695,at:1), (pv:696,at:2), (pv:697,at:3), (pv:698,at:29), (pv:699,at:8), (pv:700,at:13), (pv:701,at:1), (pv:702,at:3), (pv:703,at:6), (pv:704,at:2), (pv:705,at:1), (pv:706,at:3), (pv:707,at:1), (pv:708,at:1), (pv:709,at:2), (pv:710,at:4), (pv:711,at:3), (pv:712,at:5), (pv:713,at:4), (pv:714,at:2), (pv:715,at:2), (pv:716,at:6), (pv:717,at:1), (pv:718,at:3), (pv:719,at:3), (pv:720,at:1), (pv:721,at:7), (pv:722,at:1), (pv:723,at:1), (pv:724,at:3), (pv:725,at:1), (pv:726,at:3), (pv:727,at:6), (pv:728,at:1), (pv:729,at:9), (pv:730,at:5), (pv:731,at:1), (pv:732,at:2), (pv:733,at:3), (pv:734,at:1), (pv:735,at:3), (pv:736,at:1), (pv:737,at:1), (pv:738,at:7)]
[INFO ] fr.inria.main.evolution.AstorMain.run(AstorMain.java:163) - Time Total(s): 10920.455
