Warning: no access to tty (Bad file descriptor).
Thus no job control in this shell.
tput: No value for $TERM and no -T specified
Node: wh17.sciclone.wm.edu
[INFO ] fr.inria.main.AbstractMain.processArguments(AbstractMain.java:295) - command line arguments: [-out  /local/scr/mtufano/Math/79/b/random-package-default/2  -jvm4testexecution  /usr/local/jdk1.7.0_80/bin/  -loglevel  INFO  -maxVarCombination  1000  -maxgen  1000000  -population  1  -maxtime  180  -timezone  America/New_York  -customop  fr.inria.astor.approaches.jgenprog.operators.InsertAfterOp:fr.inria.astor.approaches.jgenprog.operators.InsertBeforeOp:fr.inria.astor.approaches.jgenprog.operators.ReplaceOp  -seed  2  -javacompliancelevel  5  -package  org.apache.commons  -binjavafolder  target/classes/  -bintestfolder  target/test-classes/  -srcjavafolder  src/main/java/  -srctestfolder  src/test/java/  -learningdir  ../../out/learningdir/Math/79/b/  -location  ../../dat/defects4j/Math/79/b/  -failing  org.apache.commons.math.stat.clustering.KMeansPlusPlusClustererTest  -dependencies  ../../dat/libs/Math/commons-discovery-0.5.jar  -scope  fr.inria.astor.core.loop.spaces.ingredients.scopes.ctscopes.CtPackageIngredientScope  -ingredientstrategy  fr.inria.astor.core.loop.spaces.ingredients.ingredientSearch.EfficientIngredientStrategy  -classestoinstrument  org.apache.commons.math.stat.clustering.Clusterable:org.apache.commons.math.stat.clustering.EuclideanIntegerPoint:org.apache.commons.math.stat.clustering.Cluster:org.apache.commons.math.util.MathUtils:org.apache.commons.math.stat.clustering.KMeansPlusPlusClusterer:  -regressiontestcases4fl  org.apache.commons.math.analysis.interpolation.MicrosphereInterpolatorTest:org.apache.commons.math.analysis.solvers.LaguerreSolverTest:org.apache.commons.math.analysis.solvers.MullerSolverTest:org.apache.commons.math.analysis.solvers.RiddersSolverTest:org.apache.commons.math.complex.ComplexTest:org.apache.commons.math.distribution.HypergeometricDistributionTest:org.apache.commons.math.distribution.PascalDistributionTest:org.apache.commons.math.fraction.BigFractionTest:org.apache.commons.math.fraction.FractionFieldTest:org.apache.commons.math.fraction.FractionFormatTest:org.apache.commons.math.fraction.FractionTest:org.apache.commons.math.geometry.RotationTest:org.apache.commons.math.linear.Array2DRowRealMatrixTest:org.apache.commons.math.linear.ArrayFieldVectorTest:org.apache.commons.math.linear.ArrayRealVectorTest:org.apache.commons.math.linear.BlockFieldMatrixTest:org.apache.commons.math.linear.BlockRealMatrixTest:org.apache.commons.math.linear.FieldLUDecompositionImplTest:org.apache.commons.math.linear.FieldMatrixImplTest:org.apache.commons.math.linear.MatrixUtilsTest:org.apache.commons.math.linear.RealMatrixImplTest:org.apache.commons.math.linear.SparseFieldMatrixTest:org.apache.commons.math.linear.SparseFieldVectorTest:org.apache.commons.math.linear.SparseRealMatrixTest:org.apache.commons.math.optimization.fitting.HarmonicFitterTest:org.apache.commons.math.optimization.linear.SimplexSolverTest:org.apache.commons.math.optimization.linear.SimplexTableauTest:org.apache.commons.math.stat.clustering.EuclideanIntegerPointTest:org.apache.commons.math.stat.clustering.KMeansPlusPlusClustererTest:org.apache.commons.math.stat.descriptive.AggregateSummaryStatisticsTest:org.apache.commons.math.stat.descriptive.DescriptiveStatisticsTest:org.apache.commons.math.stat.descriptive.MultivariateSummaryStatisticsTest:org.apache.commons.math.stat.descriptive.StatisticalSummaryValuesTest:org.apache.commons.math.stat.descriptive.SummaryStatisticsTest:org.apache.commons.math.stat.descriptive.SynchronizedDescriptiveStatisticsTest:org.apache.commons.math.stat.descriptive.SynchronizedMultivariateSummaryStatisticsTest:org.apache.commons.math.stat.descriptive.SynchronizedSummaryStatisticsTest:org.apache.commons.math.stat.descriptive.moment.FirstMomentTest:org.apache.commons.math.stat.descriptive.moment.FourthMomentTest:org.apache.commons.math.stat.descriptive.moment.GeometricMeanTest:org.apache.commons.math.stat.descriptive.moment.KurtosisTest:org.apache.commons.math.stat.descriptive.moment.MeanTest:org.apache.commons.math.stat.descriptive.moment.SecondMomentTest:org.apache.commons.math.stat.descriptive.moment.SkewnessTest:org.apache.commons.math.stat.descriptive.moment.StandardDeviationTest:org.apache.commons.math.stat.descriptive.moment.ThirdMomentTest:org.apache.commons.math.stat.descriptive.moment.VarianceTest:org.apache.commons.math.stat.descriptive.moment.VectorialMeanTest:org.apache.commons.math.stat.descriptive.rank.MaxTest:org.apache.commons.math.stat.descriptive.rank.MinTest:org.apache.commons.math.stat.descriptive.summary.ProductTest:org.apache.commons.math.stat.descriptive.summary.SumLogTest:org.apache.commons.math.stat.descriptive.summary.SumSqTest:org.apache.commons.math.stat.descriptive.summary.SumTest:org.apache.commons.math.util.MathUtilsTest:org.apache.commons.math.util.OpenIntToFieldTest:]
[INFO ] fr.inria.astor.core.manipulation.MutationSupporter.buildModel(MutationSupporter.java:76) - building model: /local/scr/mtufano/Math/79/b/random-package-default/2/AstorMain-b//src//default, compliance level: 5
[INFO ] fr.inria.astor.core.manipulation.MutationSupporter.buildModel(MutationSupporter.java:85) - Classpath for building SpoonModel [/sciclone/data20/mtufano/deeprepair/bin/eval/../../dat/libs/Math/commons-discovery-0.5.jar]
[INFO ] fr.inria.astor.core.setup.ProjectRepairFacade.calculateSuspicious(ProjectRepairFacade.java:215) - -Executing Gzoltar classpath: /local/scr/mtufano/Math/79/b/random-package-default/2/AstorMain-b//bin//default from 56 classes with test cases
[INFO ] fr.inria.astor.core.faultlocalization.GZoltarFaultLocalization.searchSuspicious(GZoltarFaultLocalization.java:37) - Gzoltar fault localization: min susp value parameter: 0.1
[INFO ] fr.inria.astor.core.faultlocalization.GZoltarFaultLocalization.searchSuspicious(GZoltarFaultLocalization.java:57) - -gz-Adding classpath: [/local/scr/mtufano/Math/79/b/random-package-default/2/AstorMain-b//bin//default, /sciclone/data20/mtufano/deeprepair/bin/eval/../../dat/libs/Math/commons-discovery-0.5.jar]
[INFO ] fr.inria.astor.core.faultlocalization.GZoltarFaultLocalization.searchSuspicious(GZoltarFaultLocalization.java:76) - Test failt: org.apache.commons.math.stat.clustering.KMeansPlusPlusClustererTest#testPerformClusterAnalysisDegenerate
[INFO ] fr.inria.astor.core.faultlocalization.GZoltarFaultLocalization.searchSuspicious(GZoltarFaultLocalization.java:81) - Gzoltar Test Result Total:866, fails: 1, GZoltar suspicious 7540
[INFO ] fr.inria.astor.core.faultlocalization.GZoltarFaultLocalization.searchSuspicious(GZoltarFaultLocalization.java:123) - Gzoltar found: 28 with susp > 0.1, we consider: 28
[INFO ] fr.inria.astor.approaches.jgenprog.JGenProg.initPopulation(JGenProg.java:80) - 
---- Initial suspicious size: 28
[INFO ] fr.inria.astor.core.loop.population.ProgramVariantFactory.createProgramInstance(ProgramVariantFactory.java:126) - -any mod point created for suspicious Candidate [className=org.apache.commons.math.stat.clustering.KMeansPlusPlusClusterer, methodName=org.apache.commons.math.stat.clustering.KMeansPlusPlusClusterer{getNearestCluster(Ljava/util/Collection;Lorg/apache/commons/math/stat/clustering/Clusterable;)Lorg/apache/commons/math/stat/clustering/Cluster; 0.0, lineNumber=161, susp=0.7071067811865475]
[INFO ] fr.inria.astor.core.loop.population.ProgramVariantFactory.createProgramInstance(ProgramVariantFactory.java:126) - -any mod point created for suspicious Candidate [className=org.apache.commons.math.stat.clustering.EuclideanIntegerPoint, methodName=org.apache.commons.math.stat.clustering.EuclideanIntegerPoint{distanceFrom(Ljava/lang/Object;)D 0.0, lineNumber=30, susp=0.7071067811865475]
[INFO ] fr.inria.astor.core.loop.population.ProgramVariantFactory.createProgramInstance(ProgramVariantFactory.java:130) - Total suspicious from FL: 28,  26
[INFO ] fr.inria.astor.core.loop.population.ProgramVariantFactory.createProgramInstance(ProgramVariantFactory.java:138) - Total ModPoint created: 26
[INFO ] fr.inria.astor.core.loop.population.ProgramVariantFactory.createInitialPopulation(ProgramVariantFactory.java:82) - Creating program variant #1, [Variant id: 1, #gens: 26, #ops: 0, parent:-]
[INFO ] fr.inria.astor.core.setup.ConfigurationProperties.print(ConfigurationProperties.java:63) - ----------------------------
[INFO ] fr.inria.astor.core.setup.ConfigurationProperties.print(ConfigurationProperties.java:64) - ---Configuration properties:---Execution values
[INFO ] fr.inria.astor.core.setup.ConfigurationProperties.print(ConfigurationProperties.java:66) - p:lastJUnitVersion= ./examples/libs/junit-4.11.jar
[INFO ] fr.inria.astor.core.setup.ConfigurationProperties.print(ConfigurationProperties.java:66) - p:alternativecompliancelevel= 4
[INFO ] fr.inria.astor.core.setup.ConfigurationProperties.print(ConfigurationProperties.java:66) - p:ignoredTestCases= 
[INFO ] fr.inria.astor.core.setup.ConfigurationProperties.print(ConfigurationProperties.java:66) - p:workingDirectory= /local/scr/mtufano/Math/79/b/random-package-default/2
[INFO ] fr.inria.astor.core.setup.ConfigurationProperties.print(ConfigurationProperties.java:66) - p:manipulatesuper= false
[INFO ] fr.inria.astor.core.setup.ConfigurationProperties.print(ConfigurationProperties.java:66) - p:validation= process
[INFO ] fr.inria.astor.core.setup.ConfigurationProperties.print(ConfigurationProperties.java:66) - p:jvm4testexecution= /usr/local/jdk1.7.0_80/bin/
[INFO ] fr.inria.astor.core.setup.ConfigurationProperties.print(ConfigurationProperties.java:66) - p:binjavafolder= target/classes/
[INFO ] fr.inria.astor.core.setup.ConfigurationProperties.print(ConfigurationProperties.java:66) - p:evosuiteresultfolder= evosuite
[INFO ] fr.inria.astor.core.setup.ConfigurationProperties.print(ConfigurationProperties.java:66) - p:flthreshold= 0.1
[INFO ] fr.inria.astor.core.setup.ConfigurationProperties.print(ConfigurationProperties.java:66) - p:regressionforfaultlocalization= true
[INFO ] fr.inria.astor.core.setup.ConfigurationProperties.print(ConfigurationProperties.java:66) - p:tmax2= 960000
[INFO ] fr.inria.astor.core.setup.ConfigurationProperties.print(ConfigurationProperties.java:66) - p:tmax1= 120000
[INFO ] fr.inria.astor.core.setup.ConfigurationProperties.print(ConfigurationProperties.java:66) - p:probagenmutation= false
[INFO ] fr.inria.astor.core.setup.ConfigurationProperties.print(ConfigurationProperties.java:66) - p:srctestfolder= src/test/java/
[INFO ] fr.inria.astor.core.setup.ConfigurationProperties.print(ConfigurationProperties.java:66) - p:customop= fr.inria.astor.approaches.jgenprog.operators.InsertAfterOp:fr.inria.astor.approaches.jgenprog.operators.InsertBeforeOp:fr.inria.astor.approaches.jgenprog.operators.ReplaceOp
[INFO ] fr.inria.astor.core.setup.ConfigurationProperties.print(ConfigurationProperties.java:66) - p:forceExecuteRegression= false
[INFO ] fr.inria.astor.core.setup.ConfigurationProperties.print(ConfigurationProperties.java:66) - p:clusteringfilename= clustering.csv
[INFO ] fr.inria.astor.core.setup.ConfigurationProperties.print(ConfigurationProperties.java:66) - p:failing= org.apache.commons.math.stat.clustering.KMeansPlusPlusClustererTest
[INFO ] fr.inria.astor.core.setup.ConfigurationProperties.print(ConfigurationProperties.java:66) - p:evo_buggy_class= true
[INFO ] fr.inria.astor.core.setup.ConfigurationProperties.print(ConfigurationProperties.java:66) - p:numberExecutions= 1
[INFO ] fr.inria.astor.core.setup.ConfigurationProperties.print(ConfigurationProperties.java:66) - p:evo_affected_by_op= true
[INFO ] fr.inria.astor.core.setup.ConfigurationProperties.print(ConfigurationProperties.java:66) - p:population= 1
[INFO ] fr.inria.astor.core.setup.ConfigurationProperties.print(ConfigurationProperties.java:66) - p:clonegranularity= types
[INFO ] fr.inria.astor.core.setup.ConfigurationProperties.print(ConfigurationProperties.java:66) - p:regressiontestcases4fl= org.apache.commons.math.analysis.interpolation.MicrosphereInterpolatorTest:org.apache.commons.math.analysis.solvers.LaguerreSolverTest:org.apache.commons.math.analysis.solvers.MullerSolverTest:org.apache.commons.math.analysis.solvers.RiddersSolverTest:org.apache.commons.math.complex.ComplexTest:org.apache.commons.math.distribution.HypergeometricDistributionTest:org.apache.commons.math.distribution.PascalDistributionTest:org.apache.commons.math.fraction.BigFractionTest:org.apache.commons.math.fraction.FractionFieldTest:org.apache.commons.math.fraction.FractionFormatTest:org.apache.commons.math.fraction.FractionTest:org.apache.commons.math.geometry.RotationTest:org.apache.commons.math.linear.Array2DRowRealMatrixTest:org.apache.commons.math.linear.ArrayFieldVectorTest:org.apache.commons.math.linear.ArrayRealVectorTest:org.apache.commons.math.linear.BlockFieldMatrixTest:org.apache.commons.math.linear.BlockRealMatrixTest:org.apache.commons.math.linear.FieldLUDecompositionImplTest:org.apache.commons.math.linear.FieldMatrixImplTest:org.apache.commons.math.linear.MatrixUtilsTest:org.apache.commons.math.linear.RealMatrixImplTest:org.apache.commons.math.linear.SparseFieldMatrixTest:org.apache.commons.math.linear.SparseFieldVectorTest:org.apache.commons.math.linear.SparseRealMatrixTest:org.apache.commons.math.optimization.fitting.HarmonicFitterTest:org.apache.commons.math.optimization.linear.SimplexSolverTest:org.apache.commons.math.optimization.linear.SimplexTableauTest:org.apache.commons.math.stat.clustering.EuclideanIntegerPointTest:org.apache.commons.math.stat.clustering.KMeansPlusPlusClustererTest:org.apache.commons.math.stat.descriptive.AggregateSummaryStatisticsTest:org.apache.commons.math.stat.descriptive.DescriptiveStatisticsTest:org.apache.commons.math.stat.descriptive.MultivariateSummaryStatisticsTest:org.apache.commons.math.stat.descriptive.StatisticalSummaryValuesTest:org.apache.commons.math.stat.descriptive.SummaryStatisticsTest:org.apache.commons.math.stat.descriptive.SynchronizedDescriptiveStatisticsTest:org.apache.commons.math.stat.descriptive.SynchronizedMultivariateSummaryStatisticsTest:org.apache.commons.math.stat.descriptive.SynchronizedSummaryStatisticsTest:org.apache.commons.math.stat.descriptive.moment.FirstMomentTest:org.apache.commons.math.stat.descriptive.moment.FourthMomentTest:org.apache.commons.math.stat.descriptive.moment.GeometricMeanTest:org.apache.commons.math.stat.descriptive.moment.KurtosisTest:org.apache.commons.math.stat.descriptive.moment.MeanTest:org.apache.commons.math.stat.descriptive.moment.SecondMomentTest:org.apache.commons.math.stat.descriptive.moment.SkewnessTest:org.apache.commons.math.stat.descriptive.moment.StandardDeviationTest:org.apache.commons.math.stat.descriptive.moment.ThirdMomentTest:org.apache.commons.math.stat.descriptive.moment.VarianceTest:org.apache.commons.math.stat.descriptive.moment.VectorialMeanTest:org.apache.commons.math.stat.descriptive.rank.MaxTest:org.apache.commons.math.stat.descriptive.rank.MinTest:org.apache.commons.math.stat.descriptive.summary.ProductTest:org.apache.commons.math.stat.descriptive.summary.SumLogTest:org.apache.commons.math.stat.descriptive.summary.SumSqTest:org.apache.commons.math.stat.descriptive.summary.SumTest:org.apache.commons.math.util.MathUtilsTest:org.apache.commons.math.util.OpenIntToFieldTest:
[INFO ] fr.inria.astor.core.setup.ConfigurationProperties.print(ConfigurationProperties.java:66) - p:savesolution= true
[INFO ] fr.inria.astor.core.setup.ConfigurationProperties.print(ConfigurationProperties.java:66) - p:javacompliancelevel= 5
[INFO ] fr.inria.astor.core.setup.ConfigurationProperties.print(ConfigurationProperties.java:66) - p:uniqueoptogen= false
[INFO ] fr.inria.astor.core.setup.ConfigurationProperties.print(ConfigurationProperties.java:66) - p:projectIdentifier= 
[INFO ] fr.inria.astor.core.setup.ConfigurationProperties.print(ConfigurationProperties.java:66) - p:modificationpointnavigation= weight
[INFO ] fr.inria.astor.core.setup.ConfigurationProperties.print(ConfigurationProperties.java:66) - p:stopfirst= false
[INFO ] fr.inria.astor.core.setup.ConfigurationProperties.print(ConfigurationProperties.java:66) - p:multipointmodification= false
[INFO ] fr.inria.astor.core.setup.ConfigurationProperties.print(ConfigurationProperties.java:66) - p:elementsToMutate= 10
[INFO ] fr.inria.astor.core.setup.ConfigurationProperties.print(ConfigurationProperties.java:66) - p:evoDSE= false
[INFO ] fr.inria.astor.core.setup.ConfigurationProperties.print(ConfigurationProperties.java:66) - p:bintestfolder= target/test-classes/
[INFO ] fr.inria.astor.core.setup.ConfigurationProperties.print(ConfigurationProperties.java:66) - p:testbystep= false
[INFO ] fr.inria.astor.core.setup.ConfigurationProperties.print(ConfigurationProperties.java:66) - p:version-location= ./math-version/
[INFO ] fr.inria.astor.core.setup.ConfigurationProperties.print(ConfigurationProperties.java:66) - p:reintroduce= PARENTS
[INFO ] fr.inria.astor.core.setup.ConfigurationProperties.print(ConfigurationProperties.java:66) - p:maxGeneration= 1000000
[INFO ] fr.inria.astor.core.setup.ConfigurationProperties.print(ConfigurationProperties.java:66) - p:maxVarCombination= 1000
[INFO ] fr.inria.astor.core.setup.ConfigurationProperties.print(ConfigurationProperties.java:66) - p:maxtime= 180
[INFO ] fr.inria.astor.core.setup.ConfigurationProperties.print(ConfigurationProperties.java:66) - p:evosuitejar= ./lib/evosuite-master-1.0.4-SNAPSHOT.jar
[INFO ] fr.inria.astor.core.setup.ConfigurationProperties.print(ConfigurationProperties.java:66) - p:commandTrunk= 50000
[INFO ] fr.inria.astor.core.setup.ConfigurationProperties.print(ConfigurationProperties.java:66) - p:faultlocalization= fr.inria.astor.core.faultlocalization.GZoltarFaultLocalization
[INFO ] fr.inria.astor.core.setup.ConfigurationProperties.print(ConfigurationProperties.java:66) - p:maxsuspcandidates= 1000
[INFO ] fr.inria.astor.core.setup.ConfigurationProperties.print(ConfigurationProperties.java:66) - p:mode= statement
[INFO ] fr.inria.astor.core.setup.ConfigurationProperties.print(ConfigurationProperties.java:66) - p:learningdir= ../../out/learningdir/Math/79/b/
[INFO ] fr.inria.astor.core.setup.ConfigurationProperties.print(ConfigurationProperties.java:66) - p:jvm4evosuitetestexecution= /usr/local/jdk1.7.0_80/bin/
[INFO ] fr.inria.astor.core.setup.ConfigurationProperties.print(ConfigurationProperties.java:66) - p:filterfaultlocalization= true
[INFO ] fr.inria.astor.core.setup.ConfigurationProperties.print(ConfigurationProperties.java:66) - p:mutationrate= 1 
[INFO ] fr.inria.astor.core.setup.ConfigurationProperties.print(ConfigurationProperties.java:66) - p:pathToMVNRepository= 
[INFO ] fr.inria.astor.core.setup.ConfigurationProperties.print(ConfigurationProperties.java:66) - p:resourcesfolder= /src/main/resources:/src/test/resources:
[INFO ] fr.inria.astor.core.setup.ConfigurationProperties.print(ConfigurationProperties.java:66) - p:timezone= America/New_York
[INFO ] fr.inria.astor.core.setup.ConfigurationProperties.print(ConfigurationProperties.java:66) - p:classestoinstrument= org.apache.commons.math.stat.clustering.Clusterable:org.apache.commons.math.stat.clustering.EuclideanIntegerPoint:org.apache.commons.math.stat.clustering.Cluster:org.apache.commons.math.util.MathUtils:org.apache.commons.math.stat.clustering.KMeansPlusPlusClusterer:
[INFO ] fr.inria.astor.core.setup.ConfigurationProperties.print(ConfigurationProperties.java:66) - p:evoRunOnBuggyClass= true
[INFO ] fr.inria.astor.core.setup.ConfigurationProperties.print(ConfigurationProperties.java:66) - p:compiler= fr.inria.astor.core.manipulation.bytecode.compiler.SpoonClassCompiler
[INFO ] fr.inria.astor.core.setup.ConfigurationProperties.print(ConfigurationProperties.java:66) - p:dependenciespath= ../../dat/libs/Math/commons-discovery-0.5.jar
[INFO ] fr.inria.astor.core.setup.ConfigurationProperties.print(ConfigurationProperties.java:66) - p:skipfaultlocalization= false
[INFO ] fr.inria.astor.core.setup.ConfigurationProperties.print(ConfigurationProperties.java:66) - p:packageToInstrument= org.apache.commons
[INFO ] fr.inria.astor.core.setup.ConfigurationProperties.print(ConfigurationProperties.java:66) - p:scope= fr.inria.astor.core.loop.spaces.ingredients.scopes.ctscopes.CtPackageIngredientScope
[INFO ] fr.inria.astor.core.setup.ConfigurationProperties.print(ConfigurationProperties.java:66) - p:transformingredient= false
[INFO ] fr.inria.astor.core.setup.ConfigurationProperties.print(ConfigurationProperties.java:66) - p:fitnessfunction= fr.inria.astor.core.loop.population.TestCaseFitnessFunction
[INFO ] fr.inria.astor.core.setup.ConfigurationProperties.print(ConfigurationProperties.java:66) - p:pvariantfoldername= variant-
[INFO ] fr.inria.astor.core.setup.ConfigurationProperties.print(ConfigurationProperties.java:66) - p:srcjavafolder= src/main/java/
[INFO ] fr.inria.astor.core.setup.ConfigurationProperties.print(ConfigurationProperties.java:66) - p:populationcontroller= fr.inria.astor.core.loop.population.TestCaseBasedFitnessPopulationController
[INFO ] fr.inria.astor.core.setup.ConfigurationProperties.print(ConfigurationProperties.java:66) - p:ignoreflakyinfl= false
[INFO ] fr.inria.astor.core.setup.ConfigurationProperties.print(ConfigurationProperties.java:66) - p:applyCrossover= false
[INFO ] fr.inria.astor.core.setup.ConfigurationProperties.print(ConfigurationProperties.java:66) - p:saveall= false
[INFO ] fr.inria.astor.core.setup.ConfigurationProperties.print(ConfigurationProperties.java:66) - p:seed= 2
[INFO ] fr.inria.astor.core.setup.ConfigurationProperties.print(ConfigurationProperties.java:66) - p:resetoperations= false
[INFO ] fr.inria.astor.core.setup.ConfigurationProperties.print(ConfigurationProperties.java:66) - p:location= ../../dat/defects4j/Math/79/b/
[INFO ] fr.inria.astor.core.setup.ConfigurationProperties.print(ConfigurationProperties.java:66) - p:ingredientstrategy= fr.inria.astor.core.loop.spaces.ingredients.ingredientSearch.EfficientIngredientStrategy
[INFO ] fr.inria.astor.core.setup.ConfigurationProperties.print(ConfigurationProperties.java:66) - p:allpoints= false
[INFO ] fr.inria.astor.core.setup.ConfigurationProperties.print(ConfigurationProperties.java:66) - p:bugId= 280
[INFO ] fr.inria.astor.core.setup.ConfigurationProperties.print(ConfigurationProperties.java:66) - p:evosuitetimeout= 120
[INFO ] fr.inria.astor.core.setup.ConfigurationProperties.print(ConfigurationProperties.java:68) - ----------------------------
[INFO ] fr.inria.astor.core.loop.AstorCoreEngine.startEvolution(AstorCoreEngine.java:119) - 
----Starting Solution Search
[INFO ] fr.inria.astor.core.loop.AstorCoreEngine.belowMaxTime(AstorCoreEngine.java:203) - 
 No more time for operating
[INFO ] fr.inria.astor.core.loop.AstorCoreEngine.startEvolution(AstorCoreEngine.java:143) - Time Repair Loop (s): 10860.119
[INFO ] fr.inria.astor.core.loop.AstorCoreEngine.showResults(AstorCoreEngine.java:165) - 
----SUMMARY_EXECUTION---
[INFO ] fr.inria.astor.approaches.jgenprog.JGenProg.showResults(JGenProg.java:332) - 
successful_ing_attempts (#trials 0, totalAttps 0): []
[INFO ] fr.inria.astor.approaches.jgenprog.JGenProg.showResults(JGenProg.java:334) - 
failing_ing_attempts (#trials 1172, totalAttps 5885): [5, 36, 1, 2, 1, 4, 13, 1, 2, 3, 1, 1, 1, 2, 1, 9, 7, 1, 3, 2, 4, 2, 1, 3, 6, 2, 2, 2, 5, 5, 1, 2, 2, 7, 2, 1, 5, 2, 1, 2, 2, 2, 2, 1, 6, 9, 2, 6, 3, 1, 19, 3, 1, 2, 1, 8, 1, 7, 3, 11, 1, 3, 10, 3, 1, 7, 3, 12, 1, 2, 1, 2, 6, 9, 1, 1, 2, 12, 2, 4, 10, 14, 1, 2, 3, 1, 1, 6, 7, 2, 10, 15, 10, 1, 6, 3, 2, 6, 3, 7, 3, 1, 3, 1, 1, 2, 2, 4, 1, 3, 3, 8, 3, 6, 4, 3, 4, 3, 1, 3, 11, 4, 4, 1, 5, 6, 6, 1, 5, 6, 11, 1, 6, 3, 1, 1, 9, 1, 5, 5, 8, 2, 2, 1, 13, 4, 7, 1, 1, 2, 2, 1, 10, 4, 3, 1, 1, 6, 5, 2, 13, 6, 7, 12, 3, 3, 1, 7, 5, 1, 2, 2, 1, 1, 4, 2, 2, 7, 2, 2, 1, 1, 2, 16, 3, 1, 38, 5, 3, 1, 2, 1, 17, 1, 1, 1, 1, 6, 5, 1, 1, 10, 2, 2, 4, 5, 1, 1, 1, 2, 6, 1, 5, 10, 1, 18, 7, 1, 1, 4, 5, 2, 7, 3, 5, 4, 7, 6, 4, 3, 1, 4, 6, 2, 2, 1, 2, 3, 3, 4, 2, 10, 1, 9, 2, 4, 1, 5, 3, 3, 10, 2, 8, 2, 4, 1, 2, 1, 15, 1, 1, 12, 10, 9, 2, 6, 2, 6, 1, 1, 1, 5, 1, 3, 2, 9, 5, 3, 2, 3, 2, 2, 5, 5, 12, 17, 4, 1, 5, 12, 5, 7, 11, 6, 1, 5, 4, 2, 8, 1, 7, 3, 1, 2, 1, 3, 2, 4, 1, 1, 18, 5, 1, 1, 3, 1, 7, 2, 1, 4, 8, 4, 5, 5, 4, 5, 1, 6, 9, 1, 4, 3, 1, 3, 1, 2, 22, 1, 2, 1, 3, 1, 10, 12, 9, 16, 2, 3, 13, 5, 7, 11, 1, 2, 6, 2, 4, 1, 23, 5, 9, 8, 2, 9, 2, 3, 4, 3, 2, 12, 3, 2, 7, 7, 4, 8, 3, 20, 8, 4, 6, 12, 1, 5, 4, 1, 3, 7, 8, 1, 1, 2, 2, 1, 2, 1, 2, 2, 7, 7, 1, 1, 2, 1, 1, 4, 3, 8, 6, 3, 7, 1, 6, 3, 2, 3, 2, 9, 3, 2, 1, 2, 9, 2, 1, 1, 2, 3, 13, 1, 1, 2, 13, 10, 2, 9, 2, 1, 13, 2, 11, 4, 2, 4, 2, 1, 10, 4, 1, 8, 3, 1, 1, 1, 1, 4, 1, 6, 5, 4, 4, 10, 11, 12, 25, 3, 1, 3, 6, 6, 8, 1, 4, 4, 1, 1, 2, 3, 7, 4, 4, 1, 4, 6, 4, 8, 1, 5, 1, 2, 3, 3, 2, 3, 1, 4, 4, 13, 2, 4, 2, 2, 2, 1, 1, 8, 2, 1, 3, 7, 2, 2, 1, 5, 12, 5, 2, 3, 6, 4, 10, 1, 8, 7, 2, 1, 7, 1, 2, 5, 5, 2, 5, 5, 12, 24, 17, 1, 5, 1, 1, 6, 1, 7, 1, 5, 4, 6, 1, 6, 6, 2, 1, 7, 7, 3, 3, 15, 1, 10, 2, 1, 4, 2, 1, 8, 5, 5, 11, 1, 1, 2, 3, 3, 1, 1, 8, 2, 2, 3, 4, 3, 4, 1, 10, 2, 9, 29, 11, 1, 3, 13, 6, 2, 5, 16, 5, 6, 14, 6, 8, 2, 4, 4, 8, 9, 29, 11, 2, 7, 1, 26, 2, 1, 2, 1, 2, 1, 6, 15, 8, 1, 5, 1, 5, 1, 1, 6, 8, 3, 1, 1, 1, 6, 3, 13, 1, 1, 1, 6, 3, 2, 2, 2, 3, 1, 8, 1, 4, 5, 1, 15, 7, 5, 5, 2, 3, 2, 1, 17, 5, 5, 11, 4, 4, 1, 5, 3, 7, 1, 5, 6, 2, 3, 2, 3, 1, 1, 3, 2, 1, 5, 1, 2, 2, 4, 3, 8, 2, 7, 1, 13, 6, 1, 9, 1, 9, 9, 16, 5, 3, 5, 13, 1, 6, 5, 7, 14, 2, 6, 7, 1, 1, 9, 7, 7, 2, 2, 3, 1, 3, 7, 1, 6, 10, 4, 3, 14, 1, 3, 7, 2, 4, 1, 13, 6, 3, 1, 1, 1, 4, 15, 14, 2, 3, 3, 1, 2, 16, 3, 1, 9, 2, 2, 5, 4, 5, 5, 6, 1, 8, 2, 4, 4, 2, 2, 6, 4, 1, 2, 2, 7, 4, 4, 5, 2, 6, 3, 1, 11, 3, 11, 11, 1, 1, 1, 3, 3, 3, 3, 2, 3, 15, 1, 1, 3, 6, 2, 13, 3, 5, 2, 5, 13, 1, 1, 5, 4, 13, 24, 5, 1, 6, 19, 8, 11, 4, 5, 1, 4, 1, 1, 3, 2, 2, 3, 4, 4, 6, 5, 5, 1, 2, 1, 3, 1, 18, 2, 1, 2, 1, 1, 9, 2, 1, 2, 13, 4, 1, 1, 2, 2, 1, 2, 4, 1, 2, 9, 12, 3, 1, 8, 4, 1, 8, 10, 4, 2, 1, 11, 11, 9, 3, 4, 2, 3, 5, 2, 11, 5, 4, 2, 3, 2, 5, 1, 8, 11, 6, 1, 1, 10, 5, 8, 1, 8, 3, 20, 2, 9, 7, 14, 1, 1, 11, 1, 1, 14, 2, 13, 10, 10, 4, 4, 10, 4, 9, 1, 12, 5, 15, 1, 5, 7, 1, 8, 1, 1, 4, 8, 1, 3, 4, 27, 13, 1, 7, 2, 1, 3, 5, 2, 1, 4, 3, 3, 4, 2, 3, 10, 1, 11, 10, 1, 4, 3, 4, 10, 9, 3, 1, 2, 12, 6, 8, 6, 4, 1, 1, 19, 3, 2, 5, 4, 3, 6, 1, 6, 3, 1, 8, 9, 3, 13, 1, 1, 4, 1, 1, 6, 4, 5, 32, 2, 3, 9, 13, 8, 3, 13, 4, 3, 1, 2, 12, 10, 5, 20, 20, 2, 7, 4, 4, 2, 4, 11, 1, 21, 26, 3, 4, 4, 1, 13, 1, 10, 1, 4, 1, 3, 15, 6, 2, 4, 5, 6, 7, 1, 9, 21, 4, 1, 3, 8, 10, 1, 4, 1, 21, 2, 3, 6, 2, 5, 3, 1, 2, 1, 6, 10, 23, 4, 5, 9, 2, 4, 10, 8, 1, 18, 11, 13, 16, 3, 2, 3, 2, 9, 1, 14, 3, 3, 4, 8, 13, 4, 7, 2, 2, 3, 4, 4, 2, 17, 1, 18, 10, 6, 3, 2, 7, 10, 1, 12, 14, 2, 2, 4, 2, 1, 5, 11, 12, 21, 5, 2, 29, 4, 1, 2, 11, 11, 2, 13, 1, 10, 2, 4, 1, 9, 5, 4, 11, 9, 7, 1, 2, 5, 2, 11, 12, 7, 2, 2, 23, 9, 17, 5, 18, 5, 5, 7, 5, 15, 16, 6, 14, 3, 6, 12, 15, 3, 1, 5, 2, 6, 2, 15, 2, 5, 5, 1]
[INFO ] fr.inria.astor.approaches.jgenprog.JGenProg.showResults(JGenProg.java:337) - 
total Patch Attempts (0): []
[INFO ] fr.inria.astor.approaches.jgenprog.JGenProg.showResults(JGenProg.java:339) - 
successful_ing_attempts_by_patch: []
[INFO ] fr.inria.astor.approaches.jgenprog.JGenProg.showResults(JGenProg.java:340) - 
failing_ing_attempts_by_patch: [(pv:2,at:5), (pv:3,at:36), (pv:4,at:1), (pv:5,at:2), (pv:6,at:1), (pv:7,at:4), (pv:8,at:13), (pv:9,at:1), (pv:10,at:2), (pv:11,at:3), (pv:12,at:1), (pv:13,at:1), (pv:14,at:1), (pv:15,at:2), (pv:16,at:1), (pv:17,at:9), (pv:18,at:7), (pv:19,at:1), (pv:20,at:3), (pv:21,at:2), (pv:22,at:4), (pv:23,at:2), (pv:24,at:1), (pv:25,at:3), (pv:26,at:6), (pv:27,at:2), (pv:28,at:2), (pv:29,at:2), (pv:30,at:5), (pv:31,at:5), (pv:32,at:1), (pv:33,at:2), (pv:34,at:2), (pv:35,at:7), (pv:36,at:2), (pv:37,at:1), (pv:38,at:5), (pv:39,at:2), (pv:40,at:1), (pv:41,at:2), (pv:42,at:2), (pv:43,at:2), (pv:44,at:2), (pv:45,at:1), (pv:46,at:6), (pv:47,at:9), (pv:48,at:2), (pv:49,at:6), (pv:50,at:3), (pv:51,at:1), (pv:52,at:19), (pv:53,at:3), (pv:54,at:1), (pv:55,at:2), (pv:56,at:1), (pv:57,at:8), (pv:58,at:1), (pv:59,at:7), (pv:60,at:3), (pv:61,at:11), (pv:62,at:1), (pv:63,at:3), (pv:64,at:10), (pv:65,at:3), (pv:66,at:1), (pv:67,at:7), (pv:68,at:3), (pv:69,at:12), (pv:70,at:1), (pv:71,at:2), (pv:72,at:1), (pv:73,at:2), (pv:74,at:6), (pv:75,at:9), (pv:76,at:1), (pv:77,at:1), (pv:78,at:2), (pv:79,at:12), (pv:80,at:2), (pv:81,at:4), (pv:82,at:10), (pv:83,at:14), (pv:84,at:1), (pv:85,at:2), (pv:86,at:3), (pv:87,at:1), (pv:88,at:1), (pv:89,at:6), (pv:90,at:7), (pv:91,at:2), (pv:92,at:10), (pv:93,at:15), (pv:94,at:10), (pv:95,at:1), (pv:96,at:6), (pv:97,at:3), (pv:98,at:2), (pv:99,at:6), (pv:100,at:3), (pv:101,at:7), (pv:102,at:3), (pv:103,at:1), (pv:104,at:3), (pv:105,at:1), (pv:106,at:1), (pv:107,at:2), (pv:108,at:2), (pv:109,at:4), (pv:110,at:1), (pv:111,at:3), (pv:112,at:3), (pv:113,at:8), (pv:114,at:3), (pv:115,at:6), (pv:116,at:4), (pv:117,at:3), (pv:118,at:4), (pv:119,at:3), (pv:120,at:1), (pv:121,at:3), (pv:122,at:11), (pv:123,at:4), (pv:124,at:4), (pv:125,at:1), (pv:126,at:5), (pv:127,at:6), (pv:128,at:6), (pv:129,at:1), (pv:130,at:5), (pv:131,at:6), (pv:132,at:11), (pv:133,at:1), (pv:134,at:6), (pv:135,at:3), (pv:136,at:1), (pv:137,at:1), (pv:138,at:9), (pv:139,at:1), (pv:140,at:5), (pv:141,at:5), (pv:142,at:8), (pv:143,at:2), (pv:144,at:2), (pv:145,at:1), (pv:146,at:13), (pv:147,at:4), (pv:148,at:7), (pv:149,at:1), (pv:150,at:1), (pv:151,at:2), (pv:152,at:2), (pv:153,at:1), (pv:154,at:10), (pv:155,at:4), (pv:156,at:3), (pv:157,at:1), (pv:158,at:1), (pv:159,at:6), (pv:160,at:5), (pv:161,at:2), (pv:162,at:13), (pv:163,at:6), (pv:164,at:7), (pv:165,at:12), (pv:166,at:3), (pv:167,at:3), (pv:168,at:1), (pv:169,at:7), (pv:170,at:5), (pv:171,at:1), (pv:172,at:2), (pv:173,at:2), (pv:174,at:1), (pv:175,at:1), (pv:176,at:4), (pv:177,at:2), (pv:178,at:2), (pv:179,at:7), (pv:180,at:2), (pv:181,at:2), (pv:182,at:1), (pv:183,at:1), (pv:184,at:2), (pv:185,at:16), (pv:186,at:3), (pv:187,at:1), (pv:188,at:38), (pv:189,at:5), (pv:190,at:3), (pv:191,at:1), (pv:192,at:2), (pv:193,at:1), (pv:194,at:17), (pv:195,at:1), (pv:196,at:1), (pv:197,at:1), (pv:198,at:1), (pv:199,at:6), (pv:200,at:5), (pv:201,at:1), (pv:202,at:1), (pv:203,at:10), (pv:204,at:2), (pv:205,at:2), (pv:206,at:4), (pv:207,at:5), (pv:208,at:1), (pv:209,at:1), (pv:210,at:1), (pv:211,at:2), (pv:212,at:6), (pv:213,at:1), (pv:214,at:5), (pv:215,at:10), (pv:216,at:1), (pv:217,at:18), (pv:218,at:7), (pv:219,at:1), (pv:220,at:1), (pv:221,at:4), (pv:222,at:5), (pv:223,at:2), (pv:224,at:7), (pv:225,at:3), (pv:226,at:5), (pv:227,at:4), (pv:228,at:7), (pv:229,at:6), (pv:230,at:4), (pv:231,at:3), (pv:232,at:1), (pv:233,at:4), (pv:234,at:6), (pv:235,at:2), (pv:236,at:2), (pv:237,at:1), (pv:238,at:2), (pv:239,at:3), (pv:240,at:3), (pv:241,at:4), (pv:242,at:2), (pv:243,at:10), (pv:244,at:1), (pv:245,at:9), (pv:246,at:2), (pv:247,at:4), (pv:248,at:1), (pv:249,at:5), (pv:250,at:3), (pv:251,at:3), (pv:252,at:10), (pv:253,at:2), (pv:254,at:8), (pv:255,at:2), (pv:256,at:4), (pv:257,at:1), (pv:258,at:2), (pv:259,at:1), (pv:260,at:15), (pv:261,at:1), (pv:262,at:1), (pv:263,at:12), (pv:264,at:10), (pv:265,at:9), (pv:266,at:2), (pv:267,at:6), (pv:268,at:2), (pv:269,at:6), (pv:270,at:1), (pv:271,at:1), (pv:272,at:1), (pv:273,at:5), (pv:274,at:1), (pv:275,at:3), (pv:276,at:2), (pv:277,at:9), (pv:278,at:5), (pv:279,at:3), (pv:280,at:2), (pv:281,at:3), (pv:282,at:2), (pv:283,at:2), (pv:284,at:5), (pv:285,at:5), (pv:286,at:12), (pv:287,at:17), (pv:288,at:4), (pv:289,at:1), (pv:290,at:5), (pv:291,at:12), (pv:292,at:5), (pv:293,at:7), (pv:294,at:11), (pv:295,at:6), (pv:296,at:1), (pv:297,at:5), (pv:298,at:4), (pv:299,at:2), (pv:300,at:8), (pv:301,at:1), (pv:302,at:7), (pv:303,at:3), (pv:304,at:1), (pv:305,at:2), (pv:306,at:1), (pv:307,at:3), (pv:308,at:2), (pv:309,at:4), (pv:310,at:1), (pv:311,at:1), (pv:312,at:18), (pv:313,at:5), (pv:314,at:1), (pv:315,at:1), (pv:316,at:3), (pv:317,at:1), (pv:318,at:7), (pv:319,at:2), (pv:320,at:1), (pv:321,at:4), (pv:322,at:8), (pv:323,at:4), (pv:324,at:5), (pv:325,at:5), (pv:326,at:4), (pv:327,at:5), (pv:328,at:1), (pv:329,at:6), (pv:330,at:9), (pv:331,at:1), (pv:332,at:4), (pv:333,at:3), (pv:334,at:1), (pv:335,at:3), (pv:336,at:1), (pv:337,at:2), (pv:338,at:22), (pv:339,at:1), (pv:340,at:2), (pv:341,at:1), (pv:342,at:3), (pv:343,at:1), (pv:344,at:10), (pv:345,at:12), (pv:346,at:9), (pv:347,at:16), (pv:348,at:2), (pv:349,at:3), (pv:350,at:13), (pv:351,at:5), (pv:352,at:7), (pv:353,at:11), (pv:354,at:1), (pv:355,at:2), (pv:356,at:6), (pv:357,at:2), (pv:358,at:4), (pv:359,at:1), (pv:360,at:23), (pv:361,at:5), (pv:362,at:9), (pv:363,at:8), (pv:364,at:2), (pv:365,at:9), (pv:366,at:2), (pv:367,at:3), (pv:368,at:4), (pv:369,at:3), (pv:370,at:2), (pv:371,at:12), (pv:372,at:3), (pv:373,at:2), (pv:374,at:7), (pv:375,at:7), (pv:376,at:4), (pv:377,at:8), (pv:378,at:3), (pv:379,at:20), (pv:380,at:8), (pv:381,at:4), (pv:382,at:6), (pv:383,at:12), (pv:384,at:1), (pv:385,at:5), (pv:386,at:4), (pv:387,at:1), (pv:388,at:3), (pv:389,at:7), (pv:390,at:8), (pv:391,at:1), (pv:392,at:1), (pv:393,at:2), (pv:394,at:2), (pv:395,at:1), (pv:396,at:2), (pv:397,at:1), (pv:398,at:2), (pv:399,at:2), (pv:400,at:7), (pv:401,at:7), (pv:402,at:1), (pv:403,at:1), (pv:404,at:2), (pv:405,at:1), (pv:406,at:1), (pv:407,at:4), (pv:408,at:3), (pv:409,at:8), (pv:410,at:6), (pv:411,at:3), (pv:412,at:7), (pv:413,at:1), (pv:414,at:6), (pv:415,at:3), (pv:416,at:2), (pv:417,at:3), (pv:418,at:2), (pv:419,at:9), (pv:420,at:3), (pv:421,at:2), (pv:422,at:1), (pv:423,at:2), (pv:424,at:9), (pv:425,at:2), (pv:426,at:1), (pv:427,at:1), (pv:428,at:2), (pv:429,at:3), (pv:430,at:13), (pv:431,at:1), (pv:432,at:1), (pv:433,at:2), (pv:434,at:13), (pv:435,at:10), (pv:436,at:2), (pv:437,at:9), (pv:438,at:2), (pv:439,at:1), (pv:440,at:13), (pv:441,at:2), (pv:442,at:11), (pv:443,at:4), (pv:444,at:2), (pv:445,at:4), (pv:446,at:2), (pv:447,at:1), (pv:448,at:10), (pv:449,at:4), (pv:450,at:1), (pv:451,at:8), (pv:452,at:3), (pv:453,at:1), (pv:454,at:1), (pv:455,at:1), (pv:456,at:1), (pv:457,at:4), (pv:458,at:1), (pv:459,at:6), (pv:460,at:5), (pv:461,at:4), (pv:462,at:4), (pv:463,at:10), (pv:464,at:11), (pv:465,at:12), (pv:466,at:25), (pv:467,at:3), (pv:468,at:1), (pv:469,at:3), (pv:470,at:6), (pv:471,at:6), (pv:472,at:8), (pv:473,at:1), (pv:474,at:4), (pv:475,at:4), (pv:476,at:1), (pv:477,at:1), (pv:478,at:2), (pv:479,at:3), (pv:480,at:7), (pv:481,at:4), (pv:482,at:4), (pv:483,at:1), (pv:484,at:4), (pv:485,at:6), (pv:486,at:4), (pv:487,at:8), (pv:488,at:1), (pv:489,at:5), (pv:490,at:1), (pv:491,at:2), (pv:492,at:3), (pv:493,at:3), (pv:494,at:2), (pv:495,at:3), (pv:496,at:1), (pv:497,at:4), (pv:498,at:4), (pv:499,at:13), (pv:500,at:2), (pv:501,at:4), (pv:502,at:2), (pv:503,at:2), (pv:504,at:2), (pv:505,at:1), (pv:506,at:1), (pv:507,at:8), (pv:508,at:2), (pv:509,at:1), (pv:510,at:3), (pv:511,at:7), (pv:512,at:2), (pv:513,at:2), (pv:514,at:1), (pv:515,at:5), (pv:516,at:12), (pv:517,at:5), (pv:518,at:2), (pv:519,at:3), (pv:520,at:6), (pv:521,at:4), (pv:522,at:10), (pv:523,at:1), (pv:524,at:8), (pv:525,at:7), (pv:526,at:2), (pv:527,at:1), (pv:528,at:7), (pv:529,at:1), (pv:530,at:2), (pv:531,at:5), (pv:532,at:5), (pv:533,at:2), (pv:534,at:5), (pv:535,at:5), (pv:536,at:12), (pv:537,at:24), (pv:538,at:17), (pv:539,at:1), (pv:540,at:5), (pv:541,at:1), (pv:542,at:1), (pv:543,at:6), (pv:544,at:1), (pv:545,at:7), (pv:546,at:1), (pv:547,at:5), (pv:548,at:4), (pv:549,at:6), (pv:550,at:1), (pv:551,at:6), (pv:552,at:6), (pv:553,at:2), (pv:554,at:1), (pv:555,at:7), (pv:556,at:7), (pv:557,at:3), (pv:558,at:3), (pv:559,at:15), (pv:560,at:1), (pv:561,at:10), (pv:562,at:2), (pv:563,at:1), (pv:564,at:4), (pv:565,at:2), (pv:566,at:1), (pv:567,at:8), (pv:568,at:5), (pv:569,at:5), (pv:570,at:11), (pv:571,at:1), (pv:572,at:1), (pv:573,at:2), (pv:574,at:3), (pv:575,at:3), (pv:576,at:1), (pv:577,at:1), (pv:578,at:8), (pv:579,at:2), (pv:580,at:2), (pv:581,at:3), (pv:582,at:4), (pv:583,at:3), (pv:584,at:4), (pv:585,at:1), (pv:586,at:10), (pv:587,at:2), (pv:588,at:9), (pv:589,at:29), (pv:590,at:11), (pv:591,at:1), (pv:592,at:3), (pv:593,at:13), (pv:594,at:6), (pv:595,at:2), (pv:596,at:5), (pv:597,at:16), (pv:598,at:5), (pv:599,at:6), (pv:600,at:14), (pv:601,at:6), (pv:602,at:8), (pv:603,at:2), (pv:604,at:4), (pv:605,at:4), (pv:606,at:8), (pv:607,at:9), (pv:608,at:29), (pv:609,at:11), (pv:610,at:2), (pv:611,at:7), (pv:612,at:1), (pv:613,at:26), (pv:614,at:2), (pv:615,at:1), (pv:616,at:2), (pv:617,at:1), (pv:618,at:2), (pv:619,at:1), (pv:620,at:6), (pv:621,at:15), (pv:622,at:8), (pv:623,at:1), (pv:624,at:5), (pv:625,at:1), (pv:626,at:5), (pv:627,at:1), (pv:628,at:1), (pv:629,at:6), (pv:630,at:8), (pv:631,at:3), (pv:632,at:1), (pv:633,at:1), (pv:634,at:1), (pv:635,at:6), (pv:636,at:3), (pv:637,at:13), (pv:638,at:1), (pv:639,at:1), (pv:640,at:1), (pv:641,at:6), (pv:642,at:3), (pv:643,at:2), (pv:644,at:2), (pv:645,at:2), (pv:646,at:3), (pv:647,at:1), (pv:648,at:8), (pv:649,at:1), (pv:650,at:4), (pv:651,at:5), (pv:652,at:1), (pv:653,at:15), (pv:654,at:7), (pv:655,at:5), (pv:656,at:5), (pv:657,at:2), (pv:658,at:3), (pv:659,at:2), (pv:660,at:1), (pv:661,at:17), (pv:662,at:5), (pv:663,at:5), (pv:664,at:11), (pv:665,at:4), (pv:666,at:4), (pv:667,at:1), (pv:668,at:5), (pv:669,at:3), (pv:670,at:7), (pv:671,at:1), (pv:672,at:5), (pv:673,at:6), (pv:674,at:2), (pv:675,at:3), (pv:676,at:2), (pv:677,at:3), (pv:678,at:1), (pv:679,at:1), (pv:680,at:3), (pv:681,at:2), (pv:682,at:1), (pv:683,at:5), (pv:684,at:1), (pv:685,at:2), (pv:686,at:2), (pv:687,at:4), (pv:688,at:3), (pv:689,at:8), (pv:690,at:2), (pv:691,at:7), (pv:692,at:1), (pv:693,at:13), (pv:694,at:6), (pv:695,at:1), (pv:696,at:9), (pv:697,at:1), (pv:698,at:9), (pv:699,at:9), (pv:700,at:16), (pv:701,at:5), (pv:702,at:3), (pv:703,at:5), (pv:704,at:13), (pv:705,at:1), (pv:706,at:6), (pv:707,at:5), (pv:708,at:7), (pv:709,at:14), (pv:710,at:2), (pv:711,at:6), (pv:712,at:7), (pv:713,at:1), (pv:714,at:1), (pv:715,at:9), (pv:716,at:7), (pv:717,at:7), (pv:718,at:2), (pv:719,at:2), (pv:720,at:3), (pv:721,at:1), (pv:722,at:3), (pv:723,at:7), (pv:724,at:1), (pv:725,at:6), (pv:726,at:10), (pv:727,at:4), (pv:728,at:3), (pv:729,at:14), (pv:730,at:1), (pv:731,at:3), (pv:732,at:7), (pv:733,at:2), (pv:734,at:4), (pv:735,at:1), (pv:736,at:13), (pv:737,at:6), (pv:738,at:3), (pv:739,at:1), (pv:740,at:1), (pv:741,at:1), (pv:742,at:4), (pv:743,at:15), (pv:744,at:14), (pv:745,at:2), (pv:746,at:3), (pv:747,at:3), (pv:748,at:1), (pv:749,at:2), (pv:750,at:16), (pv:751,at:3), (pv:752,at:1), (pv:753,at:9), (pv:754,at:2), (pv:755,at:2), (pv:756,at:5), (pv:757,at:4), (pv:758,at:5), (pv:759,at:5), (pv:760,at:6), (pv:761,at:1), (pv:762,at:8), (pv:763,at:2), (pv:764,at:4), (pv:765,at:4), (pv:766,at:2), (pv:767,at:2), (pv:768,at:6), (pv:769,at:4), (pv:770,at:1), (pv:771,at:2), (pv:772,at:2), (pv:773,at:7), (pv:774,at:4), (pv:775,at:4), (pv:776,at:5), (pv:777,at:2), (pv:778,at:6), (pv:779,at:3), (pv:780,at:1), (pv:781,at:11), (pv:782,at:3), (pv:783,at:11), (pv:784,at:11), (pv:785,at:1), (pv:786,at:1), (pv:787,at:1), (pv:788,at:3), (pv:789,at:3), (pv:790,at:3), (pv:791,at:3), (pv:792,at:2), (pv:793,at:3), (pv:794,at:15), (pv:795,at:1), (pv:796,at:1), (pv:797,at:3), (pv:798,at:6), (pv:799,at:2), (pv:800,at:13), (pv:801,at:3), (pv:802,at:5), (pv:803,at:2), (pv:804,at:5), (pv:805,at:13), (pv:806,at:1), (pv:807,at:1), (pv:808,at:5), (pv:809,at:4), (pv:810,at:13), (pv:811,at:24), (pv:812,at:5), (pv:813,at:1), (pv:814,at:6), (pv:815,at:19), (pv:816,at:8), (pv:817,at:11), (pv:818,at:4), (pv:819,at:5), (pv:820,at:1), (pv:821,at:4), (pv:822,at:1), (pv:823,at:1), (pv:824,at:3), (pv:825,at:2), (pv:826,at:2), (pv:827,at:3), (pv:828,at:4), (pv:829,at:4), (pv:830,at:6), (pv:831,at:5), (pv:832,at:5), (pv:833,at:1), (pv:834,at:2), (pv:835,at:1), (pv:836,at:3), (pv:837,at:1), (pv:838,at:18), (pv:839,at:2), (pv:840,at:1), (pv:841,at:2), (pv:842,at:1), (pv:843,at:1), (pv:844,at:9), (pv:845,at:2), (pv:846,at:1), (pv:847,at:2), (pv:848,at:13), (pv:849,at:4), (pv:850,at:1), (pv:851,at:1), (pv:852,at:2), (pv:853,at:2), (pv:854,at:1), (pv:855,at:2), (pv:856,at:4), (pv:857,at:1), (pv:858,at:2), (pv:859,at:9), (pv:860,at:12), (pv:861,at:3), (pv:862,at:1), (pv:863,at:8), (pv:864,at:4), (pv:865,at:1), (pv:866,at:8), (pv:867,at:10), (pv:868,at:4), (pv:869,at:2), (pv:870,at:1), (pv:871,at:11), (pv:872,at:11), (pv:873,at:9), (pv:874,at:3), (pv:875,at:4), (pv:876,at:2), (pv:877,at:3), (pv:878,at:5), (pv:879,at:2), (pv:880,at:11), (pv:881,at:5), (pv:882,at:4), (pv:883,at:2), (pv:884,at:3), (pv:885,at:2), (pv:886,at:5), (pv:887,at:1), (pv:888,at:8), (pv:889,at:11), (pv:890,at:6), (pv:891,at:1), (pv:892,at:1), (pv:893,at:10), (pv:894,at:5), (pv:895,at:8), (pv:896,at:1), (pv:897,at:8), (pv:898,at:3), (pv:899,at:20), (pv:900,at:2), (pv:901,at:9), (pv:902,at:7), (pv:903,at:14), (pv:904,at:1), (pv:905,at:1), (pv:906,at:11), (pv:907,at:1), (pv:908,at:1), (pv:909,at:14), (pv:910,at:2), (pv:911,at:13), (pv:912,at:10), (pv:913,at:10), (pv:914,at:4), (pv:915,at:4), (pv:916,at:10), (pv:917,at:4), (pv:918,at:9), (pv:919,at:1), (pv:920,at:12), (pv:921,at:5), (pv:922,at:15), (pv:923,at:1), (pv:924,at:5), (pv:925,at:7), (pv:926,at:1), (pv:927,at:8), (pv:928,at:1), (pv:929,at:1), (pv:930,at:4), (pv:931,at:8), (pv:932,at:1), (pv:933,at:3), (pv:934,at:4), (pv:935,at:27), (pv:936,at:13), (pv:937,at:1), (pv:938,at:7), (pv:939,at:2), (pv:940,at:1), (pv:941,at:3), (pv:942,at:5), (pv:943,at:2), (pv:944,at:1), (pv:945,at:4), (pv:946,at:3), (pv:947,at:3), (pv:948,at:4), (pv:949,at:2), (pv:950,at:3), (pv:951,at:10), (pv:952,at:1), (pv:953,at:11), (pv:954,at:10), (pv:955,at:1), (pv:956,at:4), (pv:957,at:3), (pv:958,at:4), (pv:959,at:10), (pv:960,at:9), (pv:961,at:3), (pv:962,at:1), (pv:963,at:2), (pv:964,at:12), (pv:965,at:6), (pv:966,at:8), (pv:967,at:6), (pv:968,at:4), (pv:969,at:1), (pv:970,at:1), (pv:971,at:19), (pv:972,at:3), (pv:973,at:2), (pv:974,at:5), (pv:975,at:4), (pv:976,at:3), (pv:977,at:6), (pv:978,at:1), (pv:979,at:6), (pv:980,at:3), (pv:981,at:1), (pv:982,at:8), (pv:983,at:9), (pv:984,at:3), (pv:985,at:13), (pv:986,at:1), (pv:987,at:1), (pv:988,at:4), (pv:989,at:1), (pv:990,at:1), (pv:991,at:6), (pv:992,at:4), (pv:993,at:5), (pv:994,at:32), (pv:995,at:2), (pv:996,at:3), (pv:997,at:9), (pv:998,at:13), (pv:999,at:8), (pv:1000,at:3), (pv:1001,at:13), (pv:1002,at:4), (pv:1003,at:3), (pv:1004,at:1), (pv:1005,at:2), (pv:1006,at:12), (pv:1007,at:10), (pv:1008,at:5), (pv:1009,at:20), (pv:1010,at:20), (pv:1011,at:2), (pv:1012,at:7), (pv:1013,at:4), (pv:1014,at:4), (pv:1015,at:2), (pv:1016,at:4), (pv:1017,at:11), (pv:1018,at:1), (pv:1019,at:21), (pv:1020,at:26), (pv:1021,at:3), (pv:1022,at:4), (pv:1023,at:4), (pv:1024,at:1), (pv:1025,at:13), (pv:1026,at:1), (pv:1027,at:10), (pv:1028,at:1), (pv:1029,at:4), (pv:1030,at:1), (pv:1031,at:3), (pv:1032,at:15), (pv:1033,at:6), (pv:1034,at:2), (pv:1035,at:4), (pv:1036,at:5), (pv:1037,at:6), (pv:1038,at:7), (pv:1039,at:1), (pv:1040,at:9), (pv:1041,at:21), (pv:1042,at:4), (pv:1043,at:1), (pv:1044,at:3), (pv:1045,at:8), (pv:1046,at:10), (pv:1047,at:1), (pv:1048,at:4), (pv:1049,at:1), (pv:1050,at:21), (pv:1051,at:2), (pv:1052,at:3), (pv:1053,at:6), (pv:1054,at:2), (pv:1055,at:5), (pv:1056,at:3), (pv:1057,at:1), (pv:1058,at:2), (pv:1059,at:1), (pv:1060,at:6), (pv:1061,at:10), (pv:1062,at:23), (pv:1063,at:4), (pv:1064,at:5), (pv:1065,at:9), (pv:1066,at:2), (pv:1067,at:4), (pv:1068,at:10), (pv:1069,at:8), (pv:1070,at:1), (pv:1071,at:18), (pv:1072,at:11), (pv:1073,at:13), (pv:1074,at:16), (pv:1075,at:3), (pv:1076,at:2), (pv:1077,at:3), (pv:1078,at:2), (pv:1079,at:9), (pv:1080,at:1), (pv:1081,at:14), (pv:1082,at:3), (pv:1083,at:3), (pv:1084,at:4), (pv:1085,at:8), (pv:1086,at:13), (pv:1087,at:4), (pv:1088,at:7), (pv:1089,at:2), (pv:1090,at:2), (pv:1091,at:3), (pv:1092,at:4), (pv:1093,at:4), (pv:1094,at:2), (pv:1095,at:17), (pv:1096,at:1), (pv:1097,at:18), (pv:1098,at:10), (pv:1099,at:6), (pv:1100,at:3), (pv:1101,at:2), (pv:1102,at:7), (pv:1103,at:10), (pv:1104,at:1), (pv:1105,at:12), (pv:1106,at:14), (pv:1107,at:2), (pv:1108,at:2), (pv:1109,at:4), (pv:1110,at:2), (pv:1111,at:1), (pv:1112,at:5), (pv:1113,at:11), (pv:1114,at:12), (pv:1115,at:21), (pv:1116,at:5), (pv:1117,at:2), (pv:1118,at:29), (pv:1119,at:4), (pv:1120,at:1), (pv:1121,at:2), (pv:1122,at:11), (pv:1123,at:11), (pv:1124,at:2), (pv:1125,at:13), (pv:1126,at:1), (pv:1127,at:10), (pv:1128,at:2), (pv:1129,at:4), (pv:1130,at:1), (pv:1131,at:9), (pv:1132,at:5), (pv:1133,at:4), (pv:1134,at:11), (pv:1135,at:9), (pv:1136,at:7), (pv:1137,at:1), (pv:1138,at:2), (pv:1139,at:5), (pv:1140,at:2), (pv:1141,at:11), (pv:1142,at:12), (pv:1143,at:7), (pv:1144,at:2), (pv:1147,at:2), (pv:1148,at:23), (pv:1149,at:9), (pv:1150,at:17), (pv:1151,at:5), (pv:1152,at:18), (pv:1153,at:5), (pv:1154,at:5), (pv:1155,at:7), (pv:1156,at:5), (pv:1157,at:15), (pv:1158,at:16), (pv:1159,at:6), (pv:1160,at:14), (pv:1162,at:3), (pv:1163,at:6), (pv:1164,at:12), (pv:1166,at:15), (pv:1168,at:3), (pv:1169,at:1), (pv:1171,at:5), (pv:1173,at:2), (pv:1175,at:6), (pv:1178,at:2), (pv:1179,at:15), (pv:1181,at:2), (pv:1185,at:5), (pv:1186,at:5), (pv:1189,at:1)]
[INFO ] fr.inria.astor.approaches.jgenprog.JGenProg.showResults(JGenProg.java:342) - 
pvariants_with_transformed_ingredients: [(pv:2,at:5), (pv:3,at:36), (pv:4,at:1), (pv:5,at:2), (pv:6,at:1), (pv:7,at:4), (pv:8,at:13), (pv:9,at:1), (pv:10,at:2), (pv:11,at:3), (pv:12,at:1), (pv:13,at:1), (pv:14,at:1), (pv:15,at:2), (pv:16,at:1), (pv:17,at:9), (pv:18,at:7), (pv:19,at:1), (pv:20,at:3), (pv:21,at:2), (pv:22,at:4), (pv:23,at:2), (pv:24,at:1), (pv:25,at:3), (pv:26,at:6), (pv:27,at:2), (pv:28,at:2), (pv:29,at:2), (pv:30,at:5), (pv:31,at:5), (pv:32,at:1), (pv:33,at:2), (pv:34,at:2), (pv:35,at:7), (pv:36,at:2), (pv:37,at:1), (pv:38,at:5), (pv:39,at:2), (pv:40,at:1), (pv:41,at:2), (pv:42,at:2), (pv:43,at:2), (pv:44,at:2), (pv:45,at:1), (pv:46,at:6), (pv:47,at:9), (pv:48,at:2), (pv:49,at:6), (pv:50,at:3), (pv:51,at:1), (pv:52,at:19), (pv:53,at:3), (pv:54,at:1), (pv:55,at:2), (pv:56,at:1), (pv:57,at:8), (pv:58,at:1), (pv:59,at:7), (pv:60,at:3), (pv:61,at:11), (pv:62,at:1), (pv:63,at:3), (pv:64,at:10), (pv:65,at:3), (pv:66,at:1), (pv:67,at:7), (pv:68,at:3), (pv:69,at:12), (pv:70,at:1), (pv:71,at:2), (pv:72,at:1), (pv:73,at:2), (pv:74,at:6), (pv:75,at:9), (pv:76,at:1), (pv:77,at:1), (pv:78,at:2), (pv:79,at:12), (pv:80,at:2), (pv:81,at:4), (pv:82,at:10), (pv:83,at:14), (pv:84,at:1), (pv:85,at:2), (pv:86,at:3), (pv:87,at:1), (pv:88,at:1), (pv:89,at:6), (pv:90,at:7), (pv:91,at:2), (pv:92,at:10), (pv:93,at:15), (pv:94,at:10), (pv:95,at:1), (pv:96,at:6), (pv:97,at:3), (pv:98,at:2), (pv:99,at:6), (pv:100,at:3), (pv:101,at:7), (pv:102,at:3), (pv:103,at:1), (pv:104,at:3), (pv:105,at:1), (pv:106,at:1), (pv:107,at:2), (pv:108,at:2), (pv:109,at:4), (pv:110,at:1), (pv:111,at:3), (pv:112,at:3), (pv:113,at:8), (pv:114,at:3), (pv:115,at:6), (pv:116,at:4), (pv:117,at:3), (pv:118,at:4), (pv:119,at:3), (pv:120,at:1), (pv:121,at:3), (pv:122,at:11), (pv:123,at:4), (pv:124,at:4), (pv:125,at:1), (pv:126,at:5), (pv:127,at:6), (pv:128,at:6), (pv:129,at:1), (pv:130,at:5), (pv:131,at:6), (pv:132,at:11), (pv:133,at:1), (pv:134,at:6), (pv:135,at:3), (pv:136,at:1), (pv:137,at:1), (pv:138,at:9), (pv:139,at:1), (pv:140,at:5), (pv:141,at:5), (pv:142,at:8), (pv:143,at:2), (pv:144,at:2), (pv:145,at:1), (pv:146,at:13), (pv:147,at:4), (pv:148,at:7), (pv:149,at:1), (pv:150,at:1), (pv:151,at:2), (pv:152,at:2), (pv:153,at:1), (pv:154,at:10), (pv:155,at:4), (pv:156,at:3), (pv:157,at:1), (pv:158,at:1), (pv:159,at:6), (pv:160,at:5), (pv:161,at:2), (pv:162,at:13), (pv:163,at:6), (pv:164,at:7), (pv:165,at:12), (pv:166,at:3), (pv:167,at:3), (pv:168,at:1), (pv:169,at:7), (pv:170,at:5), (pv:171,at:1), (pv:172,at:2), (pv:173,at:2), (pv:174,at:1), (pv:175,at:1), (pv:176,at:4), (pv:177,at:2), (pv:178,at:2), (pv:179,at:7), (pv:180,at:2), (pv:181,at:2), (pv:182,at:1), (pv:183,at:1), (pv:184,at:2), (pv:185,at:16), (pv:186,at:3), (pv:187,at:1), (pv:188,at:38), (pv:189,at:5), (pv:190,at:3), (pv:191,at:1), (pv:192,at:2), (pv:193,at:1), (pv:194,at:17), (pv:195,at:1), (pv:196,at:1), (pv:197,at:1), (pv:198,at:1), (pv:199,at:6), (pv:200,at:5), (pv:201,at:1), (pv:202,at:1), (pv:203,at:10), (pv:204,at:2), (pv:205,at:2), (pv:206,at:4), (pv:207,at:5), (pv:208,at:1), (pv:209,at:1), (pv:210,at:1), (pv:211,at:2), (pv:212,at:6), (pv:213,at:1), (pv:214,at:5), (pv:215,at:10), (pv:216,at:1), (pv:217,at:18), (pv:218,at:7), (pv:219,at:1), (pv:220,at:1), (pv:221,at:4), (pv:222,at:5), (pv:223,at:2), (pv:224,at:7), (pv:225,at:3), (pv:226,at:5), (pv:227,at:4), (pv:228,at:7), (pv:229,at:6), (pv:230,at:4), (pv:231,at:3), (pv:232,at:1), (pv:233,at:4), (pv:234,at:6), (pv:235,at:2), (pv:236,at:2), (pv:237,at:1), (pv:238,at:2), (pv:239,at:3), (pv:240,at:3), (pv:241,at:4), (pv:242,at:2), (pv:243,at:10), (pv:244,at:1), (pv:245,at:9), (pv:246,at:2), (pv:247,at:4), (pv:248,at:1), (pv:249,at:5), (pv:250,at:3), (pv:251,at:3), (pv:252,at:10), (pv:253,at:2), (pv:254,at:8), (pv:255,at:2), (pv:256,at:4), (pv:257,at:1), (pv:258,at:2), (pv:259,at:1), (pv:260,at:15), (pv:261,at:1), (pv:262,at:1), (pv:263,at:12), (pv:264,at:10), (pv:265,at:9), (pv:266,at:2), (pv:267,at:6), (pv:268,at:2), (pv:269,at:6), (pv:270,at:1), (pv:271,at:1), (pv:272,at:1), (pv:273,at:5), (pv:274,at:1), (pv:275,at:3), (pv:276,at:2), (pv:277,at:9), (pv:278,at:5), (pv:279,at:3), (pv:280,at:2), (pv:281,at:3), (pv:282,at:2), (pv:283,at:2), (pv:284,at:5), (pv:285,at:5), (pv:286,at:12), (pv:287,at:17), (pv:288,at:4), (pv:289,at:1), (pv:290,at:5), (pv:291,at:12), (pv:292,at:5), (pv:293,at:7), (pv:294,at:11), (pv:295,at:6), (pv:296,at:1), (pv:297,at:5), (pv:298,at:4), (pv:299,at:2), (pv:300,at:8), (pv:301,at:1), (pv:302,at:7), (pv:303,at:3), (pv:304,at:1), (pv:305,at:2), (pv:306,at:1), (pv:307,at:3), (pv:308,at:2), (pv:309,at:4), (pv:310,at:1), (pv:311,at:1), (pv:312,at:18), (pv:313,at:5), (pv:314,at:1), (pv:315,at:1), (pv:316,at:3), (pv:317,at:1), (pv:318,at:7), (pv:319,at:2), (pv:320,at:1), (pv:321,at:4), (pv:322,at:8), (pv:323,at:4), (pv:324,at:5), (pv:325,at:5), (pv:326,at:4), (pv:327,at:5), (pv:328,at:1), (pv:329,at:6), (pv:330,at:9), (pv:331,at:1), (pv:332,at:4), (pv:333,at:3), (pv:334,at:1), (pv:335,at:3), (pv:336,at:1), (pv:337,at:2), (pv:338,at:22), (pv:339,at:1), (pv:340,at:2), (pv:341,at:1), (pv:342,at:3), (pv:343,at:1), (pv:344,at:10), (pv:345,at:12), (pv:346,at:9), (pv:347,at:16), (pv:348,at:2), (pv:349,at:3), (pv:350,at:13), (pv:351,at:5), (pv:352,at:7), (pv:353,at:11), (pv:354,at:1), (pv:355,at:2), (pv:356,at:6), (pv:357,at:2), (pv:358,at:4), (pv:359,at:1), (pv:360,at:23), (pv:361,at:5), (pv:362,at:9), (pv:363,at:8), (pv:364,at:2), (pv:365,at:9), (pv:366,at:2), (pv:367,at:3), (pv:368,at:4), (pv:369,at:3), (pv:370,at:2), (pv:371,at:12), (pv:372,at:3), (pv:373,at:2), (pv:374,at:7), (pv:375,at:7), (pv:376,at:4), (pv:377,at:8), (pv:378,at:3), (pv:379,at:20), (pv:380,at:8), (pv:381,at:4), (pv:382,at:6), (pv:383,at:12), (pv:384,at:1), (pv:385,at:5), (pv:386,at:4), (pv:387,at:1), (pv:388,at:3), (pv:389,at:7), (pv:390,at:8), (pv:391,at:1), (pv:392,at:1), (pv:393,at:2), (pv:394,at:2), (pv:395,at:1), (pv:396,at:2), (pv:397,at:1), (pv:398,at:2), (pv:399,at:2), (pv:400,at:7), (pv:401,at:7), (pv:402,at:1), (pv:403,at:1), (pv:404,at:2), (pv:405,at:1), (pv:406,at:1), (pv:407,at:4), (pv:408,at:3), (pv:409,at:8), (pv:410,at:6), (pv:411,at:3), (pv:412,at:7), (pv:413,at:1), (pv:414,at:6), (pv:415,at:3), (pv:416,at:2), (pv:417,at:3), (pv:418,at:2), (pv:419,at:9), (pv:420,at:3), (pv:421,at:2), (pv:422,at:1), (pv:423,at:2), (pv:424,at:9), (pv:425,at:2), (pv:426,at:1), (pv:427,at:1), (pv:428,at:2), (pv:429,at:3), (pv:430,at:13), (pv:431,at:1), (pv:432,at:1), (pv:433,at:2), (pv:434,at:13), (pv:435,at:10), (pv:436,at:2), (pv:437,at:9), (pv:438,at:2), (pv:439,at:1), (pv:440,at:13), (pv:441,at:2), (pv:442,at:11), (pv:443,at:4), (pv:444,at:2), (pv:445,at:4), (pv:446,at:2), (pv:447,at:1), (pv:448,at:10), (pv:449,at:4), (pv:450,at:1), (pv:451,at:8), (pv:452,at:3), (pv:453,at:1), (pv:454,at:1), (pv:455,at:1), (pv:456,at:1), (pv:457,at:4), (pv:458,at:1), (pv:459,at:6), (pv:460,at:5), (pv:461,at:4), (pv:462,at:4), (pv:463,at:10), (pv:464,at:11), (pv:465,at:12), (pv:466,at:25), (pv:467,at:3), (pv:468,at:1), (pv:469,at:3), (pv:470,at:6), (pv:471,at:6), (pv:472,at:8), (pv:473,at:1), (pv:474,at:4), (pv:475,at:4), (pv:476,at:1), (pv:477,at:1), (pv:478,at:2), (pv:479,at:3), (pv:480,at:7), (pv:481,at:4), (pv:482,at:4), (pv:483,at:1), (pv:484,at:4), (pv:485,at:6), (pv:486,at:4), (pv:487,at:8), (pv:488,at:1), (pv:489,at:5), (pv:490,at:1), (pv:491,at:2), (pv:492,at:3), (pv:493,at:3), (pv:494,at:2), (pv:495,at:3), (pv:496,at:1), (pv:497,at:4), (pv:498,at:4), (pv:499,at:13), (pv:500,at:2), (pv:501,at:4), (pv:502,at:2), (pv:503,at:2), (pv:504,at:2), (pv:505,at:1), (pv:506,at:1), (pv:507,at:8), (pv:508,at:2), (pv:509,at:1), (pv:510,at:3), (pv:511,at:7), (pv:512,at:2), (pv:513,at:2), (pv:514,at:1), (pv:515,at:5), (pv:516,at:12), (pv:517,at:5), (pv:518,at:2), (pv:519,at:3), (pv:520,at:6), (pv:521,at:4), (pv:522,at:10), (pv:523,at:1), (pv:524,at:8), (pv:525,at:7), (pv:526,at:2), (pv:527,at:1), (pv:528,at:7), (pv:529,at:1), (pv:530,at:2), (pv:531,at:5), (pv:532,at:5), (pv:533,at:2), (pv:534,at:5), (pv:535,at:5), (pv:536,at:12), (pv:537,at:24), (pv:538,at:17), (pv:539,at:1), (pv:540,at:5), (pv:541,at:1), (pv:542,at:1), (pv:543,at:6), (pv:544,at:1), (pv:545,at:7), (pv:546,at:1), (pv:547,at:5), (pv:548,at:4), (pv:549,at:6), (pv:550,at:1), (pv:551,at:6), (pv:552,at:6), (pv:553,at:2), (pv:554,at:1), (pv:555,at:7), (pv:556,at:7), (pv:557,at:3), (pv:558,at:3), (pv:559,at:15), (pv:560,at:1), (pv:561,at:10), (pv:562,at:2), (pv:563,at:1), (pv:564,at:4), (pv:565,at:2), (pv:566,at:1), (pv:567,at:8), (pv:568,at:5), (pv:569,at:5), (pv:570,at:11), (pv:571,at:1), (pv:572,at:1), (pv:573,at:2), (pv:574,at:3), (pv:575,at:3), (pv:576,at:1), (pv:577,at:1), (pv:578,at:8), (pv:579,at:2), (pv:580,at:2), (pv:581,at:3), (pv:582,at:4), (pv:583,at:3), (pv:584,at:4), (pv:585,at:1), (pv:586,at:10), (pv:587,at:2), (pv:588,at:9), (pv:589,at:29), (pv:590,at:11), (pv:591,at:1), (pv:592,at:3), (pv:593,at:13), (pv:594,at:6), (pv:595,at:2), (pv:596,at:5), (pv:597,at:16), (pv:598,at:5), (pv:599,at:6), (pv:600,at:14), (pv:601,at:6), (pv:602,at:8), (pv:603,at:2), (pv:604,at:4), (pv:605,at:4), (pv:606,at:8), (pv:607,at:9), (pv:608,at:29), (pv:609,at:11), (pv:610,at:2), (pv:611,at:7), (pv:612,at:1), (pv:613,at:26), (pv:614,at:2), (pv:615,at:1), (pv:616,at:2), (pv:617,at:1), (pv:618,at:2), (pv:619,at:1), (pv:620,at:6), (pv:621,at:15), (pv:622,at:8), (pv:623,at:1), (pv:624,at:5), (pv:625,at:1), (pv:626,at:5), (pv:627,at:1), (pv:628,at:1), (pv:629,at:6), (pv:630,at:8), (pv:631,at:3), (pv:632,at:1), (pv:633,at:1), (pv:634,at:1), (pv:635,at:6), (pv:636,at:3), (pv:637,at:13), (pv:638,at:1), (pv:639,at:1), (pv:640,at:1), (pv:641,at:6), (pv:642,at:3), (pv:643,at:2), (pv:644,at:2), (pv:645,at:2), (pv:646,at:3), (pv:647,at:1), (pv:648,at:8), (pv:649,at:1), (pv:650,at:4), (pv:651,at:5), (pv:652,at:1), (pv:653,at:15), (pv:654,at:7), (pv:655,at:5), (pv:656,at:5), (pv:657,at:2), (pv:658,at:3), (pv:659,at:2), (pv:660,at:1), (pv:661,at:17), (pv:662,at:5), (pv:663,at:5), (pv:664,at:11), (pv:665,at:4), (pv:666,at:4), (pv:667,at:1), (pv:668,at:5), (pv:669,at:3), (pv:670,at:7), (pv:671,at:1), (pv:672,at:5), (pv:673,at:6), (pv:674,at:2), (pv:675,at:3), (pv:676,at:2), (pv:677,at:3), (pv:678,at:1), (pv:679,at:1), (pv:680,at:3), (pv:681,at:2), (pv:682,at:1), (pv:683,at:5), (pv:684,at:1), (pv:685,at:2), (pv:686,at:2), (pv:687,at:4), (pv:688,at:3), (pv:689,at:8), (pv:690,at:2), (pv:691,at:7), (pv:692,at:1), (pv:693,at:13), (pv:694,at:6), (pv:695,at:1), (pv:696,at:9), (pv:697,at:1), (pv:698,at:9), (pv:699,at:9), (pv:700,at:16), (pv:701,at:5), (pv:702,at:3), (pv:703,at:5), (pv:704,at:13), (pv:705,at:1), (pv:706,at:6), (pv:707,at:5), (pv:708,at:7), (pv:709,at:14), (pv:710,at:2), (pv:711,at:6), (pv:712,at:7), (pv:713,at:1), (pv:714,at:1), (pv:715,at:9), (pv:716,at:7), (pv:717,at:7), (pv:718,at:2), (pv:719,at:2), (pv:720,at:3), (pv:721,at:1), (pv:722,at:3), (pv:723,at:7), (pv:724,at:1), (pv:725,at:6), (pv:726,at:10), (pv:727,at:4), (pv:728,at:3), (pv:729,at:14), (pv:730,at:1), (pv:731,at:3), (pv:732,at:7), (pv:733,at:2), (pv:734,at:4), (pv:735,at:1), (pv:736,at:13), (pv:737,at:6), (pv:738,at:3), (pv:739,at:1), (pv:740,at:1), (pv:741,at:1), (pv:742,at:4), (pv:743,at:15), (pv:744,at:14), (pv:745,at:2), (pv:746,at:3), (pv:747,at:3), (pv:748,at:1), (pv:749,at:2), (pv:750,at:16), (pv:751,at:3), (pv:752,at:1), (pv:753,at:9), (pv:754,at:2), (pv:755,at:2), (pv:756,at:5), (pv:757,at:4), (pv:758,at:5), (pv:759,at:5), (pv:760,at:6), (pv:761,at:1), (pv:762,at:8), (pv:763,at:2), (pv:764,at:4), (pv:765,at:4), (pv:766,at:2), (pv:767,at:2), (pv:768,at:6), (pv:769,at:4), (pv:770,at:1), (pv:771,at:2), (pv:772,at:2), (pv:773,at:7), (pv:774,at:4), (pv:775,at:4), (pv:776,at:5), (pv:777,at:2), (pv:778,at:6), (pv:779,at:3), (pv:780,at:1), (pv:781,at:11), (pv:782,at:3), (pv:783,at:11), (pv:784,at:11), (pv:785,at:1), (pv:786,at:1), (pv:787,at:1), (pv:788,at:3), (pv:789,at:3), (pv:790,at:3), (pv:791,at:3), (pv:792,at:2), (pv:793,at:3), (pv:794,at:15), (pv:795,at:1), (pv:796,at:1), (pv:797,at:3), (pv:798,at:6), (pv:799,at:2), (pv:800,at:13), (pv:801,at:3), (pv:802,at:5), (pv:803,at:2), (pv:804,at:5), (pv:805,at:13), (pv:806,at:1), (pv:807,at:1), (pv:808,at:5), (pv:809,at:4), (pv:810,at:13), (pv:811,at:24), (pv:812,at:5), (pv:813,at:1), (pv:814,at:6), (pv:815,at:19), (pv:816,at:8), (pv:817,at:11), (pv:818,at:4), (pv:819,at:5), (pv:820,at:1), (pv:821,at:4), (pv:822,at:1), (pv:823,at:1), (pv:824,at:3), (pv:825,at:2), (pv:826,at:2), (pv:827,at:3), (pv:828,at:4), (pv:829,at:4), (pv:830,at:6), (pv:831,at:5), (pv:832,at:5), (pv:833,at:1), (pv:834,at:2), (pv:835,at:1), (pv:836,at:3), (pv:837,at:1), (pv:838,at:18), (pv:839,at:2), (pv:840,at:1), (pv:841,at:2), (pv:842,at:1), (pv:843,at:1), (pv:844,at:9), (pv:845,at:2), (pv:846,at:1), (pv:847,at:2), (pv:848,at:13), (pv:849,at:4), (pv:850,at:1), (pv:851,at:1), (pv:852,at:2), (pv:853,at:2), (pv:854,at:1), (pv:855,at:2), (pv:856,at:4), (pv:857,at:1), (pv:858,at:2), (pv:859,at:9), (pv:860,at:12), (pv:861,at:3), (pv:862,at:1), (pv:863,at:8), (pv:864,at:4), (pv:865,at:1), (pv:866,at:8), (pv:867,at:10), (pv:868,at:4), (pv:869,at:2), (pv:870,at:1), (pv:871,at:11), (pv:872,at:11), (pv:873,at:9), (pv:874,at:3), (pv:875,at:4), (pv:876,at:2), (pv:877,at:3), (pv:878,at:5), (pv:879,at:2), (pv:880,at:11), (pv:881,at:5), (pv:882,at:4), (pv:883,at:2), (pv:884,at:3), (pv:885,at:2), (pv:886,at:5), (pv:887,at:1), (pv:888,at:8), (pv:889,at:11), (pv:890,at:6), (pv:891,at:1), (pv:892,at:1), (pv:893,at:10), (pv:894,at:5), (pv:895,at:8), (pv:896,at:1), (pv:897,at:8), (pv:898,at:3), (pv:899,at:20), (pv:900,at:2), (pv:901,at:9), (pv:902,at:7), (pv:903,at:14), (pv:904,at:1), (pv:905,at:1), (pv:906,at:11), (pv:907,at:1), (pv:908,at:1), (pv:909,at:14), (pv:910,at:2), (pv:911,at:13), (pv:912,at:10), (pv:913,at:10), (pv:914,at:4), (pv:915,at:4), (pv:916,at:10), (pv:917,at:4), (pv:918,at:9), (pv:919,at:1), (pv:920,at:12), (pv:921,at:5), (pv:922,at:15), (pv:923,at:1), (pv:924,at:5), (pv:925,at:7), (pv:926,at:1), (pv:927,at:8), (pv:928,at:1), (pv:929,at:1), (pv:930,at:4), (pv:931,at:8), (pv:932,at:1), (pv:933,at:3), (pv:934,at:4), (pv:935,at:27), (pv:936,at:13), (pv:937,at:1), (pv:938,at:7), (pv:939,at:2), (pv:940,at:1), (pv:941,at:3), (pv:942,at:5), (pv:943,at:2), (pv:944,at:1), (pv:945,at:4), (pv:946,at:3), (pv:947,at:3), (pv:948,at:4), (pv:949,at:2), (pv:950,at:3), (pv:951,at:10), (pv:952,at:1), (pv:953,at:11), (pv:954,at:10), (pv:955,at:1), (pv:956,at:4), (pv:957,at:3), (pv:958,at:4), (pv:959,at:10), (pv:960,at:9), (pv:961,at:3), (pv:962,at:1), (pv:963,at:2), (pv:964,at:12), (pv:965,at:6), (pv:966,at:8), (pv:967,at:6), (pv:968,at:4), (pv:969,at:1), (pv:970,at:1), (pv:971,at:19), (pv:972,at:3), (pv:973,at:2), (pv:974,at:5), (pv:975,at:4), (pv:976,at:3), (pv:977,at:6), (pv:978,at:1), (pv:979,at:6), (pv:980,at:3), (pv:981,at:1), (pv:982,at:8), (pv:983,at:9), (pv:984,at:3), (pv:985,at:13), (pv:986,at:1), (pv:987,at:1), (pv:988,at:4), (pv:989,at:1), (pv:990,at:1), (pv:991,at:6), (pv:992,at:4), (pv:993,at:5), (pv:994,at:32), (pv:995,at:2), (pv:996,at:3), (pv:997,at:9), (pv:998,at:13), (pv:999,at:8), (pv:1000,at:3), (pv:1001,at:13), (pv:1002,at:4), (pv:1003,at:3), (pv:1004,at:1), (pv:1005,at:2), (pv:1006,at:12), (pv:1007,at:10), (pv:1008,at:5), (pv:1009,at:20), (pv:1010,at:20), (pv:1011,at:2), (pv:1012,at:7), (pv:1013,at:4), (pv:1014,at:4), (pv:1015,at:2), (pv:1016,at:4), (pv:1017,at:11), (pv:1018,at:1), (pv:1019,at:21), (pv:1020,at:26), (pv:1021,at:3), (pv:1022,at:4), (pv:1023,at:4), (pv:1024,at:1), (pv:1025,at:13), (pv:1026,at:1), (pv:1027,at:10), (pv:1028,at:1), (pv:1029,at:4), (pv:1030,at:1), (pv:1031,at:3), (pv:1032,at:15), (pv:1033,at:6), (pv:1034,at:2), (pv:1035,at:4), (pv:1036,at:5), (pv:1037,at:6), (pv:1038,at:7), (pv:1039,at:1), (pv:1040,at:9), (pv:1041,at:21), (pv:1042,at:4), (pv:1043,at:1), (pv:1044,at:3), (pv:1045,at:8), (pv:1046,at:10), (pv:1047,at:1), (pv:1048,at:4), (pv:1049,at:1), (pv:1050,at:21), (pv:1051,at:2), (pv:1052,at:3), (pv:1053,at:6), (pv:1054,at:2), (pv:1055,at:5), (pv:1056,at:3), (pv:1057,at:1), (pv:1058,at:2), (pv:1059,at:1), (pv:1060,at:6), (pv:1061,at:10), (pv:1062,at:23), (pv:1063,at:4), (pv:1064,at:5), (pv:1065,at:9), (pv:1066,at:2), (pv:1067,at:4), (pv:1068,at:10), (pv:1069,at:8), (pv:1070,at:1), (pv:1071,at:18), (pv:1072,at:11), (pv:1073,at:13), (pv:1074,at:16), (pv:1075,at:3), (pv:1076,at:2), (pv:1077,at:3), (pv:1078,at:2), (pv:1079,at:9), (pv:1080,at:1), (pv:1081,at:14), (pv:1082,at:3), (pv:1083,at:3), (pv:1084,at:4), (pv:1085,at:8), (pv:1086,at:13), (pv:1087,at:4), (pv:1088,at:7), (pv:1089,at:2), (pv:1090,at:2), (pv:1091,at:3), (pv:1092,at:4), (pv:1093,at:4), (pv:1094,at:2), (pv:1095,at:17), (pv:1096,at:1), (pv:1097,at:18), (pv:1098,at:10), (pv:1099,at:6), (pv:1100,at:3), (pv:1101,at:2), (pv:1102,at:7), (pv:1103,at:10), (pv:1104,at:1), (pv:1105,at:12), (pv:1106,at:14), (pv:1107,at:2), (pv:1108,at:2), (pv:1109,at:4), (pv:1110,at:2), (pv:1111,at:1), (pv:1112,at:5), (pv:1113,at:11), (pv:1114,at:12), (pv:1115,at:21), (pv:1116,at:5), (pv:1117,at:2), (pv:1118,at:29), (pv:1119,at:4), (pv:1120,at:1), (pv:1121,at:2), (pv:1122,at:11), (pv:1123,at:11), (pv:1124,at:2), (pv:1125,at:13), (pv:1126,at:1), (pv:1127,at:10), (pv:1128,at:2), (pv:1129,at:4), (pv:1130,at:1), (pv:1131,at:9), (pv:1132,at:5), (pv:1133,at:4), (pv:1134,at:11), (pv:1135,at:9), (pv:1136,at:7), (pv:1137,at:1), (pv:1138,at:2), (pv:1139,at:5), (pv:1140,at:2), (pv:1141,at:11), (pv:1142,at:12), (pv:1143,at:7), (pv:1144,at:2), (pv:1147,at:2), (pv:1148,at:23), (pv:1149,at:9), (pv:1150,at:17), (pv:1151,at:5), (pv:1152,at:18), (pv:1153,at:5), (pv:1154,at:5), (pv:1155,at:7), (pv:1156,at:5), (pv:1157,at:15), (pv:1158,at:16), (pv:1159,at:6), (pv:1160,at:14), (pv:1162,at:3), (pv:1163,at:6), (pv:1164,at:12), (pv:1166,at:15), (pv:1168,at:3), (pv:1169,at:1), (pv:1171,at:5), (pv:1173,at:2), (pv:1175,at:6), (pv:1178,at:2), (pv:1179,at:15), (pv:1181,at:2), (pv:1185,at:5), (pv:1186,at:5), (pv:1189,at:1)]
[INFO ] fr.inria.main.evolution.AstorMain.run(AstorMain.java:163) - Time Total(s): 10904.126
