Warning: no access to tty (Bad file descriptor).
Thus no job control in this shell.
tput: No value for $TERM and no -T specified
Node: hu08.sciclone.wm.edu
[INFO ] fr.inria.main.AbstractMain.processArguments(AbstractMain.java:295) - command line arguments: [-out  /local/scr/mtufano/Lang/37/b/random-local-default/3  -jvm4testexecution  /usr/local/jdk1.7.0_80/bin/  -loglevel  INFO  -maxVarCombination  1000  -maxgen  1000000  -population  1  -maxtime  180  -timezone  America/New_York  -customop  fr.inria.astor.approaches.jgenprog.operators.InsertAfterOp:fr.inria.astor.approaches.jgenprog.operators.InsertBeforeOp:fr.inria.astor.approaches.jgenprog.operators.ReplaceOp  -seed  3  -javacompliancelevel  5  -package  org.apache.commons  -binjavafolder  target/classes/  -bintestfolder  target/test-classes/  -srcjavafolder  src/java/  -srctestfolder  src/test/  -learningdir  ../../out/learningdir/Lang/37/b/  -location  ../../dat/defects4j/Lang/37/b/  -failing  org.apache.commons.lang3.ArrayUtilsAddTest  -dependencies  ../../dat/libs/Lang/cglib.jar:../../dat/libs/Lang/commons-io.jar:../../dat/libs/Lang/asm.jar:../../dat/libs/Lang/easymock.jar  -classestoinstrument  org.apache.commons.lang3.ArrayUtils  -regressiontestcases4fl  org.apache.commons.lang3.ArrayUtilsAddTest:org.apache.commons.lang3.ArrayUtilsRemoveTest:org.apache.commons.lang3.ArrayUtilsTest:org.apache.commons.lang3.BooleanUtilsTest:org.apache.commons.lang3.CharEncodingTest:org.apache.commons.lang3.CharSetTest:org.apache.commons.lang3.CharSetUtilsTest:org.apache.commons.lang3.ClassUtilsTest:org.apache.commons.lang3.StringEscapeUtilsTest:org.apache.commons.lang3.StringUtilsEqualsIndexOfTest:org.apache.commons.lang3.StringUtilsSubstringTest:org.apache.commons.lang3.StringUtilsTest:org.apache.commons.lang3.ValidateTest:org.apache.commons.lang3.builder.ReflectionToStringBuilderExcludeTest:org.apache.commons.lang3.exception.ExceptionUtilsTest:org.apache.commons.lang3.reflect.ConstructorUtilsTest:org.apache.commons.lang3.reflect.FieldUtilsTest:org.apache.commons.lang3.reflect.MethodUtilsTest:org.apache.commons.lang3.text.StrBuilderTest:org.apache.commons.lang3.text.StrTokenizerTest  -scope  fr.inria.astor.core.loop.spaces.ingredients.scopes.ctscopes.CtClassIngredientSpace  -ingredientstrategy  fr.inria.astor.core.loop.spaces.ingredients.ingredientSearch.EfficientIngredientStrategy]
[INFO ] fr.inria.astor.core.manipulation.MutationSupporter.buildModel(MutationSupporter.java:76) - building model: /local/scr/mtufano/Lang/37/b/random-local-default/3/AstorMain-b//src//default, compliance level: 5
[INFO ] fr.inria.astor.core.manipulation.MutationSupporter.buildModel(MutationSupporter.java:85) - Classpath for building SpoonModel [/sciclone/data20/mtufano/deeprepair/bin/eval/../../dat/libs/Lang/cglib.jar, /sciclone/data20/mtufano/deeprepair/bin/eval/../../dat/libs/Lang/commons-io.jar, /sciclone/data20/mtufano/deeprepair/bin/eval/../../dat/libs/Lang/asm.jar, /sciclone/data20/mtufano/deeprepair/bin/eval/../../dat/libs/Lang/easymock.jar]
[INFO ] fr.inria.astor.core.setup.ProjectRepairFacade.calculateSuspicious(ProjectRepairFacade.java:215) - -Executing Gzoltar classpath: /local/scr/mtufano/Lang/37/b/random-local-default/3/AstorMain-b//bin//default from 20 classes with test cases
[INFO ] fr.inria.astor.core.faultlocalization.GZoltarFaultLocalization.searchSuspicious(GZoltarFaultLocalization.java:37) - Gzoltar fault localization: min susp value parameter: 0.1
[INFO ] fr.inria.astor.core.faultlocalization.GZoltarFaultLocalization.searchSuspicious(GZoltarFaultLocalization.java:57) - -gz-Adding classpath: [/sciclone/data20/mtufano/deeprepair/bin/eval/../../dat/libs/Lang/cglib.jar, /sciclone/data20/mtufano/deeprepair/bin/eval/../../dat/libs/Lang/asm.jar, /sciclone/data20/mtufano/deeprepair/bin/eval/../../dat/libs/Lang/easymock.jar, /local/scr/mtufano/Lang/37/b/random-local-default/3/AstorMain-b//bin//default, /sciclone/data20/mtufano/deeprepair/bin/eval/../../dat/libs/Lang/commons-io.jar]
[INFO ] fr.inria.astor.core.faultlocalization.GZoltarFaultLocalization.searchSuspicious(GZoltarFaultLocalization.java:76) - Test failt: org.apache.commons.lang3.ArrayUtilsAddTest#testJira567
[INFO ] fr.inria.astor.core.faultlocalization.GZoltarFaultLocalization.searchSuspicious(GZoltarFaultLocalization.java:81) - Gzoltar Test Result Total:657, fails: 1, GZoltar suspicious 4170
[INFO ] fr.inria.astor.core.faultlocalization.GZoltarFaultLocalization.searchSuspicious(GZoltarFaultLocalization.java:123) - Gzoltar found: 7 with susp > 0.1, we consider: 7
[INFO ] fr.inria.astor.approaches.jgenprog.JGenProg.initPopulation(JGenProg.java:80) - 
---- Initial suspicious size: 7
[INFO ] fr.inria.astor.core.loop.population.ProgramVariantFactory.createProgramInstance(ProgramVariantFactory.java:130) - Total suspicious from FL: 7,  7
[INFO ] fr.inria.astor.core.loop.population.ProgramVariantFactory.createProgramInstance(ProgramVariantFactory.java:138) - Total ModPoint created: 7
[INFO ] fr.inria.astor.core.loop.population.ProgramVariantFactory.createInitialPopulation(ProgramVariantFactory.java:82) - Creating program variant #1, [Variant id: 1, #gens: 7, #ops: 0, parent:-]
[INFO ] fr.inria.astor.core.setup.ConfigurationProperties.print(ConfigurationProperties.java:63) - ----------------------------
[INFO ] fr.inria.astor.core.setup.ConfigurationProperties.print(ConfigurationProperties.java:64) - ---Configuration properties:---Execution values
[INFO ] fr.inria.astor.core.setup.ConfigurationProperties.print(ConfigurationProperties.java:66) - p:lastJUnitVersion= ./examples/libs/junit-4.11.jar
[INFO ] fr.inria.astor.core.setup.ConfigurationProperties.print(ConfigurationProperties.java:66) - p:alternativecompliancelevel= 4
[INFO ] fr.inria.astor.core.setup.ConfigurationProperties.print(ConfigurationProperties.java:66) - p:ignoredTestCases= 
[INFO ] fr.inria.astor.core.setup.ConfigurationProperties.print(ConfigurationProperties.java:66) - p:workingDirectory= /local/scr/mtufano/Lang/37/b/random-local-default/3
[INFO ] fr.inria.astor.core.setup.ConfigurationProperties.print(ConfigurationProperties.java:66) - p:manipulatesuper= false
[INFO ] fr.inria.astor.core.setup.ConfigurationProperties.print(ConfigurationProperties.java:66) - p:validation= process
[INFO ] fr.inria.astor.core.setup.ConfigurationProperties.print(ConfigurationProperties.java:66) - p:jvm4testexecution= /usr/local/jdk1.7.0_80/bin/
[INFO ] fr.inria.astor.core.setup.ConfigurationProperties.print(ConfigurationProperties.java:66) - p:binjavafolder= target/classes/
[INFO ] fr.inria.astor.core.setup.ConfigurationProperties.print(ConfigurationProperties.java:66) - p:evosuiteresultfolder= evosuite
[INFO ] fr.inria.astor.core.setup.ConfigurationProperties.print(ConfigurationProperties.java:66) - p:flthreshold= 0.1
[INFO ] fr.inria.astor.core.setup.ConfigurationProperties.print(ConfigurationProperties.java:66) - p:regressionforfaultlocalization= true
[INFO ] fr.inria.astor.core.setup.ConfigurationProperties.print(ConfigurationProperties.java:66) - p:tmax2= 960000
[INFO ] fr.inria.astor.core.setup.ConfigurationProperties.print(ConfigurationProperties.java:66) - p:tmax1= 120000
[INFO ] fr.inria.astor.core.setup.ConfigurationProperties.print(ConfigurationProperties.java:66) - p:probagenmutation= false
[INFO ] fr.inria.astor.core.setup.ConfigurationProperties.print(ConfigurationProperties.java:66) - p:srctestfolder= src/test/
[INFO ] fr.inria.astor.core.setup.ConfigurationProperties.print(ConfigurationProperties.java:66) - p:customop= fr.inria.astor.approaches.jgenprog.operators.InsertAfterOp:fr.inria.astor.approaches.jgenprog.operators.InsertBeforeOp:fr.inria.astor.approaches.jgenprog.operators.ReplaceOp
[INFO ] fr.inria.astor.core.setup.ConfigurationProperties.print(ConfigurationProperties.java:66) - p:forceExecuteRegression= false
[INFO ] fr.inria.astor.core.setup.ConfigurationProperties.print(ConfigurationProperties.java:66) - p:clusteringfilename= clustering.csv
[INFO ] fr.inria.astor.core.setup.ConfigurationProperties.print(ConfigurationProperties.java:66) - p:failing= org.apache.commons.lang3.ArrayUtilsAddTest
[INFO ] fr.inria.astor.core.setup.ConfigurationProperties.print(ConfigurationProperties.java:66) - p:evo_buggy_class= true
[INFO ] fr.inria.astor.core.setup.ConfigurationProperties.print(ConfigurationProperties.java:66) - p:numberExecutions= 1
[INFO ] fr.inria.astor.core.setup.ConfigurationProperties.print(ConfigurationProperties.java:66) - p:evo_affected_by_op= true
[INFO ] fr.inria.astor.core.setup.ConfigurationProperties.print(ConfigurationProperties.java:66) - p:population= 1
[INFO ] fr.inria.astor.core.setup.ConfigurationProperties.print(ConfigurationProperties.java:66) - p:clonegranularity= types
[INFO ] fr.inria.astor.core.setup.ConfigurationProperties.print(ConfigurationProperties.java:66) - p:regressiontestcases4fl= org.apache.commons.lang3.ArrayUtilsAddTest:org.apache.commons.lang3.ArrayUtilsRemoveTest:org.apache.commons.lang3.ArrayUtilsTest:org.apache.commons.lang3.BooleanUtilsTest:org.apache.commons.lang3.CharEncodingTest:org.apache.commons.lang3.CharSetTest:org.apache.commons.lang3.CharSetUtilsTest:org.apache.commons.lang3.ClassUtilsTest:org.apache.commons.lang3.StringEscapeUtilsTest:org.apache.commons.lang3.StringUtilsEqualsIndexOfTest:org.apache.commons.lang3.StringUtilsSubstringTest:org.apache.commons.lang3.StringUtilsTest:org.apache.commons.lang3.ValidateTest:org.apache.commons.lang3.builder.ReflectionToStringBuilderExcludeTest:org.apache.commons.lang3.exception.ExceptionUtilsTest:org.apache.commons.lang3.reflect.ConstructorUtilsTest:org.apache.commons.lang3.reflect.FieldUtilsTest:org.apache.commons.lang3.reflect.MethodUtilsTest:org.apache.commons.lang3.text.StrBuilderTest:org.apache.commons.lang3.text.StrTokenizerTest
[INFO ] fr.inria.astor.core.setup.ConfigurationProperties.print(ConfigurationProperties.java:66) - p:savesolution= true
[INFO ] fr.inria.astor.core.setup.ConfigurationProperties.print(ConfigurationProperties.java:66) - p:javacompliancelevel= 5
[INFO ] fr.inria.astor.core.setup.ConfigurationProperties.print(ConfigurationProperties.java:66) - p:uniqueoptogen= false
[INFO ] fr.inria.astor.core.setup.ConfigurationProperties.print(ConfigurationProperties.java:66) - p:projectIdentifier= 
[INFO ] fr.inria.astor.core.setup.ConfigurationProperties.print(ConfigurationProperties.java:66) - p:modificationpointnavigation= weight
[INFO ] fr.inria.astor.core.setup.ConfigurationProperties.print(ConfigurationProperties.java:66) - p:stopfirst= false
[INFO ] fr.inria.astor.core.setup.ConfigurationProperties.print(ConfigurationProperties.java:66) - p:multipointmodification= false
[INFO ] fr.inria.astor.core.setup.ConfigurationProperties.print(ConfigurationProperties.java:66) - p:elementsToMutate= 10
[INFO ] fr.inria.astor.core.setup.ConfigurationProperties.print(ConfigurationProperties.java:66) - p:evoDSE= false
[INFO ] fr.inria.astor.core.setup.ConfigurationProperties.print(ConfigurationProperties.java:66) - p:bintestfolder= target/test-classes/
[INFO ] fr.inria.astor.core.setup.ConfigurationProperties.print(ConfigurationProperties.java:66) - p:testbystep= false
[INFO ] fr.inria.astor.core.setup.ConfigurationProperties.print(ConfigurationProperties.java:66) - p:version-location= ./math-version/
[INFO ] fr.inria.astor.core.setup.ConfigurationProperties.print(ConfigurationProperties.java:66) - p:reintroduce= PARENTS
[INFO ] fr.inria.astor.core.setup.ConfigurationProperties.print(ConfigurationProperties.java:66) - p:maxGeneration= 1000000
[INFO ] fr.inria.astor.core.setup.ConfigurationProperties.print(ConfigurationProperties.java:66) - p:maxVarCombination= 1000
[INFO ] fr.inria.astor.core.setup.ConfigurationProperties.print(ConfigurationProperties.java:66) - p:maxtime= 180
[INFO ] fr.inria.astor.core.setup.ConfigurationProperties.print(ConfigurationProperties.java:66) - p:evosuitejar= ./lib/evosuite-master-1.0.4-SNAPSHOT.jar
[INFO ] fr.inria.astor.core.setup.ConfigurationProperties.print(ConfigurationProperties.java:66) - p:commandTrunk= 50000
[INFO ] fr.inria.astor.core.setup.ConfigurationProperties.print(ConfigurationProperties.java:66) - p:faultlocalization= fr.inria.astor.core.faultlocalization.GZoltarFaultLocalization
[INFO ] fr.inria.astor.core.setup.ConfigurationProperties.print(ConfigurationProperties.java:66) - p:maxsuspcandidates= 1000
[INFO ] fr.inria.astor.core.setup.ConfigurationProperties.print(ConfigurationProperties.java:66) - p:mode= statement
[INFO ] fr.inria.astor.core.setup.ConfigurationProperties.print(ConfigurationProperties.java:66) - p:learningdir= ../../out/learningdir/Lang/37/b/
[INFO ] fr.inria.astor.core.setup.ConfigurationProperties.print(ConfigurationProperties.java:66) - p:jvm4evosuitetestexecution= /usr/local/jdk1.7.0_80/bin/
[INFO ] fr.inria.astor.core.setup.ConfigurationProperties.print(ConfigurationProperties.java:66) - p:filterfaultlocalization= true
[INFO ] fr.inria.astor.core.setup.ConfigurationProperties.print(ConfigurationProperties.java:66) - p:mutationrate= 1 
[INFO ] fr.inria.astor.core.setup.ConfigurationProperties.print(ConfigurationProperties.java:66) - p:pathToMVNRepository= 
[INFO ] fr.inria.astor.core.setup.ConfigurationProperties.print(ConfigurationProperties.java:66) - p:resourcesfolder= /src/main/resources:/src/test/resources:
[INFO ] fr.inria.astor.core.setup.ConfigurationProperties.print(ConfigurationProperties.java:66) - p:timezone= America/New_York
[INFO ] fr.inria.astor.core.setup.ConfigurationProperties.print(ConfigurationProperties.java:66) - p:classestoinstrument= org.apache.commons.lang3.ArrayUtils
[INFO ] fr.inria.astor.core.setup.ConfigurationProperties.print(ConfigurationProperties.java:66) - p:evoRunOnBuggyClass= true
[INFO ] fr.inria.astor.core.setup.ConfigurationProperties.print(ConfigurationProperties.java:66) - p:compiler= fr.inria.astor.core.manipulation.bytecode.compiler.SpoonClassCompiler
[INFO ] fr.inria.astor.core.setup.ConfigurationProperties.print(ConfigurationProperties.java:66) - p:dependenciespath= ../../dat/libs/Lang/cglib.jar:../../dat/libs/Lang/commons-io.jar:../../dat/libs/Lang/asm.jar:../../dat/libs/Lang/easymock.jar
[INFO ] fr.inria.astor.core.setup.ConfigurationProperties.print(ConfigurationProperties.java:66) - p:skipfaultlocalization= false
[INFO ] fr.inria.astor.core.setup.ConfigurationProperties.print(ConfigurationProperties.java:66) - p:packageToInstrument= org.apache.commons
[INFO ] fr.inria.astor.core.setup.ConfigurationProperties.print(ConfigurationProperties.java:66) - p:scope= fr.inria.astor.core.loop.spaces.ingredients.scopes.ctscopes.CtClassIngredientSpace
[INFO ] fr.inria.astor.core.setup.ConfigurationProperties.print(ConfigurationProperties.java:66) - p:transformingredient= false
[INFO ] fr.inria.astor.core.setup.ConfigurationProperties.print(ConfigurationProperties.java:66) - p:fitnessfunction= fr.inria.astor.core.loop.population.TestCaseFitnessFunction
[INFO ] fr.inria.astor.core.setup.ConfigurationProperties.print(ConfigurationProperties.java:66) - p:pvariantfoldername= variant-
[INFO ] fr.inria.astor.core.setup.ConfigurationProperties.print(ConfigurationProperties.java:66) - p:srcjavafolder= src/java/
[INFO ] fr.inria.astor.core.setup.ConfigurationProperties.print(ConfigurationProperties.java:66) - p:populationcontroller= fr.inria.astor.core.loop.population.TestCaseBasedFitnessPopulationController
[INFO ] fr.inria.astor.core.setup.ConfigurationProperties.print(ConfigurationProperties.java:66) - p:ignoreflakyinfl= false
[INFO ] fr.inria.astor.core.setup.ConfigurationProperties.print(ConfigurationProperties.java:66) - p:applyCrossover= false
[INFO ] fr.inria.astor.core.setup.ConfigurationProperties.print(ConfigurationProperties.java:66) - p:saveall= false
[INFO ] fr.inria.astor.core.setup.ConfigurationProperties.print(ConfigurationProperties.java:66) - p:seed= 3
[INFO ] fr.inria.astor.core.setup.ConfigurationProperties.print(ConfigurationProperties.java:66) - p:resetoperations= false
[INFO ] fr.inria.astor.core.setup.ConfigurationProperties.print(ConfigurationProperties.java:66) - p:location= ../../dat/defects4j/Lang/37/b/
[INFO ] fr.inria.astor.core.setup.ConfigurationProperties.print(ConfigurationProperties.java:66) - p:ingredientstrategy= fr.inria.astor.core.loop.spaces.ingredients.ingredientSearch.EfficientIngredientStrategy
[INFO ] fr.inria.astor.core.setup.ConfigurationProperties.print(ConfigurationProperties.java:66) - p:allpoints= false
[INFO ] fr.inria.astor.core.setup.ConfigurationProperties.print(ConfigurationProperties.java:66) - p:bugId= 280
[INFO ] fr.inria.astor.core.setup.ConfigurationProperties.print(ConfigurationProperties.java:66) - p:evosuitetimeout= 120
[INFO ] fr.inria.astor.core.setup.ConfigurationProperties.print(ConfigurationProperties.java:68) - ----------------------------
[INFO ] fr.inria.astor.core.loop.AstorCoreEngine.startEvolution(AstorCoreEngine.java:119) - 
----Starting Solution Search
[INFO ] fr.inria.astor.core.loop.AstorCoreEngine.belowMaxTime(AstorCoreEngine.java:203) - 
 No more time for operating
[INFO ] fr.inria.astor.core.loop.AstorCoreEngine.startEvolution(AstorCoreEngine.java:143) - Time Repair Loop (s): 10860.105
[INFO ] fr.inria.astor.core.loop.AstorCoreEngine.showResults(AstorCoreEngine.java:165) - 
----SUMMARY_EXECUTION---
[INFO ] fr.inria.astor.approaches.jgenprog.JGenProg.showResults(JGenProg.java:332) - 
successful_ing_attempts (#trials 0, totalAttps 0): []
[INFO ] fr.inria.astor.approaches.jgenprog.JGenProg.showResults(JGenProg.java:334) - 
failing_ing_attempts (#trials 582, totalAttps 4396): [1, 53, 4, 6, 1, 3, 11, 2, 1, 3, 1, 3, 3, 10, 2, 5, 2, 1, 2, 1, 1, 2, 1, 9, 6, 18, 3, 10, 3, 10, 8, 3, 11, 12, 2, 1, 5, 52, 1, 10, 5, 3, 23, 3, 10, 4, 22, 5, 4, 8, 8, 11, 10, 2, 3, 2, 6, 1, 1, 2, 3, 6, 6, 3, 8, 4, 2, 22, 14, 18, 4, 2, 9, 10, 4, 9, 3, 2, 2, 3, 12, 3, 6, 1, 5, 7, 1, 8, 3, 5, 6, 5, 35, 7, 1, 5, 11, 6, 1, 2, 8, 9, 2, 7, 14, 12, 10, 2, 24, 5, 5, 12, 11, 12, 16, 10, 3, 17, 4, 2, 14, 14, 6, 6, 2, 9, 10, 2, 5, 6, 2, 8, 1, 1, 9, 1, 2, 7, 3, 21, 3, 4, 3, 3, 4, 1, 17, 1, 7, 2, 1, 6, 1, 9, 7, 4, 5, 7, 8, 1, 1, 34, 5, 25, 5, 1, 2, 4, 2, 4, 4, 3, 2, 1, 1, 1, 6, 4, 11, 7, 5, 3, 1, 1, 6, 4, 1, 2, 1, 2, 3, 24, 6, 4, 3, 1, 7, 17, 10, 5, 8, 5, 1, 1, 7, 6, 5, 2, 6, 4, 2, 2, 1, 6, 7, 1, 3, 3, 8, 4, 17, 3, 6, 3, 15, 28, 6, 8, 21, 6, 11, 14, 18, 8, 2, 10, 21, 5, 6, 4, 6, 2, 3, 4, 33, 4, 7, 6, 13, 3, 9, 2, 13, 2, 1, 7, 1, 5, 2, 3, 6, 10, 8, 2, 4, 3, 2, 2, 36, 1, 6, 4, 8, 10, 7, 2, 11, 1, 1, 1, 4, 3, 1, 11, 2, 1, 2, 5, 11, 2, 7, 10, 22, 22, 2, 8, 8, 17, 1, 1, 4, 28, 39, 2, 5, 15, 10, 6, 4, 7, 21, 19, 11, 8, 11, 8, 17, 15, 2, 8, 8, 33, 6, 6, 6, 22, 5, 34, 23, 3, 14, 29, 5, 2, 5, 4, 14, 1, 4, 15, 19, 12, 7, 3, 5, 6, 19, 2, 9, 2, 21, 4, 10, 6, 3, 1, 4, 6, 7, 11, 22, 2, 5, 2, 1, 14, 3, 1, 2, 4, 12, 18, 13, 2, 7, 10, 21, 2, 30, 1, 37, 4, 1, 20, 7, 10, 21, 4, 3, 20, 1, 14, 1, 17, 10, 4, 11, 6, 9, 1, 3, 22, 1, 3, 7, 6, 6, 4, 2, 36, 4, 24, 18, 13, 2, 4, 1, 25, 5, 15, 6, 8, 2, 4, 2, 14, 3, 4, 1, 3, 3, 13, 2, 2, 2, 1, 7, 2, 12, 2, 5, 6, 21, 11, 2, 13, 6, 3, 19, 6, 7, 1, 4, 7, 3, 16, 1, 20, 4, 22, 14, 11, 2, 2, 15, 5, 5, 1, 9, 22, 18, 4, 3, 2, 5, 2, 2, 6, 3, 3, 19, 3, 2, 18, 12, 6, 5, 7, 12, 4, 5, 7, 1, 2, 2, 8, 1, 10, 4, 8, 7, 17, 8, 7, 7, 26, 3, 9, 5, 4, 13, 9, 4, 6, 7, 1, 2, 6, 17, 3, 3, 1, 17, 4, 1, 7, 9, 30, 1, 1, 4, 7, 13, 4, 11, 9, 1, 7, 10, 37, 5, 19, 6, 4, 6, 5, 1, 5, 1, 8, 6, 10, 12, 4, 7, 2, 18, 8, 27, 7, 11, 25, 4, 9, 2, 9, 1, 4, 5, 1, 16, 1, 3, 1, 2, 20, 2, 8, 10, 4, 4, 3]
[INFO ] fr.inria.astor.approaches.jgenprog.JGenProg.showResults(JGenProg.java:337) - 
total Patch Attempts (0): []
[INFO ] fr.inria.astor.approaches.jgenprog.JGenProg.showResults(JGenProg.java:339) - 
successful_ing_attempts_by_patch: []
[INFO ] fr.inria.astor.approaches.jgenprog.JGenProg.showResults(JGenProg.java:340) - 
failing_ing_attempts_by_patch: [(pv:2,at:1), (pv:3,at:53), (pv:4,at:4), (pv:5,at:6), (pv:6,at:1), (pv:7,at:3), (pv:8,at:11), (pv:9,at:2), (pv:10,at:1), (pv:11,at:3), (pv:12,at:1), (pv:13,at:3), (pv:14,at:3), (pv:15,at:10), (pv:16,at:2), (pv:17,at:5), (pv:18,at:2), (pv:19,at:1), (pv:20,at:2), (pv:21,at:1), (pv:22,at:1), (pv:23,at:2), (pv:24,at:1), (pv:25,at:9), (pv:26,at:6), (pv:27,at:18), (pv:28,at:3), (pv:29,at:10), (pv:30,at:3), (pv:31,at:10), (pv:32,at:8), (pv:33,at:3), (pv:34,at:11), (pv:35,at:12), (pv:36,at:2), (pv:37,at:1), (pv:38,at:5), (pv:39,at:52), (pv:40,at:1), (pv:41,at:10), (pv:42,at:5), (pv:43,at:3), (pv:44,at:23), (pv:45,at:3), (pv:46,at:10), (pv:47,at:4), (pv:48,at:22), (pv:49,at:5), (pv:50,at:4), (pv:51,at:8), (pv:52,at:8), (pv:53,at:11), (pv:54,at:10), (pv:55,at:2), (pv:56,at:3), (pv:57,at:2), (pv:58,at:6), (pv:59,at:1), (pv:60,at:1), (pv:61,at:2), (pv:62,at:3), (pv:63,at:6), (pv:64,at:6), (pv:65,at:3), (pv:66,at:8), (pv:67,at:4), (pv:68,at:2), (pv:69,at:22), (pv:70,at:14), (pv:71,at:18), (pv:72,at:4), (pv:73,at:2), (pv:74,at:9), (pv:75,at:10), (pv:76,at:4), (pv:77,at:9), (pv:78,at:3), (pv:79,at:2), (pv:80,at:2), (pv:81,at:3), (pv:82,at:12), (pv:83,at:3), (pv:84,at:6), (pv:85,at:1), (pv:86,at:5), (pv:87,at:7), (pv:88,at:1), (pv:89,at:8), (pv:90,at:3), (pv:91,at:5), (pv:92,at:6), (pv:93,at:5), (pv:94,at:35), (pv:95,at:7), (pv:96,at:1), (pv:97,at:5), (pv:98,at:11), (pv:99,at:6), (pv:100,at:1), (pv:101,at:2), (pv:102,at:8), (pv:103,at:9), (pv:104,at:2), (pv:105,at:7), (pv:106,at:14), (pv:107,at:12), (pv:108,at:10), (pv:109,at:2), (pv:110,at:24), (pv:111,at:5), (pv:112,at:5), (pv:113,at:12), (pv:114,at:11), (pv:115,at:12), (pv:116,at:16), (pv:117,at:10), (pv:118,at:3), (pv:119,at:17), (pv:120,at:4), (pv:121,at:2), (pv:122,at:14), (pv:123,at:14), (pv:124,at:6), (pv:125,at:6), (pv:126,at:2), (pv:127,at:9), (pv:128,at:10), (pv:129,at:2), (pv:130,at:5), (pv:131,at:6), (pv:132,at:2), (pv:133,at:8), (pv:134,at:1), (pv:135,at:1), (pv:136,at:9), (pv:137,at:1), (pv:138,at:2), (pv:139,at:7), (pv:140,at:3), (pv:141,at:21), (pv:142,at:3), (pv:143,at:4), (pv:144,at:3), (pv:145,at:3), (pv:146,at:4), (pv:147,at:1), (pv:148,at:17), (pv:149,at:1), (pv:150,at:7), (pv:151,at:2), (pv:152,at:1), (pv:153,at:6), (pv:154,at:1), (pv:155,at:9), (pv:156,at:7), (pv:157,at:4), (pv:158,at:5), (pv:159,at:7), (pv:160,at:8), (pv:161,at:1), (pv:162,at:1), (pv:163,at:34), (pv:164,at:5), (pv:165,at:25), (pv:166,at:5), (pv:167,at:1), (pv:168,at:2), (pv:169,at:4), (pv:170,at:2), (pv:171,at:4), (pv:172,at:4), (pv:173,at:3), (pv:174,at:2), (pv:175,at:1), (pv:176,at:1), (pv:177,at:1), (pv:178,at:6), (pv:179,at:4), (pv:180,at:11), (pv:181,at:7), (pv:182,at:5), (pv:183,at:3), (pv:184,at:1), (pv:185,at:1), (pv:186,at:6), (pv:187,at:4), (pv:188,at:1), (pv:189,at:2), (pv:190,at:1), (pv:191,at:2), (pv:192,at:3), (pv:193,at:24), (pv:194,at:6), (pv:195,at:4), (pv:196,at:3), (pv:197,at:1), (pv:198,at:7), (pv:199,at:17), (pv:200,at:10), (pv:201,at:5), (pv:202,at:8), (pv:203,at:5), (pv:204,at:1), (pv:205,at:1), (pv:206,at:7), (pv:207,at:6), (pv:208,at:5), (pv:209,at:2), (pv:210,at:6), (pv:211,at:4), (pv:212,at:2), (pv:213,at:2), (pv:214,at:1), (pv:215,at:6), (pv:216,at:7), (pv:217,at:1), (pv:218,at:3), (pv:219,at:3), (pv:220,at:8), (pv:221,at:4), (pv:222,at:17), (pv:223,at:3), (pv:224,at:6), (pv:225,at:3), (pv:226,at:15), (pv:227,at:28), (pv:228,at:6), (pv:229,at:8), (pv:230,at:21), (pv:231,at:6), (pv:232,at:11), (pv:233,at:14), (pv:234,at:18), (pv:235,at:8), (pv:236,at:2), (pv:237,at:10), (pv:238,at:21), (pv:239,at:5), (pv:240,at:6), (pv:241,at:4), (pv:242,at:6), (pv:243,at:2), (pv:244,at:3), (pv:245,at:4), (pv:246,at:33), (pv:247,at:4), (pv:248,at:7), (pv:249,at:6), (pv:250,at:13), (pv:251,at:3), (pv:252,at:9), (pv:253,at:2), (pv:254,at:13), (pv:255,at:2), (pv:256,at:1), (pv:257,at:7), (pv:258,at:1), (pv:259,at:5), (pv:260,at:2), (pv:261,at:3), (pv:262,at:6), (pv:263,at:10), (pv:264,at:8), (pv:265,at:2), (pv:266,at:4), (pv:267,at:3), (pv:268,at:2), (pv:269,at:2), (pv:270,at:36), (pv:271,at:1), (pv:272,at:6), (pv:273,at:4), (pv:274,at:8), (pv:275,at:10), (pv:276,at:7), (pv:277,at:2), (pv:278,at:11), (pv:279,at:1), (pv:280,at:1), (pv:281,at:1), (pv:282,at:4), (pv:283,at:3), (pv:284,at:1), (pv:285,at:11), (pv:286,at:2), (pv:287,at:1), (pv:288,at:2), (pv:289,at:5), (pv:290,at:11), (pv:291,at:2), (pv:292,at:7), (pv:293,at:10), (pv:294,at:22), (pv:295,at:22), (pv:296,at:2), (pv:297,at:8), (pv:298,at:8), (pv:299,at:17), (pv:300,at:1), (pv:301,at:1), (pv:302,at:4), (pv:303,at:28), (pv:304,at:39), (pv:305,at:2), (pv:306,at:5), (pv:307,at:15), (pv:308,at:10), (pv:309,at:6), (pv:310,at:4), (pv:311,at:7), (pv:312,at:21), (pv:313,at:19), (pv:314,at:11), (pv:315,at:8), (pv:316,at:11), (pv:317,at:8), (pv:318,at:17), (pv:319,at:15), (pv:320,at:2), (pv:321,at:8), (pv:322,at:8), (pv:323,at:33), (pv:324,at:6), (pv:325,at:6), (pv:326,at:6), (pv:327,at:22), (pv:328,at:5), (pv:329,at:34), (pv:330,at:23), (pv:331,at:3), (pv:332,at:14), (pv:333,at:29), (pv:334,at:5), (pv:335,at:2), (pv:336,at:5), (pv:337,at:4), (pv:338,at:14), (pv:339,at:1), (pv:340,at:4), (pv:341,at:15), (pv:342,at:19), (pv:343,at:12), (pv:344,at:7), (pv:345,at:3), (pv:346,at:5), (pv:347,at:6), (pv:348,at:19), (pv:349,at:2), (pv:350,at:9), (pv:351,at:2), (pv:352,at:21), (pv:353,at:4), (pv:354,at:10), (pv:355,at:6), (pv:356,at:3), (pv:357,at:1), (pv:358,at:4), (pv:359,at:6), (pv:360,at:7), (pv:361,at:11), (pv:362,at:22), (pv:363,at:2), (pv:364,at:5), (pv:365,at:2), (pv:366,at:1), (pv:367,at:14), (pv:368,at:3), (pv:369,at:1), (pv:370,at:2), (pv:371,at:4), (pv:372,at:12), (pv:373,at:18), (pv:374,at:13), (pv:375,at:2), (pv:376,at:7), (pv:377,at:10), (pv:378,at:21), (pv:379,at:2), (pv:380,at:30), (pv:381,at:1), (pv:382,at:37), (pv:383,at:4), (pv:384,at:1), (pv:385,at:20), (pv:386,at:7), (pv:387,at:10), (pv:388,at:21), (pv:389,at:4), (pv:390,at:3), (pv:391,at:20), (pv:392,at:1), (pv:393,at:14), (pv:394,at:1), (pv:395,at:17), (pv:396,at:10), (pv:397,at:4), (pv:398,at:11), (pv:399,at:6), (pv:400,at:9), (pv:401,at:1), (pv:402,at:3), (pv:403,at:22), (pv:404,at:1), (pv:405,at:3), (pv:406,at:7), (pv:407,at:6), (pv:408,at:6), (pv:409,at:4), (pv:410,at:2), (pv:411,at:36), (pv:412,at:4), (pv:413,at:24), (pv:414,at:18), (pv:415,at:13), (pv:416,at:2), (pv:417,at:4), (pv:418,at:1), (pv:419,at:25), (pv:420,at:5), (pv:421,at:15), (pv:422,at:6), (pv:423,at:8), (pv:424,at:2), (pv:425,at:4), (pv:426,at:2), (pv:427,at:14), (pv:428,at:3), (pv:429,at:4), (pv:430,at:1), (pv:431,at:3), (pv:432,at:3), (pv:433,at:13), (pv:434,at:2), (pv:435,at:2), (pv:436,at:2), (pv:437,at:1), (pv:438,at:7), (pv:439,at:2), (pv:440,at:12), (pv:441,at:2), (pv:442,at:5), (pv:443,at:6), (pv:444,at:21), (pv:445,at:11), (pv:446,at:2), (pv:447,at:13), (pv:448,at:6), (pv:449,at:3), (pv:450,at:19), (pv:451,at:6), (pv:452,at:7), (pv:453,at:1), (pv:454,at:4), (pv:455,at:7), (pv:456,at:3), (pv:457,at:16), (pv:458,at:1), (pv:459,at:20), (pv:460,at:4), (pv:461,at:22), (pv:462,at:14), (pv:463,at:11), (pv:464,at:2), (pv:465,at:2), (pv:466,at:15), (pv:467,at:5), (pv:468,at:5), (pv:469,at:1), (pv:470,at:9), (pv:471,at:22), (pv:472,at:18), (pv:473,at:4), (pv:474,at:3), (pv:475,at:2), (pv:476,at:5), (pv:477,at:2), (pv:478,at:2), (pv:479,at:6), (pv:480,at:3), (pv:481,at:3), (pv:482,at:19), (pv:483,at:3), (pv:484,at:2), (pv:485,at:18), (pv:486,at:12), (pv:487,at:6), (pv:488,at:5), (pv:489,at:7), (pv:490,at:12), (pv:491,at:4), (pv:492,at:5), (pv:493,at:7), (pv:494,at:1), (pv:495,at:2), (pv:496,at:2), (pv:497,at:8), (pv:498,at:1), (pv:499,at:10), (pv:500,at:4), (pv:501,at:8), (pv:502,at:7), (pv:503,at:17), (pv:504,at:8), (pv:505,at:7), (pv:506,at:7), (pv:507,at:26), (pv:508,at:3), (pv:509,at:9), (pv:510,at:5), (pv:511,at:4), (pv:512,at:13), (pv:513,at:9), (pv:514,at:4), (pv:515,at:6), (pv:516,at:7), (pv:517,at:1), (pv:518,at:2), (pv:519,at:6), (pv:520,at:17), (pv:521,at:3), (pv:522,at:3), (pv:523,at:1), (pv:524,at:17), (pv:525,at:4), (pv:526,at:1), (pv:527,at:7), (pv:528,at:9), (pv:529,at:30), (pv:530,at:1), (pv:531,at:1), (pv:532,at:4), (pv:533,at:7), (pv:534,at:13), (pv:535,at:4), (pv:536,at:11), (pv:537,at:9), (pv:538,at:1), (pv:539,at:7), (pv:540,at:10), (pv:541,at:37), (pv:542,at:5), (pv:543,at:19), (pv:544,at:6), (pv:545,at:4), (pv:546,at:6), (pv:547,at:5), (pv:548,at:1), (pv:549,at:5), (pv:550,at:1), (pv:551,at:8), (pv:552,at:6), (pv:553,at:10), (pv:554,at:12), (pv:555,at:4), (pv:556,at:7), (pv:557,at:2), (pv:558,at:18), (pv:561,at:8), (pv:562,at:27), (pv:563,at:7), (pv:566,at:11), (pv:567,at:25), (pv:568,at:4), (pv:570,at:9), (pv:571,at:2), (pv:574,at:9), (pv:575,at:1), (pv:576,at:4), (pv:577,at:5), (pv:579,at:1), (pv:580,at:16), (pv:581,at:1), (pv:583,at:3), (pv:584,at:1), (pv:589,at:2), (pv:592,at:20), (pv:593,at:2), (pv:598,at:8), (pv:600,at:10), (pv:603,at:4), (pv:604,at:4), (pv:607,at:3)]
[INFO ] fr.inria.astor.approaches.jgenprog.JGenProg.showResults(JGenProg.java:342) - 
pvariants_with_transformed_ingredients: [(pv:2,at:1), (pv:3,at:53), (pv:4,at:4), (pv:5,at:6), (pv:6,at:1), (pv:7,at:3), (pv:8,at:11), (pv:9,at:2), (pv:10,at:1), (pv:11,at:3), (pv:12,at:1), (pv:13,at:3), (pv:14,at:3), (pv:15,at:10), (pv:16,at:2), (pv:17,at:5), (pv:18,at:2), (pv:19,at:1), (pv:20,at:2), (pv:21,at:1), (pv:22,at:1), (pv:23,at:2), (pv:24,at:1), (pv:25,at:9), (pv:26,at:6), (pv:27,at:18), (pv:28,at:3), (pv:29,at:10), (pv:30,at:3), (pv:31,at:10), (pv:32,at:8), (pv:33,at:3), (pv:34,at:11), (pv:35,at:12), (pv:36,at:2), (pv:37,at:1), (pv:38,at:5), (pv:39,at:52), (pv:40,at:1), (pv:41,at:10), (pv:42,at:5), (pv:43,at:3), (pv:44,at:23), (pv:45,at:3), (pv:46,at:10), (pv:47,at:4), (pv:48,at:22), (pv:49,at:5), (pv:50,at:4), (pv:51,at:8), (pv:52,at:8), (pv:53,at:11), (pv:54,at:10), (pv:55,at:2), (pv:56,at:3), (pv:57,at:2), (pv:58,at:6), (pv:59,at:1), (pv:60,at:1), (pv:61,at:2), (pv:62,at:3), (pv:63,at:6), (pv:64,at:6), (pv:65,at:3), (pv:66,at:8), (pv:67,at:4), (pv:68,at:2), (pv:69,at:22), (pv:70,at:14), (pv:71,at:18), (pv:72,at:4), (pv:73,at:2), (pv:74,at:9), (pv:75,at:10), (pv:76,at:4), (pv:77,at:9), (pv:78,at:3), (pv:79,at:2), (pv:80,at:2), (pv:81,at:3), (pv:82,at:12), (pv:83,at:3), (pv:84,at:6), (pv:85,at:1), (pv:86,at:5), (pv:87,at:7), (pv:88,at:1), (pv:89,at:8), (pv:90,at:3), (pv:91,at:5), (pv:92,at:6), (pv:93,at:5), (pv:94,at:35), (pv:95,at:7), (pv:96,at:1), (pv:97,at:5), (pv:98,at:11), (pv:99,at:6), (pv:100,at:1), (pv:101,at:2), (pv:102,at:8), (pv:103,at:9), (pv:104,at:2), (pv:105,at:7), (pv:106,at:14), (pv:107,at:12), (pv:108,at:10), (pv:109,at:2), (pv:110,at:24), (pv:111,at:5), (pv:112,at:5), (pv:113,at:12), (pv:114,at:11), (pv:115,at:12), (pv:116,at:16), (pv:117,at:10), (pv:118,at:3), (pv:119,at:17), (pv:120,at:4), (pv:121,at:2), (pv:122,at:14), (pv:123,at:14), (pv:124,at:6), (pv:125,at:6), (pv:126,at:2), (pv:127,at:9), (pv:128,at:10), (pv:129,at:2), (pv:130,at:5), (pv:131,at:6), (pv:132,at:2), (pv:133,at:8), (pv:134,at:1), (pv:135,at:1), (pv:136,at:9), (pv:137,at:1), (pv:138,at:2), (pv:139,at:7), (pv:140,at:3), (pv:141,at:21), (pv:142,at:3), (pv:143,at:4), (pv:144,at:3), (pv:145,at:3), (pv:146,at:4), (pv:147,at:1), (pv:148,at:17), (pv:149,at:1), (pv:150,at:7), (pv:151,at:2), (pv:152,at:1), (pv:153,at:6), (pv:154,at:1), (pv:155,at:9), (pv:156,at:7), (pv:157,at:4), (pv:158,at:5), (pv:159,at:7), (pv:160,at:8), (pv:161,at:1), (pv:162,at:1), (pv:163,at:34), (pv:164,at:5), (pv:165,at:25), (pv:166,at:5), (pv:167,at:1), (pv:168,at:2), (pv:169,at:4), (pv:170,at:2), (pv:171,at:4), (pv:172,at:4), (pv:173,at:3), (pv:174,at:2), (pv:175,at:1), (pv:176,at:1), (pv:177,at:1), (pv:178,at:6), (pv:179,at:4), (pv:180,at:11), (pv:181,at:7), (pv:182,at:5), (pv:183,at:3), (pv:184,at:1), (pv:185,at:1), (pv:186,at:6), (pv:187,at:4), (pv:188,at:1), (pv:189,at:2), (pv:190,at:1), (pv:191,at:2), (pv:192,at:3), (pv:193,at:24), (pv:194,at:6), (pv:195,at:4), (pv:196,at:3), (pv:197,at:1), (pv:198,at:7), (pv:199,at:17), (pv:200,at:10), (pv:201,at:5), (pv:202,at:8), (pv:203,at:5), (pv:204,at:1), (pv:205,at:1), (pv:206,at:7), (pv:207,at:6), (pv:208,at:5), (pv:209,at:2), (pv:210,at:6), (pv:211,at:4), (pv:212,at:2), (pv:213,at:2), (pv:214,at:1), (pv:215,at:6), (pv:216,at:7), (pv:217,at:1), (pv:218,at:3), (pv:219,at:3), (pv:220,at:8), (pv:221,at:4), (pv:222,at:17), (pv:223,at:3), (pv:224,at:6), (pv:225,at:3), (pv:226,at:15), (pv:227,at:28), (pv:228,at:6), (pv:229,at:8), (pv:230,at:21), (pv:231,at:6), (pv:232,at:11), (pv:233,at:14), (pv:234,at:18), (pv:235,at:8), (pv:236,at:2), (pv:237,at:10), (pv:238,at:21), (pv:239,at:5), (pv:240,at:6), (pv:241,at:4), (pv:242,at:6), (pv:243,at:2), (pv:244,at:3), (pv:245,at:4), (pv:246,at:33), (pv:247,at:4), (pv:248,at:7), (pv:249,at:6), (pv:250,at:13), (pv:251,at:3), (pv:252,at:9), (pv:253,at:2), (pv:254,at:13), (pv:255,at:2), (pv:256,at:1), (pv:257,at:7), (pv:258,at:1), (pv:259,at:5), (pv:260,at:2), (pv:261,at:3), (pv:262,at:6), (pv:263,at:10), (pv:264,at:8), (pv:265,at:2), (pv:266,at:4), (pv:267,at:3), (pv:268,at:2), (pv:269,at:2), (pv:270,at:36), (pv:271,at:1), (pv:272,at:6), (pv:273,at:4), (pv:274,at:8), (pv:275,at:10), (pv:276,at:7), (pv:277,at:2), (pv:278,at:11), (pv:279,at:1), (pv:280,at:1), (pv:281,at:1), (pv:282,at:4), (pv:283,at:3), (pv:284,at:1), (pv:285,at:11), (pv:286,at:2), (pv:287,at:1), (pv:288,at:2), (pv:289,at:5), (pv:290,at:11), (pv:291,at:2), (pv:292,at:7), (pv:293,at:10), (pv:294,at:22), (pv:295,at:22), (pv:296,at:2), (pv:297,at:8), (pv:298,at:8), (pv:299,at:17), (pv:300,at:1), (pv:301,at:1), (pv:302,at:4), (pv:303,at:28), (pv:304,at:39), (pv:305,at:2), (pv:306,at:5), (pv:307,at:15), (pv:308,at:10), (pv:309,at:6), (pv:310,at:4), (pv:311,at:7), (pv:312,at:21), (pv:313,at:19), (pv:314,at:11), (pv:315,at:8), (pv:316,at:11), (pv:317,at:8), (pv:318,at:17), (pv:319,at:15), (pv:320,at:2), (pv:321,at:8), (pv:322,at:8), (pv:323,at:33), (pv:324,at:6), (pv:325,at:6), (pv:326,at:6), (pv:327,at:22), (pv:328,at:5), (pv:329,at:34), (pv:330,at:23), (pv:331,at:3), (pv:332,at:14), (pv:333,at:29), (pv:334,at:5), (pv:335,at:2), (pv:336,at:5), (pv:337,at:4), (pv:338,at:14), (pv:339,at:1), (pv:340,at:4), (pv:341,at:15), (pv:342,at:19), (pv:343,at:12), (pv:344,at:7), (pv:345,at:3), (pv:346,at:5), (pv:347,at:6), (pv:348,at:19), (pv:349,at:2), (pv:350,at:9), (pv:351,at:2), (pv:352,at:21), (pv:353,at:4), (pv:354,at:10), (pv:355,at:6), (pv:356,at:3), (pv:357,at:1), (pv:358,at:4), (pv:359,at:6), (pv:360,at:7), (pv:361,at:11), (pv:362,at:22), (pv:363,at:2), (pv:364,at:5), (pv:365,at:2), (pv:366,at:1), (pv:367,at:14), (pv:368,at:3), (pv:369,at:1), (pv:370,at:2), (pv:371,at:4), (pv:372,at:12), (pv:373,at:18), (pv:374,at:13), (pv:375,at:2), (pv:376,at:7), (pv:377,at:10), (pv:378,at:21), (pv:379,at:2), (pv:380,at:30), (pv:381,at:1), (pv:382,at:37), (pv:383,at:4), (pv:384,at:1), (pv:385,at:20), (pv:386,at:7), (pv:387,at:10), (pv:388,at:21), (pv:389,at:4), (pv:390,at:3), (pv:391,at:20), (pv:392,at:1), (pv:393,at:14), (pv:394,at:1), (pv:395,at:17), (pv:396,at:10), (pv:397,at:4), (pv:398,at:11), (pv:399,at:6), (pv:400,at:9), (pv:401,at:1), (pv:402,at:3), (pv:403,at:22), (pv:404,at:1), (pv:405,at:3), (pv:406,at:7), (pv:407,at:6), (pv:408,at:6), (pv:409,at:4), (pv:410,at:2), (pv:411,at:36), (pv:412,at:4), (pv:413,at:24), (pv:414,at:18), (pv:415,at:13), (pv:416,at:2), (pv:417,at:4), (pv:418,at:1), (pv:419,at:25), (pv:420,at:5), (pv:421,at:15), (pv:422,at:6), (pv:423,at:8), (pv:424,at:2), (pv:425,at:4), (pv:426,at:2), (pv:427,at:14), (pv:428,at:3), (pv:429,at:4), (pv:430,at:1), (pv:431,at:3), (pv:432,at:3), (pv:433,at:13), (pv:434,at:2), (pv:435,at:2), (pv:436,at:2), (pv:437,at:1), (pv:438,at:7), (pv:439,at:2), (pv:440,at:12), (pv:441,at:2), (pv:442,at:5), (pv:443,at:6), (pv:444,at:21), (pv:445,at:11), (pv:446,at:2), (pv:447,at:13), (pv:448,at:6), (pv:449,at:3), (pv:450,at:19), (pv:451,at:6), (pv:452,at:7), (pv:453,at:1), (pv:454,at:4), (pv:455,at:7), (pv:456,at:3), (pv:457,at:16), (pv:458,at:1), (pv:459,at:20), (pv:460,at:4), (pv:461,at:22), (pv:462,at:14), (pv:463,at:11), (pv:464,at:2), (pv:465,at:2), (pv:466,at:15), (pv:467,at:5), (pv:468,at:5), (pv:469,at:1), (pv:470,at:9), (pv:471,at:22), (pv:472,at:18), (pv:473,at:4), (pv:474,at:3), (pv:475,at:2), (pv:476,at:5), (pv:477,at:2), (pv:478,at:2), (pv:479,at:6), (pv:480,at:3), (pv:481,at:3), (pv:482,at:19), (pv:483,at:3), (pv:484,at:2), (pv:485,at:18), (pv:486,at:12), (pv:487,at:6), (pv:488,at:5), (pv:489,at:7), (pv:490,at:12), (pv:491,at:4), (pv:492,at:5), (pv:493,at:7), (pv:494,at:1), (pv:495,at:2), (pv:496,at:2), (pv:497,at:8), (pv:498,at:1), (pv:499,at:10), (pv:500,at:4), (pv:501,at:8), (pv:502,at:7), (pv:503,at:17), (pv:504,at:8), (pv:505,at:7), (pv:506,at:7), (pv:507,at:26), (pv:508,at:3), (pv:509,at:9), (pv:510,at:5), (pv:511,at:4), (pv:512,at:13), (pv:513,at:9), (pv:514,at:4), (pv:515,at:6), (pv:516,at:7), (pv:517,at:1), (pv:518,at:2), (pv:519,at:6), (pv:520,at:17), (pv:521,at:3), (pv:522,at:3), (pv:523,at:1), (pv:524,at:17), (pv:525,at:4), (pv:526,at:1), (pv:527,at:7), (pv:528,at:9), (pv:529,at:30), (pv:530,at:1), (pv:531,at:1), (pv:532,at:4), (pv:533,at:7), (pv:534,at:13), (pv:535,at:4), (pv:536,at:11), (pv:537,at:9), (pv:538,at:1), (pv:539,at:7), (pv:540,at:10), (pv:541,at:37), (pv:542,at:5), (pv:543,at:19), (pv:544,at:6), (pv:545,at:4), (pv:546,at:6), (pv:547,at:5), (pv:548,at:1), (pv:549,at:5), (pv:550,at:1), (pv:551,at:8), (pv:552,at:6), (pv:553,at:10), (pv:554,at:12), (pv:555,at:4), (pv:556,at:7), (pv:557,at:2), (pv:558,at:18), (pv:561,at:8), (pv:562,at:27), (pv:563,at:7), (pv:566,at:11), (pv:567,at:25), (pv:568,at:4), (pv:570,at:9), (pv:571,at:2), (pv:574,at:9), (pv:575,at:1), (pv:576,at:4), (pv:577,at:5), (pv:579,at:1), (pv:580,at:16), (pv:581,at:1), (pv:583,at:3), (pv:584,at:1), (pv:589,at:2), (pv:592,at:20), (pv:593,at:2), (pv:598,at:8), (pv:600,at:10), (pv:603,at:4), (pv:604,at:4), (pv:607,at:3)]
[INFO ] fr.inria.main.evolution.AstorMain.run(AstorMain.java:163) - Time Total(s): 10881.832
