Warning: no access to tty (Bad file descriptor).
Thus no job control in this shell.
tput: No value for $TERM and no -T specified
Node: hu05.sciclone.wm.edu
[INFO ] fr.inria.main.AbstractMain.processArguments(AbstractMain.java:295) - command line arguments: [-out  /local/scr/mtufano/Lang/9/b/similar-local-types-embeddings/3  -jvm4testexecution  /usr/local/jdk1.7.0_80/bin/  -loglevel  INFO  -maxVarCombination  1000  -maxgen  1000000  -population  1  -maxtime  180  -timezone  America/New_York  -customop  fr.inria.astor.approaches.jgenprog.operators.InsertAfterOp:fr.inria.astor.approaches.jgenprog.operators.InsertBeforeOp:fr.inria.astor.approaches.jgenprog.operators.ReplaceOp  -seed  3  -javacompliancelevel  6  -package  org.apache.commons  -binjavafolder  target/classes/  -bintestfolder  target/tests/  -srcjavafolder  src/main/java/  -srctestfolder  src/test/java/  -learningdir  ../../out/learningdir/Lang/9/b/  -location  ../../dat/defects4j/Lang/9/b/  -failing  org.apache.commons.lang3.time.FastDateParserTest:org.apache.commons.lang3.time.FastDateFormat_ParserTest  -dependencies  ../../dat/libs/Lang/cglib.jar:../../dat/libs/Lang/commons-io.jar:../../dat/libs/Lang/asm.jar:../../dat/libs/Lang/easymock.jar  -classestoinstrument  org.apache.commons.lang3.time.FastDateParser:org.apache.commons.lang3.time.FormatCache:org.apache.commons.lang3.time.DateParser:org.apache.commons.lang3.time.FastDatePrinter:org.apache.commons.lang3.time.DatePrinter:org.apache.commons.lang3.time.FastDateFormat  -regressiontestcases4fl  org.apache.commons.lang3.time.DateFormatUtilsTest:org.apache.commons.lang3.time.DateUtilsRoundingTest:org.apache.commons.lang3.time.DateUtilsTest:org.apache.commons.lang3.time.DurationFormatUtilsTest:org.apache.commons.lang3.time.FastDateFormatTest:org.apache.commons.lang3.time.FastDateFormat_ParserTest:org.apache.commons.lang3.time.FastDateFormat_PrinterTest:org.apache.commons.lang3.time.FastDateParserTest  -scope  fr.inria.astor.core.loop.spaces.ingredients.scopes.ctscopes.CtClassIngredientSpace  -ingredientstrategy  fr.inria.astor.core.loop.spaces.ingredients.ingredientSearch.CloneIngredientSearchStrategy  -clonegranularity  spoon.reflect.declaration.CtType  -transformingredient]
[INFO ] fr.inria.astor.core.manipulation.MutationSupporter.buildModel(MutationSupporter.java:76) - building model: /local/scr/mtufano/Lang/9/b/similar-local-types-embeddings/3/AstorMain-b//src//default, compliance level: 6
[INFO ] fr.inria.astor.core.manipulation.MutationSupporter.buildModel(MutationSupporter.java:85) - Classpath for building SpoonModel [/sciclone/data20/mtufano/deeprepair/bin/eval/../../dat/libs/Lang/cglib.jar, /sciclone/data20/mtufano/deeprepair/bin/eval/../../dat/libs/Lang/commons-io.jar, /sciclone/data20/mtufano/deeprepair/bin/eval/../../dat/libs/Lang/asm.jar, /sciclone/data20/mtufano/deeprepair/bin/eval/../../dat/libs/Lang/easymock.jar]
[INFO ] fr.inria.astor.core.setup.ProjectRepairFacade.calculateSuspicious(ProjectRepairFacade.java:215) - -Executing Gzoltar classpath: /local/scr/mtufano/Lang/9/b/similar-local-types-embeddings/3/AstorMain-b//bin//default from 8 classes with test cases
[INFO ] fr.inria.astor.core.faultlocalization.GZoltarFaultLocalization.searchSuspicious(GZoltarFaultLocalization.java:37) - Gzoltar fault localization: min susp value parameter: 0.1
[INFO ] fr.inria.astor.core.faultlocalization.GZoltarFaultLocalization.searchSuspicious(GZoltarFaultLocalization.java:57) - -gz-Adding classpath: [/sciclone/data20/mtufano/deeprepair/bin/eval/../../dat/libs/Lang/cglib.jar, /sciclone/data20/mtufano/deeprepair/bin/eval/../../dat/libs/Lang/asm.jar, /sciclone/data20/mtufano/deeprepair/bin/eval/../../dat/libs/Lang/easymock.jar, /local/scr/mtufano/Lang/9/b/similar-local-types-embeddings/3/AstorMain-b//bin//default, /sciclone/data20/mtufano/deeprepair/bin/eval/../../dat/libs/Lang/commons-io.jar]
[INFO ] fr.inria.astor.core.faultlocalization.GZoltarFaultLocalization.searchSuspicious(GZoltarFaultLocalization.java:76) - Test failt: org.apache.commons.lang3.time.FastDateParserTest#testParseZone
[INFO ] fr.inria.astor.core.faultlocalization.GZoltarFaultLocalization.searchSuspicious(GZoltarFaultLocalization.java:76) - Test failt: org.apache.commons.lang3.time.FastDateParserTest#testLocales_Long_AD
[INFO ] fr.inria.astor.core.faultlocalization.GZoltarFaultLocalization.searchSuspicious(GZoltarFaultLocalization.java:76) - Test failt: org.apache.commons.lang3.time.FastDateParserTest#testLANG_832
[INFO ] fr.inria.astor.core.faultlocalization.GZoltarFaultLocalization.searchSuspicious(GZoltarFaultLocalization.java:76) - Test failt: org.apache.commons.lang3.time.FastDateParserTest#testLocales_Short_AD
[INFO ] fr.inria.astor.core.faultlocalization.GZoltarFaultLocalization.searchSuspicious(GZoltarFaultLocalization.java:76) - Test failt: org.apache.commons.lang3.time.FastDateFormat_ParserTest#testParseZone
[INFO ] fr.inria.astor.core.faultlocalization.GZoltarFaultLocalization.searchSuspicious(GZoltarFaultLocalization.java:76) - Test failt: org.apache.commons.lang3.time.FastDateFormat_ParserTest#testLocales_Long_AD
[INFO ] fr.inria.astor.core.faultlocalization.GZoltarFaultLocalization.searchSuspicious(GZoltarFaultLocalization.java:76) - Test failt: org.apache.commons.lang3.time.FastDateFormat_ParserTest#testLANG_832
[INFO ] fr.inria.astor.core.faultlocalization.GZoltarFaultLocalization.searchSuspicious(GZoltarFaultLocalization.java:76) - Test failt: org.apache.commons.lang3.time.FastDateFormat_ParserTest#testLocales_Short_AD
[INFO ] fr.inria.astor.core.faultlocalization.GZoltarFaultLocalization.searchSuspicious(GZoltarFaultLocalization.java:81) - Gzoltar Test Result Total:165, fails: 8, GZoltar suspicious 1173
[INFO ] fr.inria.astor.core.faultlocalization.GZoltarFaultLocalization.searchSuspicious(GZoltarFaultLocalization.java:123) - Gzoltar found: 275 with susp > 0.1, we consider: 275
[INFO ] fr.inria.astor.approaches.jgenprog.JGenProg.initPopulation(JGenProg.java:80) - 
---- Initial suspicious size: 275
[INFO ] fr.inria.astor.core.loop.population.ProgramVariantFactory.createProgramInstance(ProgramVariantFactory.java:126) - -any mod point created for suspicious Candidate [className=org.apache.commons.lang3.time.FastDateParser$TimeZoneStrategy, methodName=org.apache.commons.lang3.time.FastDateParser$TimeZoneStrategy{setCalendar(Lorg/apache/commons/lang3/time/FastDateParser;Ljava/util/Calendar;Ljava/lang/String;)V 0.0, lineNumber=829, susp=0.4629100498862757]
[INFO ] fr.inria.astor.core.loop.population.ProgramVariantFactory.createProgramInstance(ProgramVariantFactory.java:126) - -any mod point created for suspicious Candidate [className=org.apache.commons.lang3.time.FastDateParser$NumberStrategy, methodName=org.apache.commons.lang3.time.FastDateParser$NumberStrategy{setCalendar(Lorg/apache/commons/lang3/time/FastDateParser;Ljava/util/Calendar;Ljava/lang/String;)V 0.0, lineNumber=733, susp=0.44172610429938614]
[INFO ] fr.inria.astor.core.loop.population.ProgramVariantFactory.createProgramInstance(ProgramVariantFactory.java:126) - -any mod point created for suspicious Candidate [className=org.apache.commons.lang3.time.FastDateParser, methodName=org.apache.commons.lang3.time.FastDateParser{parse(Ljava/lang/String;Ljava/text/ParsePosition;)Ljava/util/Date; 0.0, lineNumber=288, susp=0.44172610429938614]
[INFO ] fr.inria.astor.core.loop.population.ProgramVariantFactory.createProgramInstance(ProgramVariantFactory.java:126) - -any mod point created for suspicious Candidate [className=org.apache.commons.lang3.time.FastDateParser, methodName=org.apache.commons.lang3.time.FastDateParser{getDisplayNames(I)[Lorg/apache/commons/lang3/time/FastDateParser$KeyValue; 0.0, lineNumber=379, susp=0.42640143271122083]
[INFO ] fr.inria.astor.core.loop.population.ProgramVariantFactory.createProgramInstance(ProgramVariantFactory.java:126) - -any mod point created for suspicious Candidate [className=org.apache.commons.lang3.time.FastDateParser, methodName=org.apache.commons.lang3.time.FastDateParser{getDisplayNames(I)[Lorg/apache/commons/lang3/time/FastDateParser$KeyValue; 0.0, lineNumber=381, susp=0.42640143271122083]
[INFO ] fr.inria.astor.core.loop.population.ProgramVariantFactory.createProgramInstance(ProgramVariantFactory.java:126) - -any mod point created for suspicious Candidate [className=org.apache.commons.lang3.time.FastDateParser, methodName=org.apache.commons.lang3.time.FastDateParser{getDisplayNames(I)[Lorg/apache/commons/lang3/time/FastDateParser$KeyValue; 0.0, lineNumber=382, susp=0.42640143271122083]
[INFO ] fr.inria.astor.core.loop.population.ProgramVariantFactory.createProgramInstance(ProgramVariantFactory.java:126) - -any mod point created for suspicious Candidate [className=org.apache.commons.lang3.time.FastDateParser, methodName=org.apache.commons.lang3.time.FastDateParser{getDisplayNames(I)[Lorg/apache/commons/lang3/time/FastDateParser$KeyValue; 0.0, lineNumber=383, susp=0.42640143271122083]
[INFO ] fr.inria.astor.core.loop.population.ProgramVariantFactory.createProgramInstance(ProgramVariantFactory.java:126) - -any mod point created for suspicious Candidate [className=org.apache.commons.lang3.time.FastDateParser, methodName=org.apache.commons.lang3.time.FastDateParser{getDisplayNames(I)[Lorg/apache/commons/lang3/time/FastDateParser$KeyValue; 0.0, lineNumber=384, susp=0.42640143271122083]
[INFO ] fr.inria.astor.core.loop.population.ProgramVariantFactory.createProgramInstance(ProgramVariantFactory.java:126) - -any mod point created for suspicious Candidate [className=org.apache.commons.lang3.time.FastDateParser, methodName=org.apache.commons.lang3.time.FastDateParser{toArray(Ljava/util/Map;)[Ljava/lang/String; 0.0, lineNumber=414, susp=0.42640143271122083]
[INFO ] fr.inria.astor.core.loop.population.ProgramVariantFactory.createProgramInstance(ProgramVariantFactory.java:126) - -any mod point created for suspicious Candidate [className=org.apache.commons.lang3.time.FastDateParser, methodName=org.apache.commons.lang3.time.FastDateParser{getStrategy(Ljava/lang/String;)Lorg/apache/commons/lang3/time/FastDateParser$Strategy; 0.0, lineNumber=550, susp=0.42640143271122083]
[INFO ] fr.inria.astor.core.loop.population.ProgramVariantFactory.createProgramInstance(ProgramVariantFactory.java:126) - -any mod point created for suspicious Candidate [className=org.apache.commons.lang3.time.FastDateParser, methodName=org.apache.commons.lang3.time.FastDateParser{escapeRegex(Ljava/lang/StringBuilder;Ljava/lang/String;Z)Ljava/lang/StringBuilder; 0.0, lineNumber=329, susp=0.39391929857916763]
[INFO ] fr.inria.astor.core.loop.population.ProgramVariantFactory.createProgramInstance(ProgramVariantFactory.java:126) - -any mod point created for suspicious Candidate [className=org.apache.commons.lang3.time.FastDateParser, methodName=org.apache.commons.lang3.time.FastDateParser{getStrategy(Ljava/lang/String;)Lorg/apache/commons/lang3/time/FastDateParser$Strategy; 0.0, lineNumber=562, susp=0.3810003810005715]
[INFO ] fr.inria.astor.core.loop.population.ProgramVariantFactory.createProgramInstance(ProgramVariantFactory.java:126) - -any mod point created for suspicious Candidate [className=org.apache.commons.lang3.time.FastDateParser, methodName=org.apache.commons.lang3.time.FastDateParser{getStrategy(Ljava/lang/String;)Lorg/apache/commons/lang3/time/FastDateParser$Strategy; 0.0, lineNumber=566, susp=0.3682298471593294]
[INFO ] fr.inria.astor.core.loop.population.ProgramVariantFactory.createProgramInstance(ProgramVariantFactory.java:126) - -any mod point created for suspicious Candidate [className=org.apache.commons.lang3.time.FastDateParser, methodName=org.apache.commons.lang3.time.FastDateParser{escapeRegex(Ljava/lang/StringBuilder;Ljava/lang/String;Z)Ljava/lang/StringBuilder; 0.0, lineNumber=308, susp=0.35355339059327373]
[INFO ] fr.inria.astor.core.loop.population.ProgramVariantFactory.createProgramInstance(ProgramVariantFactory.java:126) - -any mod point created for suspicious Candidate [className=org.apache.commons.lang3.time.FastDateParser, methodName=org.apache.commons.lang3.time.FastDateParser{getStrategy(Ljava/lang/String;)Lorg/apache/commons/lang3/time/FastDateParser$Strategy; 0.0, lineNumber=542, susp=0.3481553119113957]
[INFO ] fr.inria.astor.core.loop.population.ProgramVariantFactory.createProgramInstance(ProgramVariantFactory.java:126) - -any mod point created for suspicious Candidate [className=org.apache.commons.lang3.time.FastDateParser, methodName=org.apache.commons.lang3.time.FastDateParser{access$000(Ljava/lang/StringBuilder;Ljava/lang/String;Z)Ljava/lang/StringBuilder; 0.0, lineNumber=68, susp=0.3481553119113957]
[INFO ] fr.inria.astor.core.loop.population.ProgramVariantFactory.createProgramInstance(ProgramVariantFactory.java:126) - -any mod point created for suspicious Candidate [className=org.apache.commons.lang3.time.FastDateParser, methodName=org.apache.commons.lang3.time.FastDateParser{init()V 0.0, lineNumber=143, susp=0.34050261230349943]
[INFO ] fr.inria.astor.core.loop.population.ProgramVariantFactory.createProgramInstance(ProgramVariantFactory.java:126) - -any mod point created for suspicious Candidate [className=org.apache.commons.lang3.time.FastDateParser, methodName=org.apache.commons.lang3.time.FastDateParser{init()V 0.0, lineNumber=150, susp=0.34050261230349943]
[INFO ] fr.inria.astor.core.loop.population.ProgramVariantFactory.createProgramInstance(ProgramVariantFactory.java:126) - -any mod point created for suspicious Candidate [className=org.apache.commons.lang3.time.FastDateParser, methodName=org.apache.commons.lang3.time.FastDateParser{getStrategy(Ljava/lang/String;)Lorg/apache/commons/lang3/time/FastDateParser$Strategy; 0.0, lineNumber=537, susp=0.31622776601683794]
[INFO ] fr.inria.astor.core.loop.population.ProgramVariantFactory.createProgramInstance(ProgramVariantFactory.java:126) - -any mod point created for suspicious Candidate [className=org.apache.commons.lang3.time.FastDateParser$TextStrategy, methodName=org.apache.commons.lang3.time.FastDateParser$TextStrategy{setCalendar(Lorg/apache/commons/lang3/time/FastDateParser;Ljava/util/Calendar;Ljava/lang/String;)V 0.0, lineNumber=688, susp=0.31622776601683794]
[INFO ] fr.inria.astor.core.loop.population.ProgramVariantFactory.createProgramInstance(ProgramVariantFactory.java:126) - -any mod point created for suspicious Candidate [className=org.apache.commons.lang3.time.FastDateParser, methodName=org.apache.commons.lang3.time.FastDateParser{access$100()Ljava/util/Comparator; 0.0, lineNumber=68, susp=0.31622776601683794]
[INFO ] fr.inria.astor.core.loop.population.ProgramVariantFactory.createProgramInstance(ProgramVariantFactory.java:126) - -any mod point created for suspicious Candidate [className=org.apache.commons.lang3.time.FastDateParser, methodName=org.apache.commons.lang3.time.FastDateParser{getStrategy(Ljava/lang/String;)Lorg/apache/commons/lang3/time/FastDateParser$Strategy; 0.0, lineNumber=568, susp=0.3086066999241838]
[INFO ] fr.inria.astor.core.loop.population.ProgramVariantFactory.createProgramInstance(ProgramVariantFactory.java:126) - -any mod point created for suspicious Candidate [className=org.apache.commons.lang3.time.FastDateParser, methodName=org.apache.commons.lang3.time.FastDateParser{getDisplayNames(I)[Lorg/apache/commons/lang3/time/FastDateParser$KeyValue; 0.0, lineNumber=386, susp=0.2886751345948129]
[INFO ] fr.inria.astor.core.loop.population.ProgramVariantFactory.createProgramInstance(ProgramVariantFactory.java:126) - -any mod point created for suspicious Candidate [className=org.apache.commons.lang3.time.FastDateParser, methodName=org.apache.commons.lang3.time.FastDateParser{getDisplayNames(I)[Lorg/apache/commons/lang3/time/FastDateParser$KeyValue; 0.0, lineNumber=387, susp=0.2886751345948129]
[INFO ] fr.inria.astor.core.loop.population.ProgramVariantFactory.createProgramInstance(ProgramVariantFactory.java:126) - -any mod point created for suspicious Candidate [className=org.apache.commons.lang3.time.FastDateParser, methodName=org.apache.commons.lang3.time.FastDateParser{getStrategy(Ljava/lang/String;)Lorg/apache/commons/lang3/time/FastDateParser$Strategy; 0.0, lineNumber=546, susp=0.2886751345948129]
[INFO ] fr.inria.astor.core.loop.population.ProgramVariantFactory.createProgramInstance(ProgramVariantFactory.java:126) - -any mod point created for suspicious Candidate [className=org.apache.commons.lang3.time.FastDateParser, methodName=org.apache.commons.lang3.time.FastDateParser{getDisplayNames(I)[Lorg/apache/commons/lang3/time/FastDateParser$KeyValue; 0.0, lineNumber=389, susp=0.2886751345948129]
[INFO ] fr.inria.astor.core.loop.population.ProgramVariantFactory.createProgramInstance(ProgramVariantFactory.java:126) - -any mod point created for suspicious Candidate [className=org.apache.commons.lang3.time.FastDateParser, methodName=org.apache.commons.lang3.time.FastDateParser{getDisplayNames(I)[Lorg/apache/commons/lang3/time/FastDateParser$KeyValue; 0.0, lineNumber=390, susp=0.2886751345948129]
[INFO ] fr.inria.astor.core.loop.population.ProgramVariantFactory.createProgramInstance(ProgramVariantFactory.java:126) - -any mod point created for suspicious Candidate [className=org.apache.commons.lang3.time.FastDateParser, methodName=org.apache.commons.lang3.time.FastDateParser{getStrategy(Ljava/lang/String;)Lorg/apache/commons/lang3/time/FastDateParser$Strategy; 0.0, lineNumber=564, susp=0.2886751345948129]
[INFO ] fr.inria.astor.core.loop.population.ProgramVariantFactory.createProgramInstance(ProgramVariantFactory.java:126) - -any mod point created for suspicious Candidate [className=org.apache.commons.lang3.time.FastDatePrinter, methodName=org.apache.commons.lang3.time.FastDatePrinter{parsePattern()Ljava/util/List; 0.0, lineNumber=196, susp=0.2886751345948129]
[INFO ] fr.inria.astor.core.loop.population.ProgramVariantFactory.createProgramInstance(ProgramVariantFactory.java:126) - -any mod point created for suspicious Candidate [className=org.apache.commons.lang3.time.FastDatePrinter, methodName=org.apache.commons.lang3.time.FastDatePrinter{parsePattern()Ljava/util/List; 0.0, lineNumber=197, susp=0.2886751345948129]
[INFO ] fr.inria.astor.core.loop.population.ProgramVariantFactory.createProgramInstance(ProgramVariantFactory.java:126) - -any mod point created for suspicious Candidate [className=org.apache.commons.lang3.time.FastDateParser, methodName=org.apache.commons.lang3.time.FastDateParser{getStrategy(Ljava/lang/String;)Lorg/apache/commons/lang3/time/FastDateParser$Strategy; 0.0, lineNumber=556, susp=0.2716072381275556]
[INFO ] fr.inria.astor.core.loop.population.ProgramVariantFactory.createProgramInstance(ProgramVariantFactory.java:126) - -any mod point created for suspicious Candidate [className=org.apache.commons.lang3.time.FastDateParser, methodName=org.apache.commons.lang3.time.FastDateParser{getStrategy(Ljava/lang/String;)Lorg/apache/commons/lang3/time/FastDateParser$Strategy; 0.0, lineNumber=578, susp=0.2716072381275556]
[INFO ] fr.inria.astor.core.loop.population.ProgramVariantFactory.createProgramInstance(ProgramVariantFactory.java:126) - -any mod point created for suspicious Candidate [className=org.apache.commons.lang3.time.FastDatePrinter, methodName=org.apache.commons.lang3.time.FastDatePrinter{parsePattern()Ljava/util/List; 0.0, lineNumber=266, susp=0.25724787771376323]
[INFO ] fr.inria.astor.core.loop.population.ProgramVariantFactory.createProgramInstance(ProgramVariantFactory.java:126) - -any mod point created for suspicious Candidate [className=org.apache.commons.lang3.time.FastDateParser$1, methodName=org.apache.commons.lang3.time.FastDateParser$1{compare(Ljava/lang/Object;Ljava/lang/Object;)I 0.0, lineNumber=357, susp=0.24618298195866545]
[INFO ] fr.inria.astor.core.loop.population.ProgramVariantFactory.createProgramInstance(ProgramVariantFactory.java:126) - -any mod point created for suspicious Candidate [className=org.apache.commons.lang3.time.FastDatePrinter, methodName=org.apache.commons.lang3.time.FastDatePrinter{parsePattern()Ljava/util/List; 0.0, lineNumber=217, susp=0.24253562503633297]
[INFO ] fr.inria.astor.core.loop.population.ProgramVariantFactory.createProgramInstance(ProgramVariantFactory.java:126) - -any mod point created for suspicious Candidate [className=org.apache.commons.lang3.time.FastDatePrinter, methodName=org.apache.commons.lang3.time.FastDatePrinter{parsePattern()Ljava/util/List; 0.0, lineNumber=218, susp=0.24253562503633297]
[INFO ] fr.inria.astor.core.loop.population.ProgramVariantFactory.createProgramInstance(ProgramVariantFactory.java:126) - -any mod point created for suspicious Candidate [className=org.apache.commons.lang3.time.FastDatePrinter, methodName=org.apache.commons.lang3.time.FastDatePrinter{parsePattern()Ljava/util/List; 0.0, lineNumber=273, susp=0.22360679774997896]
[INFO ] fr.inria.astor.core.loop.population.ProgramVariantFactory.createProgramInstance(ProgramVariantFactory.java:126) - -any mod point created for suspicious Candidate [className=org.apache.commons.lang3.time.FastDatePrinter, methodName=org.apache.commons.lang3.time.FastDatePrinter{parsePattern()Ljava/util/List; 0.0, lineNumber=274, susp=0.22360679774997896]
[INFO ] fr.inria.astor.core.loop.population.ProgramVariantFactory.createProgramInstance(ProgramVariantFactory.java:126) - -any mod point created for suspicious Candidate [className=org.apache.commons.lang3.time.FastDateFormat$1, methodName=org.apache.commons.lang3.time.FastDateFormat$1{createInstance(Ljava/lang/String;Ljava/util/TimeZone;Ljava/util/Locale;)Ljava/text/Format; 0.0, lineNumber=88, susp=0.22360679774997896]
[INFO ] fr.inria.astor.core.loop.population.ProgramVariantFactory.createProgramInstance(ProgramVariantFactory.java:126) - -any mod point created for suspicious Candidate [className=org.apache.commons.lang3.time.FastDatePrinter, methodName=org.apache.commons.lang3.time.FastDatePrinter{init()V 0.0, lineNumber=157, susp=0.2182178902359924]
[INFO ] fr.inria.astor.core.loop.population.ProgramVariantFactory.createProgramInstance(ProgramVariantFactory.java:126) - -any mod point created for suspicious Candidate [className=org.apache.commons.lang3.time.FastDatePrinter, methodName=org.apache.commons.lang3.time.FastDatePrinter{parsePattern()Ljava/util/List; 0.0, lineNumber=220, susp=0.20412414523193154]
[INFO ] fr.inria.astor.core.loop.population.ProgramVariantFactory.createProgramInstance(ProgramVariantFactory.java:126) - -any mod point created for suspicious Candidate [className=org.apache.commons.lang3.time.FastDatePrinter, methodName=org.apache.commons.lang3.time.FastDatePrinter{parsePattern()Ljava/util/List; 0.0, lineNumber=221, susp=0.20412414523193154]
[INFO ] fr.inria.astor.core.loop.population.ProgramVariantFactory.createProgramInstance(ProgramVariantFactory.java:126) - -any mod point created for suspicious Candidate [className=org.apache.commons.lang3.time.FastDatePrinter, methodName=org.apache.commons.lang3.time.FastDatePrinter{parsePattern()Ljava/util/List; 0.0, lineNumber=235, susp=0.1889822365046136]
[INFO ] fr.inria.astor.core.loop.population.ProgramVariantFactory.createProgramInstance(ProgramVariantFactory.java:126) - -any mod point created for suspicious Candidate [className=org.apache.commons.lang3.time.FastDatePrinter, methodName=org.apache.commons.lang3.time.FastDatePrinter{parsePattern()Ljava/util/List; 0.0, lineNumber=236, susp=0.1889822365046136]
[INFO ] fr.inria.astor.core.loop.population.ProgramVariantFactory.createProgramInstance(ProgramVariantFactory.java:126) - -any mod point created for suspicious Candidate [className=org.apache.commons.lang3.time.FastDateParser$2, methodName=org.apache.commons.lang3.time.FastDateParser$2{setCalendar(Lorg/apache/commons/lang3/time/FastDateParser;Ljava/util/Calendar;Ljava/lang/String;)V 0.0, lineNumber=756, susp=0.1889822365046136]
[INFO ] fr.inria.astor.core.loop.population.ProgramVariantFactory.createProgramInstance(ProgramVariantFactory.java:126) - -any mod point created for suspicious Candidate [className=org.apache.commons.lang3.time.FastDatePrinter, methodName=org.apache.commons.lang3.time.FastDatePrinter{parsePattern()Ljava/util/List; 0.0, lineNumber=250, susp=0.1889822365046136]
[INFO ] fr.inria.astor.core.loop.population.ProgramVariantFactory.createProgramInstance(ProgramVariantFactory.java:126) - -any mod point created for suspicious Candidate [className=org.apache.commons.lang3.time.FastDatePrinter, methodName=org.apache.commons.lang3.time.FastDatePrinter{parsePattern()Ljava/util/List; 0.0, lineNumber=251, susp=0.1889822365046136]
[INFO ] fr.inria.astor.core.loop.population.ProgramVariantFactory.createProgramInstance(ProgramVariantFactory.java:126) - -any mod point created for suspicious Candidate [className=org.apache.commons.lang3.time.FastDatePrinter, methodName=org.apache.commons.lang3.time.FastDatePrinter{parsePattern()Ljava/util/List; 0.0, lineNumber=204, susp=0.18190171877724973]
[INFO ] fr.inria.astor.core.loop.population.ProgramVariantFactory.createProgramInstance(ProgramVariantFactory.java:126) - -any mod point created for suspicious Candidate [className=org.apache.commons.lang3.time.FastDatePrinter, methodName=org.apache.commons.lang3.time.FastDatePrinter{selectNumberRule(II)Lorg/apache/commons/lang3/time/FastDatePrinter$NumberRule; 0.0, lineNumber=363, susp=0.18190171877724973]
[INFO ] fr.inria.astor.core.loop.population.ProgramVariantFactory.createProgramInstance(ProgramVariantFactory.java:126) - -any mod point created for suspicious Candidate [className=org.apache.commons.lang3.time.FastDatePrinter, methodName=org.apache.commons.lang3.time.FastDatePrinter{parsePattern()Ljava/util/List; 0.0, lineNumber=199, susp=0.1767766952966369]
[INFO ] fr.inria.astor.core.loop.population.ProgramVariantFactory.createProgramInstance(ProgramVariantFactory.java:126) - -any mod point created for suspicious Candidate [className=org.apache.commons.lang3.time.FastDatePrinter, methodName=org.apache.commons.lang3.time.FastDatePrinter{parsePattern()Ljava/util/List; 0.0, lineNumber=206, susp=0.1767766952966369]
[INFO ] fr.inria.astor.core.loop.population.ProgramVariantFactory.createProgramInstance(ProgramVariantFactory.java:126) - -any mod point created for suspicious Candidate [className=org.apache.commons.lang3.time.FastDateParser, methodName=org.apache.commons.lang3.time.FastDateParser{getStrategy(Ljava/lang/String;)Lorg/apache/commons/lang3/time/FastDateParser$Strategy; 0.0, lineNumber=558, susp=0.17677669529663687]
[INFO ] fr.inria.astor.core.loop.population.ProgramVariantFactory.createProgramInstance(ProgramVariantFactory.java:126) - -any mod point created for suspicious Candidate [className=org.apache.commons.lang3.time.FastDatePrinter, methodName=org.apache.commons.lang3.time.FastDatePrinter{selectNumberRule(II)Lorg/apache/commons/lang3/time/FastDatePrinter$NumberRule; 0.0, lineNumber=359, susp=0.17677669529663687]
[INFO ] fr.inria.astor.core.loop.population.ProgramVariantFactory.createProgramInstance(ProgramVariantFactory.java:126) - -any mod point created for suspicious Candidate [className=org.apache.commons.lang3.time.FastDateParser, methodName=org.apache.commons.lang3.time.FastDateParser{getDisplayNames(I)[Lorg/apache/commons/lang3/time/FastDateParser$KeyValue; 0.0, lineNumber=392, susp=0.17149858514250882]
[INFO ] fr.inria.astor.core.loop.population.ProgramVariantFactory.createProgramInstance(ProgramVariantFactory.java:126) - -any mod point created for suspicious Candidate [className=org.apache.commons.lang3.time.FastDateParser, methodName=org.apache.commons.lang3.time.FastDateParser{getDisplayNames(I)[Lorg/apache/commons/lang3/time/FastDateParser$KeyValue; 0.0, lineNumber=393, susp=0.17149858514250882]
[INFO ] fr.inria.astor.core.loop.population.ProgramVariantFactory.createProgramInstance(ProgramVariantFactory.java:126) - -any mod point created for suspicious Candidate [className=org.apache.commons.lang3.time.FastDatePrinter$TextField, methodName=org.apache.commons.lang3.time.FastDatePrinter$TextField{estimateLength()I 0.0, lineNumber=683, susp=0.15811388300841897]
[INFO ] fr.inria.astor.core.loop.population.ProgramVariantFactory.createProgramInstance(ProgramVariantFactory.java:126) - -any mod point created for suspicious Candidate [className=org.apache.commons.lang3.time.FastDateParser, methodName=org.apache.commons.lang3.time.FastDateParser{getStrategy(Ljava/lang/String;)Lorg/apache/commons/lang3/time/FastDateParser$Strategy; 0.0, lineNumber=552, susp=0.1386750490563073]
[INFO ] fr.inria.astor.core.loop.population.ProgramVariantFactory.createProgramInstance(ProgramVariantFactory.java:126) - -any mod point created for suspicious Candidate [className=org.apache.commons.lang3.time.FastDateParser, methodName=org.apache.commons.lang3.time.FastDateParser{getStrategy(Ljava/lang/String;)Lorg/apache/commons/lang3/time/FastDateParser$Strategy; 0.0, lineNumber=574, susp=0.1336306209562122]
[INFO ] fr.inria.astor.core.loop.population.ProgramVariantFactory.createProgramInstance(ProgramVariantFactory.java:126) - -any mod point created for suspicious Candidate [className=org.apache.commons.lang3.time.FastDatePrinter, methodName=org.apache.commons.lang3.time.FastDatePrinter{parsePattern()Ljava/util/List; 0.0, lineNumber=232, susp=0.1336306209562122]
[INFO ] fr.inria.astor.core.loop.population.ProgramVariantFactory.createProgramInstance(ProgramVariantFactory.java:126) - -any mod point created for suspicious Candidate [className=org.apache.commons.lang3.time.FastDatePrinter, methodName=org.apache.commons.lang3.time.FastDatePrinter{parsePattern()Ljava/util/List; 0.0, lineNumber=233, susp=0.1336306209562122]
[INFO ] fr.inria.astor.core.loop.population.ProgramVariantFactory.createProgramInstance(ProgramVariantFactory.java:126) - -any mod point created for suspicious Candidate [className=org.apache.commons.lang3.time.FastDateParser, methodName=org.apache.commons.lang3.time.FastDateParser{getStrategy(Ljava/lang/String;)Lorg/apache/commons/lang3/time/FastDateParser$Strategy; 0.0, lineNumber=572, susp=0.13130643285972254]
[INFO ] fr.inria.astor.core.loop.population.ProgramVariantFactory.createProgramInstance(ProgramVariantFactory.java:126) - -any mod point created for suspicious Candidate [className=org.apache.commons.lang3.time.FastDatePrinter, methodName=org.apache.commons.lang3.time.FastDatePrinter{parseToken(Ljava/lang/String;[I)Ljava/lang/String; 0.0, lineNumber=317, susp=0.11785113019775793]
[INFO ] fr.inria.astor.core.loop.population.ProgramVariantFactory.createProgramInstance(ProgramVariantFactory.java:126) - -any mod point created for suspicious Candidate [className=org.apache.commons.lang3.time.FastDatePrinter, methodName=org.apache.commons.lang3.time.FastDatePrinter{parsePattern()Ljava/util/List; 0.0, lineNumber=271, susp=0.11180339887498948]
[INFO ] fr.inria.astor.core.loop.population.ProgramVariantFactory.createProgramInstance(ProgramVariantFactory.java:126) - -any mod point created for suspicious Candidate [className=org.apache.commons.lang3.time.FastDatePrinter, methodName=org.apache.commons.lang3.time.FastDatePrinter{parsePattern()Ljava/util/List; 0.0, lineNumber=279, susp=0.11180339887498948]
[INFO ] fr.inria.astor.core.loop.population.ProgramVariantFactory.createProgramInstance(ProgramVariantFactory.java:126) - -any mod point created for suspicious Candidate [className=org.apache.commons.lang3.time.FastDatePrinter, methodName=org.apache.commons.lang3.time.FastDatePrinter{parsePattern()Ljava/util/List; 0.0, lineNumber=215, susp=0.11180339887498948]
[INFO ] fr.inria.astor.core.loop.population.ProgramVariantFactory.createProgramInstance(ProgramVariantFactory.java:130) - Total suspicious from FL: 275,  211
[INFO ] fr.inria.astor.core.loop.population.ProgramVariantFactory.createProgramInstance(ProgramVariantFactory.java:138) - Total ModPoint created: 211
[INFO ] fr.inria.astor.core.loop.population.ProgramVariantFactory.createInitialPopulation(ProgramVariantFactory.java:82) - Creating program variant #1, [Variant id: 1, #gens: 211, #ops: 0, parent:-]
[INFO ] fr.inria.astor.core.setup.ConfigurationProperties.print(ConfigurationProperties.java:63) - ----------------------------
[INFO ] fr.inria.astor.core.setup.ConfigurationProperties.print(ConfigurationProperties.java:64) - ---Configuration properties:---Execution values
[INFO ] fr.inria.astor.core.setup.ConfigurationProperties.print(ConfigurationProperties.java:66) - p:lastJUnitVersion= ./examples/libs/junit-4.11.jar
[INFO ] fr.inria.astor.core.setup.ConfigurationProperties.print(ConfigurationProperties.java:66) - p:alternativecompliancelevel= 4
[INFO ] fr.inria.astor.core.setup.ConfigurationProperties.print(ConfigurationProperties.java:66) - p:ignoredTestCases= 
[INFO ] fr.inria.astor.core.setup.ConfigurationProperties.print(ConfigurationProperties.java:66) - p:workingDirectory= /local/scr/mtufano/Lang/9/b/similar-local-types-embeddings/3
[INFO ] fr.inria.astor.core.setup.ConfigurationProperties.print(ConfigurationProperties.java:66) - p:manipulatesuper= false
[INFO ] fr.inria.astor.core.setup.ConfigurationProperties.print(ConfigurationProperties.java:66) - p:validation= process
[INFO ] fr.inria.astor.core.setup.ConfigurationProperties.print(ConfigurationProperties.java:66) - p:jvm4testexecution= /usr/local/jdk1.7.0_80/bin/
[INFO ] fr.inria.astor.core.setup.ConfigurationProperties.print(ConfigurationProperties.java:66) - p:binjavafolder= target/classes/
[INFO ] fr.inria.astor.core.setup.ConfigurationProperties.print(ConfigurationProperties.java:66) - p:evosuiteresultfolder= evosuite
[INFO ] fr.inria.astor.core.setup.ConfigurationProperties.print(ConfigurationProperties.java:66) - p:flthreshold= 0.1
[INFO ] fr.inria.astor.core.setup.ConfigurationProperties.print(ConfigurationProperties.java:66) - p:regressionforfaultlocalization= true
[INFO ] fr.inria.astor.core.setup.ConfigurationProperties.print(ConfigurationProperties.java:66) - p:tmax2= 960000
[INFO ] fr.inria.astor.core.setup.ConfigurationProperties.print(ConfigurationProperties.java:66) - p:tmax1= 120000
[INFO ] fr.inria.astor.core.setup.ConfigurationProperties.print(ConfigurationProperties.java:66) - p:probagenmutation= false
[INFO ] fr.inria.astor.core.setup.ConfigurationProperties.print(ConfigurationProperties.java:66) - p:srctestfolder= src/test/java/
[INFO ] fr.inria.astor.core.setup.ConfigurationProperties.print(ConfigurationProperties.java:66) - p:customop= fr.inria.astor.approaches.jgenprog.operators.InsertAfterOp:fr.inria.astor.approaches.jgenprog.operators.InsertBeforeOp:fr.inria.astor.approaches.jgenprog.operators.ReplaceOp
[INFO ] fr.inria.astor.core.setup.ConfigurationProperties.print(ConfigurationProperties.java:66) - p:forceExecuteRegression= false
[INFO ] fr.inria.astor.core.setup.ConfigurationProperties.print(ConfigurationProperties.java:66) - p:clusteringfilename= clustering.csv
[INFO ] fr.inria.astor.core.setup.ConfigurationProperties.print(ConfigurationProperties.java:66) - p:failing= org.apache.commons.lang3.time.FastDateParserTest:org.apache.commons.lang3.time.FastDateFormat_ParserTest
[INFO ] fr.inria.astor.core.setup.ConfigurationProperties.print(ConfigurationProperties.java:66) - p:evo_buggy_class= true
[INFO ] fr.inria.astor.core.setup.ConfigurationProperties.print(ConfigurationProperties.java:66) - p:numberExecutions= 1
[INFO ] fr.inria.astor.core.setup.ConfigurationProperties.print(ConfigurationProperties.java:66) - p:evo_affected_by_op= true
[INFO ] fr.inria.astor.core.setup.ConfigurationProperties.print(ConfigurationProperties.java:66) - p:population= 1
[INFO ] fr.inria.astor.core.setup.ConfigurationProperties.print(ConfigurationProperties.java:66) - p:clonegranularity= spoon.reflect.declaration.CtType
[INFO ] fr.inria.astor.core.setup.ConfigurationProperties.print(ConfigurationProperties.java:66) - p:regressiontestcases4fl= org.apache.commons.lang3.time.DateFormatUtilsTest:org.apache.commons.lang3.time.DateUtilsRoundingTest:org.apache.commons.lang3.time.DateUtilsTest:org.apache.commons.lang3.time.DurationFormatUtilsTest:org.apache.commons.lang3.time.FastDateFormatTest:org.apache.commons.lang3.time.FastDateFormat_ParserTest:org.apache.commons.lang3.time.FastDateFormat_PrinterTest:org.apache.commons.lang3.time.FastDateParserTest
[INFO ] fr.inria.astor.core.setup.ConfigurationProperties.print(ConfigurationProperties.java:66) - p:savesolution= true
[INFO ] fr.inria.astor.core.setup.ConfigurationProperties.print(ConfigurationProperties.java:66) - p:javacompliancelevel= 6
[INFO ] fr.inria.astor.core.setup.ConfigurationProperties.print(ConfigurationProperties.java:66) - p:uniqueoptogen= false
[INFO ] fr.inria.astor.core.setup.ConfigurationProperties.print(ConfigurationProperties.java:66) - p:projectIdentifier= 
[INFO ] fr.inria.astor.core.setup.ConfigurationProperties.print(ConfigurationProperties.java:66) - p:modificationpointnavigation= weight
[INFO ] fr.inria.astor.core.setup.ConfigurationProperties.print(ConfigurationProperties.java:66) - p:stopfirst= false
[INFO ] fr.inria.astor.core.setup.ConfigurationProperties.print(ConfigurationProperties.java:66) - p:multipointmodification= false
[INFO ] fr.inria.astor.core.setup.ConfigurationProperties.print(ConfigurationProperties.java:66) - p:elementsToMutate= 10
[INFO ] fr.inria.astor.core.setup.ConfigurationProperties.print(ConfigurationProperties.java:66) - p:evoDSE= false
[INFO ] fr.inria.astor.core.setup.ConfigurationProperties.print(ConfigurationProperties.java:66) - p:bintestfolder= target/tests/
[INFO ] fr.inria.astor.core.setup.ConfigurationProperties.print(ConfigurationProperties.java:66) - p:testbystep= false
[INFO ] fr.inria.astor.core.setup.ConfigurationProperties.print(ConfigurationProperties.java:66) - p:version-location= ./math-version/
[INFO ] fr.inria.astor.core.setup.ConfigurationProperties.print(ConfigurationProperties.java:66) - p:reintroduce= PARENTS
[INFO ] fr.inria.astor.core.setup.ConfigurationProperties.print(ConfigurationProperties.java:66) - p:maxGeneration= 1000000
[INFO ] fr.inria.astor.core.setup.ConfigurationProperties.print(ConfigurationProperties.java:66) - p:maxVarCombination= 1000
[INFO ] fr.inria.astor.core.setup.ConfigurationProperties.print(ConfigurationProperties.java:66) - p:maxtime= 180
[INFO ] fr.inria.astor.core.setup.ConfigurationProperties.print(ConfigurationProperties.java:66) - p:evosuitejar= ./lib/evosuite-master-1.0.4-SNAPSHOT.jar
[INFO ] fr.inria.astor.core.setup.ConfigurationProperties.print(ConfigurationProperties.java:66) - p:commandTrunk= 50000
[INFO ] fr.inria.astor.core.setup.ConfigurationProperties.print(ConfigurationProperties.java:66) - p:faultlocalization= fr.inria.astor.core.faultlocalization.GZoltarFaultLocalization
[INFO ] fr.inria.astor.core.setup.ConfigurationProperties.print(ConfigurationProperties.java:66) - p:maxsuspcandidates= 1000
[INFO ] fr.inria.astor.core.setup.ConfigurationProperties.print(ConfigurationProperties.java:66) - p:mode= statement
[INFO ] fr.inria.astor.core.setup.ConfigurationProperties.print(ConfigurationProperties.java:66) - p:learningdir= ../../out/learningdir/Lang/9/b/
[INFO ] fr.inria.astor.core.setup.ConfigurationProperties.print(ConfigurationProperties.java:66) - p:jvm4evosuitetestexecution= /usr/local/jdk1.7.0_80/bin/
[INFO ] fr.inria.astor.core.setup.ConfigurationProperties.print(ConfigurationProperties.java:66) - p:filterfaultlocalization= true
[INFO ] fr.inria.astor.core.setup.ConfigurationProperties.print(ConfigurationProperties.java:66) - p:mutationrate= 1 
[INFO ] fr.inria.astor.core.setup.ConfigurationProperties.print(ConfigurationProperties.java:66) - p:pathToMVNRepository= 
[INFO ] fr.inria.astor.core.setup.ConfigurationProperties.print(ConfigurationProperties.java:66) - p:resourcesfolder= /src/main/resources:/src/test/resources:
[INFO ] fr.inria.astor.core.setup.ConfigurationProperties.print(ConfigurationProperties.java:66) - p:timezone= America/New_York
[INFO ] fr.inria.astor.core.setup.ConfigurationProperties.print(ConfigurationProperties.java:66) - p:classestoinstrument= org.apache.commons.lang3.time.FastDateParser:org.apache.commons.lang3.time.FormatCache:org.apache.commons.lang3.time.DateParser:org.apache.commons.lang3.time.FastDatePrinter:org.apache.commons.lang3.time.DatePrinter:org.apache.commons.lang3.time.FastDateFormat
[INFO ] fr.inria.astor.core.setup.ConfigurationProperties.print(ConfigurationProperties.java:66) - p:evoRunOnBuggyClass= true
[INFO ] fr.inria.astor.core.setup.ConfigurationProperties.print(ConfigurationProperties.java:66) - p:compiler= fr.inria.astor.core.manipulation.bytecode.compiler.SpoonClassCompiler
[INFO ] fr.inria.astor.core.setup.ConfigurationProperties.print(ConfigurationProperties.java:66) - p:dependenciespath= ../../dat/libs/Lang/cglib.jar:../../dat/libs/Lang/commons-io.jar:../../dat/libs/Lang/asm.jar:../../dat/libs/Lang/easymock.jar
[INFO ] fr.inria.astor.core.setup.ConfigurationProperties.print(ConfigurationProperties.java:66) - p:skipfaultlocalization= false
[INFO ] fr.inria.astor.core.setup.ConfigurationProperties.print(ConfigurationProperties.java:66) - p:packageToInstrument= org.apache.commons
[INFO ] fr.inria.astor.core.setup.ConfigurationProperties.print(ConfigurationProperties.java:66) - p:scope= fr.inria.astor.core.loop.spaces.ingredients.scopes.ctscopes.CtClassIngredientSpace
[INFO ] fr.inria.astor.core.setup.ConfigurationProperties.print(ConfigurationProperties.java:66) - p:transformingredient= true
[INFO ] fr.inria.astor.core.setup.ConfigurationProperties.print(ConfigurationProperties.java:66) - p:fitnessfunction= fr.inria.astor.core.loop.population.TestCaseFitnessFunction
[INFO ] fr.inria.astor.core.setup.ConfigurationProperties.print(ConfigurationProperties.java:66) - p:pvariantfoldername= variant-
[INFO ] fr.inria.astor.core.setup.ConfigurationProperties.print(ConfigurationProperties.java:66) - p:srcjavafolder= src/main/java/
[INFO ] fr.inria.astor.core.setup.ConfigurationProperties.print(ConfigurationProperties.java:66) - p:populationcontroller= fr.inria.astor.core.loop.population.TestCaseBasedFitnessPopulationController
[INFO ] fr.inria.astor.core.setup.ConfigurationProperties.print(ConfigurationProperties.java:66) - p:ignoreflakyinfl= false
[INFO ] fr.inria.astor.core.setup.ConfigurationProperties.print(ConfigurationProperties.java:66) - p:applyCrossover= false
[INFO ] fr.inria.astor.core.setup.ConfigurationProperties.print(ConfigurationProperties.java:66) - p:saveall= false
[INFO ] fr.inria.astor.core.setup.ConfigurationProperties.print(ConfigurationProperties.java:66) - p:seed= 3
[INFO ] fr.inria.astor.core.setup.ConfigurationProperties.print(ConfigurationProperties.java:66) - p:resetoperations= false
[INFO ] fr.inria.astor.core.setup.ConfigurationProperties.print(ConfigurationProperties.java:66) - p:location= ../../dat/defects4j/Lang/9/b/
[INFO ] fr.inria.astor.core.setup.ConfigurationProperties.print(ConfigurationProperties.java:66) - p:ingredientstrategy= fr.inria.astor.core.loop.spaces.ingredients.ingredientSearch.CloneIngredientSearchStrategy
[INFO ] fr.inria.astor.core.setup.ConfigurationProperties.print(ConfigurationProperties.java:66) - p:allpoints= false
[INFO ] fr.inria.astor.core.setup.ConfigurationProperties.print(ConfigurationProperties.java:66) - p:bugId= 280
[INFO ] fr.inria.astor.core.setup.ConfigurationProperties.print(ConfigurationProperties.java:66) - p:evosuitetimeout= 120
[INFO ] fr.inria.astor.core.setup.ConfigurationProperties.print(ConfigurationProperties.java:68) - ----------------------------
[INFO ] fr.inria.astor.core.loop.AstorCoreEngine.startEvolution(AstorCoreEngine.java:119) - 
----Starting Solution Search
0-->2org.apache.commons.lang3.time.FormatCache
1-->2org.apache.commons.lang3.time.FastDatePrinter
2-->2org.apache.commons.lang3.time.FastDateParser
3-->2org.apache.commons.lang3.time.FastDateFormat
[INFO ] fr.inria.astor.core.validation.executors.JUnitExecutorProcess.execute(JUnitExecutorProcess.java:120) - The Process that runs JUnit test cases had problems: process hasn't exited
[INFO ] fr.inria.astor.core.validation.executors.JUnitExecutorProcess.execute(JUnitExecutorProcess.java:120) - The Process that runs JUnit test cases had problems: process hasn't exited
[INFO ] fr.inria.astor.core.validation.executors.JUnitExecutorProcess.execute(JUnitExecutorProcess.java:120) - The Process that runs JUnit test cases had problems: process hasn't exited
[INFO ] fr.inria.astor.core.validation.executors.JUnitExecutorProcess.execute(JUnitExecutorProcess.java:120) - The Process that runs JUnit test cases had problems: process hasn't exited
[INFO ] fr.inria.astor.core.validation.executors.JUnitExecutorProcess.execute(JUnitExecutorProcess.java:120) - The Process that runs JUnit test cases had problems: process hasn't exited
[INFO ] fr.inria.astor.core.validation.executors.JUnitExecutorProcess.execute(JUnitExecutorProcess.java:120) - The Process that runs JUnit test cases had problems: process hasn't exited
[INFO ] fr.inria.astor.core.validation.executors.JUnitExecutorProcess.execute(JUnitExecutorProcess.java:120) - The Process that runs JUnit test cases had problems: process hasn't exited
[INFO ] fr.inria.astor.core.validation.executors.JUnitExecutorProcess.execute(JUnitExecutorProcess.java:120) - The Process that runs JUnit test cases had problems: process hasn't exited
[INFO ] fr.inria.astor.core.validation.executors.JUnitExecutorProcess.execute(JUnitExecutorProcess.java:120) - The Process that runs JUnit test cases had problems: process hasn't exited
[INFO ] fr.inria.astor.core.validation.executors.JUnitExecutorProcess.execute(JUnitExecutorProcess.java:120) - The Process that runs JUnit test cases had problems: process hasn't exited
[INFO ] fr.inria.astor.core.validation.executors.JUnitExecutorProcess.execute(JUnitExecutorProcess.java:120) - The Process that runs JUnit test cases had problems: process hasn't exited
[INFO ] fr.inria.astor.core.validation.executors.JUnitExecutorProcess.execute(JUnitExecutorProcess.java:120) - The Process that runs JUnit test cases had problems: process hasn't exited
[INFO ] fr.inria.astor.core.loop.AstorCoreEngine.belowMaxTime(AstorCoreEngine.java:203) - 
 No more time for operating
[INFO ] fr.inria.astor.core.loop.AstorCoreEngine.startEvolution(AstorCoreEngine.java:143) - Time Repair Loop (s): 10872.387
[INFO ] fr.inria.astor.core.loop.AstorCoreEngine.showResults(AstorCoreEngine.java:165) - 
----SUMMARY_EXECUTION---
[INFO ] fr.inria.astor.approaches.jgenprog.JGenProg.showResults(JGenProg.java:332) - 
successful_ing_attempts (#trials 0, totalAttps 0): []
[INFO ] fr.inria.astor.approaches.jgenprog.JGenProg.showResults(JGenProg.java:334) - 
failing_ing_attempts (#trials 1253, totalAttps 3371): [4, 1, 1, 1, 4, 1, 1, 1, 4, 1, 4, 1, 1, 1, 1, 1, 1, 25, 1, 1, 4, 4, 4, 1, 1, 4, 1, 1, 1, 1, 4, 1, 4, 4, 5, 1, 1, 1, 4, 1, 1, 1, 1, 1, 1, 1, 1, 5, 1, 4, 1, 4, 1, 1, 4, 1, 1, 4, 27, 4, 1, 1, 44, 4, 1, 1, 1, 4, 4, 4, 1, 1, 1, 1, 15, 42, 1, 4, 1, 1, 1, 1, 26, 1, 1, 1, 4, 1, 1, 1, 1, 4, 2, 4, 1, 4, 1, 1, 1, 1, 3, 4, 1, 4, 4, 3, 1, 1, 4, 4, 1, 3, 1, 1, 4, 1, 1, 1, 1, 1, 1, 4, 1, 4, 4, 1, 1, 5, 1, 1, 1, 1, 1, 1, 1, 1, 1, 1, 1, 1, 1, 27, 1, 3, 1, 1, 1, 3, 1, 27, 2, 1, 4, 1, 7, 4, 1, 1, 1, 1, 1, 7, 1, 1, 1, 1, 3, 1, 1, 1, 1, 1, 1, 4, 1, 25, 1, 4, 1, 1, 1, 1, 1, 1, 4, 1, 1, 1, 1, 4, 1, 3, 1, 1, 1, 10, 4, 1, 1, 1, 4, 3, 1, 1, 1, 1, 1, 4, 1, 3, 1, 1, 1, 1, 4, 1, 1, 11, 1, 1, 1, 1, 1, 1, 1, 3, 7, 1, 1, 1, 1, 2, 22, 1, 1, 3, 1, 2, 1, 1, 15, 4, 1, 1, 1, 1, 1, 3, 4, 1, 1, 1, 11, 17, 1, 3, 1, 1, 4, 1, 1, 1, 1, 12, 1, 1, 1, 4, 1, 1, 1, 1, 1, 1, 3, 2, 3, 1, 1, 1, 1, 1, 1, 4, 4, 4, 1, 1, 1, 1, 1, 3, 11, 15, 4, 4, 1, 1, 1, 1, 1, 4, 1, 1, 1, 4, 1, 1, 4, 1, 1, 1, 1, 1, 4, 4, 1, 3, 1, 4, 1, 1, 4, 4, 4, 1, 1, 4, 1, 4, 1, 4, 4, 4, 3, 1, 1, 1, 3, 1, 4, 1, 4, 1, 4, 1, 1, 1, 17, 1, 1, 1, 1, 1, 3, 1, 1, 1, 1, 4, 1, 1, 4, 1, 1, 1, 1, 1, 1, 1, 1, 4, 1, 1, 1, 16, 1, 6, 1, 1, 1, 1, 1, 1, 1, 4, 1, 16, 1, 1, 1, 1, 1, 3, 1, 1, 1, 1, 4, 2, 1, 4, 1, 1, 1, 1, 1, 1, 1, 1, 1, 1, 1, 1, 4, 15, 1, 1, 1, 1, 1, 4, 43, 1, 1, 1, 3, 1, 1, 1, 1, 4, 1, 1, 1, 3, 1, 1, 41, 1, 2, 2, 1, 1, 4, 1, 1, 4, 42, 1, 1, 10, 1, 1, 1, 4, 1, 1, 1, 1, 1, 1, 1, 1, 1, 4, 1, 1, 4, 4, 1, 1, 4, 3, 4, 4, 1, 1, 1, 2, 1, 1, 42, 1, 5, 1, 3, 1, 1, 1, 1, 1, 1, 1, 1, 1, 3, 1, 4, 1, 1, 1, 13, 3, 1, 1, 1, 1, 1, 1, 1, 1, 4, 1, 1, 1, 1, 4, 1, 1, 1, 1, 2, 1, 4, 1, 1, 1, 1, 3, 1, 1, 5, 1, 2, 2, 1, 4, 1, 38, 3, 1, 1, 1, 1, 1, 1, 1, 3, 3, 3, 1, 4, 7, 1, 2, 1, 1, 1, 1, 1, 17, 1, 1, 1, 1, 6, 1, 4, 1, 4, 1, 1, 1, 1, 1, 1, 1, 1, 1, 1, 4, 1, 1, 4, 1, 1, 5, 1, 1, 1, 1, 1, 1, 1, 3, 1, 4, 3, 1, 1, 1, 1, 1, 2, 2, 1, 18, 4, 17, 4, 1, 4, 1, 1, 3, 16, 1, 1, 1, 4, 1, 3, 1, 1, 1, 3, 1, 1, 4, 1, 1, 1, 1, 1, 1, 1, 1, 13, 1, 1, 3, 4, 1, 1, 1, 1, 1, 1, 1, 1, 2, 1, 4, 1, 1, 3, 1, 4, 1, 1, 3, 1, 1, 1, 1, 2, 1, 1, 1, 1, 1, 3, 1, 2, 1, 1, 1, 1, 1, 3, 15, 1, 1, 1, 4, 2, 4, 1, 1, 1, 1, 1, 1, 2, 1, 1, 5, 2, 4, 1, 1, 3, 4, 1, 1, 4, 3, 1, 6, 13, 1, 1, 4, 4, 1, 3, 1, 1, 1, 1, 1, 1, 1, 4, 4, 3, 1, 1, 1, 1, 1, 3, 1, 1, 1, 1, 1, 1, 3, 1, 1, 2, 2, 9, 3, 1, 1, 1, 3, 1, 1, 1, 1, 1, 1, 1, 1, 1, 1, 1, 1, 1, 1, 4, 1, 4, 5, 13, 1, 1, 1, 4, 1, 1, 1, 1, 4, 1, 1, 1, 1, 1, 1, 1, 1, 1, 3, 4, 2, 1, 2, 1, 1, 9, 1, 1, 4, 42, 6, 18, 1, 1, 1, 2, 16, 1, 1, 1, 1, 3, 5, 3, 1, 2, 1, 1, 1, 3, 17, 1, 1, 4, 1, 1, 1, 1, 1, 8, 1, 1, 1, 1, 1, 1, 2, 1, 2, 1, 6, 1, 13, 1, 1, 1, 3, 1, 1, 5, 1, 3, 1, 3, 1, 2, 3, 1, 1, 1, 4, 1, 1, 10, 1, 1, 1, 1, 2, 7, 5, 1, 1, 1, 1, 1, 3, 1, 4, 4, 1, 13, 1, 4, 1, 3, 2, 1, 1, 1, 4, 1, 1, 8, 1, 4, 4, 4, 1, 1, 7, 2, 2, 1, 1, 1, 1, 1, 1, 1, 16, 25, 1, 1, 16, 1, 1, 1, 3, 1, 15, 1, 5, 1, 1, 1, 1, 1, 2, 4, 1, 7, 1, 1, 1, 3, 1, 1, 1, 3, 1, 1, 5, 1, 1, 1, 3, 1, 1, 1, 1, 4, 1, 1, 1, 1, 1, 2, 2, 1, 1, 1, 18, 1, 1, 1, 1, 1, 1, 2, 1, 1, 1, 42, 1, 1, 1, 10, 1, 1, 1, 1, 1, 1, 1, 8, 4, 1, 1, 1, 1, 2, 1, 1, 1, 1, 1, 1, 1, 1, 1, 1, 1, 1, 8, 1, 1, 1, 1, 1, 2, 1, 1, 3, 42, 1, 1, 1, 2, 1, 1, 1, 1, 1, 1, 4, 6, 1, 1, 1, 1, 16, 4, 1, 1, 1, 3, 1, 1, 1, 1, 1, 1, 4, 2, 1, 1, 1, 1, 1, 1, 1, 1, 1, 1, 1, 4, 2, 1, 1, 1, 3, 2, 1, 6, 18, 1, 2, 2, 3, 1, 1, 1, 17, 2, 1, 1, 1, 1, 1, 1, 4, 3, 1, 1, 1, 1, 1, 1, 1, 1, 1, 1, 1, 1, 1, 3, 4, 1, 1, 1, 1, 6, 1, 1, 1, 1, 1, 4, 3, 20, 1, 1, 1, 1, 1, 1, 2, 4, 17, 4, 1, 1, 1, 1, 2, 1, 1, 1, 1, 16, 1, 1, 1, 1, 1, 1, 1, 1, 1, 3, 1, 1, 1, 1, 1, 1, 1, 1, 1, 1, 1, 1, 1, 4, 1, 4, 1, 1, 1, 1, 1, 2, 1, 1, 3, 7, 3, 13, 3, 20, 1, 1, 1, 1, 3, 1, 1, 12, 1, 1, 1, 1, 1, 1, 1, 1, 1, 1, 5, 1, 1, 4, 4, 2, 1, 1, 1, 1, 2, 1, 1, 1, 1, 1, 1, 1, 1, 5, 1, 1, 1, 6, 1, 1, 1, 1, 1, 1, 1, 1, 4, 1, 3, 1, 1, 1, 42, 1, 1, 1, 2, 1, 3, 3, 1, 1, 1, 1, 3, 1, 1, 1, 1, 1, 11, 1, 4, 1, 4, 1, 1, 1, 7]
[INFO ] fr.inria.astor.approaches.jgenprog.JGenProg.showResults(JGenProg.java:337) - 
total Patch Attempts (0): []
[INFO ] fr.inria.astor.approaches.jgenprog.JGenProg.showResults(JGenProg.java:339) - 
successful_ing_attempts_by_patch: []
[INFO ] fr.inria.astor.approaches.jgenprog.JGenProg.showResults(JGenProg.java:340) - 
failing_ing_attempts_by_patch: [(pv:2,at:4), (pv:3,at:1), (pv:4,at:1), (pv:5,at:1), (pv:6,at:4), (pv:7,at:1), (pv:8,at:1), (pv:9,at:1), (pv:10,at:4), (pv:11,at:1), (pv:12,at:4), (pv:13,at:1), (pv:14,at:1), (pv:15,at:1), (pv:16,at:1), (pv:17,at:1), (pv:18,at:1), (pv:19,at:25), (pv:20,at:1), (pv:21,at:1), (pv:22,at:4), (pv:23,at:4), (pv:24,at:4), (pv:25,at:1), (pv:26,at:1), (pv:27,at:4), (pv:28,at:1), (pv:29,at:1), (pv:30,at:1), (pv:31,at:1), (pv:32,at:4), (pv:33,at:1), (pv:34,at:4), (pv:35,at:4), (pv:36,at:5), (pv:37,at:1), (pv:38,at:1), (pv:39,at:1), (pv:40,at:4), (pv:41,at:1), (pv:42,at:1), (pv:43,at:1), (pv:44,at:1), (pv:45,at:1), (pv:46,at:1), (pv:47,at:1), (pv:48,at:1), (pv:49,at:5), (pv:50,at:1), (pv:51,at:4), (pv:52,at:1), (pv:53,at:4), (pv:54,at:1), (pv:55,at:1), (pv:56,at:4), (pv:57,at:1), (pv:58,at:1), (pv:59,at:4), (pv:60,at:27), (pv:61,at:4), (pv:62,at:1), (pv:63,at:1), (pv:64,at:44), (pv:65,at:4), (pv:66,at:1), (pv:67,at:1), (pv:68,at:1), (pv:69,at:4), (pv:70,at:4), (pv:71,at:4), (pv:72,at:1), (pv:73,at:1), (pv:74,at:1), (pv:75,at:1), (pv:76,at:15), (pv:77,at:42), (pv:78,at:1), (pv:79,at:4), (pv:80,at:1), (pv:81,at:1), (pv:82,at:1), (pv:83,at:1), (pv:84,at:26), (pv:85,at:1), (pv:86,at:1), (pv:87,at:1), (pv:88,at:4), (pv:89,at:1), (pv:90,at:1), (pv:91,at:1), (pv:92,at:1), (pv:93,at:4), (pv:94,at:2), (pv:95,at:4), (pv:96,at:1), (pv:97,at:4), (pv:98,at:1), (pv:99,at:1), (pv:100,at:1), (pv:101,at:1), (pv:102,at:3), (pv:103,at:4), (pv:104,at:1), (pv:105,at:4), (pv:106,at:4), (pv:107,at:3), (pv:108,at:1), (pv:109,at:1), (pv:110,at:4), (pv:111,at:4), (pv:112,at:1), (pv:113,at:3), (pv:114,at:1), (pv:115,at:1), (pv:116,at:4), (pv:117,at:1), (pv:118,at:1), (pv:119,at:1), (pv:120,at:1), (pv:121,at:1), (pv:122,at:1), (pv:123,at:4), (pv:124,at:1), (pv:125,at:4), (pv:126,at:4), (pv:127,at:1), (pv:128,at:1), (pv:129,at:5), (pv:130,at:1), (pv:131,at:1), (pv:132,at:1), (pv:133,at:1), (pv:134,at:1), (pv:135,at:1), (pv:136,at:1), (pv:137,at:1), (pv:138,at:1), (pv:139,at:1), (pv:140,at:1), (pv:141,at:1), (pv:142,at:1), (pv:143,at:27), (pv:144,at:1), (pv:145,at:3), (pv:146,at:1), (pv:147,at:1), (pv:148,at:1), (pv:149,at:3), (pv:150,at:1), (pv:151,at:27), (pv:152,at:2), (pv:153,at:1), (pv:154,at:4), (pv:155,at:1), (pv:156,at:7), (pv:157,at:4), (pv:158,at:1), (pv:159,at:1), (pv:160,at:1), (pv:161,at:1), (pv:162,at:1), (pv:163,at:7), (pv:164,at:1), (pv:165,at:1), (pv:166,at:1), (pv:167,at:1), (pv:168,at:3), (pv:169,at:1), (pv:170,at:1), (pv:171,at:1), (pv:172,at:1), (pv:173,at:1), (pv:174,at:1), (pv:175,at:4), (pv:176,at:1), (pv:177,at:25), (pv:178,at:1), (pv:179,at:4), (pv:180,at:1), (pv:181,at:1), (pv:182,at:1), (pv:183,at:1), (pv:184,at:1), (pv:185,at:1), (pv:186,at:4), (pv:187,at:1), (pv:188,at:1), (pv:189,at:1), (pv:190,at:1), (pv:191,at:4), (pv:192,at:1), (pv:193,at:3), (pv:194,at:1), (pv:195,at:1), (pv:196,at:1), (pv:197,at:10), (pv:198,at:4), (pv:199,at:1), (pv:200,at:1), (pv:201,at:1), (pv:202,at:4), (pv:203,at:3), (pv:204,at:1), (pv:205,at:1), (pv:206,at:1), (pv:207,at:1), (pv:208,at:1), (pv:209,at:4), (pv:210,at:1), (pv:211,at:3), (pv:212,at:1), (pv:213,at:1), (pv:214,at:1), (pv:215,at:1), (pv:216,at:4), (pv:217,at:1), (pv:218,at:1), (pv:219,at:11), (pv:220,at:1), (pv:221,at:1), (pv:222,at:1), (pv:223,at:1), (pv:224,at:1), (pv:225,at:1), (pv:226,at:1), (pv:227,at:3), (pv:228,at:7), (pv:229,at:1), (pv:230,at:1), (pv:231,at:1), (pv:232,at:1), (pv:233,at:2), (pv:234,at:22), (pv:235,at:1), (pv:236,at:1), (pv:237,at:3), (pv:238,at:1), (pv:239,at:2), (pv:240,at:1), (pv:241,at:1), (pv:242,at:15), (pv:243,at:4), (pv:244,at:1), (pv:245,at:1), (pv:246,at:1), (pv:247,at:1), (pv:248,at:1), (pv:249,at:3), (pv:250,at:4), (pv:251,at:1), (pv:252,at:1), (pv:253,at:1), (pv:254,at:11), (pv:255,at:17), (pv:256,at:1), (pv:257,at:3), (pv:258,at:1), (pv:259,at:1), (pv:260,at:4), (pv:261,at:1), (pv:262,at:1), (pv:263,at:1), (pv:264,at:1), (pv:265,at:12), (pv:266,at:1), (pv:267,at:1), (pv:268,at:1), (pv:269,at:4), (pv:270,at:1), (pv:271,at:1), (pv:272,at:1), (pv:273,at:1), (pv:274,at:1), (pv:275,at:1), (pv:276,at:3), (pv:277,at:2), (pv:278,at:3), (pv:279,at:1), (pv:280,at:1), (pv:281,at:1), (pv:282,at:1), (pv:283,at:1), (pv:284,at:1), (pv:285,at:4), (pv:286,at:4), (pv:287,at:4), (pv:288,at:1), (pv:289,at:1), (pv:290,at:1), (pv:291,at:1), (pv:292,at:1), (pv:293,at:3), (pv:294,at:11), (pv:295,at:15), (pv:296,at:4), (pv:297,at:4), (pv:298,at:1), (pv:299,at:1), (pv:300,at:1), (pv:301,at:1), (pv:302,at:1), (pv:303,at:4), (pv:304,at:1), (pv:305,at:1), (pv:306,at:1), (pv:307,at:4), (pv:308,at:1), (pv:309,at:1), (pv:310,at:4), (pv:311,at:1), (pv:312,at:1), (pv:313,at:1), (pv:314,at:1), (pv:315,at:1), (pv:316,at:4), (pv:317,at:4), (pv:318,at:1), (pv:319,at:3), (pv:320,at:1), (pv:321,at:4), (pv:322,at:1), (pv:323,at:1), (pv:324,at:4), (pv:325,at:4), (pv:326,at:4), (pv:327,at:1), (pv:328,at:1), (pv:329,at:4), (pv:330,at:1), (pv:331,at:4), (pv:332,at:1), (pv:333,at:4), (pv:334,at:4), (pv:335,at:4), (pv:336,at:3), (pv:337,at:1), (pv:338,at:1), (pv:339,at:1), (pv:340,at:3), (pv:341,at:1), (pv:342,at:4), (pv:343,at:1), (pv:344,at:4), (pv:345,at:1), (pv:346,at:4), (pv:347,at:1), (pv:348,at:1), (pv:349,at:1), (pv:350,at:17), (pv:351,at:1), (pv:352,at:1), (pv:353,at:1), (pv:354,at:1), (pv:355,at:1), (pv:356,at:3), (pv:357,at:1), (pv:358,at:1), (pv:359,at:1), (pv:360,at:1), (pv:361,at:4), (pv:362,at:1), (pv:363,at:1), (pv:364,at:4), (pv:365,at:1), (pv:366,at:1), (pv:367,at:1), (pv:368,at:1), (pv:369,at:1), (pv:370,at:1), (pv:371,at:1), (pv:372,at:1), (pv:373,at:4), (pv:374,at:1), (pv:375,at:1), (pv:376,at:1), (pv:377,at:16), (pv:378,at:1), (pv:379,at:6), (pv:380,at:1), (pv:381,at:1), (pv:382,at:1), (pv:383,at:1), (pv:384,at:1), (pv:385,at:1), (pv:386,at:1), (pv:387,at:4), (pv:388,at:1), (pv:389,at:16), (pv:390,at:1), (pv:391,at:1), (pv:392,at:1), (pv:393,at:1), (pv:394,at:1), (pv:395,at:3), (pv:396,at:1), (pv:397,at:1), (pv:398,at:1), (pv:399,at:1), (pv:400,at:4), (pv:401,at:2), (pv:402,at:1), (pv:403,at:4), (pv:404,at:1), (pv:405,at:1), (pv:406,at:1), (pv:407,at:1), (pv:408,at:1), (pv:409,at:1), (pv:410,at:1), (pv:411,at:1), (pv:412,at:1), (pv:413,at:1), (pv:414,at:1), (pv:415,at:1), (pv:416,at:4), (pv:417,at:15), (pv:418,at:1), (pv:419,at:1), (pv:420,at:1), (pv:421,at:1), (pv:422,at:1), (pv:423,at:4), (pv:424,at:43), (pv:425,at:1), (pv:426,at:1), (pv:427,at:1), (pv:428,at:3), (pv:429,at:1), (pv:430,at:1), (pv:431,at:1), (pv:432,at:1), (pv:433,at:4), (pv:434,at:1), (pv:435,at:1), (pv:436,at:1), (pv:437,at:3), (pv:438,at:1), (pv:439,at:1), (pv:440,at:41), (pv:441,at:1), (pv:442,at:2), (pv:443,at:2), (pv:444,at:1), (pv:445,at:1), (pv:446,at:4), (pv:447,at:1), (pv:448,at:1), (pv:449,at:4), (pv:450,at:42), (pv:451,at:1), (pv:452,at:1), (pv:453,at:10), (pv:454,at:1), (pv:455,at:1), (pv:456,at:1), (pv:457,at:4), (pv:458,at:1), (pv:459,at:1), (pv:460,at:1), (pv:461,at:1), (pv:462,at:1), (pv:463,at:1), (pv:464,at:1), (pv:465,at:1), (pv:466,at:1), (pv:467,at:4), (pv:468,at:1), (pv:469,at:1), (pv:470,at:4), (pv:471,at:4), (pv:472,at:1), (pv:473,at:1), (pv:474,at:4), (pv:475,at:3), (pv:476,at:4), (pv:477,at:4), (pv:478,at:1), (pv:479,at:1), (pv:480,at:1), (pv:481,at:2), (pv:482,at:1), (pv:483,at:1), (pv:484,at:42), (pv:485,at:1), (pv:486,at:5), (pv:487,at:1), (pv:488,at:3), (pv:489,at:1), (pv:490,at:1), (pv:491,at:1), (pv:492,at:1), (pv:493,at:1), (pv:494,at:1), (pv:495,at:1), (pv:496,at:1), (pv:497,at:1), (pv:498,at:3), (pv:499,at:1), (pv:500,at:4), (pv:501,at:1), (pv:502,at:1), (pv:503,at:1), (pv:504,at:13), (pv:505,at:3), (pv:506,at:1), (pv:507,at:1), (pv:508,at:1), (pv:509,at:1), (pv:510,at:1), (pv:511,at:1), (pv:512,at:1), (pv:513,at:1), (pv:514,at:4), (pv:515,at:1), (pv:516,at:1), (pv:517,at:1), (pv:518,at:1), (pv:519,at:4), (pv:520,at:1), (pv:521,at:1), (pv:522,at:1), (pv:523,at:1), (pv:524,at:2), (pv:525,at:1), (pv:526,at:4), (pv:527,at:1), (pv:528,at:1), (pv:529,at:1), (pv:530,at:1), (pv:531,at:3), (pv:532,at:1), (pv:533,at:1), (pv:534,at:5), (pv:535,at:1), (pv:536,at:2), (pv:537,at:2), (pv:538,at:1), (pv:539,at:4), (pv:540,at:1), (pv:541,at:38), (pv:542,at:3), (pv:543,at:1), (pv:544,at:1), (pv:545,at:1), (pv:546,at:1), (pv:547,at:1), (pv:548,at:1), (pv:549,at:1), (pv:550,at:3), (pv:551,at:3), (pv:552,at:3), (pv:553,at:1), (pv:554,at:4), (pv:555,at:7), (pv:556,at:1), (pv:557,at:2), (pv:558,at:1), (pv:559,at:1), (pv:560,at:1), (pv:561,at:1), (pv:562,at:1), (pv:563,at:17), (pv:564,at:1), (pv:565,at:1), (pv:566,at:1), (pv:567,at:1), (pv:568,at:6), (pv:569,at:1), (pv:570,at:4), (pv:571,at:1), (pv:572,at:4), (pv:573,at:1), (pv:574,at:1), (pv:575,at:1), (pv:576,at:1), (pv:577,at:1), (pv:578,at:1), (pv:579,at:1), (pv:580,at:1), (pv:581,at:1), (pv:582,at:1), (pv:583,at:4), (pv:584,at:1), (pv:585,at:1), (pv:586,at:4), (pv:587,at:1), (pv:588,at:1), (pv:589,at:5), (pv:590,at:1), (pv:591,at:1), (pv:592,at:1), (pv:593,at:1), (pv:594,at:1), (pv:595,at:1), (pv:596,at:1), (pv:597,at:3), (pv:598,at:1), (pv:599,at:4), (pv:600,at:3), (pv:601,at:1), (pv:602,at:1), (pv:603,at:1), (pv:604,at:1), (pv:605,at:1), (pv:606,at:2), (pv:607,at:2), (pv:608,at:1), (pv:609,at:18), (pv:610,at:4), (pv:611,at:17), (pv:612,at:4), (pv:613,at:1), (pv:614,at:4), (pv:615,at:1), (pv:616,at:1), (pv:617,at:3), (pv:618,at:16), (pv:619,at:1), (pv:620,at:1), (pv:621,at:1), (pv:622,at:4), (pv:623,at:1), (pv:624,at:3), (pv:625,at:1), (pv:626,at:1), (pv:627,at:1), (pv:628,at:3), (pv:629,at:1), (pv:630,at:1), (pv:631,at:4), (pv:632,at:1), (pv:633,at:1), (pv:634,at:1), (pv:635,at:1), (pv:636,at:1), (pv:637,at:1), (pv:638,at:1), (pv:639,at:1), (pv:640,at:13), (pv:641,at:1), (pv:642,at:1), (pv:643,at:3), (pv:644,at:4), (pv:645,at:1), (pv:646,at:1), (pv:647,at:1), (pv:648,at:1), (pv:649,at:1), (pv:650,at:1), (pv:651,at:1), (pv:652,at:1), (pv:653,at:2), (pv:654,at:1), (pv:655,at:4), (pv:656,at:1), (pv:657,at:1), (pv:658,at:3), (pv:659,at:1), (pv:660,at:4), (pv:661,at:1), (pv:662,at:1), (pv:663,at:3), (pv:664,at:1), (pv:665,at:1), (pv:666,at:1), (pv:667,at:1), (pv:668,at:2), (pv:669,at:1), (pv:670,at:1), (pv:671,at:1), (pv:672,at:1), (pv:673,at:1), (pv:674,at:3), (pv:675,at:1), (pv:676,at:2), (pv:677,at:1), (pv:678,at:1), (pv:679,at:1), (pv:680,at:1), (pv:681,at:1), (pv:682,at:3), (pv:683,at:15), (pv:684,at:1), (pv:685,at:1), (pv:686,at:1), (pv:687,at:4), (pv:688,at:2), (pv:689,at:4), (pv:690,at:1), (pv:691,at:1), (pv:692,at:1), (pv:693,at:1), (pv:694,at:1), (pv:695,at:1), (pv:696,at:2), (pv:697,at:1), (pv:698,at:1), (pv:699,at:5), (pv:700,at:2), (pv:701,at:4), (pv:702,at:1), (pv:703,at:1), (pv:704,at:3), (pv:705,at:4), (pv:706,at:1), (pv:707,at:1), (pv:708,at:4), (pv:709,at:3), (pv:710,at:1), (pv:711,at:6), (pv:712,at:13), (pv:713,at:1), (pv:714,at:1), (pv:715,at:4), (pv:716,at:4), (pv:717,at:1), (pv:718,at:3), (pv:719,at:1), (pv:720,at:1), (pv:721,at:1), (pv:722,at:1), (pv:723,at:1), (pv:724,at:1), (pv:725,at:1), (pv:726,at:4), (pv:727,at:4), (pv:728,at:3), (pv:729,at:1), (pv:730,at:1), (pv:731,at:1), (pv:732,at:1), (pv:733,at:1), (pv:734,at:3), (pv:735,at:1), (pv:736,at:1), (pv:737,at:1), (pv:738,at:1), (pv:739,at:1), (pv:740,at:1), (pv:741,at:3), (pv:742,at:1), (pv:743,at:1), (pv:744,at:2), (pv:745,at:2), (pv:746,at:9), (pv:747,at:3), (pv:748,at:1), (pv:749,at:1), (pv:750,at:1), (pv:751,at:3), (pv:752,at:1), (pv:753,at:1), (pv:754,at:1), (pv:755,at:1), (pv:756,at:1), (pv:757,at:1), (pv:758,at:1), (pv:759,at:1), (pv:760,at:1), (pv:761,at:1), (pv:762,at:1), (pv:763,at:1), (pv:764,at:1), (pv:765,at:1), (pv:766,at:4), (pv:767,at:1), (pv:768,at:4), (pv:769,at:5), (pv:770,at:13), (pv:771,at:1), (pv:772,at:1), (pv:773,at:1), (pv:774,at:4), (pv:775,at:1), (pv:776,at:1), (pv:777,at:1), (pv:778,at:1), (pv:779,at:4), (pv:780,at:1), (pv:781,at:1), (pv:782,at:1), (pv:783,at:1), (pv:784,at:1), (pv:785,at:1), (pv:786,at:1), (pv:787,at:1), (pv:788,at:1), (pv:789,at:3), (pv:790,at:4), (pv:791,at:2), (pv:792,at:1), (pv:793,at:2), (pv:794,at:1), (pv:795,at:1), (pv:796,at:9), (pv:797,at:1), (pv:798,at:1), (pv:799,at:4), (pv:800,at:42), (pv:801,at:6), (pv:802,at:18), (pv:803,at:1), (pv:804,at:1), (pv:805,at:1), (pv:806,at:2), (pv:807,at:16), (pv:808,at:1), (pv:809,at:1), (pv:810,at:1), (pv:811,at:1), (pv:812,at:3), (pv:813,at:5), (pv:814,at:3), (pv:815,at:1), (pv:816,at:2), (pv:817,at:1), (pv:818,at:1), (pv:819,at:1), (pv:820,at:3), (pv:821,at:17), (pv:822,at:1), (pv:823,at:1), (pv:824,at:4), (pv:825,at:1), (pv:826,at:1), (pv:827,at:1), (pv:828,at:1), (pv:829,at:1), (pv:830,at:8), (pv:831,at:1), (pv:832,at:1), (pv:833,at:1), (pv:834,at:1), (pv:835,at:1), (pv:836,at:1), (pv:837,at:2), (pv:838,at:1), (pv:839,at:2), (pv:840,at:1), (pv:841,at:6), (pv:842,at:1), (pv:843,at:13), (pv:844,at:1), (pv:845,at:1), (pv:846,at:1), (pv:847,at:3), (pv:848,at:1), (pv:849,at:1), (pv:850,at:5), (pv:851,at:1), (pv:852,at:3), (pv:853,at:1), (pv:854,at:3), (pv:855,at:1), (pv:856,at:2), (pv:857,at:3), (pv:858,at:1), (pv:859,at:1), (pv:860,at:1), (pv:861,at:4), (pv:862,at:1), (pv:863,at:1), (pv:864,at:10), (pv:865,at:1), (pv:866,at:1), (pv:867,at:1), (pv:868,at:1), (pv:869,at:2), (pv:870,at:7), (pv:871,at:5), (pv:872,at:1), (pv:873,at:1), (pv:874,at:1), (pv:875,at:1), (pv:876,at:1), (pv:877,at:3), (pv:878,at:1), (pv:879,at:4), (pv:880,at:4), (pv:881,at:1), (pv:882,at:13), (pv:883,at:1), (pv:884,at:4), (pv:885,at:1), (pv:886,at:3), (pv:887,at:2), (pv:888,at:1), (pv:889,at:1), (pv:890,at:1), (pv:891,at:4), (pv:892,at:1), (pv:893,at:1), (pv:894,at:8), (pv:895,at:1), (pv:896,at:4), (pv:897,at:4), (pv:898,at:4), (pv:899,at:1), (pv:900,at:1), (pv:901,at:7), (pv:902,at:2), (pv:903,at:2), (pv:904,at:1), (pv:905,at:1), (pv:906,at:1), (pv:907,at:1), (pv:908,at:1), (pv:909,at:1), (pv:910,at:1), (pv:911,at:16), (pv:912,at:25), (pv:913,at:1), (pv:914,at:1), (pv:915,at:16), (pv:916,at:1), (pv:917,at:1), (pv:918,at:1), (pv:919,at:3), (pv:920,at:1), (pv:921,at:15), (pv:922,at:1), (pv:923,at:5), (pv:924,at:1), (pv:925,at:1), (pv:926,at:1), (pv:927,at:1), (pv:928,at:1), (pv:929,at:2), (pv:930,at:4), (pv:931,at:1), (pv:932,at:7), (pv:933,at:1), (pv:934,at:1), (pv:935,at:1), (pv:936,at:3), (pv:937,at:1), (pv:938,at:1), (pv:939,at:1), (pv:940,at:3), (pv:941,at:1), (pv:942,at:1), (pv:943,at:5), (pv:944,at:1), (pv:945,at:1), (pv:946,at:1), (pv:947,at:3), (pv:948,at:1), (pv:949,at:1), (pv:950,at:1), (pv:951,at:1), (pv:952,at:4), (pv:953,at:1), (pv:954,at:1), (pv:955,at:1), (pv:956,at:1), (pv:957,at:1), (pv:958,at:2), (pv:959,at:2), (pv:960,at:1), (pv:961,at:1), (pv:962,at:1), (pv:963,at:18), (pv:964,at:1), (pv:965,at:1), (pv:966,at:1), (pv:967,at:1), (pv:968,at:1), (pv:969,at:1), (pv:970,at:2), (pv:971,at:1), (pv:972,at:1), (pv:973,at:1), (pv:974,at:42), (pv:975,at:1), (pv:976,at:1), (pv:977,at:1), (pv:978,at:10), (pv:979,at:1), (pv:980,at:1), (pv:981,at:1), (pv:982,at:1), (pv:983,at:1), (pv:984,at:1), (pv:985,at:1), (pv:986,at:8), (pv:987,at:4), (pv:988,at:1), (pv:989,at:1), (pv:990,at:1), (pv:991,at:1), (pv:992,at:2), (pv:993,at:1), (pv:994,at:1), (pv:995,at:1), (pv:996,at:1), (pv:997,at:1), (pv:998,at:1), (pv:999,at:1), (pv:1000,at:1), (pv:1001,at:1), (pv:1002,at:1), (pv:1003,at:1), (pv:1004,at:1), (pv:1005,at:8), (pv:1006,at:1), (pv:1007,at:1), (pv:1008,at:1), (pv:1009,at:1), (pv:1010,at:1), (pv:1011,at:2), (pv:1012,at:1), (pv:1013,at:1), (pv:1014,at:3), (pv:1015,at:42), (pv:1016,at:1), (pv:1017,at:1), (pv:1018,at:1), (pv:1019,at:2), (pv:1020,at:1), (pv:1021,at:1), (pv:1022,at:1), (pv:1023,at:1), (pv:1024,at:1), (pv:1025,at:1), (pv:1026,at:4), (pv:1027,at:6), (pv:1028,at:1), (pv:1029,at:1), (pv:1030,at:1), (pv:1031,at:1), (pv:1032,at:16), (pv:1033,at:4), (pv:1034,at:1), (pv:1035,at:1), (pv:1036,at:1), (pv:1037,at:3), (pv:1038,at:1), (pv:1039,at:1), (pv:1040,at:1), (pv:1041,at:1), (pv:1042,at:1), (pv:1043,at:1), (pv:1044,at:4), (pv:1045,at:2), (pv:1046,at:1), (pv:1047,at:1), (pv:1048,at:1), (pv:1049,at:1), (pv:1050,at:1), (pv:1051,at:1), (pv:1052,at:1), (pv:1053,at:1), (pv:1054,at:1), (pv:1055,at:1), (pv:1056,at:1), (pv:1057,at:4), (pv:1058,at:2), (pv:1059,at:1), (pv:1060,at:1), (pv:1061,at:1), (pv:1062,at:3), (pv:1063,at:2), (pv:1064,at:1), (pv:1065,at:6), (pv:1066,at:18), (pv:1067,at:1), (pv:1068,at:2), (pv:1069,at:2), (pv:1070,at:3), (pv:1071,at:1), (pv:1072,at:1), (pv:1073,at:1), (pv:1074,at:17), (pv:1075,at:2), (pv:1076,at:1), (pv:1077,at:1), (pv:1078,at:1), (pv:1079,at:1), (pv:1080,at:1), (pv:1081,at:1), (pv:1082,at:4), (pv:1083,at:3), (pv:1084,at:1), (pv:1085,at:1), (pv:1086,at:1), (pv:1087,at:1), (pv:1088,at:1), (pv:1089,at:1), (pv:1090,at:1), (pv:1091,at:1), (pv:1092,at:1), (pv:1093,at:1), (pv:1094,at:1), (pv:1095,at:1), (pv:1096,at:1), (pv:1097,at:3), (pv:1098,at:4), (pv:1099,at:1), (pv:1100,at:1), (pv:1101,at:1), (pv:1102,at:1), (pv:1103,at:6), (pv:1104,at:1), (pv:1105,at:1), (pv:1106,at:1), (pv:1107,at:1), (pv:1108,at:1), (pv:1109,at:4), (pv:1110,at:3), (pv:1111,at:20), (pv:1112,at:1), (pv:1113,at:1), (pv:1114,at:1), (pv:1115,at:1), (pv:1116,at:1), (pv:1117,at:1), (pv:1118,at:2), (pv:1119,at:4), (pv:1120,at:17), (pv:1121,at:4), (pv:1122,at:1), (pv:1123,at:1), (pv:1124,at:1), (pv:1125,at:1), (pv:1126,at:2), (pv:1127,at:1), (pv:1128,at:1), (pv:1129,at:1), (pv:1130,at:1), (pv:1131,at:16), (pv:1132,at:1), (pv:1133,at:1), (pv:1134,at:1), (pv:1135,at:1), (pv:1136,at:1), (pv:1137,at:1), (pv:1138,at:1), (pv:1139,at:1), (pv:1140,at:1), (pv:1141,at:3), (pv:1142,at:1), (pv:1143,at:1), (pv:1144,at:1), (pv:1145,at:1), (pv:1146,at:1), (pv:1147,at:1), (pv:1148,at:1), (pv:1149,at:1), (pv:1150,at:1), (pv:1151,at:1), (pv:1152,at:1), (pv:1153,at:1), (pv:1154,at:1), (pv:1155,at:4), (pv:1156,at:1), (pv:1157,at:4), (pv:1158,at:1), (pv:1159,at:1), (pv:1160,at:1), (pv:1161,at:1), (pv:1162,at:1), (pv:1163,at:2), (pv:1164,at:1), (pv:1165,at:1), (pv:1166,at:3), (pv:1167,at:7), (pv:1168,at:3), (pv:1169,at:13), (pv:1170,at:3), (pv:1171,at:20), (pv:1172,at:1), (pv:1173,at:1), (pv:1174,at:1), (pv:1175,at:1), (pv:1176,at:3), (pv:1177,at:1), (pv:1178,at:1), (pv:1179,at:12), (pv:1180,at:1), (pv:1181,at:1), (pv:1182,at:1), (pv:1183,at:1), (pv:1184,at:1), (pv:1185,at:1), (pv:1186,at:1), (pv:1187,at:1), (pv:1188,at:1), (pv:1189,at:1), (pv:1190,at:5), (pv:1191,at:1), (pv:1192,at:1), (pv:1193,at:4), (pv:1194,at:4), (pv:1195,at:2), (pv:1196,at:1), (pv:1197,at:1), (pv:1198,at:1), (pv:1199,at:1), (pv:1200,at:2), (pv:1201,at:1), (pv:1202,at:1), (pv:1203,at:1), (pv:1204,at:1), (pv:1205,at:1), (pv:1206,at:1), (pv:1207,at:1), (pv:1208,at:1), (pv:1209,at:5), (pv:1210,at:1), (pv:1211,at:1), (pv:1212,at:1), (pv:1213,at:6), (pv:1214,at:1), (pv:1215,at:1), (pv:1216,at:1), (pv:1217,at:1), (pv:1218,at:1), (pv:1219,at:1), (pv:1220,at:1), (pv:1221,at:1), (pv:1222,at:4), (pv:1223,at:1), (pv:1224,at:3), (pv:1225,at:1), (pv:1226,at:1), (pv:1227,at:1), (pv:1228,at:42), (pv:1229,at:1), (pv:1230,at:1), (pv:1231,at:1), (pv:1232,at:2), (pv:1233,at:1), (pv:1234,at:3), (pv:1235,at:3), (pv:1236,at:1), (pv:1237,at:1), (pv:1238,at:1), (pv:1239,at:1), (pv:1240,at:3), (pv:1241,at:1), (pv:1242,at:1), (pv:1243,at:1), (pv:1244,at:1), (pv:1245,at:1), (pv:1246,at:11), (pv:1247,at:1), (pv:1248,at:4), (pv:1249,at:1), (pv:1250,at:4), (pv:1251,at:1), (pv:1252,at:1), (pv:1253,at:1), (pv:1254,at:7)]
[INFO ] fr.inria.astor.approaches.jgenprog.JGenProg.showResults(JGenProg.java:342) - 
pvariants_with_transformed_ingredients: [(pv:2,at:4), (pv:3,at:1), (pv:4,at:1), (pv:5,at:1), (pv:6,at:4), (pv:7,at:1), (pv:8,at:1), (pv:9,at:1), (pv:10,at:4), (pv:11,at:1), (pv:12,at:4), (pv:13,at:1), (pv:14,at:1), (pv:15,at:1), (pv:16,at:1), (pv:17,at:1), (pv:18,at:1), (pv:19,at:25), (pv:20,at:1), (pv:21,at:1), (pv:22,at:4), (pv:23,at:4), (pv:24,at:4), (pv:25,at:1), (pv:26,at:1), (pv:27,at:4), (pv:28,at:1), (pv:29,at:1), (pv:30,at:1), (pv:31,at:1), (pv:32,at:4), (pv:33,at:1), (pv:34,at:4), (pv:35,at:4), (pv:36,at:5), (pv:37,at:1), (pv:38,at:1), (pv:39,at:1), (pv:40,at:4), (pv:41,at:1), (pv:42,at:1), (pv:43,at:1), (pv:44,at:1), (pv:45,at:1), (pv:46,at:1), (pv:47,at:1), (pv:48,at:1), (pv:49,at:5), (pv:50,at:1), (pv:51,at:4), (pv:52,at:1), (pv:53,at:4), (pv:54,at:1), (pv:55,at:1), (pv:56,at:4), (pv:57,at:1), (pv:58,at:1), (pv:59,at:4), (pv:60,at:27), (pv:61,at:4), (pv:62,at:1), (pv:63,at:1), (pv:64,at:44), (pv:65,at:4), (pv:66,at:1), (pv:67,at:1), (pv:68,at:1), (pv:69,at:4), (pv:70,at:4), (pv:71,at:4), (pv:72,at:1), (pv:73,at:1), (pv:74,at:1), (pv:75,at:1), (pv:76,at:15), (pv:77,at:42), (pv:78,at:1), (pv:79,at:4), (pv:80,at:1), (pv:81,at:1), (pv:82,at:1), (pv:83,at:1), (pv:84,at:26), (pv:85,at:1), (pv:86,at:1), (pv:87,at:1), (pv:88,at:4), (pv:89,at:1), (pv:90,at:1), (pv:91,at:1), (pv:92,at:1), (pv:93,at:4), (pv:94,at:2), (pv:95,at:4), (pv:96,at:1), (pv:97,at:4), (pv:98,at:1), (pv:99,at:1), (pv:100,at:1), (pv:101,at:1), (pv:102,at:3), (pv:103,at:4), (pv:104,at:1), (pv:105,at:4), (pv:106,at:4), (pv:107,at:3), (pv:108,at:1), (pv:109,at:1), (pv:110,at:4), (pv:111,at:4), (pv:112,at:1), (pv:113,at:3), (pv:114,at:1), (pv:115,at:1), (pv:116,at:4), (pv:117,at:1), (pv:118,at:1), (pv:119,at:1), (pv:120,at:1), (pv:121,at:1), (pv:122,at:1), (pv:123,at:4), (pv:124,at:1), (pv:125,at:4), (pv:126,at:4), (pv:127,at:1), (pv:128,at:1), (pv:129,at:5), (pv:130,at:1), (pv:131,at:1), (pv:132,at:1), (pv:133,at:1), (pv:134,at:1), (pv:135,at:1), (pv:136,at:1), (pv:137,at:1), (pv:138,at:1), (pv:139,at:1), (pv:140,at:1), (pv:141,at:1), (pv:142,at:1), (pv:143,at:27), (pv:144,at:1), (pv:145,at:3), (pv:146,at:1), (pv:147,at:1), (pv:148,at:1), (pv:149,at:3), (pv:150,at:1), (pv:151,at:27), (pv:152,at:2), (pv:153,at:1), (pv:154,at:4), (pv:155,at:1), (pv:156,at:7), (pv:157,at:4), (pv:158,at:1), (pv:159,at:1), (pv:160,at:1), (pv:161,at:1), (pv:162,at:1), (pv:163,at:7), (pv:164,at:1), (pv:165,at:1), (pv:166,at:1), (pv:167,at:1), (pv:168,at:3), (pv:169,at:1), (pv:170,at:1), (pv:171,at:1), (pv:172,at:1), (pv:173,at:1), (pv:174,at:1), (pv:175,at:4), (pv:176,at:1), (pv:177,at:25), (pv:178,at:1), (pv:179,at:4), (pv:180,at:1), (pv:181,at:1), (pv:182,at:1), (pv:183,at:1), (pv:184,at:1), (pv:185,at:1), (pv:186,at:4), (pv:187,at:1), (pv:188,at:1), (pv:189,at:1), (pv:190,at:1), (pv:191,at:4), (pv:192,at:1), (pv:193,at:3), (pv:194,at:1), (pv:195,at:1), (pv:196,at:1), (pv:197,at:10), (pv:198,at:4), (pv:199,at:1), (pv:200,at:1), (pv:201,at:1), (pv:202,at:4), (pv:203,at:3), (pv:204,at:1), (pv:205,at:1), (pv:206,at:1), (pv:207,at:1), (pv:208,at:1), (pv:209,at:4), (pv:210,at:1), (pv:211,at:3), (pv:212,at:1), (pv:213,at:1), (pv:214,at:1), (pv:215,at:1), (pv:216,at:4), (pv:217,at:1), (pv:218,at:1), (pv:219,at:11), (pv:220,at:1), (pv:221,at:1), (pv:222,at:1), (pv:223,at:1), (pv:224,at:1), (pv:225,at:1), (pv:226,at:1), (pv:227,at:3), (pv:228,at:7), (pv:229,at:1), (pv:230,at:1), (pv:231,at:1), (pv:232,at:1), (pv:233,at:2), (pv:234,at:22), (pv:235,at:1), (pv:236,at:1), (pv:237,at:3), (pv:238,at:1), (pv:239,at:2), (pv:240,at:1), (pv:241,at:1), (pv:242,at:15), (pv:243,at:4), (pv:244,at:1), (pv:245,at:1), (pv:246,at:1), (pv:247,at:1), (pv:248,at:1), (pv:249,at:3), (pv:250,at:4), (pv:251,at:1), (pv:252,at:1), (pv:253,at:1), (pv:254,at:11), (pv:255,at:17), (pv:256,at:1), (pv:257,at:3), (pv:258,at:1), (pv:259,at:1), (pv:260,at:4), (pv:261,at:1), (pv:262,at:1), (pv:263,at:1), (pv:264,at:1), (pv:265,at:12), (pv:266,at:1), (pv:267,at:1), (pv:268,at:1), (pv:269,at:4), (pv:270,at:1), (pv:271,at:1), (pv:272,at:1), (pv:273,at:1), (pv:274,at:1), (pv:275,at:1), (pv:276,at:3), (pv:277,at:2), (pv:278,at:3), (pv:279,at:1), (pv:280,at:1), (pv:281,at:1), (pv:282,at:1), (pv:283,at:1), (pv:284,at:1), (pv:285,at:4), (pv:286,at:4), (pv:287,at:4), (pv:288,at:1), (pv:289,at:1), (pv:290,at:1), (pv:291,at:1), (pv:292,at:1), (pv:293,at:3), (pv:294,at:11), (pv:295,at:15), (pv:296,at:4), (pv:297,at:4), (pv:298,at:1), (pv:299,at:1), (pv:300,at:1), (pv:301,at:1), (pv:302,at:1), (pv:303,at:4), (pv:304,at:1), (pv:305,at:1), (pv:306,at:1), (pv:307,at:4), (pv:308,at:1), (pv:309,at:1), (pv:310,at:4), (pv:311,at:1), (pv:312,at:1), (pv:313,at:1), (pv:314,at:1), (pv:315,at:1), (pv:316,at:4), (pv:317,at:4), (pv:318,at:1), (pv:319,at:3), (pv:320,at:1), (pv:321,at:4), (pv:322,at:1), (pv:323,at:1), (pv:324,at:4), (pv:325,at:4), (pv:326,at:4), (pv:327,at:1), (pv:328,at:1), (pv:329,at:4), (pv:330,at:1), (pv:331,at:4), (pv:332,at:1), (pv:333,at:4), (pv:334,at:4), (pv:335,at:4), (pv:336,at:3), (pv:337,at:1), (pv:338,at:1), (pv:339,at:1), (pv:340,at:3), (pv:341,at:1), (pv:342,at:4), (pv:343,at:1), (pv:344,at:4), (pv:345,at:1), (pv:346,at:4), (pv:347,at:1), (pv:348,at:1), (pv:349,at:1), (pv:350,at:17), (pv:351,at:1), (pv:352,at:1), (pv:353,at:1), (pv:354,at:1), (pv:355,at:1), (pv:356,at:3), (pv:357,at:1), (pv:358,at:1), (pv:359,at:1), (pv:360,at:1), (pv:361,at:4), (pv:362,at:1), (pv:363,at:1), (pv:364,at:4), (pv:365,at:1), (pv:366,at:1), (pv:367,at:1), (pv:368,at:1), (pv:369,at:1), (pv:370,at:1), (pv:371,at:1), (pv:372,at:1), (pv:373,at:4), (pv:374,at:1), (pv:375,at:1), (pv:376,at:1), (pv:377,at:16), (pv:378,at:1), (pv:379,at:6), (pv:380,at:1), (pv:381,at:1), (pv:382,at:1), (pv:383,at:1), (pv:384,at:1), (pv:385,at:1), (pv:386,at:1), (pv:387,at:4), (pv:388,at:1), (pv:389,at:16), (pv:390,at:1), (pv:391,at:1), (pv:392,at:1), (pv:393,at:1), (pv:394,at:1), (pv:395,at:3), (pv:396,at:1), (pv:397,at:1), (pv:398,at:1), (pv:399,at:1), (pv:400,at:4), (pv:401,at:2), (pv:402,at:1), (pv:403,at:4), (pv:404,at:1), (pv:405,at:1), (pv:406,at:1), (pv:407,at:1), (pv:408,at:1), (pv:409,at:1), (pv:410,at:1), (pv:411,at:1), (pv:412,at:1), (pv:413,at:1), (pv:414,at:1), (pv:415,at:1), (pv:416,at:4), (pv:417,at:15), (pv:418,at:1), (pv:419,at:1), (pv:420,at:1), (pv:421,at:1), (pv:422,at:1), (pv:423,at:4), (pv:424,at:43), (pv:425,at:1), (pv:426,at:1), (pv:427,at:1), (pv:428,at:3), (pv:429,at:1), (pv:430,at:1), (pv:431,at:1), (pv:432,at:1), (pv:433,at:4), (pv:434,at:1), (pv:435,at:1), (pv:436,at:1), (pv:437,at:3), (pv:438,at:1), (pv:439,at:1), (pv:440,at:41), (pv:441,at:1), (pv:442,at:2), (pv:443,at:2), (pv:444,at:1), (pv:445,at:1), (pv:446,at:4), (pv:447,at:1), (pv:448,at:1), (pv:449,at:4), (pv:450,at:42), (pv:451,at:1), (pv:452,at:1), (pv:453,at:10), (pv:454,at:1), (pv:455,at:1), (pv:456,at:1), (pv:457,at:4), (pv:458,at:1), (pv:459,at:1), (pv:460,at:1), (pv:461,at:1), (pv:462,at:1), (pv:463,at:1), (pv:464,at:1), (pv:465,at:1), (pv:466,at:1), (pv:467,at:4), (pv:468,at:1), (pv:469,at:1), (pv:470,at:4), (pv:471,at:4), (pv:472,at:1), (pv:473,at:1), (pv:474,at:4), (pv:475,at:3), (pv:476,at:4), (pv:477,at:4), (pv:478,at:1), (pv:479,at:1), (pv:480,at:1), (pv:481,at:2), (pv:482,at:1), (pv:483,at:1), (pv:484,at:42), (pv:485,at:1), (pv:486,at:5), (pv:487,at:1), (pv:488,at:3), (pv:489,at:1), (pv:490,at:1), (pv:491,at:1), (pv:492,at:1), (pv:493,at:1), (pv:494,at:1), (pv:495,at:1), (pv:496,at:1), (pv:497,at:1), (pv:498,at:3), (pv:499,at:1), (pv:500,at:4), (pv:501,at:1), (pv:502,at:1), (pv:503,at:1), (pv:504,at:13), (pv:505,at:3), (pv:506,at:1), (pv:507,at:1), (pv:508,at:1), (pv:509,at:1), (pv:510,at:1), (pv:511,at:1), (pv:512,at:1), (pv:513,at:1), (pv:514,at:4), (pv:515,at:1), (pv:516,at:1), (pv:517,at:1), (pv:518,at:1), (pv:519,at:4), (pv:520,at:1), (pv:521,at:1), (pv:522,at:1), (pv:523,at:1), (pv:524,at:2), (pv:525,at:1), (pv:526,at:4), (pv:527,at:1), (pv:528,at:1), (pv:529,at:1), (pv:530,at:1), (pv:531,at:3), (pv:532,at:1), (pv:533,at:1), (pv:534,at:5), (pv:535,at:1), (pv:536,at:2), (pv:537,at:2), (pv:538,at:1), (pv:539,at:4), (pv:540,at:1), (pv:541,at:38), (pv:542,at:3), (pv:543,at:1), (pv:544,at:1), (pv:545,at:1), (pv:546,at:1), (pv:547,at:1), (pv:548,at:1), (pv:549,at:1), (pv:550,at:3), (pv:551,at:3), (pv:552,at:3), (pv:553,at:1), (pv:554,at:4), (pv:555,at:7), (pv:556,at:1), (pv:557,at:2), (pv:558,at:1), (pv:559,at:1), (pv:560,at:1), (pv:561,at:1), (pv:562,at:1), (pv:563,at:17), (pv:564,at:1), (pv:565,at:1), (pv:566,at:1), (pv:567,at:1), (pv:568,at:6), (pv:569,at:1), (pv:570,at:4), (pv:571,at:1), (pv:572,at:4), (pv:573,at:1), (pv:574,at:1), (pv:575,at:1), (pv:576,at:1), (pv:577,at:1), (pv:578,at:1), (pv:579,at:1), (pv:580,at:1), (pv:581,at:1), (pv:582,at:1), (pv:583,at:4), (pv:584,at:1), (pv:585,at:1), (pv:586,at:4), (pv:587,at:1), (pv:588,at:1), (pv:589,at:5), (pv:590,at:1), (pv:591,at:1), (pv:592,at:1), (pv:593,at:1), (pv:594,at:1), (pv:595,at:1), (pv:596,at:1), (pv:597,at:3), (pv:598,at:1), (pv:599,at:4), (pv:600,at:3), (pv:601,at:1), (pv:602,at:1), (pv:603,at:1), (pv:604,at:1), (pv:605,at:1), (pv:606,at:2), (pv:607,at:2), (pv:608,at:1), (pv:609,at:18), (pv:610,at:4), (pv:611,at:17), (pv:612,at:4), (pv:613,at:1), (pv:614,at:4), (pv:615,at:1), (pv:616,at:1), (pv:617,at:3), (pv:618,at:16), (pv:619,at:1), (pv:620,at:1), (pv:621,at:1), (pv:622,at:4), (pv:623,at:1), (pv:624,at:3), (pv:625,at:1), (pv:626,at:1), (pv:627,at:1), (pv:628,at:3), (pv:629,at:1), (pv:630,at:1), (pv:631,at:4), (pv:632,at:1), (pv:633,at:1), (pv:634,at:1), (pv:635,at:1), (pv:636,at:1), (pv:637,at:1), (pv:638,at:1), (pv:639,at:1), (pv:640,at:13), (pv:641,at:1), (pv:642,at:1), (pv:643,at:3), (pv:644,at:4), (pv:645,at:1), (pv:646,at:1), (pv:647,at:1), (pv:648,at:1), (pv:649,at:1), (pv:650,at:1), (pv:651,at:1), (pv:652,at:1), (pv:653,at:2), (pv:654,at:1), (pv:655,at:4), (pv:656,at:1), (pv:657,at:1), (pv:658,at:3), (pv:659,at:1), (pv:660,at:4), (pv:661,at:1), (pv:662,at:1), (pv:663,at:3), (pv:664,at:1), (pv:665,at:1), (pv:666,at:1), (pv:667,at:1), (pv:668,at:2), (pv:669,at:1), (pv:670,at:1), (pv:671,at:1), (pv:672,at:1), (pv:673,at:1), (pv:674,at:3), (pv:675,at:1), (pv:676,at:2), (pv:677,at:1), (pv:678,at:1), (pv:679,at:1), (pv:680,at:1), (pv:681,at:1), (pv:682,at:3), (pv:683,at:15), (pv:684,at:1), (pv:685,at:1), (pv:686,at:1), (pv:687,at:4), (pv:688,at:2), (pv:689,at:4), (pv:690,at:1), (pv:691,at:1), (pv:692,at:1), (pv:693,at:1), (pv:694,at:1), (pv:695,at:1), (pv:696,at:2), (pv:697,at:1), (pv:698,at:1), (pv:699,at:5), (pv:700,at:2), (pv:701,at:4), (pv:702,at:1), (pv:703,at:1), (pv:704,at:3), (pv:705,at:4), (pv:706,at:1), (pv:707,at:1), (pv:708,at:4), (pv:709,at:3), (pv:710,at:1), (pv:711,at:6), (pv:712,at:13), (pv:713,at:1), (pv:714,at:1), (pv:715,at:4), (pv:716,at:4), (pv:717,at:1), (pv:718,at:3), (pv:719,at:1), (pv:720,at:1), (pv:721,at:1), (pv:722,at:1), (pv:723,at:1), (pv:724,at:1), (pv:725,at:1), (pv:726,at:4), (pv:727,at:4), (pv:728,at:3), (pv:729,at:1), (pv:730,at:1), (pv:731,at:1), (pv:732,at:1), (pv:733,at:1), (pv:734,at:3), (pv:735,at:1), (pv:736,at:1), (pv:737,at:1), (pv:738,at:1), (pv:739,at:1), (pv:740,at:1), (pv:741,at:3), (pv:742,at:1), (pv:743,at:1), (pv:744,at:2), (pv:745,at:2), (pv:746,at:9), (pv:747,at:3), (pv:748,at:1), (pv:749,at:1), (pv:750,at:1), (pv:751,at:3), (pv:752,at:1), (pv:753,at:1), (pv:754,at:1), (pv:755,at:1), (pv:756,at:1), (pv:757,at:1), (pv:758,at:1), (pv:759,at:1), (pv:760,at:1), (pv:761,at:1), (pv:762,at:1), (pv:763,at:1), (pv:764,at:1), (pv:765,at:1), (pv:766,at:4), (pv:767,at:1), (pv:768,at:4), (pv:769,at:5), (pv:770,at:13), (pv:771,at:1), (pv:772,at:1), (pv:773,at:1), (pv:774,at:4), (pv:775,at:1), (pv:776,at:1), (pv:777,at:1), (pv:778,at:1), (pv:779,at:4), (pv:780,at:1), (pv:781,at:1), (pv:782,at:1), (pv:783,at:1), (pv:784,at:1), (pv:785,at:1), (pv:786,at:1), (pv:787,at:1), (pv:788,at:1), (pv:789,at:3), (pv:790,at:4), (pv:791,at:2), (pv:792,at:1), (pv:793,at:2), (pv:794,at:1), (pv:795,at:1), (pv:796,at:9), (pv:797,at:1), (pv:798,at:1), (pv:799,at:4), (pv:800,at:42), (pv:801,at:6), (pv:802,at:18), (pv:803,at:1), (pv:804,at:1), (pv:805,at:1), (pv:806,at:2), (pv:807,at:16), (pv:808,at:1), (pv:809,at:1), (pv:810,at:1), (pv:811,at:1), (pv:812,at:3), (pv:813,at:5), (pv:814,at:3), (pv:815,at:1), (pv:816,at:2), (pv:817,at:1), (pv:818,at:1), (pv:819,at:1), (pv:820,at:3), (pv:821,at:17), (pv:822,at:1), (pv:823,at:1), (pv:824,at:4), (pv:825,at:1), (pv:826,at:1), (pv:827,at:1), (pv:828,at:1), (pv:829,at:1), (pv:830,at:8), (pv:831,at:1), (pv:832,at:1), (pv:833,at:1), (pv:834,at:1), (pv:835,at:1), (pv:836,at:1), (pv:837,at:2), (pv:838,at:1), (pv:839,at:2), (pv:840,at:1), (pv:841,at:6), (pv:842,at:1), (pv:843,at:13), (pv:844,at:1), (pv:845,at:1), (pv:846,at:1), (pv:847,at:3), (pv:848,at:1), (pv:849,at:1), (pv:850,at:5), (pv:851,at:1), (pv:852,at:3), (pv:853,at:1), (pv:854,at:3), (pv:855,at:1), (pv:856,at:2), (pv:857,at:3), (pv:858,at:1), (pv:859,at:1), (pv:860,at:1), (pv:861,at:4), (pv:862,at:1), (pv:863,at:1), (pv:864,at:10), (pv:865,at:1), (pv:866,at:1), (pv:867,at:1), (pv:868,at:1), (pv:869,at:2), (pv:870,at:7), (pv:871,at:5), (pv:872,at:1), (pv:873,at:1), (pv:874,at:1), (pv:875,at:1), (pv:876,at:1), (pv:877,at:3), (pv:878,at:1), (pv:879,at:4), (pv:880,at:4), (pv:881,at:1), (pv:882,at:13), (pv:883,at:1), (pv:884,at:4), (pv:885,at:1), (pv:886,at:3), (pv:887,at:2), (pv:888,at:1), (pv:889,at:1), (pv:890,at:1), (pv:891,at:4), (pv:892,at:1), (pv:893,at:1), (pv:894,at:8), (pv:895,at:1), (pv:896,at:4), (pv:897,at:4), (pv:898,at:4), (pv:899,at:1), (pv:900,at:1), (pv:901,at:7), (pv:902,at:2), (pv:903,at:2), (pv:904,at:1), (pv:905,at:1), (pv:906,at:1), (pv:907,at:1), (pv:908,at:1), (pv:909,at:1), (pv:910,at:1), (pv:911,at:16), (pv:912,at:25), (pv:913,at:1), (pv:914,at:1), (pv:915,at:16), (pv:916,at:1), (pv:917,at:1), (pv:918,at:1), (pv:919,at:3), (pv:920,at:1), (pv:921,at:15), (pv:922,at:1), (pv:923,at:5), (pv:924,at:1), (pv:925,at:1), (pv:926,at:1), (pv:927,at:1), (pv:928,at:1), (pv:929,at:2), (pv:930,at:4), (pv:931,at:1), (pv:932,at:7), (pv:933,at:1), (pv:934,at:1), (pv:935,at:1), (pv:936,at:3), (pv:937,at:1), (pv:938,at:1), (pv:939,at:1), (pv:940,at:3), (pv:941,at:1), (pv:942,at:1), (pv:943,at:5), (pv:944,at:1), (pv:945,at:1), (pv:946,at:1), (pv:947,at:3), (pv:948,at:1), (pv:949,at:1), (pv:950,at:1), (pv:951,at:1), (pv:952,at:4), (pv:953,at:1), (pv:954,at:1), (pv:955,at:1), (pv:956,at:1), (pv:957,at:1), (pv:958,at:2), (pv:959,at:2), (pv:960,at:1), (pv:961,at:1), (pv:962,at:1), (pv:963,at:18), (pv:964,at:1), (pv:965,at:1), (pv:966,at:1), (pv:967,at:1), (pv:968,at:1), (pv:969,at:1), (pv:970,at:2), (pv:971,at:1), (pv:972,at:1), (pv:973,at:1), (pv:974,at:42), (pv:975,at:1), (pv:976,at:1), (pv:977,at:1), (pv:978,at:10), (pv:979,at:1), (pv:980,at:1), (pv:981,at:1), (pv:982,at:1), (pv:983,at:1), (pv:984,at:1), (pv:985,at:1), (pv:986,at:8), (pv:987,at:4), (pv:988,at:1), (pv:989,at:1), (pv:990,at:1), (pv:991,at:1), (pv:992,at:2), (pv:993,at:1), (pv:994,at:1), (pv:995,at:1), (pv:996,at:1), (pv:997,at:1), (pv:998,at:1), (pv:999,at:1), (pv:1000,at:1), (pv:1001,at:1), (pv:1002,at:1), (pv:1003,at:1), (pv:1004,at:1), (pv:1005,at:8), (pv:1006,at:1), (pv:1007,at:1), (pv:1008,at:1), (pv:1009,at:1), (pv:1010,at:1), (pv:1011,at:2), (pv:1012,at:1), (pv:1013,at:1), (pv:1014,at:3), (pv:1015,at:42), (pv:1016,at:1), (pv:1017,at:1), (pv:1018,at:1), (pv:1019,at:2), (pv:1020,at:1), (pv:1021,at:1), (pv:1022,at:1), (pv:1023,at:1), (pv:1024,at:1), (pv:1025,at:1), (pv:1026,at:4), (pv:1027,at:6), (pv:1028,at:1), (pv:1029,at:1), (pv:1030,at:1), (pv:1031,at:1), (pv:1032,at:16), (pv:1033,at:4), (pv:1034,at:1), (pv:1035,at:1), (pv:1036,at:1), (pv:1037,at:3), (pv:1038,at:1), (pv:1039,at:1), (pv:1040,at:1), (pv:1041,at:1), (pv:1042,at:1), (pv:1043,at:1), (pv:1044,at:4), (pv:1045,at:2), (pv:1046,at:1), (pv:1047,at:1), (pv:1048,at:1), (pv:1049,at:1), (pv:1050,at:1), (pv:1051,at:1), (pv:1052,at:1), (pv:1053,at:1), (pv:1054,at:1), (pv:1055,at:1), (pv:1056,at:1), (pv:1057,at:4), (pv:1058,at:2), (pv:1059,at:1), (pv:1060,at:1), (pv:1061,at:1), (pv:1062,at:3), (pv:1063,at:2), (pv:1064,at:1), (pv:1065,at:6), (pv:1066,at:18), (pv:1067,at:1), (pv:1068,at:2), (pv:1069,at:2), (pv:1070,at:3), (pv:1071,at:1), (pv:1072,at:1), (pv:1073,at:1), (pv:1074,at:17), (pv:1075,at:2), (pv:1076,at:1), (pv:1077,at:1), (pv:1078,at:1), (pv:1079,at:1), (pv:1080,at:1), (pv:1081,at:1), (pv:1082,at:4), (pv:1083,at:3), (pv:1084,at:1), (pv:1085,at:1), (pv:1086,at:1), (pv:1087,at:1), (pv:1088,at:1), (pv:1089,at:1), (pv:1090,at:1), (pv:1091,at:1), (pv:1092,at:1), (pv:1093,at:1), (pv:1094,at:1), (pv:1095,at:1), (pv:1096,at:1), (pv:1097,at:3), (pv:1098,at:4), (pv:1099,at:1), (pv:1100,at:1), (pv:1101,at:1), (pv:1102,at:1), (pv:1103,at:6), (pv:1104,at:1), (pv:1105,at:1), (pv:1106,at:1), (pv:1107,at:1), (pv:1108,at:1), (pv:1109,at:4), (pv:1110,at:3), (pv:1111,at:20), (pv:1112,at:1), (pv:1113,at:1), (pv:1114,at:1), (pv:1115,at:1), (pv:1116,at:1), (pv:1117,at:1), (pv:1118,at:2), (pv:1119,at:4), (pv:1120,at:17), (pv:1121,at:4), (pv:1122,at:1), (pv:1123,at:1), (pv:1124,at:1), (pv:1125,at:1), (pv:1126,at:2), (pv:1127,at:1), (pv:1128,at:1), (pv:1129,at:1), (pv:1130,at:1), (pv:1131,at:16), (pv:1132,at:1), (pv:1133,at:1), (pv:1134,at:1), (pv:1135,at:1), (pv:1136,at:1), (pv:1137,at:1), (pv:1138,at:1), (pv:1139,at:1), (pv:1140,at:1), (pv:1141,at:3), (pv:1142,at:1), (pv:1143,at:1), (pv:1144,at:1), (pv:1145,at:1), (pv:1146,at:1), (pv:1147,at:1), (pv:1148,at:1), (pv:1149,at:1), (pv:1150,at:1), (pv:1151,at:1), (pv:1152,at:1), (pv:1153,at:1), (pv:1154,at:1), (pv:1155,at:4), (pv:1156,at:1), (pv:1157,at:4), (pv:1158,at:1), (pv:1159,at:1), (pv:1160,at:1), (pv:1161,at:1), (pv:1162,at:1), (pv:1163,at:2), (pv:1164,at:1), (pv:1165,at:1), (pv:1166,at:3), (pv:1167,at:7), (pv:1168,at:3), (pv:1169,at:13), (pv:1170,at:3), (pv:1171,at:20), (pv:1172,at:1), (pv:1173,at:1), (pv:1174,at:1), (pv:1175,at:1), (pv:1176,at:3), (pv:1177,at:1), (pv:1178,at:1), (pv:1179,at:12), (pv:1180,at:1), (pv:1181,at:1), (pv:1182,at:1), (pv:1183,at:1), (pv:1184,at:1), (pv:1185,at:1), (pv:1186,at:1), (pv:1187,at:1), (pv:1188,at:1), (pv:1189,at:1), (pv:1190,at:5), (pv:1191,at:1), (pv:1192,at:1), (pv:1193,at:4), (pv:1194,at:4), (pv:1195,at:2), (pv:1196,at:1), (pv:1197,at:1), (pv:1198,at:1), (pv:1199,at:1), (pv:1200,at:2), (pv:1201,at:1), (pv:1202,at:1), (pv:1203,at:1), (pv:1204,at:1), (pv:1205,at:1), (pv:1206,at:1), (pv:1207,at:1), (pv:1208,at:1), (pv:1209,at:5), (pv:1210,at:1), (pv:1211,at:1), (pv:1212,at:1), (pv:1213,at:6), (pv:1214,at:1), (pv:1215,at:1), (pv:1216,at:1), (pv:1217,at:1), (pv:1218,at:1), (pv:1219,at:1), (pv:1220,at:1), (pv:1221,at:1), (pv:1222,at:4), (pv:1223,at:1), (pv:1224,at:3), (pv:1225,at:1), (pv:1226,at:1), (pv:1227,at:1), (pv:1228,at:42), (pv:1229,at:1), (pv:1230,at:1), (pv:1231,at:1), (pv:1232,at:2), (pv:1233,at:1), (pv:1234,at:3), (pv:1235,at:3), (pv:1236,at:1), (pv:1237,at:1), (pv:1238,at:1), (pv:1239,at:1), (pv:1240,at:3), (pv:1241,at:1), (pv:1242,at:1), (pv:1243,at:1), (pv:1244,at:1), (pv:1245,at:1), (pv:1246,at:11), (pv:1247,at:1), (pv:1248,at:4), (pv:1249,at:1), (pv:1250,at:4), (pv:1251,at:1), (pv:1252,at:1), (pv:1253,at:1), (pv:1254,at:7)]
[INFO ] fr.inria.main.evolution.AstorMain.run(AstorMain.java:163) - Time Total(s): 10913.235
