Warning: no access to tty (Bad file descriptor).
Thus no job control in this shell.
tput: No value for $TERM and no -T specified
Node: hu06.sciclone.wm.edu
2017-03-25 14:54:04,605 INFO main - command line arguments: [-out  /local/scr/mtufano/Lang/18/b/random-package-embeddings/1  -jvm4testexecution  /usr/local/jdk1.7.0_80/bin/  -loglevel  INFO  -maxgen  1000000  -population  1  -maxtime  180  -timezone  America/New_York  -customop  fr.inria.astor.approaches.jgenprog.operators.InsertAfterOp:fr.inria.astor.approaches.jgenprog.operators.InsertBeforeOp:fr.inria.astor.approaches.jgenprog.operators.ReplaceOp  -seed  1  -javacompliancelevel  5  -package  org.apache.commons  -binjavafolder  target/classes/  -bintestfolder  target/tests/  -srcjavafolder  src/main/java/  -srctestfolder  src/test/java/  -learningdir  ../../out/learningdir/Lang/18/b/  -location  ../../dat/defects4j/Lang/18/b/  -failing  org.apache.commons.lang3.time.FastDateFormatTest  -dependencies  ../../dat/libs/Lang/cglib.jar:../../dat/libs/Lang/commons-io.jar:../../dat/libs/Lang/asm.jar:../../dat/libs/Lang/easymock.jar  -classestoinstrument  org.apache.commons.lang3.Validate:org.apache.commons.lang3.time.FormatCache:org.apache.commons.lang3.time.FastDateFormat  -regressiontestcases4fl  org.apache.commons.lang3.time.DateFormatUtilsTest:org.apache.commons.lang3.time.DateUtilsRoundingTest:org.apache.commons.lang3.time.DateUtilsTest:org.apache.commons.lang3.time.DurationFormatUtilsTest:org.apache.commons.lang3.time.FastDateFormatTest  -scope  fr.inria.astor.core.loop.spaces.ingredients.scopes.ctscopes.CtPackageIngredientScope  -ingredientstrategy  fr.inria.astor.core.loop.spaces.ingredients.ingredientSearch.EfficientIngredientStrategy  -transformingredient]
2017-03-25 14:54:05,689 INFO main - building model: /local/scr/mtufano/Lang/18/b/random-package-embeddings/1/AstorMain-b//src//default, compliance level: 5
2017-03-25 14:54:05,736 INFO main - Classpath for building SpoonModel [/sciclone/data20/mtufano/deeprepair/bin/eval/../../dat/libs/Lang/cglib.jar, /sciclone/data20/mtufano/deeprepair/bin/eval/../../dat/libs/Lang/commons-io.jar, /sciclone/data20/mtufano/deeprepair/bin/eval/../../dat/libs/Lang/asm.jar, /sciclone/data20/mtufano/deeprepair/bin/eval/../../dat/libs/Lang/easymock.jar]
2017-03-25 14:54:13,344 INFO main - -Executing Gzoltar classpath: /local/scr/mtufano/Lang/18/b/random-package-embeddings/1/AstorMain-b//bin//default from 5 classes with test cases
2017-03-25 14:54:13,344 INFO fr.inria.astor.core.faultlocalization.GZoltarFaultLocalization - Gzoltar fault localization: min susp value parameter: 0.1
2017-03-25 14:54:14,083 INFO fr.inria.astor.core.faultlocalization.GZoltarFaultLocalization - -gz-Adding classpath: [/local/scr/mtufano/Lang/18/b/random-package-embeddings/1/AstorMain-b//bin//default, /sciclone/data20/mtufano/deeprepair/bin/eval/../../dat/libs/Lang/cglib.jar, /sciclone/data20/mtufano/deeprepair/bin/eval/../../dat/libs/Lang/asm.jar, /sciclone/data20/mtufano/deeprepair/bin/eval/../../dat/libs/Lang/easymock.jar, /sciclone/data20/mtufano/deeprepair/bin/eval/../../dat/libs/Lang/commons-io.jar]
2017-03-25 14:54:17,552 INFO fr.inria.astor.core.faultlocalization.GZoltarFaultLocalization - Test failt: org.apache.commons.lang3.time.FastDateFormatTest#testFormat
2017-03-25 14:54:17,553 INFO fr.inria.astor.core.faultlocalization.GZoltarFaultLocalization - Gzoltar Test Result Total:93, fails: 1, GZoltar suspicious 816
2017-03-25 14:54:17,587 INFO fr.inria.astor.core.faultlocalization.GZoltarFaultLocalization - Gzoltar found: 210 with susp > 0.1, we consider: 210
2017-03-25 14:54:17,587 INFO main - 
---- Initial suspicious size: 210
2017-03-25 14:54:17,690 INFO main - -any mod point created for suspicious Candidate [className=org.apache.commons.lang3.time.FastDateFormat, methodName=org.apache.commons.lang3.time.FastDateFormat{parsePattern()Ljava/util/List; 0.0, lineNumber=492, susp=1.0]
2017-03-25 14:54:17,697 INFO main - -any mod point created for suspicious Candidate [className=org.apache.commons.lang3.time.FastDateFormat, methodName=org.apache.commons.lang3.time.FastDateFormat{parsePattern()Ljava/util/List; 0.0, lineNumber=493, susp=1.0]
2017-03-25 14:54:17,823 INFO main - -any mod point created for suspicious Candidate [className=org.apache.commons.lang3.time.FastDateFormat$TimeZoneNameRule, methodName=org.apache.commons.lang3.time.FastDateFormat$TimeZoneNameRule{appendTo(Ljava/lang/StringBuffer;Ljava/util/Calendar;)V 0.0, lineNumber=1410, susp=1.0]
2017-03-25 14:54:17,850 INFO main - -any mod point created for suspicious Candidate [className=org.apache.commons.lang3.time.FastDateFormat$TwoDigitYearField, methodName=org.apache.commons.lang3.time.FastDateFormat$TwoDigitYearField{appendTo(Ljava/lang/StringBuffer;Ljava/util/Calendar;)V 0.0, lineNumber=1241, susp=0.7071067811865475]
2017-03-25 14:54:17,888 INFO main - -any mod point created for suspicious Candidate [className=org.apache.commons.lang3.time.FastDateFormat$TwoDigitYearField, methodName=org.apache.commons.lang3.time.FastDateFormat$TwoDigitYearField{appendTo(Ljava/lang/StringBuffer;I)V 0.0, lineNumber=1249, susp=0.7071067811865475]
2017-03-25 14:54:18,083 INFO main - -any mod point created for suspicious Candidate [className=org.apache.commons.lang3.time.FastDateFormat, methodName=org.apache.commons.lang3.time.FastDateFormat{parsePattern()Ljava/util/List; 0.0, lineNumber=555, susp=0.7071067811865475]
2017-03-25 14:54:18,125 INFO main - -any mod point created for suspicious Candidate [className=org.apache.commons.lang3.time.FastDateFormat, methodName=org.apache.commons.lang3.time.FastDateFormat{parsePattern()Ljava/util/List; 0.0, lineNumber=560, susp=0.7071067811865475]
2017-03-25 14:54:18,545 INFO main - -any mod point created for suspicious Candidate [className=org.apache.commons.lang3.time.FastDateFormat$TextField, methodName=org.apache.commons.lang3.time.FastDateFormat$TextField{appendTo(Ljava/lang/StringBuffer;Ljava/util/Calendar;)V 0.0, lineNumber=1024, susp=0.5773502691896258]
2017-03-25 14:54:18,572 INFO main - -any mod point created for suspicious Candidate [className=org.apache.commons.lang3.time.FastDateFormat, methodName=org.apache.commons.lang3.time.FastDateFormat{parsePattern()Ljava/util/List; 0.0, lineNumber=500, susp=0.5773502691896258]
2017-03-25 14:54:18,598 INFO main - -any mod point created for suspicious Candidate [className=org.apache.commons.lang3.time.FastDateFormat, methodName=org.apache.commons.lang3.time.FastDateFormat{parsePattern()Ljava/util/List; 0.0, lineNumber=546, susp=0.5773502691896258]
2017-03-25 14:54:18,612 INFO main - -any mod point created for suspicious Candidate [className=org.apache.commons.lang3.time.FastDateFormat, methodName=org.apache.commons.lang3.time.FastDateFormat{parsePattern()Ljava/util/List; 0.0, lineNumber=547, susp=0.5773502691896258]
2017-03-25 14:54:18,654 INFO main - -any mod point created for suspicious Candidate [className=org.apache.commons.lang3.time.FastDateFormat$UnpaddedNumberField, methodName=org.apache.commons.lang3.time.FastDateFormat$UnpaddedNumberField{appendTo(Ljava/lang/StringBuffer;Ljava/util/Calendar;)V 0.0, lineNumber=1054, susp=0.5]
2017-03-25 14:54:18,671 INFO main - -any mod point created for suspicious Candidate [className=org.apache.commons.lang3.time.FastDateFormat$UnpaddedNumberField, methodName=org.apache.commons.lang3.time.FastDateFormat$UnpaddedNumberField{appendTo(Ljava/lang/StringBuffer;I)V 0.0, lineNumber=1068, susp=0.5]
2017-03-25 14:54:18,703 INFO main - -any mod point created for suspicious Candidate [className=org.apache.commons.lang3.time.FastDateFormat, methodName=org.apache.commons.lang3.time.FastDateFormat{parsePattern()Ljava/util/List; 0.0, lineNumber=511, susp=0.5]
2017-03-25 14:54:18,721 INFO main - -any mod point created for suspicious Candidate [className=org.apache.commons.lang3.time.FastDateFormat$UnpaddedMonthField, methodName=org.apache.commons.lang3.time.FastDateFormat$UnpaddedMonthField{appendTo(Ljava/lang/StringBuffer;Ljava/util/Calendar;)V 0.0, lineNumber=1097, susp=0.5]
2017-03-25 14:54:18,744 INFO main - -any mod point created for suspicious Candidate [className=org.apache.commons.lang3.time.FastDateFormat$UnpaddedMonthField, methodName=org.apache.commons.lang3.time.FastDateFormat$UnpaddedMonthField{appendTo(Ljava/lang/StringBuffer;I)V 0.0, lineNumber=1109, susp=0.5]
2017-03-25 14:54:18,809 INFO main - -any mod point created for suspicious Candidate [className=org.apache.commons.lang3.time.FastDateFormat, methodName=org.apache.commons.lang3.time.FastDateFormat{parsePattern()Ljava/util/List; 0.0, lineNumber=534, susp=0.4472135954999579]
2017-03-25 14:54:18,812 INFO main - -any mod point created for suspicious Candidate [className=org.apache.commons.lang3.time.FastDateFormat, methodName=org.apache.commons.lang3.time.FastDateFormat{parsePattern()Ljava/util/List; 0.0, lineNumber=535, susp=0.4472135954999579]
2017-03-25 14:54:18,833 INFO main - -any mod point created for suspicious Candidate [className=org.apache.commons.lang3.time.FastDateFormat, methodName=org.apache.commons.lang3.time.FastDateFormat{parsePattern()Ljava/util/List; 0.0, lineNumber=531, susp=0.4082482904638631]
2017-03-25 14:54:18,837 INFO main - -any mod point created for suspicious Candidate [className=org.apache.commons.lang3.time.FastDateFormat, methodName=org.apache.commons.lang3.time.FastDateFormat{parsePattern()Ljava/util/List; 0.0, lineNumber=532, susp=0.4082482904638631]
2017-03-25 14:54:18,881 INFO main - -any mod point created for suspicious Candidate [className=org.apache.commons.lang3.time.FastDateFormat, methodName=org.apache.commons.lang3.time.FastDateFormat{parsePattern()Ljava/util/List; 0.0, lineNumber=567, susp=0.4082482904638631]
2017-03-25 14:54:18,902 INFO main - -any mod point created for suspicious Candidate [className=org.apache.commons.lang3.time.FastDateFormat, methodName=org.apache.commons.lang3.time.FastDateFormat{selectNumberRule(II)Lorg/apache/commons/lang3/time/FastDateFormat$NumberRule; 0.0, lineNumber=655, susp=0.4082482904638631]
2017-03-25 14:54:18,966 INFO main - -any mod point created for suspicious Candidate [className=org.apache.commons.lang3.time.FastDateFormat, methodName=org.apache.commons.lang3.time.FastDateFormat{parsePattern()Ljava/util/List; 0.0, lineNumber=562, susp=0.3779644730092272]
2017-03-25 14:54:19,026 INFO main - -any mod point created for suspicious Candidate [className=org.apache.commons.lang3.time.FastDateFormat$TextField, methodName=org.apache.commons.lang3.time.FastDateFormat$TextField{estimateLength()I 0.0, lineNumber=1015, susp=0.3779644730092272]
2017-03-25 14:54:19,243 INFO main - -any mod point created for suspicious Candidate [className=org.apache.commons.lang3.time.FastDateFormat$TimeZoneNumberRule, methodName=org.apache.commons.lang3.time.FastDateFormat$TimeZoneNumberRule{appendTo(Ljava/lang/StringBuffer;Ljava/util/Calendar;)V 0.0, lineNumber=1463, susp=0.35355339059327373]
2017-03-25 14:54:19,322 INFO main - -any mod point created for suspicious Candidate [className=org.apache.commons.lang3.time.FastDateFormat, methodName=org.apache.commons.lang3.time.FastDateFormat{parsePattern()Ljava/util/List; 0.0, lineNumber=513, susp=0.2672612419124244]
2017-03-25 14:54:19,327 INFO main - -any mod point created for suspicious Candidate [className=org.apache.commons.lang3.time.FastDateFormat, methodName=org.apache.commons.lang3.time.FastDateFormat{parsePattern()Ljava/util/List; 0.0, lineNumber=514, susp=0.2672612419124244]
2017-03-25 14:54:19,516 INFO main - -any mod point created for suspicious Candidate [className=org.apache.commons.lang3.time.FastDateFormat, methodName=org.apache.commons.lang3.time.FastDateFormat{selectNumberRule(II)Lorg/apache/commons/lang3/time/FastDateFormat$NumberRule; 0.0, lineNumber=659, susp=0.24253562503633297]
2017-03-25 14:54:19,574 INFO main - -any mod point created for suspicious Candidate [className=org.apache.commons.lang3.time.FastDateFormat, methodName=org.apache.commons.lang3.time.FastDateFormat{parsePattern()Ljava/util/List; 0.0, lineNumber=495, susp=0.23570226039551587]
2017-03-25 14:54:19,649 INFO main - -any mod point created for suspicious Candidate [className=org.apache.commons.lang3.time.FastDateFormat, methodName=org.apache.commons.lang3.time.FastDateFormat{parsePattern()Ljava/util/List; 0.0, lineNumber=502, susp=0.23570226039551587]
2017-03-25 14:54:19,669 INFO main - -any mod point created for suspicious Candidate [className=org.apache.commons.lang3.time.FastDateFormat, methodName=org.apache.commons.lang3.time.FastDateFormat{selectNumberRule(II)Lorg/apache/commons/lang3/time/FastDateFormat$NumberRule; 0.0, lineNumber=657, susp=0.22941573387056174]
2017-03-25 14:54:19,684 INFO main - -any mod point created for suspicious Candidate [className=org.apache.commons.lang3.time.FastDateFormat$1, methodName=org.apache.commons.lang3.time.FastDateFormat$1{createInstance(Ljava/lang/String;Ljava/util/TimeZone;Ljava/util/Locale;)Ljava/text/Format; 0.0, lineNumber=107, susp=0.22360679774997896]
2017-03-25 14:54:19,687 INFO main - -any mod point created for suspicious Candidate [className=org.apache.commons.lang3.time.FastDateFormat, methodName=org.apache.commons.lang3.time.FastDateFormat{parsePattern()Ljava/util/List; 0.0, lineNumber=569, susp=0.22360679774997896]
2017-03-25 14:54:19,721 INFO main - -any mod point created for suspicious Candidate [className=org.apache.commons.lang3.time.FastDateFormat, methodName=org.apache.commons.lang3.time.FastDateFormat{parsePattern()Ljava/util/List; 0.0, lineNumber=570, susp=0.22360679774997896]
2017-03-25 14:54:19,860 INFO main - -any mod point created for suspicious Candidate [className=org.apache.commons.lang3.time.FastDateFormat, methodName=org.apache.commons.lang3.time.FastDateFormat{init()V 0.0, lineNumber=453, susp=0.2182178902359924]
2017-03-25 14:54:20,702 INFO main - -any mod point created for suspicious Candidate [className=org.apache.commons.lang3.time.FastDateFormat, methodName=org.apache.commons.lang3.time.FastDateFormat{parseToken(Ljava/lang/String;[I)Ljava/lang/String; 0.0, lineNumber=613, susp=0.2182178902359924]
2017-03-25 14:54:20,771 INFO main - -any mod point created for suspicious Candidate [className=org.apache.commons.lang3.time.FastDateFormat$TwoDigitMonthField, methodName=org.apache.commons.lang3.time.FastDateFormat$TwoDigitMonthField{appendTo(Ljava/lang/StringBuffer;Ljava/util/Calendar;)V 0.0, lineNumber=1277, susp=0.17407765595569785]
2017-03-25 14:54:20,779 INFO main - -any mod point created for suspicious Candidate [className=org.apache.commons.lang3.time.FastDateFormat$TwoDigitMonthField, methodName=org.apache.commons.lang3.time.FastDateFormat$TwoDigitMonthField{appendTo(Ljava/lang/StringBuffer;I)V 0.0, lineNumber=1285, susp=0.17407765595569785]
2017-03-25 14:54:20,811 INFO main - -any mod point created for suspicious Candidate [className=org.apache.commons.lang3.time.FastDateFormat$PaddedNumberField, methodName=org.apache.commons.lang3.time.FastDateFormat$PaddedNumberField{appendTo(Ljava/lang/StringBuffer;Ljava/util/Calendar;)V 0.0, lineNumber=1146, susp=0.16666666666666666]
2017-03-25 14:54:20,837 INFO main - -any mod point created for suspicious Candidate [className=org.apache.commons.lang3.time.FastDateFormat$PaddedNumberField, methodName=org.apache.commons.lang3.time.FastDateFormat$PaddedNumberField{appendTo(Ljava/lang/StringBuffer;I)V 0.0, lineNumber=1171, susp=0.16666666666666666]
2017-03-25 14:54:20,859 INFO main - -any mod point created for suspicious Candidate [className=org.apache.commons.lang3.time.FastDateFormat$CharacterLiteral, methodName=org.apache.commons.lang3.time.FastDateFormat$CharacterLiteral{appendTo(Ljava/lang/StringBuffer;Ljava/util/Calendar;)V 0.0, lineNumber=952, susp=0.16666666666666666]
2017-03-25 14:54:20,864 INFO main - -any mod point created for suspicious Candidate [className=org.apache.commons.lang3.time.FastDateFormat$TwoDigitNumberField, methodName=org.apache.commons.lang3.time.FastDateFormat$TwoDigitNumberField{appendTo(Ljava/lang/StringBuffer;Ljava/util/Calendar;)V 0.0, lineNumber=1201, susp=0.1643989873053573]
2017-03-25 14:54:20,894 INFO main - -any mod point created for suspicious Candidate [className=org.apache.commons.lang3.time.FastDateFormat$TwoDigitNumberField, methodName=org.apache.commons.lang3.time.FastDateFormat$TwoDigitNumberField{appendTo(Ljava/lang/StringBuffer;I)V 0.0, lineNumber=1213, susp=0.1643989873053573]
2017-03-25 14:54:20,908 INFO main - Total suspicious from FL: 210,  168
2017-03-25 14:54:20,908 INFO main - Total ModPoint created: 168
2017-03-25 14:54:20,909 INFO main - Creating program variant #1, [Variant id: 1, #gens: 168, #ops: 0, parent:-]
2017-03-25 14:54:32,412 INFO fr.inria.astor.core.setup.ConfigurationProperties - ----------------------------
2017-03-25 14:54:32,413 INFO fr.inria.astor.core.setup.ConfigurationProperties - ---Configuration properties:---Execution values
2017-03-25 14:54:32,413 INFO fr.inria.astor.core.setup.ConfigurationProperties - p:lastJUnitVersion= ./examples/libs/junit-4.11.jar
2017-03-25 14:54:32,413 INFO fr.inria.astor.core.setup.ConfigurationProperties - p:alternativecompliancelevel= 4
2017-03-25 14:54:32,413 INFO fr.inria.astor.core.setup.ConfigurationProperties - p:ignoredTestCases= 
2017-03-25 14:54:32,413 INFO fr.inria.astor.core.setup.ConfigurationProperties - p:workingDirectory= /local/scr/mtufano/Lang/18/b/random-package-embeddings/1
2017-03-25 14:54:32,413 INFO fr.inria.astor.core.setup.ConfigurationProperties - p:manipulatesuper= false
2017-03-25 14:54:32,413 INFO fr.inria.astor.core.setup.ConfigurationProperties - p:validation= process
2017-03-25 14:54:32,423 INFO fr.inria.astor.core.setup.ConfigurationProperties - p:jvm4testexecution= /usr/local/jdk1.7.0_80/bin/
2017-03-25 14:54:32,423 INFO fr.inria.astor.core.setup.ConfigurationProperties - p:binjavafolder= target/classes/
2017-03-25 14:54:32,423 INFO fr.inria.astor.core.setup.ConfigurationProperties - p:evosuiteresultfolder= evosuite
2017-03-25 14:54:32,423 INFO fr.inria.astor.core.setup.ConfigurationProperties - p:flthreshold= 0.1
2017-03-25 14:54:32,423 INFO fr.inria.astor.core.setup.ConfigurationProperties - p:regressionforfaultlocalization= true
2017-03-25 14:54:32,423 INFO fr.inria.astor.core.setup.ConfigurationProperties - p:tmax2= 960000
2017-03-25 14:54:32,423 INFO fr.inria.astor.core.setup.ConfigurationProperties - p:tmax1= 120000
2017-03-25 14:54:32,423 INFO fr.inria.astor.core.setup.ConfigurationProperties - p:probagenmutation= false
2017-03-25 14:54:32,423 INFO fr.inria.astor.core.setup.ConfigurationProperties - p:srctestfolder= src/test/java/
2017-03-25 14:54:32,423 INFO fr.inria.astor.core.setup.ConfigurationProperties - p:customop= fr.inria.astor.approaches.jgenprog.operators.InsertAfterOp:fr.inria.astor.approaches.jgenprog.operators.InsertBeforeOp:fr.inria.astor.approaches.jgenprog.operators.ReplaceOp
2017-03-25 14:54:32,423 INFO fr.inria.astor.core.setup.ConfigurationProperties - p:forceExecuteRegression= false
2017-03-25 14:54:32,423 INFO fr.inria.astor.core.setup.ConfigurationProperties - p:clusteringfilename= clustering.csv
2017-03-25 14:54:32,423 INFO fr.inria.astor.core.setup.ConfigurationProperties - p:failing= org.apache.commons.lang3.time.FastDateFormatTest
2017-03-25 14:54:32,423 INFO fr.inria.astor.core.setup.ConfigurationProperties - p:evo_buggy_class= true
2017-03-25 14:54:32,423 INFO fr.inria.astor.core.setup.ConfigurationProperties - p:numberExecutions= 1
2017-03-25 14:54:32,423 INFO fr.inria.astor.core.setup.ConfigurationProperties - p:evo_affected_by_op= true
2017-03-25 14:54:32,423 INFO fr.inria.astor.core.setup.ConfigurationProperties - p:population= 1
2017-03-25 14:54:32,424 INFO fr.inria.astor.core.setup.ConfigurationProperties - p:clonegranularity= types
2017-03-25 14:54:32,424 INFO fr.inria.astor.core.setup.ConfigurationProperties - p:regressiontestcases4fl= org.apache.commons.lang3.time.DateFormatUtilsTest:org.apache.commons.lang3.time.DateUtilsRoundingTest:org.apache.commons.lang3.time.DateUtilsTest:org.apache.commons.lang3.time.DurationFormatUtilsTest:org.apache.commons.lang3.time.FastDateFormatTest
2017-03-25 14:54:32,424 INFO fr.inria.astor.core.setup.ConfigurationProperties - p:savesolution= true
2017-03-25 14:54:32,424 INFO fr.inria.astor.core.setup.ConfigurationProperties - p:javacompliancelevel= 5
2017-03-25 14:54:32,424 INFO fr.inria.astor.core.setup.ConfigurationProperties - p:uniqueoptogen= false
2017-03-25 14:54:32,424 INFO fr.inria.astor.core.setup.ConfigurationProperties - p:projectIdentifier= 
2017-03-25 14:54:32,424 INFO fr.inria.astor.core.setup.ConfigurationProperties - p:modificationpointnavigation= weight
2017-03-25 14:54:32,424 INFO fr.inria.astor.core.setup.ConfigurationProperties - p:stopfirst= false
2017-03-25 14:54:32,424 INFO fr.inria.astor.core.setup.ConfigurationProperties - p:multipointmodification= false
2017-03-25 14:54:32,424 INFO fr.inria.astor.core.setup.ConfigurationProperties - p:elementsToMutate= 10
2017-03-25 14:54:32,424 INFO fr.inria.astor.core.setup.ConfigurationProperties - p:evoDSE= false
2017-03-25 14:54:32,424 INFO fr.inria.astor.core.setup.ConfigurationProperties - p:bintestfolder= target/tests/
2017-03-25 14:54:32,424 INFO fr.inria.astor.core.setup.ConfigurationProperties - p:testbystep= false
2017-03-25 14:54:32,424 INFO fr.inria.astor.core.setup.ConfigurationProperties - p:version-location= ./math-version/
2017-03-25 14:54:32,424 INFO fr.inria.astor.core.setup.ConfigurationProperties - p:reintroduce= parents
2017-03-25 14:54:32,424 INFO fr.inria.astor.core.setup.ConfigurationProperties - p:maxGeneration= 1000000
2017-03-25 14:54:32,424 INFO fr.inria.astor.core.setup.ConfigurationProperties - p:maxtime= 180
2017-03-25 14:54:32,424 INFO fr.inria.astor.core.setup.ConfigurationProperties - p:evosuitejar= ./lib/evosuite-master-1.0.4-SNAPSHOT.jar
2017-03-25 14:54:32,424 INFO fr.inria.astor.core.setup.ConfigurationProperties - p:commandTrunk= 50000
2017-03-25 14:54:32,424 INFO fr.inria.astor.core.setup.ConfigurationProperties - p:faultlocalization= fr.inria.astor.core.faultlocalization.GZoltarFaultLocalization
2017-03-25 14:54:32,424 INFO fr.inria.astor.core.setup.ConfigurationProperties - p:maxsuspcandidates= 1000
2017-03-25 14:54:32,424 INFO fr.inria.astor.core.setup.ConfigurationProperties - p:mode= statement
2017-03-25 14:54:32,424 INFO fr.inria.astor.core.setup.ConfigurationProperties - p:learningdir= ../../out/learningdir/Lang/18/b/
2017-03-25 14:54:32,425 INFO fr.inria.astor.core.setup.ConfigurationProperties - p:jvm4evosuitetestexecution= /usr/local/jdk1.7.0_80/bin/
2017-03-25 14:54:32,425 INFO fr.inria.astor.core.setup.ConfigurationProperties - p:filterfaultlocalization= true
2017-03-25 14:54:32,425 INFO fr.inria.astor.core.setup.ConfigurationProperties - p:mutationrate= 1 
2017-03-25 14:54:32,425 INFO fr.inria.astor.core.setup.ConfigurationProperties - p:pathToMVNRepository= 
2017-03-25 14:54:32,425 INFO fr.inria.astor.core.setup.ConfigurationProperties - p:resourcesfolder= /src/main/resources:/src/test/resources:
2017-03-25 14:54:32,425 INFO fr.inria.astor.core.setup.ConfigurationProperties - p:timezone= America/New_York
2017-03-25 14:54:32,425 INFO fr.inria.astor.core.setup.ConfigurationProperties - p:classestoinstrument= org.apache.commons.lang3.Validate:org.apache.commons.lang3.time.FormatCache:org.apache.commons.lang3.time.FastDateFormat
2017-03-25 14:54:32,425 INFO fr.inria.astor.core.setup.ConfigurationProperties - p:evoRunOnBuggyClass= true
2017-03-25 14:54:32,425 INFO fr.inria.astor.core.setup.ConfigurationProperties - p:compiler= fr.inria.astor.core.manipulation.bytecode.compiler.SpoonClassCompiler
2017-03-25 14:54:32,425 INFO fr.inria.astor.core.setup.ConfigurationProperties - p:dependenciespath= ../../dat/libs/Lang/cglib.jar:../../dat/libs/Lang/commons-io.jar:../../dat/libs/Lang/asm.jar:../../dat/libs/Lang/easymock.jar
2017-03-25 14:54:32,425 INFO fr.inria.astor.core.setup.ConfigurationProperties - p:skipfaultlocalization= false
2017-03-25 14:54:32,425 INFO fr.inria.astor.core.setup.ConfigurationProperties - p:packageToInstrument= org.apache.commons
2017-03-25 14:54:32,425 INFO fr.inria.astor.core.setup.ConfigurationProperties - p:scope= fr.inria.astor.core.loop.spaces.ingredients.scopes.ctscopes.CtPackageIngredientScope
2017-03-25 14:54:32,425 INFO fr.inria.astor.core.setup.ConfigurationProperties - p:transformingredient= true
2017-03-25 14:54:32,425 INFO fr.inria.astor.core.setup.ConfigurationProperties - p:fitnessfunction= fr.inria.astor.core.loop.population.TestCaseFitnessFunction
2017-03-25 14:54:32,425 INFO fr.inria.astor.core.setup.ConfigurationProperties - p:pvariantfoldername= variant-
2017-03-25 14:54:32,425 INFO fr.inria.astor.core.setup.ConfigurationProperties - p:srcjavafolder= src/main/java/
2017-03-25 14:54:32,425 INFO fr.inria.astor.core.setup.ConfigurationProperties - p:populationcontroller= fr.inria.astor.core.loop.population.TestCaseBasedFitnessPopulationController
2017-03-25 14:54:32,425 INFO fr.inria.astor.core.setup.ConfigurationProperties - p:ignoreflakyinfl= false
2017-03-25 14:54:32,425 INFO fr.inria.astor.core.setup.ConfigurationProperties - p:applyCrossover= false
2017-03-25 14:54:32,425 INFO fr.inria.astor.core.setup.ConfigurationProperties - p:saveall= false
2017-03-25 14:54:32,425 INFO fr.inria.astor.core.setup.ConfigurationProperties - p:seed= 1
2017-03-25 14:54:32,425 INFO fr.inria.astor.core.setup.ConfigurationProperties - p:resetoperations= false
2017-03-25 14:54:32,426 INFO fr.inria.astor.core.setup.ConfigurationProperties - p:location= ../../dat/defects4j/Lang/18/b/
2017-03-25 14:54:32,426 INFO fr.inria.astor.core.setup.ConfigurationProperties - p:ingredientstrategy= fr.inria.astor.core.loop.spaces.ingredients.ingredientSearch.EfficientIngredientStrategy
2017-03-25 14:54:32,426 INFO fr.inria.astor.core.setup.ConfigurationProperties - p:allpoints= false
2017-03-25 14:54:32,426 INFO fr.inria.astor.core.setup.ConfigurationProperties - p:bugId= 280
2017-03-25 14:54:32,426 INFO fr.inria.astor.core.setup.ConfigurationProperties - p:evosuitetimeout= 120
2017-03-25 14:54:32,426 INFO fr.inria.astor.core.setup.ConfigurationProperties - ----------------------------
2017-03-25 14:54:32,426 INFO main - 
----Starting Solution Search
2017-03-25 15:20:10,184 INFO main - The Process that runs JUnit test cases had problems: process hasn't exited
2017-03-25 16:00:41,914 INFO main - The Process that runs JUnit test cases had problems: process hasn't exited
2017-03-25 16:47:01,323 INFO main - The Process that runs JUnit test cases had problems: process hasn't exited
2017-03-25 16:57:12,478 INFO main - The Process that runs JUnit test cases had problems: process hasn't exited
2017-03-25 17:34:05,650 INFO main - The Process that runs JUnit test cases had problems: process hasn't exited
2017-03-25 17:55:32,657 INFO main - 
 No more time for operating
2017-03-25 17:55:32,657 INFO main - Time Repair Loop (s): 10860.231
2017-03-25 17:55:32,657 INFO main - 
----SUMMARY_EXECUTION---
2017-03-25 17:55:32,716 INFO main - 
successful_ing_attempts (#trials 0, totalAttps 0): []
2017-03-25 17:55:32,771 INFO main - 
failing_ing_attempts (#trials 1466, totalAttps 7470): [5, 1, 20, 7, 2, 8, 1, 5, 3, 9, 3, 2, 1, 3, 6, 17, 3, 2, 4, 14, 1, 8, 14, 8, 2, 19, 2, 7, 1, 1, 1, 11, 14, 1, 3, 22, 6, 4, 15, 2, 2, 2, 10, 16, 1, 6, 1, 3, 21, 5, 3, 1, 1, 2, 1, 1, 1, 2, 4, 1, 3, 2, 6, 2, 4, 2, 3, 1, 1, 4, 6, 4, 12, 1, 4, 17, 7, 9, 11, 1, 2, 9, 4, 27, 7, 1, 2, 2, 14, 2, 3, 1, 5, 1, 6, 3, 5, 2, 2, 8, 2, 2, 1, 5, 13, 4, 3, 2, 2, 1, 7, 5, 3, 1, 10, 1, 5, 2, 11, 6, 3, 13, 11, 8, 1, 8, 3, 4, 8, 6, 1, 3, 4, 9, 3, 6, 1, 5, 1, 1, 3, 7, 6, 2, 5, 5, 11, 5, 1, 2, 4, 8, 5, 8, 2, 8, 1, 2, 13, 3, 1, 6, 4, 6, 1, 1, 15, 7, 23, 1, 1, 14, 2, 2, 14, 3, 2, 5, 1, 2, 8, 10, 6, 1, 12, 1, 4, 3, 1, 1, 1, 6, 1, 2, 1, 1, 7, 1, 4, 1, 7, 5, 4, 4, 7, 4, 7, 3, 4, 9, 21, 1, 3, 1, 3, 8, 3, 4, 14, 15, 9, 7, 6, 6, 13, 12, 4, 7, 6, 1, 4, 8, 3, 9, 2, 1, 3, 6, 1, 1, 2, 3, 3, 5, 3, 2, 8, 2, 15, 1, 1, 11, 3, 3, 5, 1, 1, 3, 1, 6, 2, 8, 5, 2, 8, 4, 1, 3, 1, 5, 1, 2, 7, 2, 6, 17, 19, 4, 2, 9, 8, 1, 4, 1, 7, 2, 2, 6, 1, 13, 20, 12, 1, 8, 1, 12, 7, 2, 5, 3, 7, 5, 1, 7, 3, 33, 11, 3, 7, 9, 2, 4, 1, 2, 14, 7, 9, 7, 4, 4, 1, 11, 3, 5, 1, 19, 4, 2, 3, 9, 2, 17, 1, 2, 5, 4, 3, 3, 2, 1, 5, 6, 8, 2, 1, 7, 2, 2, 21, 3, 2, 2, 14, 7, 3, 3, 4, 3, 3, 3, 7, 8, 8, 3, 3, 2, 1, 2, 1, 7, 1, 7, 2, 3, 4, 9, 9, 4, 1, 2, 2, 9, 5, 4, 1, 13, 3, 14, 13, 4, 3, 2, 4, 2, 1, 2, 2, 2, 7, 8, 6, 8, 3, 8, 7, 3, 14, 1, 7, 12, 1, 1, 5, 2, 1, 8, 2, 6, 1, 5, 3, 6, 8, 4, 2, 4, 2, 9, 2, 2, 6, 6, 10, 13, 2, 1, 2, 1, 8, 4, 5, 1, 1, 1, 8, 8, 3, 1, 9, 3, 11, 5, 13, 2, 5, 4, 6, 2, 7, 11, 6, 3, 7, 14, 5, 1, 5, 11, 1, 9, 3, 3, 44, 3, 1, 2, 2, 1, 6, 1, 5, 2, 6, 2, 4, 1, 3, 3, 7, 5, 2, 3, 18, 3, 11, 9, 2, 1, 3, 5, 2, 13, 1, 25, 1, 3, 5, 3, 6, 5, 3, 3, 9, 2, 1, 22, 1, 12, 1, 1, 2, 1, 1, 4, 5, 5, 1, 4, 5, 17, 1, 3, 3, 19, 1, 9, 4, 2, 1, 3, 3, 1, 26, 3, 4, 2, 1, 2, 3, 5, 1, 1, 3, 5, 2, 1, 2, 3, 1, 4, 8, 13, 4, 1, 2, 1, 2, 3, 2, 3, 5, 1, 18, 4, 1, 3, 5, 3, 7, 6, 12, 6, 9, 9, 9, 12, 9, 1, 8, 1, 16, 4, 12, 3, 1, 5, 1, 2, 3, 2, 23, 1, 2, 6, 1, 2, 1, 14, 3, 5, 9, 3, 2, 1, 7, 5, 1, 3, 10, 4, 9, 4, 1, 5, 9, 1, 14, 1, 5, 1, 1, 2, 2, 1, 27, 7, 1, 3, 2, 1, 2, 22, 6, 5, 16, 3, 5, 1, 6, 6, 7, 6, 2, 15, 12, 6, 10, 2, 2, 7, 1, 17, 3, 4, 12, 6, 15, 12, 17, 1, 6, 1, 7, 2, 5, 1, 2, 2, 6, 27, 1, 22, 10, 2, 4, 1, 3, 4, 3, 3, 3, 7, 3, 6, 6, 10, 5, 2, 10, 10, 5, 2, 8, 8, 5, 1, 4, 2, 1, 6, 1, 11, 2, 1, 1, 8, 6, 7, 2, 7, 3, 6, 2, 3, 2, 1, 1, 6, 2, 3, 8, 4, 6, 5, 3, 8, 14, 6, 4, 2, 7, 5, 2, 1, 7, 4, 6, 1, 5, 4, 2, 7, 3, 6, 1, 1, 3, 4, 14, 4, 12, 8, 2, 7, 3, 8, 20, 1, 3, 11, 2, 3, 2, 21, 6, 1, 4, 1, 7, 3, 4, 3, 6, 7, 17, 5, 3, 20, 1, 4, 5, 2, 15, 2, 11, 4, 17, 2, 18, 12, 1, 7, 8, 11, 2, 3, 3, 8, 1, 8, 2, 6, 2, 2, 4, 7, 5, 6, 10, 2, 9, 11, 5, 11, 1, 3, 2, 2, 3, 5, 2, 3, 3, 2, 2, 7, 13, 3, 3, 4, 7, 1, 4, 2, 3, 1, 29, 3, 4, 7, 3, 3, 9, 1, 3, 2, 3, 1, 3, 8, 5, 1, 8, 1, 4, 1, 8, 1, 4, 1, 21, 7, 1, 2, 5, 4, 6, 1, 13, 1, 2, 8, 2, 2, 1, 2, 2, 6, 13, 6, 4, 3, 3, 6, 7, 2, 2, 6, 4, 1, 7, 4, 2, 1, 1, 1, 1, 1, 1, 1, 5, 8, 13, 7, 5, 6, 15, 3, 3, 9, 1, 9, 10, 2, 1, 4, 3, 11, 1, 6, 5, 3, 3, 10, 1, 1, 4, 4, 3, 16, 7, 4, 1, 3, 3, 3, 7, 7, 6, 7, 18, 2, 1, 3, 1, 3, 11, 7, 5, 6, 1, 19, 4, 17, 6, 1, 33, 1, 18, 8, 4, 3, 13, 5, 11, 4, 1, 2, 10, 3, 4, 2, 3, 2, 2, 5, 3, 7, 1, 2, 1, 8, 4, 1, 7, 1, 4, 2, 7, 4, 7, 3, 2, 4, 1, 2, 5, 4, 5, 4, 3, 2, 2, 1, 2, 7, 1, 1, 1, 5, 1, 2, 1, 9, 2, 4, 2, 1, 2, 7, 2, 12, 13, 2, 3, 12, 4, 3, 3, 17, 2, 6, 1, 2, 2, 3, 1, 1, 18, 1, 14, 2, 4, 4, 2, 1, 2, 15, 2, 1, 3, 1, 6, 3, 23, 1, 2, 2, 1, 1, 4, 2, 3, 4, 4, 20, 1, 13, 16, 15, 3, 1, 1, 5, 1, 1, 1, 16, 11, 5, 1, 1, 4, 3, 1, 2, 1, 4, 2, 5, 2, 5, 2, 2, 3, 2, 1, 2, 1, 3, 1, 1, 11, 6, 27, 26, 4, 3, 5, 6, 7, 1, 1, 2, 24, 2, 1, 4, 2, 2, 1, 10, 1, 1, 1, 1, 2, 2, 3, 3, 1, 5, 5, 1, 6, 1, 2, 7, 5, 1, 18, 7, 1, 7, 5, 3, 6, 6, 3, 1, 1, 7, 2, 4, 11, 8, 10, 3, 1, 3, 2, 6, 1, 1, 1, 2, 1, 1, 1, 4, 2, 32, 5, 5, 3, 5, 4, 9, 3, 12, 5, 1, 8, 4, 1, 13, 7, 7, 2, 4, 1, 1, 3, 1, 3, 2, 1, 1, 2, 2, 14, 6, 1, 2, 1, 4, 4, 4, 9, 1, 6, 3, 4, 1, 6, 6, 10, 1, 8, 1, 4, 8, 3, 16, 15, 16, 3, 9, 1, 9, 6, 5, 9, 1, 2, 2, 23, 2, 3, 9, 1, 2, 5, 9, 8, 3, 1, 5, 6, 3, 4, 9, 2, 1, 17, 2, 8, 4, 3, 1, 1, 1, 6, 3, 2, 1, 10, 1, 3, 2, 2, 24, 2, 3, 2, 31, 1, 1, 8, 9, 1, 3, 2, 1, 2, 2, 4, 9, 3, 1, 14, 3, 2, 8, 2, 1, 5, 1, 8, 9, 3, 7, 12, 2, 8, 5, 2, 2, 1, 15, 2, 3, 1, 3, 3, 4, 7, 2, 5, 13, 4, 3, 9, 3, 4, 6, 1, 6, 10, 9, 10, 11, 5, 2, 12, 8, 2, 3, 19, 2, 3, 5, 5, 1, 2, 6, 2, 2, 7, 2, 3, 2, 1, 2, 2, 2, 1, 1, 2, 1, 30, 2, 11, 6, 2, 14, 11, 6, 2, 4, 2, 3, 14, 1, 2, 1, 1, 4, 4, 4, 10, 5, 1, 6, 2, 2, 3, 1, 2, 8, 4, 2, 1, 11, 2, 9, 3, 1, 3, 4, 12, 14, 7, 3, 2, 4, 7, 4, 5, 2, 14, 1, 2, 2, 3, 3, 5, 9, 5, 3, 12, 9, 4, 2, 4, 2, 4, 1, 1, 6, 1, 3, 1, 4, 1, 1, 1, 1, 1, 1, 4, 2, 2, 4, 6, 19, 11, 20, 2, 3, 1, 7, 5, 1, 9, 8]
2017-03-25 17:55:32,771 INFO main - 
total Patch Attempts (0): []
2017-03-25 17:55:32,771 INFO main - 
successful_ing_attempts_by_patch: []
2017-03-25 17:55:32,772 INFO main - 
failing_ing_attempts_by_patch: [(pv:2,at:5), (pv:3,at:1), (pv:4,at:20), (pv:5,at:7), (pv:6,at:2), (pv:7,at:8), (pv:8,at:1), (pv:9,at:5), (pv:10,at:3), (pv:11,at:9), (pv:12,at:3), (pv:13,at:2), (pv:14,at:1), (pv:15,at:3), (pv:16,at:6), (pv:17,at:17), (pv:18,at:3), (pv:19,at:2), (pv:20,at:4), (pv:21,at:14), (pv:22,at:1), (pv:23,at:8), (pv:24,at:14), (pv:25,at:8), (pv:26,at:2), (pv:27,at:19), (pv:28,at:2), (pv:29,at:7), (pv:30,at:1), (pv:31,at:1), (pv:32,at:1), (pv:33,at:11), (pv:34,at:14), (pv:35,at:1), (pv:36,at:3), (pv:37,at:22), (pv:38,at:6), (pv:39,at:4), (pv:40,at:15), (pv:41,at:2), (pv:42,at:2), (pv:43,at:2), (pv:44,at:10), (pv:45,at:16), (pv:46,at:1), (pv:47,at:6), (pv:48,at:1), (pv:49,at:3), (pv:50,at:21), (pv:51,at:5), (pv:52,at:3), (pv:53,at:1), (pv:54,at:1), (pv:55,at:2), (pv:56,at:1), (pv:57,at:1), (pv:58,at:1), (pv:59,at:2), (pv:60,at:4), (pv:61,at:1), (pv:62,at:3), (pv:63,at:2), (pv:64,at:6), (pv:65,at:2), (pv:66,at:4), (pv:67,at:2), (pv:68,at:3), (pv:69,at:1), (pv:70,at:1), (pv:71,at:4), (pv:72,at:6), (pv:73,at:4), (pv:74,at:12), (pv:75,at:1), (pv:76,at:4), (pv:77,at:17), (pv:78,at:7), (pv:79,at:9), (pv:80,at:11), (pv:81,at:1), (pv:82,at:2), (pv:83,at:9), (pv:84,at:4), (pv:85,at:27), (pv:86,at:7), (pv:87,at:1), (pv:88,at:2), (pv:89,at:2), (pv:90,at:14), (pv:91,at:2), (pv:92,at:3), (pv:93,at:1), (pv:94,at:5), (pv:95,at:1), (pv:96,at:6), (pv:97,at:3), (pv:98,at:5), (pv:99,at:2), (pv:100,at:2), (pv:101,at:8), (pv:102,at:2), (pv:103,at:2), (pv:104,at:1), (pv:105,at:5), (pv:106,at:13), (pv:107,at:4), (pv:108,at:3), (pv:109,at:2), (pv:110,at:2), (pv:111,at:1), (pv:112,at:7), (pv:113,at:5), (pv:114,at:3), (pv:115,at:1), (pv:116,at:10), (pv:117,at:1), (pv:118,at:5), (pv:119,at:2), (pv:120,at:11), (pv:121,at:6), (pv:122,at:3), (pv:123,at:13), (pv:124,at:11), (pv:125,at:8), (pv:126,at:1), (pv:127,at:8), (pv:128,at:3), (pv:129,at:4), (pv:130,at:8), (pv:131,at:6), (pv:132,at:1), (pv:133,at:3), (pv:134,at:4), (pv:135,at:9), (pv:136,at:3), (pv:137,at:6), (pv:138,at:1), (pv:139,at:5), (pv:140,at:1), (pv:141,at:1), (pv:142,at:3), (pv:143,at:7), (pv:144,at:6), (pv:145,at:2), (pv:146,at:5), (pv:147,at:5), (pv:148,at:11), (pv:149,at:5), (pv:150,at:1), (pv:151,at:2), (pv:152,at:4), (pv:153,at:8), (pv:154,at:5), (pv:155,at:8), (pv:156,at:2), (pv:157,at:8), (pv:158,at:1), (pv:159,at:2), (pv:160,at:13), (pv:161,at:3), (pv:162,at:1), (pv:163,at:6), (pv:164,at:4), (pv:165,at:6), (pv:166,at:1), (pv:167,at:1), (pv:168,at:15), (pv:169,at:7), (pv:170,at:23), (pv:171,at:1), (pv:172,at:1), (pv:173,at:14), (pv:174,at:2), (pv:175,at:2), (pv:176,at:14), (pv:177,at:3), (pv:178,at:2), (pv:179,at:5), (pv:180,at:1), (pv:181,at:2), (pv:182,at:8), (pv:183,at:10), (pv:184,at:6), (pv:185,at:1), (pv:186,at:12), (pv:187,at:1), (pv:188,at:4), (pv:189,at:3), (pv:190,at:1), (pv:191,at:1), (pv:192,at:1), (pv:193,at:6), (pv:194,at:1), (pv:195,at:2), (pv:196,at:1), (pv:197,at:1), (pv:198,at:7), (pv:199,at:1), (pv:200,at:4), (pv:201,at:1), (pv:202,at:7), (pv:203,at:5), (pv:204,at:4), (pv:205,at:4), (pv:206,at:7), (pv:207,at:4), (pv:208,at:7), (pv:209,at:3), (pv:210,at:4), (pv:211,at:9), (pv:212,at:21), (pv:213,at:1), (pv:214,at:3), (pv:215,at:1), (pv:216,at:3), (pv:217,at:8), (pv:218,at:3), (pv:219,at:4), (pv:220,at:14), (pv:221,at:15), (pv:222,at:9), (pv:223,at:7), (pv:224,at:6), (pv:225,at:6), (pv:226,at:13), (pv:227,at:12), (pv:228,at:4), (pv:229,at:7), (pv:230,at:6), (pv:231,at:1), (pv:232,at:4), (pv:233,at:8), (pv:234,at:3), (pv:235,at:9), (pv:236,at:2), (pv:237,at:1), (pv:238,at:3), (pv:239,at:6), (pv:240,at:1), (pv:241,at:1), (pv:242,at:2), (pv:243,at:3), (pv:244,at:3), (pv:245,at:5), (pv:246,at:3), (pv:247,at:2), (pv:248,at:8), (pv:249,at:2), (pv:250,at:15), (pv:251,at:1), (pv:252,at:1), (pv:253,at:11), (pv:254,at:3), (pv:255,at:3), (pv:256,at:5), (pv:257,at:1), (pv:258,at:1), (pv:259,at:3), (pv:260,at:1), (pv:261,at:6), (pv:262,at:2), (pv:263,at:8), (pv:264,at:5), (pv:265,at:2), (pv:266,at:8), (pv:267,at:4), (pv:268,at:1), (pv:269,at:3), (pv:270,at:1), (pv:271,at:5), (pv:272,at:1), (pv:273,at:2), (pv:274,at:7), (pv:275,at:2), (pv:276,at:6), (pv:277,at:17), (pv:278,at:19), (pv:279,at:4), (pv:280,at:2), (pv:281,at:9), (pv:282,at:8), (pv:283,at:1), (pv:284,at:4), (pv:285,at:1), (pv:286,at:7), (pv:287,at:2), (pv:288,at:2), (pv:289,at:6), (pv:290,at:1), (pv:291,at:13), (pv:292,at:20), (pv:293,at:12), (pv:294,at:1), (pv:295,at:8), (pv:296,at:1), (pv:297,at:12), (pv:298,at:7), (pv:299,at:2), (pv:300,at:5), (pv:301,at:3), (pv:302,at:7), (pv:303,at:5), (pv:304,at:1), (pv:305,at:7), (pv:306,at:3), (pv:307,at:33), (pv:308,at:11), (pv:309,at:3), (pv:310,at:7), (pv:311,at:9), (pv:312,at:2), (pv:313,at:4), (pv:314,at:1), (pv:315,at:2), (pv:316,at:14), (pv:317,at:7), (pv:318,at:9), (pv:319,at:7), (pv:320,at:4), (pv:321,at:4), (pv:322,at:1), (pv:323,at:11), (pv:324,at:3), (pv:325,at:5), (pv:326,at:1), (pv:327,at:19), (pv:328,at:4), (pv:329,at:2), (pv:330,at:3), (pv:331,at:9), (pv:332,at:2), (pv:333,at:17), (pv:334,at:1), (pv:335,at:2), (pv:336,at:5), (pv:337,at:4), (pv:338,at:3), (pv:339,at:3), (pv:340,at:2), (pv:341,at:1), (pv:342,at:5), (pv:343,at:6), (pv:344,at:8), (pv:345,at:2), (pv:346,at:1), (pv:347,at:7), (pv:348,at:2), (pv:349,at:2), (pv:350,at:21), (pv:351,at:3), (pv:352,at:2), (pv:353,at:2), (pv:354,at:14), (pv:355,at:7), (pv:356,at:3), (pv:357,at:3), (pv:358,at:4), (pv:359,at:3), (pv:360,at:3), (pv:361,at:3), (pv:362,at:7), (pv:363,at:8), (pv:364,at:8), (pv:365,at:3), (pv:366,at:3), (pv:367,at:2), (pv:368,at:1), (pv:369,at:2), (pv:370,at:1), (pv:371,at:7), (pv:372,at:1), (pv:373,at:7), (pv:374,at:2), (pv:375,at:3), (pv:376,at:4), (pv:377,at:9), (pv:378,at:9), (pv:379,at:4), (pv:380,at:1), (pv:381,at:2), (pv:382,at:2), (pv:383,at:9), (pv:384,at:5), (pv:385,at:4), (pv:386,at:1), (pv:387,at:13), (pv:388,at:3), (pv:389,at:14), (pv:390,at:13), (pv:391,at:4), (pv:392,at:3), (pv:393,at:2), (pv:394,at:4), (pv:395,at:2), (pv:396,at:1), (pv:397,at:2), (pv:398,at:2), (pv:399,at:2), (pv:400,at:7), (pv:401,at:8), (pv:402,at:6), (pv:403,at:8), (pv:404,at:3), (pv:405,at:8), (pv:406,at:7), (pv:407,at:3), (pv:408,at:14), (pv:409,at:1), (pv:410,at:7), (pv:411,at:12), (pv:412,at:1), (pv:413,at:1), (pv:414,at:5), (pv:415,at:2), (pv:416,at:1), (pv:417,at:8), (pv:418,at:2), (pv:419,at:6), (pv:420,at:1), (pv:421,at:5), (pv:422,at:3), (pv:423,at:6), (pv:424,at:8), (pv:425,at:4), (pv:426,at:2), (pv:427,at:4), (pv:428,at:2), (pv:429,at:9), (pv:430,at:2), (pv:431,at:2), (pv:432,at:6), (pv:433,at:6), (pv:434,at:10), (pv:435,at:13), (pv:436,at:2), (pv:437,at:1), (pv:438,at:2), (pv:439,at:1), (pv:440,at:8), (pv:441,at:4), (pv:442,at:5), (pv:443,at:1), (pv:444,at:1), (pv:445,at:1), (pv:446,at:8), (pv:447,at:8), (pv:448,at:3), (pv:449,at:1), (pv:450,at:9), (pv:451,at:3), (pv:452,at:11), (pv:453,at:5), (pv:454,at:13), (pv:455,at:2), (pv:456,at:5), (pv:457,at:4), (pv:458,at:6), (pv:459,at:2), (pv:460,at:7), (pv:461,at:11), (pv:462,at:6), (pv:463,at:3), (pv:464,at:7), (pv:465,at:14), (pv:466,at:5), (pv:467,at:1), (pv:468,at:5), (pv:469,at:11), (pv:470,at:1), (pv:471,at:9), (pv:472,at:3), (pv:473,at:3), (pv:474,at:44), (pv:475,at:3), (pv:476,at:1), (pv:477,at:2), (pv:478,at:2), (pv:479,at:1), (pv:480,at:6), (pv:481,at:1), (pv:482,at:5), (pv:483,at:2), (pv:484,at:6), (pv:485,at:2), (pv:486,at:4), (pv:487,at:1), (pv:488,at:3), (pv:489,at:3), (pv:490,at:7), (pv:491,at:5), (pv:492,at:2), (pv:493,at:3), (pv:494,at:18), (pv:495,at:3), (pv:496,at:11), (pv:497,at:9), (pv:498,at:2), (pv:499,at:1), (pv:500,at:3), (pv:501,at:5), (pv:502,at:2), (pv:503,at:13), (pv:504,at:1), (pv:505,at:25), (pv:506,at:1), (pv:507,at:3), (pv:508,at:5), (pv:509,at:3), (pv:510,at:6), (pv:511,at:5), (pv:512,at:3), (pv:513,at:3), (pv:514,at:9), (pv:515,at:2), (pv:516,at:1), (pv:517,at:22), (pv:518,at:1), (pv:519,at:12), (pv:520,at:1), (pv:521,at:1), (pv:522,at:2), (pv:523,at:1), (pv:524,at:1), (pv:525,at:4), (pv:526,at:5), (pv:527,at:5), (pv:528,at:1), (pv:529,at:4), (pv:530,at:5), (pv:531,at:17), (pv:532,at:1), (pv:533,at:3), (pv:534,at:3), (pv:535,at:19), (pv:536,at:1), (pv:537,at:9), (pv:538,at:4), (pv:539,at:2), (pv:540,at:1), (pv:541,at:3), (pv:542,at:3), (pv:543,at:1), (pv:544,at:26), (pv:545,at:3), (pv:546,at:4), (pv:547,at:2), (pv:548,at:1), (pv:549,at:2), (pv:550,at:3), (pv:551,at:5), (pv:552,at:1), (pv:553,at:1), (pv:554,at:3), (pv:555,at:5), (pv:556,at:2), (pv:557,at:1), (pv:558,at:2), (pv:559,at:3), (pv:560,at:1), (pv:561,at:4), (pv:562,at:8), (pv:563,at:13), (pv:564,at:4), (pv:565,at:1), (pv:566,at:2), (pv:567,at:1), (pv:568,at:2), (pv:569,at:3), (pv:570,at:2), (pv:571,at:3), (pv:572,at:5), (pv:573,at:1), (pv:574,at:18), (pv:575,at:4), (pv:576,at:1), (pv:577,at:3), (pv:578,at:5), (pv:579,at:3), (pv:580,at:7), (pv:581,at:6), (pv:582,at:12), (pv:583,at:6), (pv:584,at:9), (pv:585,at:9), (pv:586,at:9), (pv:587,at:12), (pv:588,at:9), (pv:589,at:1), (pv:590,at:8), (pv:591,at:1), (pv:592,at:16), (pv:593,at:4), (pv:594,at:12), (pv:595,at:3), (pv:596,at:1), (pv:597,at:5), (pv:598,at:1), (pv:599,at:2), (pv:600,at:3), (pv:601,at:2), (pv:602,at:23), (pv:603,at:1), (pv:604,at:2), (pv:605,at:6), (pv:606,at:1), (pv:607,at:2), (pv:608,at:1), (pv:609,at:14), (pv:610,at:3), (pv:611,at:5), (pv:612,at:9), (pv:613,at:3), (pv:614,at:2), (pv:615,at:1), (pv:616,at:7), (pv:617,at:5), (pv:618,at:1), (pv:619,at:3), (pv:620,at:10), (pv:621,at:4), (pv:622,at:9), (pv:623,at:4), (pv:624,at:1), (pv:625,at:5), (pv:626,at:9), (pv:627,at:1), (pv:628,at:14), (pv:629,at:1), (pv:630,at:5), (pv:631,at:1), (pv:632,at:1), (pv:633,at:2), (pv:634,at:2), (pv:635,at:1), (pv:636,at:27), (pv:637,at:7), (pv:638,at:1), (pv:639,at:3), (pv:640,at:2), (pv:641,at:1), (pv:642,at:2), (pv:643,at:22), (pv:644,at:6), (pv:645,at:5), (pv:646,at:16), (pv:647,at:3), (pv:648,at:5), (pv:649,at:1), (pv:650,at:6), (pv:651,at:6), (pv:652,at:7), (pv:653,at:6), (pv:654,at:2), (pv:655,at:15), (pv:656,at:12), (pv:657,at:6), (pv:658,at:10), (pv:659,at:2), (pv:660,at:2), (pv:661,at:7), (pv:662,at:1), (pv:663,at:17), (pv:664,at:3), (pv:665,at:4), (pv:666,at:12), (pv:667,at:6), (pv:668,at:15), (pv:669,at:12), (pv:670,at:17), (pv:671,at:1), (pv:672,at:6), (pv:673,at:1), (pv:674,at:7), (pv:675,at:2), (pv:676,at:5), (pv:677,at:1), (pv:678,at:2), (pv:679,at:2), (pv:680,at:6), (pv:681,at:27), (pv:682,at:1), (pv:683,at:22), (pv:684,at:10), (pv:685,at:2), (pv:686,at:4), (pv:687,at:1), (pv:688,at:3), (pv:689,at:4), (pv:690,at:3), (pv:691,at:3), (pv:692,at:3), (pv:693,at:7), (pv:694,at:3), (pv:695,at:6), (pv:696,at:6), (pv:697,at:10), (pv:698,at:5), (pv:699,at:2), (pv:700,at:10), (pv:701,at:10), (pv:702,at:5), (pv:703,at:2), (pv:704,at:8), (pv:705,at:8), (pv:706,at:5), (pv:707,at:1), (pv:708,at:4), (pv:709,at:2), (pv:710,at:1), (pv:711,at:6), (pv:712,at:1), (pv:713,at:11), (pv:714,at:2), (pv:715,at:1), (pv:716,at:1), (pv:717,at:8), (pv:718,at:6), (pv:719,at:7), (pv:720,at:2), (pv:721,at:7), (pv:722,at:3), (pv:723,at:6), (pv:724,at:2), (pv:725,at:3), (pv:726,at:2), (pv:727,at:1), (pv:728,at:1), (pv:729,at:6), (pv:730,at:2), (pv:731,at:3), (pv:732,at:8), (pv:733,at:4), (pv:734,at:6), (pv:735,at:5), (pv:736,at:3), (pv:737,at:8), (pv:738,at:14), (pv:739,at:6), (pv:740,at:4), (pv:741,at:2), (pv:742,at:7), (pv:743,at:5), (pv:744,at:2), (pv:745,at:1), (pv:746,at:7), (pv:747,at:4), (pv:748,at:6), (pv:749,at:1), (pv:750,at:5), (pv:751,at:4), (pv:752,at:2), (pv:753,at:7), (pv:754,at:3), (pv:755,at:6), (pv:756,at:1), (pv:757,at:1), (pv:758,at:3), (pv:759,at:4), (pv:760,at:14), (pv:761,at:4), (pv:762,at:12), (pv:763,at:8), (pv:764,at:2), (pv:765,at:7), (pv:766,at:3), (pv:767,at:8), (pv:768,at:20), (pv:769,at:1), (pv:770,at:3), (pv:771,at:11), (pv:772,at:2), (pv:773,at:3), (pv:774,at:2), (pv:775,at:21), (pv:776,at:6), (pv:777,at:1), (pv:778,at:4), (pv:779,at:1), (pv:780,at:7), (pv:781,at:3), (pv:782,at:4), (pv:783,at:3), (pv:784,at:6), (pv:785,at:7), (pv:786,at:17), (pv:787,at:5), (pv:788,at:3), (pv:789,at:20), (pv:790,at:1), (pv:791,at:4), (pv:792,at:5), (pv:793,at:2), (pv:794,at:15), (pv:795,at:2), (pv:796,at:11), (pv:797,at:4), (pv:798,at:17), (pv:799,at:2), (pv:800,at:18), (pv:801,at:12), (pv:802,at:1), (pv:803,at:7), (pv:804,at:8), (pv:805,at:11), (pv:806,at:2), (pv:807,at:3), (pv:808,at:3), (pv:809,at:8), (pv:810,at:1), (pv:811,at:8), (pv:812,at:2), (pv:813,at:6), (pv:814,at:2), (pv:815,at:2), (pv:816,at:4), (pv:817,at:7), (pv:818,at:5), (pv:819,at:6), (pv:820,at:10), (pv:821,at:2), (pv:822,at:9), (pv:823,at:11), (pv:824,at:5), (pv:825,at:11), (pv:826,at:1), (pv:827,at:3), (pv:828,at:2), (pv:829,at:2), (pv:830,at:3), (pv:831,at:5), (pv:832,at:2), (pv:833,at:3), (pv:834,at:3), (pv:835,at:2), (pv:836,at:2), (pv:837,at:7), (pv:838,at:13), (pv:839,at:3), (pv:840,at:3), (pv:841,at:4), (pv:842,at:7), (pv:843,at:1), (pv:844,at:4), (pv:845,at:2), (pv:846,at:3), (pv:847,at:1), (pv:848,at:29), (pv:849,at:3), (pv:850,at:4), (pv:851,at:7), (pv:852,at:3), (pv:853,at:3), (pv:854,at:9), (pv:855,at:1), (pv:856,at:3), (pv:857,at:2), (pv:858,at:3), (pv:859,at:1), (pv:860,at:3), (pv:861,at:8), (pv:862,at:5), (pv:863,at:1), (pv:864,at:8), (pv:865,at:1), (pv:866,at:4), (pv:867,at:1), (pv:868,at:8), (pv:869,at:1), (pv:870,at:4), (pv:871,at:1), (pv:872,at:21), (pv:873,at:7), (pv:874,at:1), (pv:875,at:2), (pv:876,at:5), (pv:877,at:4), (pv:878,at:6), (pv:879,at:1), (pv:880,at:13), (pv:881,at:1), (pv:882,at:2), (pv:883,at:8), (pv:884,at:2), (pv:885,at:2), (pv:886,at:1), (pv:887,at:2), (pv:888,at:2), (pv:889,at:6), (pv:890,at:13), (pv:891,at:6), (pv:892,at:4), (pv:893,at:3), (pv:894,at:3), (pv:895,at:6), (pv:896,at:7), (pv:897,at:2), (pv:898,at:2), (pv:899,at:6), (pv:900,at:4), (pv:901,at:1), (pv:902,at:7), (pv:903,at:4), (pv:904,at:2), (pv:905,at:1), (pv:906,at:1), (pv:907,at:1), (pv:908,at:1), (pv:909,at:1), (pv:910,at:1), (pv:911,at:1), (pv:912,at:5), (pv:913,at:8), (pv:914,at:13), (pv:915,at:7), (pv:916,at:5), (pv:917,at:6), (pv:918,at:15), (pv:919,at:3), (pv:920,at:3), (pv:921,at:9), (pv:922,at:1), (pv:923,at:9), (pv:924,at:10), (pv:925,at:2), (pv:926,at:1), (pv:927,at:4), (pv:928,at:3), (pv:929,at:11), (pv:930,at:1), (pv:931,at:6), (pv:932,at:5), (pv:933,at:3), (pv:934,at:3), (pv:935,at:10), (pv:936,at:1), (pv:937,at:1), (pv:938,at:4), (pv:939,at:4), (pv:940,at:3), (pv:941,at:16), (pv:942,at:7), (pv:943,at:4), (pv:944,at:1), (pv:945,at:3), (pv:946,at:3), (pv:947,at:3), (pv:948,at:7), (pv:949,at:7), (pv:950,at:6), (pv:951,at:7), (pv:952,at:18), (pv:953,at:2), (pv:954,at:1), (pv:955,at:3), (pv:956,at:1), (pv:957,at:3), (pv:958,at:11), (pv:959,at:7), (pv:960,at:5), (pv:961,at:6), (pv:962,at:1), (pv:963,at:19), (pv:964,at:4), (pv:965,at:17), (pv:966,at:6), (pv:967,at:1), (pv:968,at:33), (pv:969,at:1), (pv:970,at:18), (pv:971,at:8), (pv:972,at:4), (pv:973,at:3), (pv:974,at:13), (pv:975,at:5), (pv:976,at:11), (pv:977,at:4), (pv:978,at:1), (pv:979,at:2), (pv:980,at:10), (pv:981,at:3), (pv:982,at:4), (pv:983,at:2), (pv:984,at:3), (pv:985,at:2), (pv:986,at:2), (pv:987,at:5), (pv:988,at:3), (pv:989,at:7), (pv:990,at:1), (pv:991,at:2), (pv:992,at:1), (pv:993,at:8), (pv:994,at:4), (pv:995,at:1), (pv:996,at:7), (pv:997,at:1), (pv:998,at:4), (pv:999,at:2), (pv:1000,at:7), (pv:1001,at:4), (pv:1002,at:7), (pv:1003,at:3), (pv:1004,at:2), (pv:1005,at:4), (pv:1006,at:1), (pv:1007,at:2), (pv:1008,at:5), (pv:1009,at:4), (pv:1010,at:5), (pv:1011,at:4), (pv:1012,at:3), (pv:1013,at:2), (pv:1014,at:2), (pv:1015,at:1), (pv:1016,at:2), (pv:1017,at:7), (pv:1018,at:1), (pv:1019,at:1), (pv:1020,at:1), (pv:1021,at:5), (pv:1022,at:1), (pv:1023,at:2), (pv:1024,at:1), (pv:1025,at:9), (pv:1026,at:2), (pv:1027,at:4), (pv:1028,at:2), (pv:1029,at:1), (pv:1030,at:2), (pv:1031,at:7), (pv:1032,at:2), (pv:1033,at:12), (pv:1034,at:13), (pv:1035,at:2), (pv:1036,at:3), (pv:1037,at:12), (pv:1038,at:4), (pv:1039,at:3), (pv:1040,at:3), (pv:1041,at:17), (pv:1042,at:2), (pv:1043,at:6), (pv:1044,at:1), (pv:1045,at:2), (pv:1046,at:2), (pv:1047,at:3), (pv:1048,at:1), (pv:1049,at:1), (pv:1050,at:18), (pv:1051,at:1), (pv:1052,at:14), (pv:1053,at:2), (pv:1054,at:4), (pv:1055,at:4), (pv:1056,at:2), (pv:1057,at:1), (pv:1058,at:2), (pv:1059,at:15), (pv:1060,at:2), (pv:1061,at:1), (pv:1062,at:3), (pv:1063,at:1), (pv:1064,at:6), (pv:1065,at:3), (pv:1066,at:23), (pv:1067,at:1), (pv:1068,at:2), (pv:1069,at:2), (pv:1070,at:1), (pv:1071,at:1), (pv:1072,at:4), (pv:1073,at:2), (pv:1074,at:3), (pv:1075,at:4), (pv:1076,at:4), (pv:1077,at:20), (pv:1078,at:1), (pv:1079,at:13), (pv:1080,at:16), (pv:1081,at:15), (pv:1082,at:3), (pv:1083,at:1), (pv:1084,at:1), (pv:1085,at:5), (pv:1086,at:1), (pv:1087,at:1), (pv:1088,at:1), (pv:1089,at:16), (pv:1090,at:11), (pv:1091,at:5), (pv:1092,at:1), (pv:1093,at:1), (pv:1094,at:4), (pv:1095,at:3), (pv:1096,at:1), (pv:1097,at:2), (pv:1098,at:1), (pv:1099,at:4), (pv:1100,at:2), (pv:1101,at:5), (pv:1102,at:2), (pv:1103,at:5), (pv:1104,at:2), (pv:1105,at:2), (pv:1106,at:3), (pv:1107,at:2), (pv:1108,at:1), (pv:1109,at:2), (pv:1110,at:1), (pv:1111,at:3), (pv:1112,at:1), (pv:1113,at:1), (pv:1114,at:11), (pv:1115,at:6), (pv:1116,at:27), (pv:1117,at:26), (pv:1118,at:4), (pv:1119,at:3), (pv:1120,at:5), (pv:1121,at:6), (pv:1122,at:7), (pv:1123,at:1), (pv:1124,at:1), (pv:1125,at:2), (pv:1126,at:24), (pv:1127,at:2), (pv:1128,at:1), (pv:1129,at:4), (pv:1130,at:2), (pv:1131,at:2), (pv:1132,at:1), (pv:1133,at:10), (pv:1134,at:1), (pv:1135,at:1), (pv:1136,at:1), (pv:1137,at:1), (pv:1138,at:2), (pv:1139,at:2), (pv:1140,at:3), (pv:1141,at:3), (pv:1142,at:1), (pv:1143,at:5), (pv:1144,at:5), (pv:1145,at:1), (pv:1146,at:6), (pv:1147,at:1), (pv:1148,at:2), (pv:1149,at:7), (pv:1150,at:5), (pv:1151,at:1), (pv:1152,at:18), (pv:1153,at:7), (pv:1154,at:1), (pv:1155,at:7), (pv:1156,at:5), (pv:1157,at:3), (pv:1158,at:6), (pv:1159,at:6), (pv:1160,at:3), (pv:1161,at:1), (pv:1162,at:1), (pv:1163,at:7), (pv:1164,at:2), (pv:1165,at:4), (pv:1166,at:11), (pv:1167,at:8), (pv:1168,at:10), (pv:1169,at:3), (pv:1170,at:1), (pv:1171,at:3), (pv:1172,at:2), (pv:1173,at:6), (pv:1174,at:1), (pv:1175,at:1), (pv:1176,at:1), (pv:1177,at:2), (pv:1178,at:1), (pv:1179,at:1), (pv:1180,at:1), (pv:1181,at:4), (pv:1182,at:2), (pv:1183,at:32), (pv:1184,at:5), (pv:1185,at:5), (pv:1186,at:3), (pv:1187,at:5), (pv:1188,at:4), (pv:1189,at:9), (pv:1190,at:3), (pv:1191,at:12), (pv:1192,at:5), (pv:1193,at:1), (pv:1194,at:8), (pv:1195,at:4), (pv:1196,at:1), (pv:1197,at:13), (pv:1198,at:7), (pv:1199,at:7), (pv:1200,at:2), (pv:1201,at:4), (pv:1202,at:1), (pv:1203,at:1), (pv:1204,at:3), (pv:1205,at:1), (pv:1206,at:3), (pv:1207,at:2), (pv:1208,at:1), (pv:1209,at:1), (pv:1210,at:2), (pv:1211,at:2), (pv:1212,at:14), (pv:1213,at:6), (pv:1214,at:1), (pv:1215,at:2), (pv:1216,at:1), (pv:1217,at:4), (pv:1218,at:4), (pv:1219,at:4), (pv:1220,at:9), (pv:1221,at:1), (pv:1222,at:6), (pv:1223,at:3), (pv:1224,at:4), (pv:1225,at:1), (pv:1226,at:6), (pv:1227,at:6), (pv:1228,at:10), (pv:1229,at:1), (pv:1230,at:8), (pv:1231,at:1), (pv:1232,at:4), (pv:1233,at:8), (pv:1234,at:3), (pv:1235,at:16), (pv:1236,at:15), (pv:1237,at:16), (pv:1238,at:3), (pv:1239,at:9), (pv:1240,at:1), (pv:1241,at:9), (pv:1242,at:6), (pv:1243,at:5), (pv:1244,at:9), (pv:1245,at:1), (pv:1246,at:2), (pv:1247,at:2), (pv:1248,at:23), (pv:1249,at:2), (pv:1250,at:3), (pv:1251,at:9), (pv:1252,at:1), (pv:1253,at:2), (pv:1254,at:5), (pv:1255,at:9), (pv:1256,at:8), (pv:1257,at:3), (pv:1258,at:1), (pv:1259,at:5), (pv:1260,at:6), (pv:1261,at:3), (pv:1262,at:4), (pv:1263,at:9), (pv:1264,at:2), (pv:1265,at:1), (pv:1266,at:17), (pv:1267,at:2), (pv:1268,at:8), (pv:1269,at:4), (pv:1270,at:3), (pv:1271,at:1), (pv:1272,at:1), (pv:1273,at:1), (pv:1274,at:6), (pv:1275,at:3), (pv:1276,at:2), (pv:1277,at:1), (pv:1278,at:10), (pv:1279,at:1), (pv:1280,at:3), (pv:1281,at:2), (pv:1282,at:2), (pv:1283,at:24), (pv:1284,at:2), (pv:1285,at:3), (pv:1286,at:2), (pv:1287,at:31), (pv:1288,at:1), (pv:1289,at:1), (pv:1290,at:8), (pv:1291,at:9), (pv:1292,at:1), (pv:1293,at:3), (pv:1294,at:2), (pv:1295,at:1), (pv:1296,at:2), (pv:1297,at:2), (pv:1298,at:4), (pv:1299,at:9), (pv:1300,at:3), (pv:1301,at:1), (pv:1302,at:14), (pv:1303,at:3), (pv:1304,at:2), (pv:1305,at:8), (pv:1306,at:2), (pv:1307,at:1), (pv:1308,at:5), (pv:1309,at:1), (pv:1310,at:8), (pv:1311,at:9), (pv:1312,at:3), (pv:1313,at:7), (pv:1314,at:12), (pv:1315,at:2), (pv:1316,at:8), (pv:1317,at:5), (pv:1318,at:2), (pv:1319,at:2), (pv:1320,at:1), (pv:1321,at:15), (pv:1322,at:2), (pv:1323,at:3), (pv:1324,at:1), (pv:1325,at:3), (pv:1326,at:3), (pv:1327,at:4), (pv:1328,at:7), (pv:1329,at:2), (pv:1330,at:5), (pv:1331,at:13), (pv:1332,at:4), (pv:1333,at:3), (pv:1334,at:9), (pv:1335,at:3), (pv:1336,at:4), (pv:1337,at:6), (pv:1338,at:1), (pv:1339,at:6), (pv:1340,at:10), (pv:1341,at:9), (pv:1342,at:10), (pv:1343,at:11), (pv:1344,at:5), (pv:1345,at:2), (pv:1346,at:12), (pv:1347,at:8), (pv:1348,at:2), (pv:1349,at:3), (pv:1350,at:19), (pv:1351,at:2), (pv:1352,at:3), (pv:1353,at:5), (pv:1354,at:5), (pv:1355,at:1), (pv:1356,at:2), (pv:1357,at:6), (pv:1358,at:2), (pv:1359,at:2), (pv:1360,at:7), (pv:1361,at:2), (pv:1362,at:3), (pv:1363,at:2), (pv:1364,at:1), (pv:1365,at:2), (pv:1366,at:2), (pv:1367,at:2), (pv:1368,at:1), (pv:1369,at:1), (pv:1370,at:2), (pv:1371,at:1), (pv:1372,at:30), (pv:1373,at:2), (pv:1374,at:11), (pv:1375,at:6), (pv:1376,at:2), (pv:1377,at:14), (pv:1378,at:11), (pv:1379,at:6), (pv:1380,at:2), (pv:1381,at:4), (pv:1382,at:2), (pv:1383,at:3), (pv:1384,at:14), (pv:1385,at:1), (pv:1386,at:2), (pv:1387,at:1), (pv:1388,at:1), (pv:1389,at:4), (pv:1390,at:4), (pv:1391,at:4), (pv:1392,at:10), (pv:1393,at:5), (pv:1394,at:1), (pv:1395,at:6), (pv:1396,at:2), (pv:1397,at:2), (pv:1398,at:3), (pv:1399,at:1), (pv:1400,at:2), (pv:1401,at:8), (pv:1402,at:4), (pv:1403,at:2), (pv:1404,at:1), (pv:1405,at:11), (pv:1406,at:2), (pv:1407,at:9), (pv:1408,at:3), (pv:1409,at:1), (pv:1410,at:3), (pv:1411,at:4), (pv:1412,at:12), (pv:1413,at:14), (pv:1414,at:7), (pv:1415,at:3), (pv:1416,at:2), (pv:1417,at:4), (pv:1418,at:7), (pv:1419,at:4), (pv:1420,at:5), (pv:1421,at:2), (pv:1422,at:14), (pv:1423,at:1), (pv:1424,at:2), (pv:1425,at:2), (pv:1426,at:3), (pv:1427,at:3), (pv:1428,at:5), (pv:1429,at:9), (pv:1430,at:5), (pv:1431,at:3), (pv:1432,at:12), (pv:1433,at:9), (pv:1434,at:4), (pv:1435,at:2), (pv:1436,at:4), (pv:1437,at:2), (pv:1438,at:4), (pv:1439,at:1), (pv:1440,at:1), (pv:1441,at:6), (pv:1442,at:1), (pv:1443,at:3), (pv:1444,at:1), (pv:1445,at:4), (pv:1446,at:1), (pv:1447,at:1), (pv:1448,at:1), (pv:1449,at:1), (pv:1450,at:1), (pv:1451,at:1), (pv:1452,at:4), (pv:1453,at:2), (pv:1454,at:2), (pv:1455,at:4), (pv:1456,at:6), (pv:1457,at:19), (pv:1458,at:11), (pv:1459,at:20), (pv:1460,at:2), (pv:1461,at:3), (pv:1462,at:1), (pv:1463,at:7), (pv:1464,at:5), (pv:1465,at:1), (pv:1466,at:9), (pv:1467,at:8)]
2017-03-25 17:55:32,773 INFO main - 
pvariants_with_transformed_ingredients: [(pv:2,at:5), (pv:3,at:1), (pv:4,at:20), (pv:5,at:7), (pv:6,at:2), (pv:7,at:8), (pv:8,at:1), (pv:9,at:5), (pv:10,at:3), (pv:11,at:9), (pv:12,at:3), (pv:13,at:2), (pv:14,at:1), (pv:15,at:3), (pv:16,at:6), (pv:17,at:17), (pv:18,at:3), (pv:19,at:2), (pv:20,at:4), (pv:21,at:14), (pv:22,at:1), (pv:23,at:8), (pv:24,at:14), (pv:25,at:8), (pv:26,at:2), (pv:27,at:19), (pv:28,at:2), (pv:29,at:7), (pv:30,at:1), (pv:31,at:1), (pv:32,at:1), (pv:33,at:11), (pv:34,at:14), (pv:35,at:1), (pv:36,at:3), (pv:37,at:22), (pv:38,at:6), (pv:39,at:4), (pv:40,at:15), (pv:41,at:2), (pv:42,at:2), (pv:43,at:2), (pv:44,at:10), (pv:45,at:16), (pv:46,at:1), (pv:47,at:6), (pv:48,at:1), (pv:49,at:3), (pv:50,at:21), (pv:51,at:5), (pv:52,at:3), (pv:53,at:1), (pv:54,at:1), (pv:55,at:2), (pv:56,at:1), (pv:57,at:1), (pv:58,at:1), (pv:59,at:2), (pv:60,at:4), (pv:61,at:1), (pv:62,at:3), (pv:63,at:2), (pv:64,at:6), (pv:65,at:2), (pv:66,at:4), (pv:67,at:2), (pv:68,at:3), (pv:69,at:1), (pv:70,at:1), (pv:71,at:4), (pv:72,at:6), (pv:73,at:4), (pv:74,at:12), (pv:75,at:1), (pv:76,at:4), (pv:77,at:17), (pv:78,at:7), (pv:79,at:9), (pv:80,at:11), (pv:81,at:1), (pv:82,at:2), (pv:83,at:9), (pv:84,at:4), (pv:85,at:27), (pv:86,at:7), (pv:87,at:1), (pv:88,at:2), (pv:89,at:2), (pv:90,at:14), (pv:91,at:2), (pv:92,at:3), (pv:93,at:1), (pv:94,at:5), (pv:95,at:1), (pv:96,at:6), (pv:97,at:3), (pv:98,at:5), (pv:99,at:2), (pv:100,at:2), (pv:101,at:8), (pv:102,at:2), (pv:103,at:2), (pv:104,at:1), (pv:105,at:5), (pv:106,at:13), (pv:107,at:4), (pv:108,at:3), (pv:109,at:2), (pv:110,at:2), (pv:111,at:1), (pv:112,at:7), (pv:113,at:5), (pv:114,at:3), (pv:115,at:1), (pv:116,at:10), (pv:117,at:1), (pv:118,at:5), (pv:119,at:2), (pv:120,at:11), (pv:121,at:6), (pv:122,at:3), (pv:123,at:13), (pv:124,at:11), (pv:125,at:8), (pv:126,at:1), (pv:127,at:8), (pv:128,at:3), (pv:129,at:4), (pv:130,at:8), (pv:131,at:6), (pv:132,at:1), (pv:133,at:3), (pv:134,at:4), (pv:135,at:9), (pv:136,at:3), (pv:137,at:6), (pv:138,at:1), (pv:139,at:5), (pv:140,at:1), (pv:141,at:1), (pv:142,at:3), (pv:143,at:7), (pv:144,at:6), (pv:145,at:2), (pv:146,at:5), (pv:147,at:5), (pv:148,at:11), (pv:149,at:5), (pv:150,at:1), (pv:151,at:2), (pv:152,at:4), (pv:153,at:8), (pv:154,at:5), (pv:155,at:8), (pv:156,at:2), (pv:157,at:8), (pv:158,at:1), (pv:159,at:2), (pv:160,at:13), (pv:161,at:3), (pv:162,at:1), (pv:163,at:6), (pv:164,at:4), (pv:165,at:6), (pv:166,at:1), (pv:167,at:1), (pv:168,at:15), (pv:169,at:7), (pv:170,at:23), (pv:171,at:1), (pv:172,at:1), (pv:173,at:14), (pv:174,at:2), (pv:175,at:2), (pv:176,at:14), (pv:177,at:3), (pv:178,at:2), (pv:179,at:5), (pv:180,at:1), (pv:181,at:2), (pv:182,at:8), (pv:183,at:10), (pv:184,at:6), (pv:185,at:1), (pv:186,at:12), (pv:187,at:1), (pv:188,at:4), (pv:189,at:3), (pv:190,at:1), (pv:191,at:1), (pv:192,at:1), (pv:193,at:6), (pv:194,at:1), (pv:195,at:2), (pv:196,at:1), (pv:197,at:1), (pv:198,at:7), (pv:199,at:1), (pv:200,at:4), (pv:201,at:1), (pv:202,at:7), (pv:203,at:5), (pv:204,at:4), (pv:205,at:4), (pv:206,at:7), (pv:207,at:4), (pv:208,at:7), (pv:209,at:3), (pv:210,at:4), (pv:211,at:9), (pv:212,at:21), (pv:213,at:1), (pv:214,at:3), (pv:215,at:1), (pv:216,at:3), (pv:217,at:8), (pv:218,at:3), (pv:219,at:4), (pv:220,at:14), (pv:221,at:15), (pv:222,at:9), (pv:223,at:7), (pv:224,at:6), (pv:225,at:6), (pv:226,at:13), (pv:227,at:12), (pv:228,at:4), (pv:229,at:7), (pv:230,at:6), (pv:231,at:1), (pv:232,at:4), (pv:233,at:8), (pv:234,at:3), (pv:235,at:9), (pv:236,at:2), (pv:237,at:1), (pv:238,at:3), (pv:239,at:6), (pv:240,at:1), (pv:241,at:1), (pv:242,at:2), (pv:243,at:3), (pv:244,at:3), (pv:245,at:5), (pv:246,at:3), (pv:247,at:2), (pv:248,at:8), (pv:249,at:2), (pv:250,at:15), (pv:251,at:1), (pv:252,at:1), (pv:253,at:11), (pv:254,at:3), (pv:255,at:3), (pv:256,at:5), (pv:257,at:1), (pv:258,at:1), (pv:259,at:3), (pv:260,at:1), (pv:261,at:6), (pv:262,at:2), (pv:263,at:8), (pv:264,at:5), (pv:265,at:2), (pv:266,at:8), (pv:267,at:4), (pv:268,at:1), (pv:269,at:3), (pv:270,at:1), (pv:271,at:5), (pv:272,at:1), (pv:273,at:2), (pv:274,at:7), (pv:275,at:2), (pv:276,at:6), (pv:277,at:17), (pv:278,at:19), (pv:279,at:4), (pv:280,at:2), (pv:281,at:9), (pv:282,at:8), (pv:283,at:1), (pv:284,at:4), (pv:285,at:1), (pv:286,at:7), (pv:287,at:2), (pv:288,at:2), (pv:289,at:6), (pv:290,at:1), (pv:291,at:13), (pv:292,at:20), (pv:293,at:12), (pv:294,at:1), (pv:295,at:8), (pv:296,at:1), (pv:297,at:12), (pv:298,at:7), (pv:299,at:2), (pv:300,at:5), (pv:301,at:3), (pv:302,at:7), (pv:303,at:5), (pv:304,at:1), (pv:305,at:7), (pv:306,at:3), (pv:307,at:33), (pv:308,at:11), (pv:309,at:3), (pv:310,at:7), (pv:311,at:9), (pv:312,at:2), (pv:313,at:4), (pv:314,at:1), (pv:315,at:2), (pv:316,at:14), (pv:317,at:7), (pv:318,at:9), (pv:319,at:7), (pv:320,at:4), (pv:321,at:4), (pv:322,at:1), (pv:323,at:11), (pv:324,at:3), (pv:325,at:5), (pv:326,at:1), (pv:327,at:19), (pv:328,at:4), (pv:329,at:2), (pv:330,at:3), (pv:331,at:9), (pv:332,at:2), (pv:333,at:17), (pv:334,at:1), (pv:335,at:2), (pv:336,at:5), (pv:337,at:4), (pv:338,at:3), (pv:339,at:3), (pv:340,at:2), (pv:341,at:1), (pv:342,at:5), (pv:343,at:6), (pv:344,at:8), (pv:345,at:2), (pv:346,at:1), (pv:347,at:7), (pv:348,at:2), (pv:349,at:2), (pv:350,at:21), (pv:351,at:3), (pv:352,at:2), (pv:353,at:2), (pv:354,at:14), (pv:355,at:7), (pv:356,at:3), (pv:357,at:3), (pv:358,at:4), (pv:359,at:3), (pv:360,at:3), (pv:361,at:3), (pv:362,at:7), (pv:363,at:8), (pv:364,at:8), (pv:365,at:3), (pv:366,at:3), (pv:367,at:2), (pv:368,at:1), (pv:369,at:2), (pv:370,at:1), (pv:371,at:7), (pv:372,at:1), (pv:373,at:7), (pv:374,at:2), (pv:375,at:3), (pv:376,at:4), (pv:377,at:9), (pv:378,at:9), (pv:379,at:4), (pv:380,at:1), (pv:381,at:2), (pv:382,at:2), (pv:383,at:9), (pv:384,at:5), (pv:385,at:4), (pv:386,at:1), (pv:387,at:13), (pv:388,at:3), (pv:389,at:14), (pv:390,at:13), (pv:391,at:4), (pv:392,at:3), (pv:393,at:2), (pv:394,at:4), (pv:395,at:2), (pv:396,at:1), (pv:397,at:2), (pv:398,at:2), (pv:399,at:2), (pv:400,at:7), (pv:401,at:8), (pv:402,at:6), (pv:403,at:8), (pv:404,at:3), (pv:405,at:8), (pv:406,at:7), (pv:407,at:3), (pv:408,at:14), (pv:409,at:1), (pv:410,at:7), (pv:411,at:12), (pv:412,at:1), (pv:413,at:1), (pv:414,at:5), (pv:415,at:2), (pv:416,at:1), (pv:417,at:8), (pv:418,at:2), (pv:419,at:6), (pv:420,at:1), (pv:421,at:5), (pv:422,at:3), (pv:423,at:6), (pv:424,at:8), (pv:425,at:4), (pv:426,at:2), (pv:427,at:4), (pv:428,at:2), (pv:429,at:9), (pv:430,at:2), (pv:431,at:2), (pv:432,at:6), (pv:433,at:6), (pv:434,at:10), (pv:435,at:13), (pv:436,at:2), (pv:437,at:1), (pv:438,at:2), (pv:439,at:1), (pv:440,at:8), (pv:441,at:4), (pv:442,at:5), (pv:443,at:1), (pv:444,at:1), (pv:445,at:1), (pv:446,at:8), (pv:447,at:8), (pv:448,at:3), (pv:449,at:1), (pv:450,at:9), (pv:451,at:3), (pv:452,at:11), (pv:453,at:5), (pv:454,at:13), (pv:455,at:2), (pv:456,at:5), (pv:457,at:4), (pv:458,at:6), (pv:459,at:2), (pv:460,at:7), (pv:461,at:11), (pv:462,at:6), (pv:463,at:3), (pv:464,at:7), (pv:465,at:14), (pv:466,at:5), (pv:467,at:1), (pv:468,at:5), (pv:469,at:11), (pv:470,at:1), (pv:471,at:9), (pv:472,at:3), (pv:473,at:3), (pv:474,at:44), (pv:475,at:3), (pv:476,at:1), (pv:477,at:2), (pv:478,at:2), (pv:479,at:1), (pv:480,at:6), (pv:481,at:1), (pv:482,at:5), (pv:483,at:2), (pv:484,at:6), (pv:485,at:2), (pv:486,at:4), (pv:487,at:1), (pv:488,at:3), (pv:489,at:3), (pv:490,at:7), (pv:491,at:5), (pv:492,at:2), (pv:493,at:3), (pv:494,at:18), (pv:495,at:3), (pv:496,at:11), (pv:497,at:9), (pv:498,at:2), (pv:499,at:1), (pv:500,at:3), (pv:501,at:5), (pv:502,at:2), (pv:503,at:13), (pv:504,at:1), (pv:505,at:25), (pv:506,at:1), (pv:507,at:3), (pv:508,at:5), (pv:509,at:3), (pv:510,at:6), (pv:511,at:5), (pv:512,at:3), (pv:513,at:3), (pv:514,at:9), (pv:515,at:2), (pv:516,at:1), (pv:517,at:22), (pv:518,at:1), (pv:519,at:12), (pv:520,at:1), (pv:521,at:1), (pv:522,at:2), (pv:523,at:1), (pv:524,at:1), (pv:525,at:4), (pv:526,at:5), (pv:527,at:5), (pv:528,at:1), (pv:529,at:4), (pv:530,at:5), (pv:531,at:17), (pv:532,at:1), (pv:533,at:3), (pv:534,at:3), (pv:535,at:19), (pv:536,at:1), (pv:537,at:9), (pv:538,at:4), (pv:539,at:2), (pv:540,at:1), (pv:541,at:3), (pv:542,at:3), (pv:543,at:1), (pv:544,at:26), (pv:545,at:3), (pv:546,at:4), (pv:547,at:2), (pv:548,at:1), (pv:549,at:2), (pv:550,at:3), (pv:551,at:5), (pv:552,at:1), (pv:553,at:1), (pv:554,at:3), (pv:555,at:5), (pv:556,at:2), (pv:557,at:1), (pv:558,at:2), (pv:559,at:3), (pv:560,at:1), (pv:561,at:4), (pv:562,at:8), (pv:563,at:13), (pv:564,at:4), (pv:565,at:1), (pv:566,at:2), (pv:567,at:1), (pv:568,at:2), (pv:569,at:3), (pv:570,at:2), (pv:571,at:3), (pv:572,at:5), (pv:573,at:1), (pv:574,at:18), (pv:575,at:4), (pv:576,at:1), (pv:577,at:3), (pv:578,at:5), (pv:579,at:3), (pv:580,at:7), (pv:581,at:6), (pv:582,at:12), (pv:583,at:6), (pv:584,at:9), (pv:585,at:9), (pv:586,at:9), (pv:587,at:12), (pv:588,at:9), (pv:589,at:1), (pv:590,at:8), (pv:591,at:1), (pv:592,at:16), (pv:593,at:4), (pv:594,at:12), (pv:595,at:3), (pv:596,at:1), (pv:597,at:5), (pv:598,at:1), (pv:599,at:2), (pv:600,at:3), (pv:601,at:2), (pv:602,at:23), (pv:603,at:1), (pv:604,at:2), (pv:605,at:6), (pv:606,at:1), (pv:607,at:2), (pv:608,at:1), (pv:609,at:14), (pv:610,at:3), (pv:611,at:5), (pv:612,at:9), (pv:613,at:3), (pv:614,at:2), (pv:615,at:1), (pv:616,at:7), (pv:617,at:5), (pv:618,at:1), (pv:619,at:3), (pv:620,at:10), (pv:621,at:4), (pv:622,at:9), (pv:623,at:4), (pv:624,at:1), (pv:625,at:5), (pv:626,at:9), (pv:627,at:1), (pv:628,at:14), (pv:629,at:1), (pv:630,at:5), (pv:631,at:1), (pv:632,at:1), (pv:633,at:2), (pv:634,at:2), (pv:635,at:1), (pv:636,at:27), (pv:637,at:7), (pv:638,at:1), (pv:639,at:3), (pv:640,at:2), (pv:641,at:1), (pv:642,at:2), (pv:643,at:22), (pv:644,at:6), (pv:645,at:5), (pv:646,at:16), (pv:647,at:3), (pv:648,at:5), (pv:649,at:1), (pv:650,at:6), (pv:651,at:6), (pv:652,at:7), (pv:653,at:6), (pv:654,at:2), (pv:655,at:15), (pv:656,at:12), (pv:657,at:6), (pv:658,at:10), (pv:659,at:2), (pv:660,at:2), (pv:661,at:7), (pv:662,at:1), (pv:663,at:17), (pv:664,at:3), (pv:665,at:4), (pv:666,at:12), (pv:667,at:6), (pv:668,at:15), (pv:669,at:12), (pv:670,at:17), (pv:671,at:1), (pv:672,at:6), (pv:673,at:1), (pv:674,at:7), (pv:675,at:2), (pv:676,at:5), (pv:677,at:1), (pv:678,at:2), (pv:679,at:2), (pv:680,at:6), (pv:681,at:27), (pv:682,at:1), (pv:683,at:22), (pv:684,at:10), (pv:685,at:2), (pv:686,at:4), (pv:687,at:1), (pv:688,at:3), (pv:689,at:4), (pv:690,at:3), (pv:691,at:3), (pv:692,at:3), (pv:693,at:7), (pv:694,at:3), (pv:695,at:6), (pv:696,at:6), (pv:697,at:10), (pv:698,at:5), (pv:699,at:2), (pv:700,at:10), (pv:701,at:10), (pv:702,at:5), (pv:703,at:2), (pv:704,at:8), (pv:705,at:8), (pv:706,at:5), (pv:707,at:1), (pv:708,at:4), (pv:709,at:2), (pv:710,at:1), (pv:711,at:6), (pv:712,at:1), (pv:713,at:11), (pv:714,at:2), (pv:715,at:1), (pv:716,at:1), (pv:717,at:8), (pv:718,at:6), (pv:719,at:7), (pv:720,at:2), (pv:721,at:7), (pv:722,at:3), (pv:723,at:6), (pv:724,at:2), (pv:725,at:3), (pv:726,at:2), (pv:727,at:1), (pv:728,at:1), (pv:729,at:6), (pv:730,at:2), (pv:731,at:3), (pv:732,at:8), (pv:733,at:4), (pv:734,at:6), (pv:735,at:5), (pv:736,at:3), (pv:737,at:8), (pv:738,at:14), (pv:739,at:6), (pv:740,at:4), (pv:741,at:2), (pv:742,at:7), (pv:743,at:5), (pv:744,at:2), (pv:745,at:1), (pv:746,at:7), (pv:747,at:4), (pv:748,at:6), (pv:749,at:1), (pv:750,at:5), (pv:751,at:4), (pv:752,at:2), (pv:753,at:7), (pv:754,at:3), (pv:755,at:6), (pv:756,at:1), (pv:757,at:1), (pv:758,at:3), (pv:759,at:4), (pv:760,at:14), (pv:761,at:4), (pv:762,at:12), (pv:763,at:8), (pv:764,at:2), (pv:765,at:7), (pv:766,at:3), (pv:767,at:8), (pv:768,at:20), (pv:769,at:1), (pv:770,at:3), (pv:771,at:11), (pv:772,at:2), (pv:773,at:3), (pv:774,at:2), (pv:775,at:21), (pv:776,at:6), (pv:777,at:1), (pv:778,at:4), (pv:779,at:1), (pv:780,at:7), (pv:781,at:3), (pv:782,at:4), (pv:783,at:3), (pv:784,at:6), (pv:785,at:7), (pv:786,at:17), (pv:787,at:5), (pv:788,at:3), (pv:789,at:20), (pv:790,at:1), (pv:791,at:4), (pv:792,at:5), (pv:793,at:2), (pv:794,at:15), (pv:795,at:2), (pv:796,at:11), (pv:797,at:4), (pv:798,at:17), (pv:799,at:2), (pv:800,at:18), (pv:801,at:12), (pv:802,at:1), (pv:803,at:7), (pv:804,at:8), (pv:805,at:11), (pv:806,at:2), (pv:807,at:3), (pv:808,at:3), (pv:809,at:8), (pv:810,at:1), (pv:811,at:8), (pv:812,at:2), (pv:813,at:6), (pv:814,at:2), (pv:815,at:2), (pv:816,at:4), (pv:817,at:7), (pv:818,at:5), (pv:819,at:6), (pv:820,at:10), (pv:821,at:2), (pv:822,at:9), (pv:823,at:11), (pv:824,at:5), (pv:825,at:11), (pv:826,at:1), (pv:827,at:3), (pv:828,at:2), (pv:829,at:2), (pv:830,at:3), (pv:831,at:5), (pv:832,at:2), (pv:833,at:3), (pv:834,at:3), (pv:835,at:2), (pv:836,at:2), (pv:837,at:7), (pv:838,at:13), (pv:839,at:3), (pv:840,at:3), (pv:841,at:4), (pv:842,at:7), (pv:843,at:1), (pv:844,at:4), (pv:845,at:2), (pv:846,at:3), (pv:847,at:1), (pv:848,at:29), (pv:849,at:3), (pv:850,at:4), (pv:851,at:7), (pv:852,at:3), (pv:853,at:3), (pv:854,at:9), (pv:855,at:1), (pv:856,at:3), (pv:857,at:2), (pv:858,at:3), (pv:859,at:1), (pv:860,at:3), (pv:861,at:8), (pv:862,at:5), (pv:863,at:1), (pv:864,at:8), (pv:865,at:1), (pv:866,at:4), (pv:867,at:1), (pv:868,at:8), (pv:869,at:1), (pv:870,at:4), (pv:871,at:1), (pv:872,at:21), (pv:873,at:7), (pv:874,at:1), (pv:875,at:2), (pv:876,at:5), (pv:877,at:4), (pv:878,at:6), (pv:879,at:1), (pv:880,at:13), (pv:881,at:1), (pv:882,at:2), (pv:883,at:8), (pv:884,at:2), (pv:885,at:2), (pv:886,at:1), (pv:887,at:2), (pv:888,at:2), (pv:889,at:6), (pv:890,at:13), (pv:891,at:6), (pv:892,at:4), (pv:893,at:3), (pv:894,at:3), (pv:895,at:6), (pv:896,at:7), (pv:897,at:2), (pv:898,at:2), (pv:899,at:6), (pv:900,at:4), (pv:901,at:1), (pv:902,at:7), (pv:903,at:4), (pv:904,at:2), (pv:905,at:1), (pv:906,at:1), (pv:907,at:1), (pv:908,at:1), (pv:909,at:1), (pv:910,at:1), (pv:911,at:1), (pv:912,at:5), (pv:913,at:8), (pv:914,at:13), (pv:915,at:7), (pv:916,at:5), (pv:917,at:6), (pv:918,at:15), (pv:919,at:3), (pv:920,at:3), (pv:921,at:9), (pv:922,at:1), (pv:923,at:9), (pv:924,at:10), (pv:925,at:2), (pv:926,at:1), (pv:927,at:4), (pv:928,at:3), (pv:929,at:11), (pv:930,at:1), (pv:931,at:6), (pv:932,at:5), (pv:933,at:3), (pv:934,at:3), (pv:935,at:10), (pv:936,at:1), (pv:937,at:1), (pv:938,at:4), (pv:939,at:4), (pv:940,at:3), (pv:941,at:16), (pv:942,at:7), (pv:943,at:4), (pv:944,at:1), (pv:945,at:3), (pv:946,at:3), (pv:947,at:3), (pv:948,at:7), (pv:949,at:7), (pv:950,at:6), (pv:951,at:7), (pv:952,at:18), (pv:953,at:2), (pv:954,at:1), (pv:955,at:3), (pv:956,at:1), (pv:957,at:3), (pv:958,at:11), (pv:959,at:7), (pv:960,at:5), (pv:961,at:6), (pv:962,at:1), (pv:963,at:19), (pv:964,at:4), (pv:965,at:17), (pv:966,at:6), (pv:967,at:1), (pv:968,at:33), (pv:969,at:1), (pv:970,at:18), (pv:971,at:8), (pv:972,at:4), (pv:973,at:3), (pv:974,at:13), (pv:975,at:5), (pv:976,at:11), (pv:977,at:4), (pv:978,at:1), (pv:979,at:2), (pv:980,at:10), (pv:981,at:3), (pv:982,at:4), (pv:983,at:2), (pv:984,at:3), (pv:985,at:2), (pv:986,at:2), (pv:987,at:5), (pv:988,at:3), (pv:989,at:7), (pv:990,at:1), (pv:991,at:2), (pv:992,at:1), (pv:993,at:8), (pv:994,at:4), (pv:995,at:1), (pv:996,at:7), (pv:997,at:1), (pv:998,at:4), (pv:999,at:2), (pv:1000,at:7), (pv:1001,at:4), (pv:1002,at:7), (pv:1003,at:3), (pv:1004,at:2), (pv:1005,at:4), (pv:1006,at:1), (pv:1007,at:2), (pv:1008,at:5), (pv:1009,at:4), (pv:1010,at:5), (pv:1011,at:4), (pv:1012,at:3), (pv:1013,at:2), (pv:1014,at:2), (pv:1015,at:1), (pv:1016,at:2), (pv:1017,at:7), (pv:1018,at:1), (pv:1019,at:1), (pv:1020,at:1), (pv:1021,at:5), (pv:1022,at:1), (pv:1023,at:2), (pv:1024,at:1), (pv:1025,at:9), (pv:1026,at:2), (pv:1027,at:4), (pv:1028,at:2), (pv:1029,at:1), (pv:1030,at:2), (pv:1031,at:7), (pv:1032,at:2), (pv:1033,at:12), (pv:1034,at:13), (pv:1035,at:2), (pv:1036,at:3), (pv:1037,at:12), (pv:1038,at:4), (pv:1039,at:3), (pv:1040,at:3), (pv:1041,at:17), (pv:1042,at:2), (pv:1043,at:6), (pv:1044,at:1), (pv:1045,at:2), (pv:1046,at:2), (pv:1047,at:3), (pv:1048,at:1), (pv:1049,at:1), (pv:1050,at:18), (pv:1051,at:1), (pv:1052,at:14), (pv:1053,at:2), (pv:1054,at:4), (pv:1055,at:4), (pv:1056,at:2), (pv:1057,at:1), (pv:1058,at:2), (pv:1059,at:15), (pv:1060,at:2), (pv:1061,at:1), (pv:1062,at:3), (pv:1063,at:1), (pv:1064,at:6), (pv:1065,at:3), (pv:1066,at:23), (pv:1067,at:1), (pv:1068,at:2), (pv:1069,at:2), (pv:1070,at:1), (pv:1071,at:1), (pv:1072,at:4), (pv:1073,at:2), (pv:1074,at:3), (pv:1075,at:4), (pv:1076,at:4), (pv:1077,at:20), (pv:1078,at:1), (pv:1079,at:13), (pv:1080,at:16), (pv:1081,at:15), (pv:1082,at:3), (pv:1083,at:1), (pv:1084,at:1), (pv:1085,at:5), (pv:1086,at:1), (pv:1087,at:1), (pv:1088,at:1), (pv:1089,at:16), (pv:1090,at:11), (pv:1091,at:5), (pv:1092,at:1), (pv:1093,at:1), (pv:1094,at:4), (pv:1095,at:3), (pv:1096,at:1), (pv:1097,at:2), (pv:1098,at:1), (pv:1099,at:4), (pv:1100,at:2), (pv:1101,at:5), (pv:1102,at:2), (pv:1103,at:5), (pv:1104,at:2), (pv:1105,at:2), (pv:1106,at:3), (pv:1107,at:2), (pv:1108,at:1), (pv:1109,at:2), (pv:1110,at:1), (pv:1111,at:3), (pv:1112,at:1), (pv:1113,at:1), (pv:1114,at:11), (pv:1115,at:6), (pv:1116,at:27), (pv:1117,at:26), (pv:1118,at:4), (pv:1119,at:3), (pv:1120,at:5), (pv:1121,at:6), (pv:1122,at:7), (pv:1123,at:1), (pv:1124,at:1), (pv:1125,at:2), (pv:1126,at:24), (pv:1127,at:2), (pv:1128,at:1), (pv:1129,at:4), (pv:1130,at:2), (pv:1131,at:2), (pv:1132,at:1), (pv:1133,at:10), (pv:1134,at:1), (pv:1135,at:1), (pv:1136,at:1), (pv:1137,at:1), (pv:1138,at:2), (pv:1139,at:2), (pv:1140,at:3), (pv:1141,at:3), (pv:1142,at:1), (pv:1143,at:5), (pv:1144,at:5), (pv:1145,at:1), (pv:1146,at:6), (pv:1147,at:1), (pv:1148,at:2), (pv:1149,at:7), (pv:1150,at:5), (pv:1151,at:1), (pv:1152,at:18), (pv:1153,at:7), (pv:1154,at:1), (pv:1155,at:7), (pv:1156,at:5), (pv:1157,at:3), (pv:1158,at:6), (pv:1159,at:6), (pv:1160,at:3), (pv:1161,at:1), (pv:1162,at:1), (pv:1163,at:7), (pv:1164,at:2), (pv:1165,at:4), (pv:1166,at:11), (pv:1167,at:8), (pv:1168,at:10), (pv:1169,at:3), (pv:1170,at:1), (pv:1171,at:3), (pv:1172,at:2), (pv:1173,at:6), (pv:1174,at:1), (pv:1175,at:1), (pv:1176,at:1), (pv:1177,at:2), (pv:1178,at:1), (pv:1179,at:1), (pv:1180,at:1), (pv:1181,at:4), (pv:1182,at:2), (pv:1183,at:32), (pv:1184,at:5), (pv:1185,at:5), (pv:1186,at:3), (pv:1187,at:5), (pv:1188,at:4), (pv:1189,at:9), (pv:1190,at:3), (pv:1191,at:12), (pv:1192,at:5), (pv:1193,at:1), (pv:1194,at:8), (pv:1195,at:4), (pv:1196,at:1), (pv:1197,at:13), (pv:1198,at:7), (pv:1199,at:7), (pv:1200,at:2), (pv:1201,at:4), (pv:1202,at:1), (pv:1203,at:1), (pv:1204,at:3), (pv:1205,at:1), (pv:1206,at:3), (pv:1207,at:2), (pv:1208,at:1), (pv:1209,at:1), (pv:1210,at:2), (pv:1211,at:2), (pv:1212,at:14), (pv:1213,at:6), (pv:1214,at:1), (pv:1215,at:2), (pv:1216,at:1), (pv:1217,at:4), (pv:1218,at:4), (pv:1219,at:4), (pv:1220,at:9), (pv:1221,at:1), (pv:1222,at:6), (pv:1223,at:3), (pv:1224,at:4), (pv:1225,at:1), (pv:1226,at:6), (pv:1227,at:6), (pv:1228,at:10), (pv:1229,at:1), (pv:1230,at:8), (pv:1231,at:1), (pv:1232,at:4), (pv:1233,at:8), (pv:1234,at:3), (pv:1235,at:16), (pv:1236,at:15), (pv:1237,at:16), (pv:1238,at:3), (pv:1239,at:9), (pv:1240,at:1), (pv:1241,at:9), (pv:1242,at:6), (pv:1243,at:5), (pv:1244,at:9), (pv:1245,at:1), (pv:1246,at:2), (pv:1247,at:2), (pv:1248,at:23), (pv:1249,at:2), (pv:1250,at:3), (pv:1251,at:9), (pv:1252,at:1), (pv:1253,at:2), (pv:1254,at:5), (pv:1255,at:9), (pv:1256,at:8), (pv:1257,at:3), (pv:1258,at:1), (pv:1259,at:5), (pv:1260,at:6), (pv:1261,at:3), (pv:1262,at:4), (pv:1263,at:9), (pv:1264,at:2), (pv:1265,at:1), (pv:1266,at:17), (pv:1267,at:2), (pv:1268,at:8), (pv:1269,at:4), (pv:1270,at:3), (pv:1271,at:1), (pv:1272,at:1), (pv:1273,at:1), (pv:1274,at:6), (pv:1275,at:3), (pv:1276,at:2), (pv:1277,at:1), (pv:1278,at:10), (pv:1279,at:1), (pv:1280,at:3), (pv:1281,at:2), (pv:1282,at:2), (pv:1283,at:24), (pv:1284,at:2), (pv:1285,at:3), (pv:1286,at:2), (pv:1287,at:31), (pv:1288,at:1), (pv:1289,at:1), (pv:1290,at:8), (pv:1291,at:9), (pv:1292,at:1), (pv:1293,at:3), (pv:1294,at:2), (pv:1295,at:1), (pv:1296,at:2), (pv:1297,at:2), (pv:1298,at:4), (pv:1299,at:9), (pv:1300,at:3), (pv:1301,at:1), (pv:1302,at:14), (pv:1303,at:3), (pv:1304,at:2), (pv:1305,at:8), (pv:1306,at:2), (pv:1307,at:1), (pv:1308,at:5), (pv:1309,at:1), (pv:1310,at:8), (pv:1311,at:9), (pv:1312,at:3), (pv:1313,at:7), (pv:1314,at:12), (pv:1315,at:2), (pv:1316,at:8), (pv:1317,at:5), (pv:1318,at:2), (pv:1319,at:2), (pv:1320,at:1), (pv:1321,at:15), (pv:1322,at:2), (pv:1323,at:3), (pv:1324,at:1), (pv:1325,at:3), (pv:1326,at:3), (pv:1327,at:4), (pv:1328,at:7), (pv:1329,at:2), (pv:1330,at:5), (pv:1331,at:13), (pv:1332,at:4), (pv:1333,at:3), (pv:1334,at:9), (pv:1335,at:3), (pv:1336,at:4), (pv:1337,at:6), (pv:1338,at:1), (pv:1339,at:6), (pv:1340,at:10), (pv:1341,at:9), (pv:1342,at:10), (pv:1343,at:11), (pv:1344,at:5), (pv:1345,at:2), (pv:1346,at:12), (pv:1347,at:8), (pv:1348,at:2), (pv:1349,at:3), (pv:1350,at:19), (pv:1351,at:2), (pv:1352,at:3), (pv:1353,at:5), (pv:1354,at:5), (pv:1355,at:1), (pv:1356,at:2), (pv:1357,at:6), (pv:1358,at:2), (pv:1359,at:2), (pv:1360,at:7), (pv:1361,at:2), (pv:1362,at:3), (pv:1363,at:2), (pv:1364,at:1), (pv:1365,at:2), (pv:1366,at:2), (pv:1367,at:2), (pv:1368,at:1), (pv:1369,at:1), (pv:1370,at:2), (pv:1371,at:1), (pv:1372,at:30), (pv:1373,at:2), (pv:1374,at:11), (pv:1375,at:6), (pv:1376,at:2), (pv:1377,at:14), (pv:1378,at:11), (pv:1379,at:6), (pv:1380,at:2), (pv:1381,at:4), (pv:1382,at:2), (pv:1383,at:3), (pv:1384,at:14), (pv:1385,at:1), (pv:1386,at:2), (pv:1387,at:1), (pv:1388,at:1), (pv:1389,at:4), (pv:1390,at:4), (pv:1391,at:4), (pv:1392,at:10), (pv:1393,at:5), (pv:1394,at:1), (pv:1395,at:6), (pv:1396,at:2), (pv:1397,at:2), (pv:1398,at:3), (pv:1399,at:1), (pv:1400,at:2), (pv:1401,at:8), (pv:1402,at:4), (pv:1403,at:2), (pv:1404,at:1), (pv:1405,at:11), (pv:1406,at:2), (pv:1407,at:9), (pv:1408,at:3), (pv:1409,at:1), (pv:1410,at:3), (pv:1411,at:4), (pv:1412,at:12), (pv:1413,at:14), (pv:1414,at:7), (pv:1415,at:3), (pv:1416,at:2), (pv:1417,at:4), (pv:1418,at:7), (pv:1419,at:4), (pv:1420,at:5), (pv:1421,at:2), (pv:1422,at:14), (pv:1423,at:1), (pv:1424,at:2), (pv:1425,at:2), (pv:1426,at:3), (pv:1427,at:3), (pv:1428,at:5), (pv:1429,at:9), (pv:1430,at:5), (pv:1431,at:3), (pv:1432,at:12), (pv:1433,at:9), (pv:1434,at:4), (pv:1435,at:2), (pv:1436,at:4), (pv:1437,at:2), (pv:1438,at:4), (pv:1439,at:1), (pv:1440,at:1), (pv:1441,at:6), (pv:1442,at:1), (pv:1443,at:3), (pv:1444,at:1), (pv:1445,at:4), (pv:1446,at:1), (pv:1447,at:1), (pv:1448,at:1), (pv:1449,at:1), (pv:1450,at:1), (pv:1451,at:1), (pv:1452,at:4), (pv:1453,at:2), (pv:1454,at:2), (pv:1455,at:4), (pv:1456,at:6), (pv:1457,at:19), (pv:1458,at:11), (pv:1459,at:20), (pv:1460,at:2), (pv:1461,at:3), (pv:1462,at:1), (pv:1463,at:7), (pv:1464,at:5), (pv:1465,at:1), (pv:1466,at:9), (pv:1467,at:8)]
2017-03-25 17:55:32,775 INFO fr.inria.main.evolution.AstorMain - Time Total(s): 10888.157
