Warning: no access to tty (Bad file descriptor).
Thus no job control in this shell.
tput: No value for $TERM and no -T specified
Node: wh20.sciclone.wm.edu
[INFO ] fr.inria.main.AbstractMain.processArguments(AbstractMain.java:295) - command line arguments: [-out  /local/scr/mtufano/Closure/121/b/random-global-embeddings/2  -jvm4testexecution  /usr/local/jdk1.7.0_80/bin/  -loglevel  INFO  -maxVarCombination  10  -maxgen  1000000  -population  1  -maxtime  180  -timezone  America/New_York  -customop  fr.inria.astor.approaches.jgenprog.operators.InsertAfterOp:fr.inria.astor.approaches.jgenprog.operators.InsertBeforeOp:fr.inria.astor.approaches.jgenprog.operators.ReplaceOp  -seed  2  -javacompliancelevel  6  -package  com.google  -binjavafolder  build/classes/  -bintestfolder  build/test/  -srcjavafolder  src/  -srctestfolder  test  -learningdir  ../../out/learningdir/Closure/121/b/  -location  ../../dat/defects4j/Closure/121/b/  -failing  com.google.javascript.jscomp.InlineVariablesTest  -dependencies  ../../dat/defects4j/Closure/121/b/lib/ant-launcher.jar:../../dat/defects4j/Closure/121/b/lib/caja-r4314.jar:../../dat/defects4j/Closure/121/b/lib/json.jar:../../dat/defects4j/Closure/121/b/lib/jsr305.jar:../../dat/defects4j/Closure/121/b/lib/args4j.jar:../../dat/defects4j/Closure/121/b/lib/ant.jar:../../dat/defects4j/Closure/121/b/lib/jarjar.jar:../../dat/defects4j/Closure/121/b/lib/junit.jar:../../dat/defects4j/Closure/121/b/lib/guava.jar:../../dat/defects4j/Closure/121/b/lib/protobuf-java.jar:../../dat/defects4j/Closure/121/b/build/lib/rhino.jar:../../dat/defects4j/Closure/121/b/build/lib/rhino1_7R5pre/js.jar:../../dat/defects4j/Closure/121/b/build/classes:../../dat/defects4j/Closure/121/b/build/test  -scope  fr.inria.astor.core.loop.spaces.ingredients.scopes.ctscopes.CtGlobalIngredientScope  -ingredientstrategy  fr.inria.astor.core.loop.spaces.ingredients.ingredientSearch.EfficientIngredientStrategy  -transformingredient  -classestoinstrument  com.google.javascript.jscomp.LightweightMessageFormatter:com.google.javascript.jscomp.ComposeWarningsGuard:com.google.javascript.jscomp.ConstCheck:com.google.javascript.jscomp.JSModule:com.google.javascript.rhino.jstype.NumberType:com.google.javascript.jscomp.PassConfig:com.google.javascript.rhino.jstype.PrototypeObjectType:com.google.javascript.jscomp.NodeTraversal:com.google.javascript.jscomp.LineNumberCheck:com.google.javascript.jscomp.HotSwapCompilerPass:com.google.javascript.jscomp.JSError:com.google.javascript.jscomp.parsing.Config:com.google.javascript.rhino.jstype.TemplateTypeMap:com.google.javascript.jscomp.DiagnosticType:com.google.javascript.jscomp.SourceAst:com.google.javascript.rhino.jstype.FunctionType:com.google.javascript.jscomp.CheckUnreachableCode:com.google.javascript.jscomp.CleanupPasses:com.google.javascript.jscomp.ScopeCreator:com.google.javascript.jscomp.CheckEventfulObjectDisposal:com.google.javascript.jscomp.VariableReferenceCheck:com.google.javascript.rhino.jstype.ModificationVisitor:com.google.javascript.jscomp.RenamingMap:com.google.javascript.jscomp.graph.GraphvizGraph:com.google.javascript.jscomp.graph.LinkedDirectedGraph:com.google.javascript.jscomp.AbstractMessageFormatter:com.google.javascript.jscomp.Region:com.google.javascript.rhino.jstype.UnresolvedTypeExpression:com.google.javascript.jscomp.CheckLevel:com.google.javascript.rhino.InputId:com.google.javascript.jscomp.parsing.ParserRunner:com.google.javascript.jscomp.DefaultPassConfig:com.google.javascript.jscomp.deps.SortedDependencies:com.google.javascript.rhino.jstype.NoType:com.google.javascript.jscomp.DependencyOptions:com.google.javascript.jscomp.AbstractCompiler:com.google.javascript.rhino.jstype.UnionTypeBuilder:com.google.javascript.rhino.jstype.AllType:com.google.javascript.rhino.jstype.ValueType:com.google.javascript.jscomp.DiagnosticGroup:com.google.javascript.jscomp.CodeConsumer:com.google.javascript.jscomp.TypeValidator:com.google.javascript.jscomp.AnonymousFunctionNamingPolicy:com.google.javascript.rhino.jstype.NamedType:com.google.javascript.rhino.jstype.StaticSlot:com.google.javascript.rhino.jstype.RelationshipVisitor:com.google.javascript.jscomp.CodingConvention:com.google.javascript.jscomp.PropertyRenamingPolicy:com.google.javascript.jscomp.CodeGenerator:com.google.javascript.jscomp.PassFactory:com.google.javascript.rhino.jstype.InstanceObjectType:com.google.javascript.jscomp.Compiler:com.google.javascript.rhino.jstype.FunctionBuilder:com.google.javascript.jscomp.VarCheck:com.google.javascript.jscomp.DiagnosticGroupWarningsGuard:com.google.javascript.jscomp.CodingConventions:com.google.javascript.rhino.jstype.StaticReference:com.google.javascript.jscomp.ReferenceCollectingCallback:com.google.javascript.rhino.jstype.EquivalenceMethod:com.google.javascript.jscomp.LoggerErrorManager:com.google.javascript.jscomp.JsAst:com.google.javascript.jscomp.TypedScopeCreator:com.google.javascript.jscomp.parsing.Annotation:com.google.javascript.rhino.jstype.NullType:com.google.javascript.jscomp.RecentChange:com.google.javascript.rhino.jstype.ProxyObjectType:com.google.javascript.jscomp.PrepareAst:com.google.javascript.jscomp.SourceExcerptProvider:com.google.javascript.jscomp.type.SemanticReverseAbstractInterpreter:com.google.javascript.jscomp.type.ChainableReverseAbstractInterpreter:com.google.javascript.rhino.jstype.Visitor:com.google.javascript.jscomp.DiagnosticGroups:com.google.javascript.jscomp.ErrorHandler:com.google.javascript.jscomp.GoogleCodingConvention:com.google.javascript.jscomp.CheckSideEffects:com.google.javascript.rhino.jstype.UnionType:com.google.javascript.jscomp.CheckRegExp:com.google.javascript.jscomp.graph.AdjacencyGraph:com.google.javascript.jscomp.graph.Graph:com.google.javascript.jscomp.CodeChangeHandler:com.google.javascript.jscomp.CompilerInput:com.google.javascript.jscomp.VariableRenamingPolicy:com.google.javascript.rhino.jstype.StringType:com.google.javascript.jscomp.CheckMissingReturn:com.google.javascript.jscomp.TypeCheck:com.google.javascript.rhino.Node:com.google.javascript.jscomp.ProcessTweaks:com.google.javascript.jscomp.type.ReverseAbstractInterpreter:com.google.javascript.jscomp.Scope:com.google.javascript.jscomp.JsMessageVisitor:com.google.javascript.rhino.jstype.TemplateType:com.google.javascript.jscomp.SourceFile:com.google.javascript.jscomp.StrictModeCheck:com.google.javascript.jscomp.parsing.TypeSafeDispatcher:com.google.javascript.rhino.jstype.JSTypeRegistry:com.google.javascript.rhino.SimpleErrorReporter:com.google.javascript.jscomp.ErrorFormat:com.google.javascript.rhino.IR:com.google.javascript.jscomp.NodeUtil:com.google.javascript.jscomp.GlobalVarReferenceMap:com.google.javascript.jscomp.graph.DiGraph:com.google.javascript.jscomp.CheckGlobalThis:com.google.javascript.rhino.jstype.ObjectType:com.google.javascript.jscomp.Normalize:com.google.javascript.jscomp.CheckSuspiciousCode:com.google.javascript.jscomp.CheckProvides:com.google.javascript.jscomp.deps.DependencyInfo:com.google.javascript.jscomp.FunctionTypeBuilder:com.google.javascript.jscomp.CompilerOptions:com.google.javascript.jscomp.CodePrinter:com.google.javascript.rhino.jstype.JSType:com.google.javascript.rhino.jstype.TemplatizedType:com.google.javascript.jscomp.InlineVariables:com.google.javascript.jscomp.ControlFlowGraph:com.google.javascript.rhino.jstype.PropertyMap:com.google.javascript.jscomp.SuppressDocWarningsGuard:com.google.javascript.jscomp.ProcessDefines:com.google.javascript.rhino.jstype.CanCastToVisitor:com.google.javascript.rhino.ErrorReporter:com.google.javascript.rhino.jstype.JSTypeNative:com.google.javascript.jscomp.CheckGlobalNames:com.google.javascript.rhino.jstype.StaticScope:com.google.javascript.jscomp.MakeDeclaredNamesUnique:com.google.javascript.jscomp.ClosureCodingConvention:com.google.javascript.rhino.jstype.StaticSourceFile:com.google.javascript.jscomp.DisambiguateProperties:com.google.javascript.jscomp.CheckAccessControls:com.google.javascript.jscomp.CheckDebuggerStatement:com.google.javascript.jscomp.JSModuleGraph:com.google.javascript.rhino.jstype.NoResolvedType:com.google.javascript.jscomp.ControlStructureCheck:com.google.javascript.rhino.jstype.StaticSymbolTable:com.google.javascript.jscomp.TypedCodeGenerator:com.google.javascript.jscomp.ReplaceIdGenerators:com.google.javascript.rhino.jstype.TemplateTypeMapReplacer:com.google.javascript.jscomp.CheckRequiresForConstructors:com.google.javascript.jscomp.MessageFormatter:com.google.javascript.rhino.jstype.VoidType:com.google.javascript.jscomp.RhinoErrorReporter:com.google.javascript.rhino.jstype.UnknownType:com.google.javascript.jscomp.SyntacticScopeCreator:com.google.javascript.jscomp.CompilerPass:com.google.javascript.rhino.jstype.EnumElementType:com.google.javascript.rhino.jstype.ErrorFunctionType:com.google.javascript.rhino.jstype.NoObjectType:com.google.javascript.rhino.jstype.ArrowType:com.google.javascript.jscomp.BasicErrorManager:com.google.javascript.jscomp.AstValidator:com.google.javascript.jscomp.SourceMap:com.google.javascript.jscomp.Tracer:com.google.javascript.rhino.jstype.FunctionParamBuilder:com.google.javascript.rhino.jstype.BooleanType:com.google.javascript.jscomp.NodeIterators:com.google.javascript.jscomp.parsing.IRFactory:com.google.javascript.jscomp.WarningsGuard:com.google.javascript.jscomp.ErrorManager:com.google.javascript.rhino.jstype.Property:  -regressiontestcases4fl  com.google.javascript.jscomp.CommandLineRunnerTest:com.google.javascript.jscomp.CompilerTest:com.google.javascript.jscomp.InlineVariablesConstantsTest:com.google.javascript.jscomp.InlineVariablesTest:com.google.javascript.jscomp.IntegrationTest:com.google.javascript.jscomp.MultiPassTest:com.google.javascript.jscomp.jsonml.SecureCompilerTest:]
[INFO ] fr.inria.astor.core.manipulation.MutationSupporter.buildModel(MutationSupporter.java:76) - building model: /local/scr/mtufano/Closure/121/b/random-global-embeddings/2/AstorMain-b//src//default, compliance level: 6
[INFO ] fr.inria.astor.core.manipulation.MutationSupporter.buildModel(MutationSupporter.java:85) - Classpath for building SpoonModel [/sciclone/data20/mtufano/deeprepair/bin/eval/../../dat/defects4j/Closure/121/b/lib/ant-launcher.jar, /sciclone/data20/mtufano/deeprepair/bin/eval/../../dat/defects4j/Closure/121/b/lib/caja-r4314.jar, /sciclone/data20/mtufano/deeprepair/bin/eval/../../dat/defects4j/Closure/121/b/lib/json.jar, /sciclone/data20/mtufano/deeprepair/bin/eval/../../dat/defects4j/Closure/121/b/lib/jsr305.jar, /sciclone/data20/mtufano/deeprepair/bin/eval/../../dat/defects4j/Closure/121/b/lib/args4j.jar, /sciclone/data20/mtufano/deeprepair/bin/eval/../../dat/defects4j/Closure/121/b/lib/ant.jar, /sciclone/data20/mtufano/deeprepair/bin/eval/../../dat/defects4j/Closure/121/b/lib/jarjar.jar, /sciclone/data20/mtufano/deeprepair/bin/eval/../../dat/defects4j/Closure/121/b/lib/junit.jar, /sciclone/data20/mtufano/deeprepair/bin/eval/../../dat/defects4j/Closure/121/b/lib/guava.jar, /sciclone/data20/mtufano/deeprepair/bin/eval/../../dat/defects4j/Closure/121/b/lib/protobuf-java.jar, /sciclone/data20/mtufano/deeprepair/bin/eval/../../dat/defects4j/Closure/121/b/build/lib/rhino.jar, /sciclone/data20/mtufano/deeprepair/bin/eval/../../dat/defects4j/Closure/121/b/build/lib/rhino1_7R5pre/js.jar, /sciclone/data20/mtufano/deeprepair/bin/eval/../../dat/defects4j/Closure/121/b/build/classes/, /sciclone/data20/mtufano/deeprepair/bin/eval/../../dat/defects4j/Closure/121/b/build/test/]
[INFO ] fr.inria.astor.core.setup.ProjectRepairFacade.calculateSuspicious(ProjectRepairFacade.java:215) - -Executing Gzoltar classpath: /local/scr/mtufano/Closure/121/b/random-global-embeddings/2/AstorMain-b//bin//default from 7 classes with test cases
[INFO ] fr.inria.astor.core.faultlocalization.GZoltarFaultLocalization.searchSuspicious(GZoltarFaultLocalization.java:37) - Gzoltar fault localization: min susp value parameter: 0.1
[INFO ] fr.inria.astor.core.faultlocalization.GZoltarFaultLocalization.searchSuspicious(GZoltarFaultLocalization.java:57) - -gz-Adding classpath: [/sciclone/data20/mtufano/deeprepair/bin/eval/../../dat/defects4j/Closure/121/b/lib/json.jar, /local/scr/mtufano/Closure/121/b/random-global-embeddings/2/AstorMain-b//bin//default, /sciclone/data20/mtufano/deeprepair/bin/eval/../../dat/defects4j/Closure/121/b/lib/caja-r4314.jar, /sciclone/data20/mtufano/deeprepair/bin/eval/../../dat/defects4j/Closure/121/b/lib/guava.jar, /sciclone/data20/mtufano/deeprepair/bin/eval/../../dat/defects4j/Closure/121/b/lib/jarjar.jar, /sciclone/data20/mtufano/deeprepair/bin/eval/../../dat/defects4j/Closure/121/b/lib/protobuf-java.jar, /sciclone/data20/mtufano/deeprepair/bin/eval/../../dat/defects4j/Closure/121/b/lib/ant.jar, /sciclone/data20/mtufano/deeprepair/bin/eval/../../dat/defects4j/Closure/121/b/build/lib/rhino.jar, /sciclone/data20/mtufano/deeprepair/bin/eval/../../dat/defects4j/Closure/121/b/build/classes/, /sciclone/data20/mtufano/deeprepair/bin/eval/../../dat/defects4j/Closure/121/b/lib/args4j.jar, /sciclone/data20/mtufano/deeprepair/bin/eval/../../dat/defects4j/Closure/121/b/build/lib/rhino1_7R5pre/js.jar, /sciclone/data20/mtufano/deeprepair/bin/eval/../../dat/defects4j/Closure/121/b/lib/jsr305.jar, /sciclone/data20/mtufano/deeprepair/bin/eval/../../dat/defects4j/Closure/121/b/lib/ant-launcher.jar, /sciclone/data20/mtufano/deeprepair/bin/eval/../../dat/defects4j/Closure/121/b/lib/junit.jar, /sciclone/data20/mtufano/deeprepair/bin/eval/../../dat/defects4j/Closure/121/b/build/test/]
[INFO ] fr.inria.astor.core.faultlocalization.GZoltarFaultLocalization.searchSuspicious(GZoltarFaultLocalization.java:76) - Test failt: com.google.javascript.jscomp.InlineVariablesTest#testExternalIssue1053
[INFO ] fr.inria.astor.core.faultlocalization.GZoltarFaultLocalization.searchSuspicious(GZoltarFaultLocalization.java:81) - Gzoltar Test Result Total:461, fails: 1, GZoltar suspicious 25164
[INFO ] fr.inria.astor.core.faultlocalization.GZoltarFaultLocalization.searchSuspicious(GZoltarFaultLocalization.java:123) - Gzoltar found: 225 with susp > 0.1, we consider: 225
[INFO ] fr.inria.astor.approaches.jgenprog.JGenProg.initPopulation(JGenProg.java:80) - 
---- Initial suspicious size: 225
[INFO ] fr.inria.astor.core.loop.population.ProgramVariantFactory.createProgramInstance(ProgramVariantFactory.java:126) - -any mod point created for suspicious Candidate [className=com.google.javascript.rhino.Token, methodName=com.google.javascript.rhino.Token{name(I)Ljava/lang/String; 0.0, lineNumber=221, susp=1.0]
[INFO ] fr.inria.astor.core.loop.population.ProgramVariantFactory.createProgramInstance(ProgramVariantFactory.java:126) - -any mod point created for suspicious Candidate [className=com.google.javascript.jscomp.parsing.IRFactory, methodName=com.google.javascript.jscomp.parsing.IRFactory{transformTokenType(I)I 0.0, lineNumber=1397, susp=0.7071067811865475]
[INFO ] fr.inria.astor.core.loop.population.ProgramVariantFactory.createModificationPoints(ProgramVariantFactory.java:207) -  Not ctClass for suspicious code Candidate [className=com.google.javascript.rhino.head.TokenStream, methodName=com.google.javascript.rhino.head.TokenStream{getToken()I 0.0, lineNumber=664, susp=0.7071067811865475]
[INFO ] fr.inria.astor.core.loop.population.ProgramVariantFactory.createProgramInstance(ProgramVariantFactory.java:126) - -any mod point created for suspicious Candidate [className=com.google.javascript.rhino.head.TokenStream, methodName=com.google.javascript.rhino.head.TokenStream{getToken()I 0.0, lineNumber=664, susp=0.7071067811865475]
[INFO ] fr.inria.astor.core.loop.population.ProgramVariantFactory.createProgramInstance(ProgramVariantFactory.java:126) - -any mod point created for suspicious Candidate [className=com.google.javascript.jscomp.NodeUtil, methodName=com.google.javascript.jscomp.NodeUtil{opToStr(I)Ljava/lang/String; 0.0, lineNumber=2185, susp=0.7071067811865475]
[INFO ] fr.inria.astor.core.loop.population.ProgramVariantFactory.createModificationPoints(ProgramVariantFactory.java:207) -  Not ctClass for suspicious code Candidate [className=com.google.javascript.rhino.head.TokenStream, methodName=com.google.javascript.rhino.head.TokenStream{stringToKeyword(Ljava/lang/String;)I 0.0, lineNumber=208, susp=0.7071067811865475]
[INFO ] fr.inria.astor.core.loop.population.ProgramVariantFactory.createProgramInstance(ProgramVariantFactory.java:126) - -any mod point created for suspicious Candidate [className=com.google.javascript.rhino.head.TokenStream, methodName=com.google.javascript.rhino.head.TokenStream{stringToKeyword(Ljava/lang/String;)I 0.0, lineNumber=208, susp=0.7071067811865475]
[INFO ] fr.inria.astor.core.loop.population.ProgramVariantFactory.createModificationPoints(ProgramVariantFactory.java:207) -  Not ctClass for suspicious code Candidate [className=com.google.javascript.rhino.head.TokenStream, methodName=com.google.javascript.rhino.head.TokenStream{getToken()I 0.0, lineNumber=663, susp=0.4082482904638631]
[INFO ] fr.inria.astor.core.loop.population.ProgramVariantFactory.createProgramInstance(ProgramVariantFactory.java:126) - -any mod point created for suspicious Candidate [className=com.google.javascript.rhino.head.TokenStream, methodName=com.google.javascript.rhino.head.TokenStream{getToken()I 0.0, lineNumber=663, susp=0.4082482904638631]
[INFO ] fr.inria.astor.core.loop.population.ProgramVariantFactory.createProgramInstance(ProgramVariantFactory.java:126) - -any mod point created for suspicious Candidate [className=com.google.javascript.jscomp.NodeUtil, methodName=com.google.javascript.jscomp.NodeUtil{precedenceWithDefault(I)I 0.0, lineNumber=1223, susp=0.4082482904638631]
[INFO ] fr.inria.astor.core.loop.population.ProgramVariantFactory.createModificationPoints(ProgramVariantFactory.java:207) -  Not ctClass for suspicious code Candidate [className=com.google.javascript.rhino.head.Parser, methodName=com.google.javascript.rhino.head.Parser{eqExpr()Lcom/google/javascript/rhino/head/ast/AstNode; 0.0, lineNumber=2121, susp=0.4082482904638631]
[INFO ] fr.inria.astor.core.loop.population.ProgramVariantFactory.createProgramInstance(ProgramVariantFactory.java:126) - -any mod point created for suspicious Candidate [className=com.google.javascript.rhino.head.Parser, methodName=com.google.javascript.rhino.head.Parser{eqExpr()Lcom/google/javascript/rhino/head/ast/AstNode; 0.0, lineNumber=2121, susp=0.4082482904638631]
[INFO ] fr.inria.astor.core.loop.population.ProgramVariantFactory.createModificationPoints(ProgramVariantFactory.java:207) -  Not ctClass for suspicious code Candidate [className=com.google.javascript.rhino.head.Parser, methodName=com.google.javascript.rhino.head.Parser{eqExpr()Lcom/google/javascript/rhino/head/ast/AstNode; 0.0, lineNumber=2122, susp=0.4082482904638631]
[INFO ] fr.inria.astor.core.loop.population.ProgramVariantFactory.createProgramInstance(ProgramVariantFactory.java:126) - -any mod point created for suspicious Candidate [className=com.google.javascript.rhino.head.Parser, methodName=com.google.javascript.rhino.head.Parser{eqExpr()Lcom/google/javascript/rhino/head/ast/AstNode; 0.0, lineNumber=2122, susp=0.4082482904638631]
[INFO ] fr.inria.astor.core.loop.population.ProgramVariantFactory.createModificationPoints(ProgramVariantFactory.java:207) -  Not ctClass for suspicious code Candidate [className=com.google.javascript.rhino.head.Parser, methodName=com.google.javascript.rhino.head.Parser{eqExpr()Lcom/google/javascript/rhino/head/ast/AstNode; 0.0, lineNumber=2123, susp=0.4082482904638631]
[INFO ] fr.inria.astor.core.loop.population.ProgramVariantFactory.createProgramInstance(ProgramVariantFactory.java:126) - -any mod point created for suspicious Candidate [className=com.google.javascript.rhino.head.Parser, methodName=com.google.javascript.rhino.head.Parser{eqExpr()Lcom/google/javascript/rhino/head/ast/AstNode; 0.0, lineNumber=2123, susp=0.4082482904638631]
[INFO ] fr.inria.astor.core.loop.population.ProgramVariantFactory.createModificationPoints(ProgramVariantFactory.java:207) -  Not ctClass for suspicious code Candidate [className=com.google.javascript.rhino.head.Parser, methodName=com.google.javascript.rhino.head.Parser{eqExpr()Lcom/google/javascript/rhino/head/ast/AstNode; 0.0, lineNumber=2130, susp=0.4082482904638631]
[INFO ] fr.inria.astor.core.loop.population.ProgramVariantFactory.createProgramInstance(ProgramVariantFactory.java:126) - -any mod point created for suspicious Candidate [className=com.google.javascript.rhino.head.Parser, methodName=com.google.javascript.rhino.head.Parser{eqExpr()Lcom/google/javascript/rhino/head/ast/AstNode; 0.0, lineNumber=2130, susp=0.4082482904638631]
[INFO ] fr.inria.astor.core.loop.population.ProgramVariantFactory.createModificationPoints(ProgramVariantFactory.java:207) -  Not ctClass for suspicious code Candidate [className=com.google.javascript.rhino.head.Parser, methodName=com.google.javascript.rhino.head.Parser{eqExpr()Lcom/google/javascript/rhino/head/ast/AstNode; 0.0, lineNumber=2131, susp=0.4082482904638631]
[INFO ] fr.inria.astor.core.loop.population.ProgramVariantFactory.createProgramInstance(ProgramVariantFactory.java:126) - -any mod point created for suspicious Candidate [className=com.google.javascript.rhino.head.Parser, methodName=com.google.javascript.rhino.head.Parser{eqExpr()Lcom/google/javascript/rhino/head/ast/AstNode; 0.0, lineNumber=2131, susp=0.4082482904638631]
[INFO ] fr.inria.astor.core.loop.population.ProgramVariantFactory.createModificationPoints(ProgramVariantFactory.java:207) -  Not ctClass for suspicious code Candidate [className=com.google.javascript.rhino.head.CompilerEnvirons, methodName=com.google.javascript.rhino.head.CompilerEnvirons{getLanguageVersion()I 0.0, lineNumber=69, susp=0.31622776601683794]
[INFO ] fr.inria.astor.core.loop.population.ProgramVariantFactory.createProgramInstance(ProgramVariantFactory.java:126) - -any mod point created for suspicious Candidate [className=com.google.javascript.rhino.head.CompilerEnvirons, methodName=com.google.javascript.rhino.head.CompilerEnvirons{getLanguageVersion()I 0.0, lineNumber=69, susp=0.31622776601683794]
[INFO ] fr.inria.astor.core.loop.population.ProgramVariantFactory.createProgramInstance(ProgramVariantFactory.java:126) - -any mod point created for suspicious Candidate [className=com.google.javascript.jscomp.InlineVariables$AliasCandidate, methodName=com.google.javascript.jscomp.InlineVariables$AliasCandidate{access$500(Lcom/google/javascript/jscomp/InlineVariables$AliasCandidate;)Lcom/google/javascript/jscomp/ReferenceCollectingCallback$ReferenceCollection; 0.0, lineNumber=127, susp=0.22941573387056174]
[INFO ] fr.inria.astor.core.loop.population.ProgramVariantFactory.createProgramInstance(ProgramVariantFactory.java:126) - -any mod point created for suspicious Candidate [className=com.google.javascript.jscomp.InlineVariables$AliasCandidate, methodName=com.google.javascript.jscomp.InlineVariables$AliasCandidate{access$400(Lcom/google/javascript/jscomp/InlineVariables$AliasCandidate;)Lcom/google/javascript/jscomp/Scope$Var; 0.0, lineNumber=127, susp=0.22360679774997896]
[INFO ] fr.inria.astor.core.loop.population.ProgramVariantFactory.createProgramInstance(ProgramVariantFactory.java:126) - -any mod point created for suspicious Candidate [className=com.google.javascript.rhino.Token, methodName=com.google.javascript.rhino.Token{name(I)Ljava/lang/String; 0.0, lineNumber=232, susp=0.19245008972987526]
[INFO ] fr.inria.astor.core.loop.population.ProgramVariantFactory.createProgramInstance(ProgramVariantFactory.java:126) - -any mod point created for suspicious Candidate [className=com.google.javascript.jscomp.AstValidator, methodName=com.google.javascript.jscomp.AstValidator{validateExpression(Lcom/google/javascript/rhino/Node;)V 0.0, lineNumber=204, susp=0.15811388300841897]
[INFO ] fr.inria.astor.core.loop.population.ProgramVariantFactory.createProgramInstance(ProgramVariantFactory.java:126) - -any mod point created for suspicious Candidate [className=com.google.javascript.jscomp.AstValidator, methodName=com.google.javascript.jscomp.AstValidator{validateExpression(Lcom/google/javascript/rhino/Node;)V 0.0, lineNumber=205, susp=0.15811388300841897]
[INFO ] fr.inria.astor.core.loop.population.ProgramVariantFactory.createProgramInstance(ProgramVariantFactory.java:126) - -any mod point created for suspicious Candidate [className=com.google.javascript.rhino.Token, methodName=com.google.javascript.rhino.Token{name(I)Ljava/lang/String; 0.0, lineNumber=230, susp=0.1543033499620919]
[INFO ] fr.inria.astor.core.loop.population.ProgramVariantFactory.createProgramInstance(ProgramVariantFactory.java:126) - -any mod point created for suspicious Candidate [className=com.google.javascript.rhino.Token, methodName=com.google.javascript.rhino.Token{name(I)Ljava/lang/String; 0.0, lineNumber=249, susp=0.1543033499620919]
[INFO ] fr.inria.astor.core.loop.population.ProgramVariantFactory.createProgramInstance(ProgramVariantFactory.java:126) - -any mod point created for suspicious Candidate [className=com.google.javascript.rhino.Node, methodName=com.google.javascript.rhino.Node{propToString(I)Ljava/lang/String; 0.0, lineNumber=133, susp=0.14907119849998599]
[INFO ] fr.inria.astor.core.loop.population.ProgramVariantFactory.createProgramInstance(ProgramVariantFactory.java:126) - -any mod point created for suspicious Candidate [className=com.google.javascript.jscomp.parsing.IRFactory$TransformDispatcher, methodName=com.google.javascript.jscomp.parsing.IRFactory$TransformDispatcher{processInfixExpression(Lcom/google/javascript/rhino/head/ast/InfixExpression;)Ljava/lang/Object; 0.0, lineNumber=529, susp=0.14744195615489714]
[INFO ] fr.inria.astor.core.loop.population.ProgramVariantFactory.createProgramInstance(ProgramVariantFactory.java:126) - -any mod point created for suspicious Candidate [className=com.google.javascript.jscomp.parsing.TypeSafeDispatcher, methodName=com.google.javascript.jscomp.parsing.TypeSafeDispatcher{process(Lcom/google/javascript/rhino/head/ast/AstNode;)Ljava/lang/Object; 0.0, lineNumber=146, susp=0.14744195615489714]
[INFO ] fr.inria.astor.core.loop.population.ProgramVariantFactory.createProgramInstance(ProgramVariantFactory.java:126) - -any mod point created for suspicious Candidate [className=com.google.javascript.jscomp.InlineVariables$InliningBehavior, methodName=com.google.javascript.jscomp.InlineVariables$InliningBehavior{inlineWellDefinedVariable(Lcom/google/javascript/jscomp/Scope$Var;Lcom/google/javascript/rhino/Node;Ljava/util/List;)V 0.0, lineNumber=392, susp=0.14002800840280097]
[INFO ] fr.inria.astor.core.loop.population.ProgramVariantFactory.createProgramInstance(ProgramVariantFactory.java:126) - -any mod point created for suspicious Candidate [className=com.google.javascript.jscomp.NodeIterators$LocalVarMotion, methodName=com.google.javascript.jscomp.NodeIterators$LocalVarMotion{advanceLookAhead(Z)V 0.0, lineNumber=288, susp=0.1336306209562122]
[INFO ] fr.inria.astor.core.loop.population.ProgramVariantFactory.createProgramInstance(ProgramVariantFactory.java:126) - -any mod point created for suspicious Candidate [className=com.google.javascript.jscomp.NodeIterators$LocalVarMotion, methodName=com.google.javascript.jscomp.NodeIterators$LocalVarMotion{next()Ljava/lang/Object; 0.0, lineNumber=153, susp=0.1336306209562122]
[INFO ] fr.inria.astor.core.loop.population.ProgramVariantFactory.createProgramInstance(ProgramVariantFactory.java:126) - -any mod point created for suspicious Candidate [className=com.google.javascript.jscomp.InlineVariables$InliningBehavior, methodName=com.google.javascript.jscomp.InlineVariables$InliningBehavior{canMoveModerately(Lcom/google/javascript/jscomp/ReferenceCollectingCallback$Reference;Lcom/google/javascript/jscomp/ReferenceCollectingCallback$Reference;)Z 0.0, lineNumber=627, susp=0.1336306209562122]
[INFO ] fr.inria.astor.core.loop.population.ProgramVariantFactory.createProgramInstance(ProgramVariantFactory.java:126) - -any mod point created for suspicious Candidate [className=com.google.javascript.jscomp.AstValidator, methodName=com.google.javascript.jscomp.AstValidator{validateBinaryOp(Lcom/google/javascript/rhino/Node;)V 0.0, lineNumber=753, susp=0.13130643285972254]
[INFO ] fr.inria.astor.core.loop.population.ProgramVariantFactory.createProgramInstance(ProgramVariantFactory.java:126) - -any mod point created for suspicious Candidate [className=com.google.javascript.rhino.Token, methodName=com.google.javascript.rhino.Token{name(I)Ljava/lang/String; 0.0, lineNumber=265, susp=0.1259881576697424]
[INFO ] fr.inria.astor.core.loop.population.ProgramVariantFactory.createProgramInstance(ProgramVariantFactory.java:126) - -any mod point created for suspicious Candidate [className=com.google.javascript.jscomp.NodeUtil, methodName=com.google.javascript.jscomp.NodeUtil{nodeTypeMayHaveSideEffects(Lcom/google/javascript/rhino/Node;Lcom/google/javascript/jscomp/AbstractCompiler;)Z 0.0, lineNumber=1103, susp=0.11547005383792514]
[INFO ] fr.inria.astor.core.loop.population.ProgramVariantFactory.createProgramInstance(ProgramVariantFactory.java:126) - -any mod point created for suspicious Candidate [className=com.google.javascript.rhino.Token, methodName=com.google.javascript.rhino.Token{name(I)Ljava/lang/String; 0.0, lineNumber=259, susp=0.11396057645963795]
[INFO ] fr.inria.astor.core.loop.population.ProgramVariantFactory.createProgramInstance(ProgramVariantFactory.java:126) - -any mod point created for suspicious Candidate [className=com.google.javascript.rhino.Node, methodName=com.google.javascript.rhino.Node{propToString(I)Ljava/lang/String; 0.0, lineNumber=123, susp=0.1125087900926024]
[INFO ] fr.inria.astor.core.loop.population.ProgramVariantFactory.createProgramInstance(ProgramVariantFactory.java:126) - -any mod point created for suspicious Candidate [className=com.google.javascript.rhino.Node, methodName=com.google.javascript.rhino.Node{propToString(I)Ljava/lang/String; 0.0, lineNumber=134, susp=0.1125087900926024]
[INFO ] fr.inria.astor.core.loop.population.ProgramVariantFactory.createProgramInstance(ProgramVariantFactory.java:126) - -any mod point created for suspicious Candidate [className=com.google.javascript.rhino.Node, methodName=com.google.javascript.rhino.Node{propToString(I)Ljava/lang/String; 0.0, lineNumber=135, susp=0.1125087900926024]
[INFO ] fr.inria.astor.core.loop.population.ProgramVariantFactory.createProgramInstance(ProgramVariantFactory.java:126) - -any mod point created for suspicious Candidate [className=com.google.javascript.rhino.Node, methodName=com.google.javascript.rhino.Node{toString(Ljava/lang/StringBuilder;ZZZ)V 0.0, lineNumber=988, susp=0.1125087900926024]
[INFO ] fr.inria.astor.core.loop.population.ProgramVariantFactory.createProgramInstance(ProgramVariantFactory.java:126) - -any mod point created for suspicious Candidate [className=com.google.javascript.rhino.Node, methodName=com.google.javascript.rhino.Node{appendStringTree(Ljava/lang/Appendable;)V 0.0, lineNumber=1024, susp=0.1125087900926024]
[INFO ] fr.inria.astor.core.loop.population.ProgramVariantFactory.createProgramInstance(ProgramVariantFactory.java:126) - -any mod point created for suspicious Candidate [className=com.google.javascript.rhino.Node, methodName=com.google.javascript.rhino.Node{toStringTreeHelper(Lcom/google/javascript/rhino/Node;ILjava/lang/Appendable;)V 0.0, lineNumber=1034, susp=0.1125087900926024]
[INFO ] fr.inria.astor.core.loop.population.ProgramVariantFactory.createProgramInstance(ProgramVariantFactory.java:126) - -any mod point created for suspicious Candidate [className=com.google.javascript.rhino.Node, methodName=com.google.javascript.rhino.Node{toStringTreeHelper(Lcom/google/javascript/rhino/Node;ILjava/lang/Appendable;)V 0.0, lineNumber=1038, susp=0.1125087900926024]
[INFO ] fr.inria.astor.core.loop.population.ProgramVariantFactory.createModificationPoints(ProgramVariantFactory.java:207) -  Not ctClass for suspicious code Candidate [className=com.google.javascript.jscomp.CompilerTestCase, methodName=com.google.javascript.jscomp.CompilerTestCase{test(Lcom/google/javascript/jscomp/Compiler;[Ljava/lang/String;Lcom/google/javascript/jscomp/DiagnosticType;Lcom/google/javascript/jscomp/DiagnosticType;Ljava/lang/String;)V 0.0, lineNumber=946, susp=0.1125087900926024]
[INFO ] fr.inria.astor.core.loop.population.ProgramVariantFactory.createProgramInstance(ProgramVariantFactory.java:126) - -any mod point created for suspicious Candidate [className=com.google.javascript.jscomp.CompilerTestCase, methodName=com.google.javascript.jscomp.CompilerTestCase{test(Lcom/google/javascript/jscomp/Compiler;[Ljava/lang/String;Lcom/google/javascript/jscomp/DiagnosticType;Lcom/google/javascript/jscomp/DiagnosticType;Ljava/lang/String;)V 0.0, lineNumber=946, susp=0.1125087900926024]
[INFO ] fr.inria.astor.core.loop.population.ProgramVariantFactory.createProgramInstance(ProgramVariantFactory.java:126) - -any mod point created for suspicious Candidate [className=com.google.javascript.rhino.Token, methodName=com.google.javascript.rhino.Token{name(I)Ljava/lang/String; 0.0, lineNumber=263, susp=0.11180339887498948]
[INFO ] fr.inria.astor.core.loop.population.ProgramVariantFactory.createProgramInstance(ProgramVariantFactory.java:126) - -any mod point created for suspicious Candidate [className=com.google.javascript.rhino.Token, methodName=com.google.javascript.rhino.Token{name(I)Ljava/lang/String; 0.0, lineNumber=266, susp=0.11180339887498948]
[INFO ] fr.inria.astor.core.loop.population.ProgramVariantFactory.createProgramInstance(ProgramVariantFactory.java:126) - -any mod point created for suspicious Candidate [className=com.google.javascript.rhino.Node, methodName=com.google.javascript.rhino.Node{toString(Ljava/lang/StringBuilder;ZZZ)V 0.0, lineNumber=1005, susp=0.11180339887498948]
[INFO ] fr.inria.astor.core.loop.population.ProgramVariantFactory.createModificationPoints(ProgramVariantFactory.java:207) -  Not ctClass for suspicious code Candidate [className=com.google.javascript.jscomp.CompilerTestCase, methodName=com.google.javascript.jscomp.CompilerTestCase{testSame(Ljava/lang/String;)V 0.0, lineNumber=599, susp=0.1111111111111111]
[INFO ] fr.inria.astor.core.loop.population.ProgramVariantFactory.createProgramInstance(ProgramVariantFactory.java:126) - -any mod point created for suspicious Candidate [className=com.google.javascript.jscomp.CompilerTestCase, methodName=com.google.javascript.jscomp.CompilerTestCase{testSame(Ljava/lang/String;)V 0.0, lineNumber=599, susp=0.1111111111111111]
[INFO ] fr.inria.astor.core.loop.population.ProgramVariantFactory.createProgramInstance(ProgramVariantFactory.java:126) - -any mod point created for suspicious Candidate [className=com.google.javascript.jscomp.NodeUtil, methodName=com.google.javascript.jscomp.NodeUtil{nodeTypeMayHaveSideEffects(Lcom/google/javascript/rhino/Node;Lcom/google/javascript/jscomp/AbstractCompiler;)Z 0.0, lineNumber=1108, susp=0.1111111111111111]
[INFO ] fr.inria.astor.core.loop.population.ProgramVariantFactory.createProgramInstance(ProgramVariantFactory.java:126) - -any mod point created for suspicious Candidate [className=com.google.javascript.jscomp.InlineVariables$InliningBehavior, methodName=com.google.javascript.jscomp.InlineVariables$InliningBehavior{removeDeclaration(Lcom/google/javascript/jscomp/ReferenceCollectingCallback$Reference;)V 0.0, lineNumber=427, susp=0.10660035817780521]
[INFO ] fr.inria.astor.core.loop.population.ProgramVariantFactory.createProgramInstance(ProgramVariantFactory.java:126) - -any mod point created for suspicious Candidate [className=com.google.javascript.rhino.Token, methodName=com.google.javascript.rhino.Token{name(I)Ljava/lang/String; 0.0, lineNumber=211, susp=0.10206207261596577]
[INFO ] fr.inria.astor.core.loop.population.ProgramVariantFactory.createProgramInstance(ProgramVariantFactory.java:126) - -any mod point created for suspicious Candidate [className=com.google.javascript.jscomp.NodeUtil, methodName=com.google.javascript.jscomp.NodeUtil{nodeTypeMayHaveSideEffects(Lcom/google/javascript/rhino/Node;Lcom/google/javascript/jscomp/AbstractCompiler;)Z 0.0, lineNumber=1110, susp=0.10101525445522107]
[INFO ] fr.inria.astor.core.loop.population.ProgramVariantFactory.createProgramInstance(ProgramVariantFactory.java:126) - -any mod point created for suspicious Candidate [className=com.google.javascript.jscomp.InlineVariables$InliningBehavior, methodName=com.google.javascript.jscomp.InlineVariables$InliningBehavior{blacklistVarReferencesInTree(Lcom/google/javascript/rhino/Node;Lcom/google/javascript/jscomp/Scope;)V 0.0, lineNumber=341, susp=0.10050378152592121]
[INFO ] fr.inria.astor.core.loop.population.ProgramVariantFactory.createProgramInstance(ProgramVariantFactory.java:126) - -any mod point created for suspicious Candidate [className=com.google.javascript.jscomp.InlineVariables$InliningBehavior, methodName=com.google.javascript.jscomp.InlineVariables$InliningBehavior{inlineValue(Lcom/google/javascript/jscomp/Scope$Var;Lcom/google/javascript/jscomp/ReferenceCollectingCallback$Reference;Lcom/google/javascript/rhino/Node;)V 0.0, lineNumber=446, susp=0.10050378152592121]
[INFO ] fr.inria.astor.core.loop.population.ProgramVariantFactory.createProgramInstance(ProgramVariantFactory.java:130) - Total suspicious from FL: 225,  176
[INFO ] fr.inria.astor.core.loop.population.ProgramVariantFactory.createProgramInstance(ProgramVariantFactory.java:138) - Total ModPoint created: 176
[INFO ] fr.inria.astor.core.loop.population.ProgramVariantFactory.createInitialPopulation(ProgramVariantFactory.java:82) - Creating program variant #1, [Variant id: 1, #gens: 176, #ops: 0, parent:-]
[INFO ] fr.inria.astor.core.validation.executors.JUnitExecutorProcess.execute(JUnitExecutorProcess.java:120) - The Process that runs JUnit test cases had problems: process hasn't exited
[INFO ] fr.inria.astor.core.setup.ConfigurationProperties.print(ConfigurationProperties.java:63) - ----------------------------
[INFO ] fr.inria.astor.core.setup.ConfigurationProperties.print(ConfigurationProperties.java:64) - ---Configuration properties:---Execution values
[INFO ] fr.inria.astor.core.setup.ConfigurationProperties.print(ConfigurationProperties.java:66) - p:lastJUnitVersion= ./examples/libs/junit-4.11.jar
[INFO ] fr.inria.astor.core.setup.ConfigurationProperties.print(ConfigurationProperties.java:66) - p:alternativecompliancelevel= 4
[INFO ] fr.inria.astor.core.setup.ConfigurationProperties.print(ConfigurationProperties.java:66) - p:ignoredTestCases= 
[INFO ] fr.inria.astor.core.setup.ConfigurationProperties.print(ConfigurationProperties.java:66) - p:workingDirectory= /local/scr/mtufano/Closure/121/b/random-global-embeddings/2
[INFO ] fr.inria.astor.core.setup.ConfigurationProperties.print(ConfigurationProperties.java:66) - p:manipulatesuper= false
[INFO ] fr.inria.astor.core.setup.ConfigurationProperties.print(ConfigurationProperties.java:66) - p:validation= process
[INFO ] fr.inria.astor.core.setup.ConfigurationProperties.print(ConfigurationProperties.java:66) - p:jvm4testexecution= /usr/local/jdk1.7.0_80/bin/
[INFO ] fr.inria.astor.core.setup.ConfigurationProperties.print(ConfigurationProperties.java:66) - p:binjavafolder= build/classes/
[INFO ] fr.inria.astor.core.setup.ConfigurationProperties.print(ConfigurationProperties.java:66) - p:evosuiteresultfolder= evosuite
[INFO ] fr.inria.astor.core.setup.ConfigurationProperties.print(ConfigurationProperties.java:66) - p:flthreshold= 0.1
[INFO ] fr.inria.astor.core.setup.ConfigurationProperties.print(ConfigurationProperties.java:66) - p:regressionforfaultlocalization= true
[INFO ] fr.inria.astor.core.setup.ConfigurationProperties.print(ConfigurationProperties.java:66) - p:tmax2= 960000
[INFO ] fr.inria.astor.core.setup.ConfigurationProperties.print(ConfigurationProperties.java:66) - p:tmax1= 120000
[INFO ] fr.inria.astor.core.setup.ConfigurationProperties.print(ConfigurationProperties.java:66) - p:probagenmutation= false
[INFO ] fr.inria.astor.core.setup.ConfigurationProperties.print(ConfigurationProperties.java:66) - p:srctestfolder= test
[INFO ] fr.inria.astor.core.setup.ConfigurationProperties.print(ConfigurationProperties.java:66) - p:customop= fr.inria.astor.approaches.jgenprog.operators.InsertAfterOp:fr.inria.astor.approaches.jgenprog.operators.InsertBeforeOp:fr.inria.astor.approaches.jgenprog.operators.ReplaceOp
[INFO ] fr.inria.astor.core.setup.ConfigurationProperties.print(ConfigurationProperties.java:66) - p:forceExecuteRegression= false
[INFO ] fr.inria.astor.core.setup.ConfigurationProperties.print(ConfigurationProperties.java:66) - p:clusteringfilename= clustering.csv
[INFO ] fr.inria.astor.core.setup.ConfigurationProperties.print(ConfigurationProperties.java:66) - p:failing= com.google.javascript.jscomp.InlineVariablesTest
[INFO ] fr.inria.astor.core.setup.ConfigurationProperties.print(ConfigurationProperties.java:66) - p:evo_buggy_class= true
[INFO ] fr.inria.astor.core.setup.ConfigurationProperties.print(ConfigurationProperties.java:66) - p:numberExecutions= 1
[INFO ] fr.inria.astor.core.setup.ConfigurationProperties.print(ConfigurationProperties.java:66) - p:evo_affected_by_op= true
[INFO ] fr.inria.astor.core.setup.ConfigurationProperties.print(ConfigurationProperties.java:66) - p:population= 1
[INFO ] fr.inria.astor.core.setup.ConfigurationProperties.print(ConfigurationProperties.java:66) - p:clonegranularity= types
[INFO ] fr.inria.astor.core.setup.ConfigurationProperties.print(ConfigurationProperties.java:66) - p:regressiontestcases4fl= com.google.javascript.jscomp.CommandLineRunnerTest:com.google.javascript.jscomp.CompilerTest:com.google.javascript.jscomp.InlineVariablesConstantsTest:com.google.javascript.jscomp.InlineVariablesTest:com.google.javascript.jscomp.IntegrationTest:com.google.javascript.jscomp.MultiPassTest:com.google.javascript.jscomp.jsonml.SecureCompilerTest:
[INFO ] fr.inria.astor.core.setup.ConfigurationProperties.print(ConfigurationProperties.java:66) - p:savesolution= true
[INFO ] fr.inria.astor.core.setup.ConfigurationProperties.print(ConfigurationProperties.java:66) - p:javacompliancelevel= 6
[INFO ] fr.inria.astor.core.setup.ConfigurationProperties.print(ConfigurationProperties.java:66) - p:uniqueoptogen= false
[INFO ] fr.inria.astor.core.setup.ConfigurationProperties.print(ConfigurationProperties.java:66) - p:projectIdentifier= 
[INFO ] fr.inria.astor.core.setup.ConfigurationProperties.print(ConfigurationProperties.java:66) - p:modificationpointnavigation= weight
[INFO ] fr.inria.astor.core.setup.ConfigurationProperties.print(ConfigurationProperties.java:66) - p:stopfirst= false
[INFO ] fr.inria.astor.core.setup.ConfigurationProperties.print(ConfigurationProperties.java:66) - p:multipointmodification= false
[INFO ] fr.inria.astor.core.setup.ConfigurationProperties.print(ConfigurationProperties.java:66) - p:elementsToMutate= 10
[INFO ] fr.inria.astor.core.setup.ConfigurationProperties.print(ConfigurationProperties.java:66) - p:evoDSE= false
[INFO ] fr.inria.astor.core.setup.ConfigurationProperties.print(ConfigurationProperties.java:66) - p:bintestfolder= build/test/
[INFO ] fr.inria.astor.core.setup.ConfigurationProperties.print(ConfigurationProperties.java:66) - p:testbystep= false
[INFO ] fr.inria.astor.core.setup.ConfigurationProperties.print(ConfigurationProperties.java:66) - p:version-location= ./math-version/
[INFO ] fr.inria.astor.core.setup.ConfigurationProperties.print(ConfigurationProperties.java:66) - p:reintroduce= PARENTS
[INFO ] fr.inria.astor.core.setup.ConfigurationProperties.print(ConfigurationProperties.java:66) - p:maxGeneration= 1000000
[INFO ] fr.inria.astor.core.setup.ConfigurationProperties.print(ConfigurationProperties.java:66) - p:maxVarCombination= 10
[INFO ] fr.inria.astor.core.setup.ConfigurationProperties.print(ConfigurationProperties.java:66) - p:maxtime= 180
[INFO ] fr.inria.astor.core.setup.ConfigurationProperties.print(ConfigurationProperties.java:66) - p:evosuitejar= ./lib/evosuite-master-1.0.4-SNAPSHOT.jar
[INFO ] fr.inria.astor.core.setup.ConfigurationProperties.print(ConfigurationProperties.java:66) - p:commandTrunk= 50000
[INFO ] fr.inria.astor.core.setup.ConfigurationProperties.print(ConfigurationProperties.java:66) - p:faultlocalization= fr.inria.astor.core.faultlocalization.GZoltarFaultLocalization
[INFO ] fr.inria.astor.core.setup.ConfigurationProperties.print(ConfigurationProperties.java:66) - p:maxsuspcandidates= 1000
[INFO ] fr.inria.astor.core.setup.ConfigurationProperties.print(ConfigurationProperties.java:66) - p:mode= statement
[INFO ] fr.inria.astor.core.setup.ConfigurationProperties.print(ConfigurationProperties.java:66) - p:learningdir= ../../out/learningdir/Closure/121/b/
[INFO ] fr.inria.astor.core.setup.ConfigurationProperties.print(ConfigurationProperties.java:66) - p:jvm4evosuitetestexecution= /usr/local/jdk1.7.0_80/bin/
[INFO ] fr.inria.astor.core.setup.ConfigurationProperties.print(ConfigurationProperties.java:66) - p:filterfaultlocalization= true
[INFO ] fr.inria.astor.core.setup.ConfigurationProperties.print(ConfigurationProperties.java:66) - p:mutationrate= 1 
[INFO ] fr.inria.astor.core.setup.ConfigurationProperties.print(ConfigurationProperties.java:66) - p:pathToMVNRepository= 
[INFO ] fr.inria.astor.core.setup.ConfigurationProperties.print(ConfigurationProperties.java:66) - p:resourcesfolder= /src/main/resources:/src/test/resources:
[INFO ] fr.inria.astor.core.setup.ConfigurationProperties.print(ConfigurationProperties.java:66) - p:timezone= America/New_York
[INFO ] fr.inria.astor.core.setup.ConfigurationProperties.print(ConfigurationProperties.java:66) - p:classestoinstrument= com.google.javascript.jscomp.LightweightMessageFormatter:com.google.javascript.jscomp.ComposeWarningsGuard:com.google.javascript.jscomp.ConstCheck:com.google.javascript.jscomp.JSModule:com.google.javascript.rhino.jstype.NumberType:com.google.javascript.jscomp.PassConfig:com.google.javascript.rhino.jstype.PrototypeObjectType:com.google.javascript.jscomp.NodeTraversal:com.google.javascript.jscomp.LineNumberCheck:com.google.javascript.jscomp.HotSwapCompilerPass:com.google.javascript.jscomp.JSError:com.google.javascript.jscomp.parsing.Config:com.google.javascript.rhino.jstype.TemplateTypeMap:com.google.javascript.jscomp.DiagnosticType:com.google.javascript.jscomp.SourceAst:com.google.javascript.rhino.jstype.FunctionType:com.google.javascript.jscomp.CheckUnreachableCode:com.google.javascript.jscomp.CleanupPasses:com.google.javascript.jscomp.ScopeCreator:com.google.javascript.jscomp.CheckEventfulObjectDisposal:com.google.javascript.jscomp.VariableReferenceCheck:com.google.javascript.rhino.jstype.ModificationVisitor:com.google.javascript.jscomp.RenamingMap:com.google.javascript.jscomp.graph.GraphvizGraph:com.google.javascript.jscomp.graph.LinkedDirectedGraph:com.google.javascript.jscomp.AbstractMessageFormatter:com.google.javascript.jscomp.Region:com.google.javascript.rhino.jstype.UnresolvedTypeExpression:com.google.javascript.jscomp.CheckLevel:com.google.javascript.rhino.InputId:com.google.javascript.jscomp.parsing.ParserRunner:com.google.javascript.jscomp.DefaultPassConfig:com.google.javascript.jscomp.deps.SortedDependencies:com.google.javascript.rhino.jstype.NoType:com.google.javascript.jscomp.DependencyOptions:com.google.javascript.jscomp.AbstractCompiler:com.google.javascript.rhino.jstype.UnionTypeBuilder:com.google.javascript.rhino.jstype.AllType:com.google.javascript.rhino.jstype.ValueType:com.google.javascript.jscomp.DiagnosticGroup:com.google.javascript.jscomp.CodeConsumer:com.google.javascript.jscomp.TypeValidator:com.google.javascript.jscomp.AnonymousFunctionNamingPolicy:com.google.javascript.rhino.jstype.NamedType:com.google.javascript.rhino.jstype.StaticSlot:com.google.javascript.rhino.jstype.RelationshipVisitor:com.google.javascript.jscomp.CodingConvention:com.google.javascript.jscomp.PropertyRenamingPolicy:com.google.javascript.jscomp.CodeGenerator:com.google.javascript.jscomp.PassFactory:com.google.javascript.rhino.jstype.InstanceObjectType:com.google.javascript.jscomp.Compiler:com.google.javascript.rhino.jstype.FunctionBuilder:com.google.javascript.jscomp.VarCheck:com.google.javascript.jscomp.DiagnosticGroupWarningsGuard:com.google.javascript.jscomp.CodingConventions:com.google.javascript.rhino.jstype.StaticReference:com.google.javascript.jscomp.ReferenceCollectingCallback:com.google.javascript.rhino.jstype.EquivalenceMethod:com.google.javascript.jscomp.LoggerErrorManager:com.google.javascript.jscomp.JsAst:com.google.javascript.jscomp.TypedScopeCreator:com.google.javascript.jscomp.parsing.Annotation:com.google.javascript.rhino.jstype.NullType:com.google.javascript.jscomp.RecentChange:com.google.javascript.rhino.jstype.ProxyObjectType:com.google.javascript.jscomp.PrepareAst:com.google.javascript.jscomp.SourceExcerptProvider:com.google.javascript.jscomp.type.SemanticReverseAbstractInterpreter:com.google.javascript.jscomp.type.ChainableReverseAbstractInterpreter:com.google.javascript.rhino.jstype.Visitor:com.google.javascript.jscomp.DiagnosticGroups:com.google.javascript.jscomp.ErrorHandler:com.google.javascript.jscomp.GoogleCodingConvention:com.google.javascript.jscomp.CheckSideEffects:com.google.javascript.rhino.jstype.UnionType:com.google.javascript.jscomp.CheckRegExp:com.google.javascript.jscomp.graph.AdjacencyGraph:com.google.javascript.jscomp.graph.Graph:com.google.javascript.jscomp.CodeChangeHandler:com.google.javascript.jscomp.CompilerInput:com.google.javascript.jscomp.VariableRenamingPolicy:com.google.javascript.rhino.jstype.StringType:com.google.javascript.jscomp.CheckMissingReturn:com.google.javascript.jscomp.TypeCheck:com.google.javascript.rhino.Node:com.google.javascript.jscomp.ProcessTweaks:com.google.javascript.jscomp.type.ReverseAbstractInterpreter:com.google.javascript.jscomp.Scope:com.google.javascript.jscomp.JsMessageVisitor:com.google.javascript.rhino.jstype.TemplateType:com.google.javascript.jscomp.SourceFile:com.google.javascript.jscomp.StrictModeCheck:com.google.javascript.jscomp.parsing.TypeSafeDispatcher:com.google.javascript.rhino.jstype.JSTypeRegistry:com.google.javascript.rhino.SimpleErrorReporter:com.google.javascript.jscomp.ErrorFormat:com.google.javascript.rhino.IR:com.google.javascript.jscomp.NodeUtil:com.google.javascript.jscomp.GlobalVarReferenceMap:com.google.javascript.jscomp.graph.DiGraph:com.google.javascript.jscomp.CheckGlobalThis:com.google.javascript.rhino.jstype.ObjectType:com.google.javascript.jscomp.Normalize:com.google.javascript.jscomp.CheckSuspiciousCode:com.google.javascript.jscomp.CheckProvides:com.google.javascript.jscomp.deps.DependencyInfo:com.google.javascript.jscomp.FunctionTypeBuilder:com.google.javascript.jscomp.CompilerOptions:com.google.javascript.jscomp.CodePrinter:com.google.javascript.rhino.jstype.JSType:com.google.javascript.rhino.jstype.TemplatizedType:com.google.javascript.jscomp.InlineVariables:com.google.javascript.jscomp.ControlFlowGraph:com.google.javascript.rhino.jstype.PropertyMap:com.google.javascript.jscomp.SuppressDocWarningsGuard:com.google.javascript.jscomp.ProcessDefines:com.google.javascript.rhino.jstype.CanCastToVisitor:com.google.javascript.rhino.ErrorReporter:com.google.javascript.rhino.jstype.JSTypeNative:com.google.javascript.jscomp.CheckGlobalNames:com.google.javascript.rhino.jstype.StaticScope:com.google.javascript.jscomp.MakeDeclaredNamesUnique:com.google.javascript.jscomp.ClosureCodingConvention:com.google.javascript.rhino.jstype.StaticSourceFile:com.google.javascript.jscomp.DisambiguateProperties:com.google.javascript.jscomp.CheckAccessControls:com.google.javascript.jscomp.CheckDebuggerStatement:com.google.javascript.jscomp.JSModuleGraph:com.google.javascript.rhino.jstype.NoResolvedType:com.google.javascript.jscomp.ControlStructureCheck:com.google.javascript.rhino.jstype.StaticSymbolTable:com.google.javascript.jscomp.TypedCodeGenerator:com.google.javascript.jscomp.ReplaceIdGenerators:com.google.javascript.rhino.jstype.TemplateTypeMapReplacer:com.google.javascript.jscomp.CheckRequiresForConstructors:com.google.javascript.jscomp.MessageFormatter:com.google.javascript.rhino.jstype.VoidType:com.google.javascript.jscomp.RhinoErrorReporter:com.google.javascript.rhino.jstype.UnknownType:com.google.javascript.jscomp.SyntacticScopeCreator:com.google.javascript.jscomp.CompilerPass:com.google.javascript.rhino.jstype.EnumElementType:com.google.javascript.rhino.jstype.ErrorFunctionType:com.google.javascript.rhino.jstype.NoObjectType:com.google.javascript.rhino.jstype.ArrowType:com.google.javascript.jscomp.BasicErrorManager:com.google.javascript.jscomp.AstValidator:com.google.javascript.jscomp.SourceMap:com.google.javascript.jscomp.Tracer:com.google.javascript.rhino.jstype.FunctionParamBuilder:com.google.javascript.rhino.jstype.BooleanType:com.google.javascript.jscomp.NodeIterators:com.google.javascript.jscomp.parsing.IRFactory:com.google.javascript.jscomp.WarningsGuard:com.google.javascript.jscomp.ErrorManager:com.google.javascript.rhino.jstype.Property:
[INFO ] fr.inria.astor.core.setup.ConfigurationProperties.print(ConfigurationProperties.java:66) - p:evoRunOnBuggyClass= true
[INFO ] fr.inria.astor.core.setup.ConfigurationProperties.print(ConfigurationProperties.java:66) - p:compiler= fr.inria.astor.core.manipulation.bytecode.compiler.SpoonClassCompiler
[INFO ] fr.inria.astor.core.setup.ConfigurationProperties.print(ConfigurationProperties.java:66) - p:dependenciespath= ../../dat/defects4j/Closure/121/b/lib/ant-launcher.jar:../../dat/defects4j/Closure/121/b/lib/caja-r4314.jar:../../dat/defects4j/Closure/121/b/lib/json.jar:../../dat/defects4j/Closure/121/b/lib/jsr305.jar:../../dat/defects4j/Closure/121/b/lib/args4j.jar:../../dat/defects4j/Closure/121/b/lib/ant.jar:../../dat/defects4j/Closure/121/b/lib/jarjar.jar:../../dat/defects4j/Closure/121/b/lib/junit.jar:../../dat/defects4j/Closure/121/b/lib/guava.jar:../../dat/defects4j/Closure/121/b/lib/protobuf-java.jar:../../dat/defects4j/Closure/121/b/build/lib/rhino.jar:../../dat/defects4j/Closure/121/b/build/lib/rhino1_7R5pre/js.jar:../../dat/defects4j/Closure/121/b/build/classes:../../dat/defects4j/Closure/121/b/build/test
[INFO ] fr.inria.astor.core.setup.ConfigurationProperties.print(ConfigurationProperties.java:66) - p:skipfaultlocalization= false
[INFO ] fr.inria.astor.core.setup.ConfigurationProperties.print(ConfigurationProperties.java:66) - p:packageToInstrument= com.google
[INFO ] fr.inria.astor.core.setup.ConfigurationProperties.print(ConfigurationProperties.java:66) - p:scope= fr.inria.astor.core.loop.spaces.ingredients.scopes.ctscopes.CtGlobalIngredientScope
[INFO ] fr.inria.astor.core.setup.ConfigurationProperties.print(ConfigurationProperties.java:66) - p:transformingredient= true
[INFO ] fr.inria.astor.core.setup.ConfigurationProperties.print(ConfigurationProperties.java:66) - p:fitnessfunction= fr.inria.astor.core.loop.population.TestCaseFitnessFunction
[INFO ] fr.inria.astor.core.setup.ConfigurationProperties.print(ConfigurationProperties.java:66) - p:pvariantfoldername= variant-
[INFO ] fr.inria.astor.core.setup.ConfigurationProperties.print(ConfigurationProperties.java:66) - p:srcjavafolder= src/
[INFO ] fr.inria.astor.core.setup.ConfigurationProperties.print(ConfigurationProperties.java:66) - p:populationcontroller= fr.inria.astor.core.loop.population.TestCaseBasedFitnessPopulationController
[INFO ] fr.inria.astor.core.setup.ConfigurationProperties.print(ConfigurationProperties.java:66) - p:ignoreflakyinfl= false
[INFO ] fr.inria.astor.core.setup.ConfigurationProperties.print(ConfigurationProperties.java:66) - p:applyCrossover= false
[INFO ] fr.inria.astor.core.setup.ConfigurationProperties.print(ConfigurationProperties.java:66) - p:saveall= false
[INFO ] fr.inria.astor.core.setup.ConfigurationProperties.print(ConfigurationProperties.java:66) - p:seed= 2
[INFO ] fr.inria.astor.core.setup.ConfigurationProperties.print(ConfigurationProperties.java:66) - p:resetoperations= false
[INFO ] fr.inria.astor.core.setup.ConfigurationProperties.print(ConfigurationProperties.java:66) - p:location= ../../dat/defects4j/Closure/121/b/
[INFO ] fr.inria.astor.core.setup.ConfigurationProperties.print(ConfigurationProperties.java:66) - p:ingredientstrategy= fr.inria.astor.core.loop.spaces.ingredients.ingredientSearch.EfficientIngredientStrategy
[INFO ] fr.inria.astor.core.setup.ConfigurationProperties.print(ConfigurationProperties.java:66) - p:allpoints= false
[INFO ] fr.inria.astor.core.setup.ConfigurationProperties.print(ConfigurationProperties.java:66) - p:bugId= 280
[INFO ] fr.inria.astor.core.setup.ConfigurationProperties.print(ConfigurationProperties.java:66) - p:evosuitetimeout= 120
[INFO ] fr.inria.astor.core.setup.ConfigurationProperties.print(ConfigurationProperties.java:68) - ----------------------------
[INFO ] fr.inria.astor.core.loop.AstorCoreEngine.startEvolution(AstorCoreEngine.java:119) - 
----Starting Solution Search
[INFO ] fr.inria.astor.core.validation.executors.JUnitExecutorProcess.execute(JUnitExecutorProcess.java:120) - The Process that runs JUnit test cases had problems: process hasn't exited
[INFO ] fr.inria.astor.core.validation.executors.JUnitExecutorProcess.execute(JUnitExecutorProcess.java:120) - The Process that runs JUnit test cases had problems: process hasn't exited
[INFO ] fr.inria.astor.core.validation.executors.JUnitExecutorProcess.execute(JUnitExecutorProcess.java:120) - The Process that runs JUnit test cases had problems: process hasn't exited
[INFO ] fr.inria.astor.core.validation.executors.JUnitExecutorProcess.execute(JUnitExecutorProcess.java:120) - The Process that runs JUnit test cases had problems: process hasn't exited
[INFO ] fr.inria.astor.core.validation.executors.JUnitExecutorProcess.execute(JUnitExecutorProcess.java:120) - The Process that runs JUnit test cases had problems: process hasn't exited
[INFO ] fr.inria.astor.core.validation.executors.JUnitExecutorProcess.execute(JUnitExecutorProcess.java:120) - The Process that runs JUnit test cases had problems: process hasn't exited
[INFO ] fr.inria.astor.core.loop.AstorCoreEngine.belowMaxTime(AstorCoreEngine.java:203) - 
 No more time for operating
[INFO ] fr.inria.astor.core.loop.AstorCoreEngine.startEvolution(AstorCoreEngine.java:143) - Time Repair Loop (s): 10867.263
[INFO ] fr.inria.astor.core.loop.AstorCoreEngine.showResults(AstorCoreEngine.java:165) - 
----SUMMARY_EXECUTION---
[INFO ] fr.inria.astor.approaches.jgenprog.JGenProg.showResults(JGenProg.java:332) - 
successful_ing_attempts (#trials 0, totalAttps 0): []
[INFO ] fr.inria.astor.approaches.jgenprog.JGenProg.showResults(JGenProg.java:334) - 
failing_ing_attempts (#trials 831, totalAttps 4587): [1, 6, 1, 2, 5, 2, 2, 6, 6, 8, 8, 4, 5, 3, 3, 4, 1, 2, 5, 7, 2, 2, 7, 3, 5, 6, 8, 4, 6, 2, 5, 3, 1, 4, 4, 18, 10, 12, 5, 13, 2, 4, 3, 1, 3, 4, 3, 1, 2, 2, 1, 7, 1, 1, 5, 5, 1, 7, 10, 2, 1, 5, 1, 1, 3, 7, 1, 8, 2, 63, 7, 2, 3, 3, 7, 2, 2, 1, 10, 2, 11, 4, 3, 9, 10, 6, 5, 2, 3, 1, 1, 7, 1, 4, 1, 2, 6, 4, 7, 4, 5, 7, 2, 1, 1, 6, 5, 1, 37, 20, 1, 1, 7, 3, 4, 1, 4, 10, 2, 17, 2, 25, 5, 1, 3, 6, 23, 1, 8, 3, 2, 6, 4, 12, 1, 2, 2, 3, 1, 2, 49, 1, 4, 7, 3, 2, 16, 6, 3, 18, 1, 3, 3, 3, 3, 4, 1, 1, 3, 1, 2, 1, 2, 2, 2, 2, 6, 3, 8, 12, 1, 8, 8, 3, 2, 16, 7, 1, 26, 2, 8, 9, 4, 6, 2, 2, 8, 13, 1, 4, 11, 5, 3, 1, 8, 14, 2, 1, 3, 2, 7, 15, 2, 7, 5, 3, 5, 3, 1, 1, 2, 2, 7, 1, 1, 3, 2, 1, 3, 1, 3, 5, 2, 162, 1, 7, 2, 7, 4, 2, 2, 2, 1, 5, 4, 22, 6, 2, 3, 6, 3, 3, 6, 3, 8, 16, 3, 1, 3, 26, 1, 3, 2, 4, 7, 8, 1, 5, 5, 2, 4, 3, 4, 1, 2, 3, 1, 2, 4, 3, 1, 5, 1, 2, 8, 2, 1, 1, 1, 14, 1, 8, 3, 3, 4, 2, 6, 2, 3, 10, 1, 1, 23, 1, 2, 1, 2, 1, 1, 1, 19, 2, 1, 2, 1, 5, 4, 15, 1, 36, 1, 1, 6, 1, 25, 6, 4, 5, 1, 1, 1, 2, 4, 8, 2, 1, 7, 3, 2, 1, 34, 2, 2, 3, 2, 2, 2, 2, 2, 2, 4, 1, 2, 6, 2, 1, 10, 1, 2, 4, 2, 8, 3, 20, 6, 2, 1, 2, 2, 9, 21, 3, 1, 4, 2, 2, 1, 2, 3, 2, 1, 3, 23, 2, 6, 2, 2, 2, 1, 1, 1, 2, 2, 6, 4, 3, 3, 2, 11, 1, 1, 3, 4, 1, 1, 3, 6, 1, 4, 57, 15, 1, 2, 1, 2, 5, 5, 4, 6, 1, 2, 6, 4, 4, 2, 2, 5, 6, 4, 1, 5, 42, 5, 1, 4, 1, 7, 5, 11, 3, 2, 13, 1, 20, 8, 8, 1, 14, 1, 2, 1, 5, 4, 6, 2, 8, 7, 1, 6, 1, 5, 8, 4, 1, 5, 1, 3, 1, 3, 7, 2, 6, 1, 1, 2, 1, 1, 2, 6, 13, 4, 8, 3, 13, 31, 3, 1, 1, 2, 3, 1, 1, 7, 2, 13, 10, 4, 6, 27, 8, 5, 3, 15, 14, 3, 6, 5, 1, 3, 1, 5, 2, 6, 2, 5, 9, 1, 1, 2, 1, 1, 2, 1, 6, 8, 1, 2, 2, 1, 8, 12, 12, 6, 6, 12, 6, 2, 9, 8, 1, 3, 9, 1, 1, 8, 1, 2, 3, 3, 10, 2, 1, 1, 2, 1, 6, 3, 4, 2, 4, 1, 2, 2, 4, 15, 3, 2, 3, 9, 4, 23, 4, 2, 4, 24, 2, 2, 8, 3, 1, 11, 6, 7, 2, 1, 2, 1, 4, 3, 3, 13, 9, 7, 1, 1, 8, 3, 3, 5, 2, 2, 2, 7, 1, 3, 5, 2, 3, 8, 3, 2, 1, 1, 11, 3, 52, 5, 5, 2, 3, 8, 9, 2, 2, 1, 3, 2, 2, 25, 9, 7, 1, 2, 4, 3, 3, 1, 8, 1, 7, 5, 5, 5, 1, 1, 48, 7, 2, 3, 2, 1, 4, 7, 1, 9, 175, 3, 1, 3, 4, 4, 4, 1, 7, 9, 4, 7, 3, 2, 5, 6, 7, 2, 4, 5, 1, 4, 1, 9, 13, 16, 1, 1, 4, 1, 1, 5, 2, 2, 1, 6, 2, 1, 5, 18, 1, 5, 5, 4, 8, 1, 1, 3, 1, 3, 1, 3, 8, 2, 4, 8, 5, 8, 9, 1, 2, 1, 2, 5, 1, 2, 1, 3, 5, 1, 3, 9, 2, 1, 8, 2, 3, 2, 4, 1, 4, 2, 9, 21, 1, 1, 1, 1, 1, 1, 4, 3, 1, 1, 1, 7, 4, 1, 1, 3, 4, 9, 2, 8, 5, 5, 2, 2, 1, 2, 2, 1, 5, 4, 1, 3, 9, 4, 7, 3, 8, 1, 16, 1, 9, 1, 2, 2, 1, 4, 21, 1, 1, 1, 7, 1, 2, 14, 1, 93, 4, 2, 3, 3, 1, 3, 2, 3, 6, 1, 46, 1, 2, 38, 3, 1, 18, 1, 1, 8, 1, 8, 5, 2, 5, 6, 1, 11, 4, 1, 4, 42, 2, 3, 1, 1, 5, 31, 3, 4, 6, 2, 6, 6, 1, 1]
[INFO ] fr.inria.astor.approaches.jgenprog.JGenProg.showResults(JGenProg.java:337) - 
total Patch Attempts (0): []
[INFO ] fr.inria.astor.approaches.jgenprog.JGenProg.showResults(JGenProg.java:339) - 
successful_ing_attempts_by_patch: []
[INFO ] fr.inria.astor.approaches.jgenprog.JGenProg.showResults(JGenProg.java:340) - 
failing_ing_attempts_by_patch: [(pv:2,at:1), (pv:3,at:6), (pv:4,at:1), (pv:5,at:2), (pv:6,at:5), (pv:7,at:2), (pv:8,at:2), (pv:9,at:6), (pv:10,at:6), (pv:11,at:8), (pv:12,at:8), (pv:13,at:4), (pv:14,at:5), (pv:15,at:3), (pv:16,at:3), (pv:17,at:4), (pv:18,at:1), (pv:19,at:2), (pv:20,at:5), (pv:21,at:7), (pv:22,at:2), (pv:23,at:2), (pv:24,at:7), (pv:25,at:3), (pv:26,at:5), (pv:27,at:6), (pv:28,at:8), (pv:29,at:4), (pv:30,at:6), (pv:31,at:2), (pv:32,at:5), (pv:33,at:3), (pv:34,at:1), (pv:35,at:4), (pv:36,at:4), (pv:37,at:18), (pv:38,at:10), (pv:39,at:12), (pv:40,at:5), (pv:41,at:13), (pv:42,at:2), (pv:43,at:4), (pv:44,at:3), (pv:45,at:1), (pv:46,at:3), (pv:47,at:4), (pv:48,at:3), (pv:49,at:1), (pv:50,at:2), (pv:51,at:2), (pv:52,at:1), (pv:53,at:7), (pv:54,at:1), (pv:55,at:1), (pv:56,at:5), (pv:57,at:5), (pv:58,at:1), (pv:59,at:7), (pv:60,at:10), (pv:61,at:2), (pv:62,at:1), (pv:63,at:5), (pv:64,at:1), (pv:65,at:1), (pv:66,at:3), (pv:67,at:7), (pv:68,at:1), (pv:69,at:8), (pv:70,at:2), (pv:71,at:63), (pv:72,at:7), (pv:73,at:2), (pv:74,at:3), (pv:75,at:3), (pv:76,at:7), (pv:77,at:2), (pv:78,at:2), (pv:79,at:1), (pv:80,at:10), (pv:81,at:2), (pv:82,at:11), (pv:83,at:4), (pv:84,at:3), (pv:85,at:9), (pv:86,at:10), (pv:87,at:6), (pv:88,at:5), (pv:89,at:2), (pv:90,at:3), (pv:91,at:1), (pv:92,at:1), (pv:93,at:7), (pv:94,at:1), (pv:95,at:4), (pv:96,at:1), (pv:97,at:2), (pv:98,at:6), (pv:99,at:4), (pv:100,at:7), (pv:101,at:4), (pv:102,at:5), (pv:103,at:7), (pv:104,at:2), (pv:105,at:1), (pv:106,at:1), (pv:107,at:6), (pv:108,at:5), (pv:109,at:1), (pv:110,at:37), (pv:111,at:20), (pv:112,at:1), (pv:113,at:1), (pv:114,at:7), (pv:115,at:3), (pv:116,at:4), (pv:117,at:1), (pv:118,at:4), (pv:119,at:10), (pv:120,at:2), (pv:121,at:17), (pv:122,at:2), (pv:123,at:25), (pv:124,at:5), (pv:125,at:1), (pv:126,at:3), (pv:127,at:6), (pv:128,at:23), (pv:129,at:1), (pv:130,at:8), (pv:131,at:3), (pv:132,at:2), (pv:133,at:6), (pv:134,at:4), (pv:135,at:12), (pv:136,at:1), (pv:137,at:2), (pv:138,at:2), (pv:139,at:3), (pv:140,at:1), (pv:141,at:2), (pv:142,at:49), (pv:143,at:1), (pv:144,at:4), (pv:145,at:7), (pv:146,at:3), (pv:147,at:2), (pv:148,at:16), (pv:149,at:6), (pv:150,at:3), (pv:151,at:18), (pv:152,at:1), (pv:153,at:3), (pv:154,at:3), (pv:155,at:3), (pv:156,at:3), (pv:157,at:4), (pv:158,at:1), (pv:159,at:1), (pv:160,at:3), (pv:161,at:1), (pv:162,at:2), (pv:163,at:1), (pv:164,at:2), (pv:165,at:2), (pv:166,at:2), (pv:167,at:2), (pv:168,at:6), (pv:169,at:3), (pv:170,at:8), (pv:171,at:12), (pv:172,at:1), (pv:173,at:8), (pv:174,at:8), (pv:175,at:3), (pv:176,at:2), (pv:177,at:16), (pv:178,at:7), (pv:179,at:1), (pv:180,at:26), (pv:181,at:2), (pv:182,at:8), (pv:183,at:9), (pv:184,at:4), (pv:185,at:6), (pv:186,at:2), (pv:187,at:2), (pv:188,at:8), (pv:189,at:13), (pv:190,at:1), (pv:191,at:4), (pv:192,at:11), (pv:193,at:5), (pv:194,at:3), (pv:195,at:1), (pv:196,at:8), (pv:197,at:14), (pv:198,at:2), (pv:199,at:1), (pv:200,at:3), (pv:201,at:2), (pv:202,at:7), (pv:203,at:15), (pv:204,at:2), (pv:205,at:7), (pv:206,at:5), (pv:207,at:3), (pv:208,at:5), (pv:209,at:3), (pv:210,at:1), (pv:211,at:1), (pv:212,at:2), (pv:213,at:2), (pv:214,at:7), (pv:215,at:1), (pv:216,at:1), (pv:217,at:3), (pv:218,at:2), (pv:219,at:1), (pv:220,at:3), (pv:221,at:1), (pv:222,at:3), (pv:223,at:5), (pv:224,at:2), (pv:225,at:162), (pv:226,at:1), (pv:227,at:7), (pv:228,at:2), (pv:229,at:7), (pv:230,at:4), (pv:231,at:2), (pv:232,at:2), (pv:233,at:2), (pv:234,at:1), (pv:235,at:5), (pv:236,at:4), (pv:237,at:22), (pv:238,at:6), (pv:239,at:2), (pv:240,at:3), (pv:241,at:6), (pv:242,at:3), (pv:243,at:3), (pv:244,at:6), (pv:245,at:3), (pv:246,at:8), (pv:247,at:16), (pv:248,at:3), (pv:249,at:1), (pv:250,at:3), (pv:251,at:26), (pv:252,at:1), (pv:253,at:3), (pv:254,at:2), (pv:255,at:4), (pv:256,at:7), (pv:257,at:8), (pv:258,at:1), (pv:259,at:5), (pv:260,at:5), (pv:261,at:2), (pv:262,at:4), (pv:263,at:3), (pv:264,at:4), (pv:265,at:1), (pv:266,at:2), (pv:267,at:3), (pv:268,at:1), (pv:269,at:2), (pv:270,at:4), (pv:271,at:3), (pv:272,at:1), (pv:273,at:5), (pv:274,at:1), (pv:275,at:2), (pv:276,at:8), (pv:277,at:2), (pv:278,at:1), (pv:279,at:1), (pv:280,at:1), (pv:281,at:14), (pv:282,at:1), (pv:283,at:8), (pv:284,at:3), (pv:285,at:3), (pv:286,at:4), (pv:287,at:2), (pv:288,at:6), (pv:289,at:2), (pv:290,at:3), (pv:291,at:10), (pv:292,at:1), (pv:293,at:1), (pv:294,at:23), (pv:295,at:1), (pv:296,at:2), (pv:297,at:1), (pv:298,at:2), (pv:299,at:1), (pv:300,at:1), (pv:301,at:1), (pv:302,at:19), (pv:303,at:2), (pv:304,at:1), (pv:305,at:2), (pv:306,at:1), (pv:307,at:5), (pv:308,at:4), (pv:309,at:15), (pv:310,at:1), (pv:311,at:36), (pv:312,at:1), (pv:313,at:1), (pv:314,at:6), (pv:315,at:1), (pv:316,at:25), (pv:317,at:6), (pv:318,at:4), (pv:319,at:5), (pv:320,at:1), (pv:321,at:1), (pv:322,at:1), (pv:323,at:2), (pv:324,at:4), (pv:325,at:8), (pv:326,at:2), (pv:327,at:1), (pv:328,at:7), (pv:329,at:3), (pv:330,at:2), (pv:331,at:1), (pv:332,at:34), (pv:333,at:2), (pv:334,at:2), (pv:335,at:3), (pv:336,at:2), (pv:337,at:2), (pv:338,at:2), (pv:339,at:2), (pv:340,at:2), (pv:341,at:2), (pv:342,at:4), (pv:343,at:1), (pv:344,at:2), (pv:345,at:6), (pv:346,at:2), (pv:347,at:1), (pv:348,at:10), (pv:349,at:1), (pv:350,at:2), (pv:351,at:4), (pv:352,at:2), (pv:353,at:8), (pv:354,at:3), (pv:355,at:20), (pv:356,at:6), (pv:357,at:2), (pv:358,at:1), (pv:359,at:2), (pv:360,at:2), (pv:361,at:9), (pv:362,at:21), (pv:363,at:3), (pv:364,at:1), (pv:365,at:4), (pv:366,at:2), (pv:367,at:2), (pv:368,at:1), (pv:369,at:2), (pv:370,at:3), (pv:371,at:2), (pv:372,at:1), (pv:373,at:3), (pv:374,at:23), (pv:375,at:2), (pv:376,at:6), (pv:377,at:2), (pv:378,at:2), (pv:379,at:2), (pv:380,at:1), (pv:381,at:1), (pv:382,at:1), (pv:383,at:2), (pv:384,at:2), (pv:385,at:6), (pv:386,at:4), (pv:387,at:3), (pv:388,at:3), (pv:389,at:2), (pv:390,at:11), (pv:391,at:1), (pv:392,at:1), (pv:393,at:3), (pv:394,at:4), (pv:395,at:1), (pv:396,at:1), (pv:397,at:3), (pv:398,at:6), (pv:399,at:1), (pv:400,at:4), (pv:401,at:57), (pv:402,at:15), (pv:403,at:1), (pv:404,at:2), (pv:405,at:1), (pv:406,at:2), (pv:407,at:5), (pv:408,at:5), (pv:409,at:4), (pv:410,at:6), (pv:411,at:1), (pv:412,at:2), (pv:413,at:6), (pv:414,at:4), (pv:415,at:4), (pv:416,at:2), (pv:417,at:2), (pv:418,at:5), (pv:419,at:6), (pv:420,at:4), (pv:421,at:1), (pv:422,at:5), (pv:423,at:42), (pv:424,at:5), (pv:425,at:1), (pv:426,at:4), (pv:427,at:1), (pv:428,at:7), (pv:429,at:5), (pv:430,at:11), (pv:431,at:3), (pv:432,at:2), (pv:433,at:13), (pv:434,at:1), (pv:435,at:20), (pv:436,at:8), (pv:437,at:8), (pv:438,at:1), (pv:439,at:14), (pv:440,at:1), (pv:441,at:2), (pv:442,at:1), (pv:443,at:5), (pv:444,at:4), (pv:445,at:6), (pv:446,at:2), (pv:447,at:8), (pv:448,at:7), (pv:449,at:1), (pv:450,at:6), (pv:451,at:1), (pv:452,at:5), (pv:453,at:8), (pv:454,at:4), (pv:455,at:1), (pv:456,at:5), (pv:457,at:1), (pv:458,at:3), (pv:459,at:1), (pv:460,at:3), (pv:461,at:7), (pv:462,at:2), (pv:463,at:6), (pv:464,at:1), (pv:465,at:1), (pv:466,at:2), (pv:467,at:1), (pv:468,at:1), (pv:469,at:2), (pv:470,at:6), (pv:471,at:13), (pv:472,at:4), (pv:473,at:8), (pv:474,at:3), (pv:475,at:13), (pv:476,at:31), (pv:477,at:3), (pv:478,at:1), (pv:479,at:1), (pv:480,at:2), (pv:481,at:3), (pv:482,at:1), (pv:483,at:1), (pv:484,at:7), (pv:485,at:2), (pv:486,at:13), (pv:487,at:10), (pv:488,at:4), (pv:489,at:6), (pv:490,at:27), (pv:491,at:8), (pv:492,at:5), (pv:493,at:3), (pv:494,at:15), (pv:495,at:14), (pv:496,at:3), (pv:497,at:6), (pv:498,at:5), (pv:499,at:1), (pv:500,at:3), (pv:501,at:1), (pv:502,at:5), (pv:503,at:2), (pv:504,at:6), (pv:505,at:2), (pv:506,at:5), (pv:507,at:9), (pv:508,at:1), (pv:509,at:1), (pv:510,at:2), (pv:511,at:1), (pv:512,at:1), (pv:513,at:2), (pv:514,at:1), (pv:515,at:6), (pv:516,at:8), (pv:517,at:1), (pv:518,at:2), (pv:519,at:2), (pv:520,at:1), (pv:521,at:8), (pv:522,at:12), (pv:523,at:12), (pv:524,at:6), (pv:525,at:6), (pv:526,at:12), (pv:527,at:6), (pv:528,at:2), (pv:529,at:9), (pv:530,at:8), (pv:531,at:1), (pv:532,at:3), (pv:533,at:9), (pv:534,at:1), (pv:535,at:1), (pv:536,at:8), (pv:537,at:1), (pv:538,at:2), (pv:539,at:3), (pv:540,at:3), (pv:541,at:10), (pv:542,at:2), (pv:543,at:1), (pv:544,at:1), (pv:545,at:2), (pv:546,at:1), (pv:547,at:6), (pv:548,at:3), (pv:549,at:4), (pv:550,at:2), (pv:551,at:4), (pv:552,at:1), (pv:553,at:2), (pv:554,at:2), (pv:555,at:4), (pv:556,at:15), (pv:557,at:3), (pv:558,at:2), (pv:559,at:3), (pv:560,at:9), (pv:561,at:4), (pv:562,at:23), (pv:563,at:4), (pv:564,at:2), (pv:565,at:4), (pv:566,at:24), (pv:567,at:2), (pv:568,at:2), (pv:569,at:8), (pv:570,at:3), (pv:571,at:1), (pv:572,at:11), (pv:573,at:6), (pv:574,at:7), (pv:575,at:2), (pv:576,at:1), (pv:577,at:2), (pv:578,at:1), (pv:579,at:4), (pv:580,at:3), (pv:581,at:3), (pv:582,at:13), (pv:583,at:9), (pv:584,at:7), (pv:585,at:1), (pv:586,at:1), (pv:587,at:8), (pv:588,at:3), (pv:589,at:3), (pv:590,at:5), (pv:591,at:2), (pv:592,at:2), (pv:593,at:2), (pv:594,at:7), (pv:595,at:1), (pv:596,at:3), (pv:597,at:5), (pv:598,at:2), (pv:599,at:3), (pv:600,at:8), (pv:601,at:3), (pv:602,at:2), (pv:603,at:1), (pv:604,at:1), (pv:605,at:11), (pv:606,at:3), (pv:607,at:52), (pv:608,at:5), (pv:609,at:5), (pv:610,at:2), (pv:611,at:3), (pv:612,at:8), (pv:613,at:9), (pv:614,at:2), (pv:615,at:2), (pv:616,at:1), (pv:617,at:3), (pv:618,at:2), (pv:619,at:2), (pv:620,at:25), (pv:621,at:9), (pv:622,at:7), (pv:623,at:1), (pv:624,at:2), (pv:625,at:4), (pv:626,at:3), (pv:627,at:3), (pv:628,at:1), (pv:629,at:8), (pv:630,at:1), (pv:631,at:7), (pv:632,at:5), (pv:633,at:5), (pv:634,at:5), (pv:635,at:1), (pv:636,at:1), (pv:637,at:48), (pv:638,at:7), (pv:639,at:2), (pv:640,at:3), (pv:641,at:2), (pv:642,at:1), (pv:643,at:4), (pv:644,at:7), (pv:645,at:1), (pv:646,at:9), (pv:647,at:175), (pv:648,at:3), (pv:649,at:1), (pv:650,at:3), (pv:651,at:4), (pv:652,at:4), (pv:653,at:4), (pv:654,at:1), (pv:655,at:7), (pv:656,at:9), (pv:657,at:4), (pv:658,at:7), (pv:659,at:3), (pv:660,at:2), (pv:661,at:5), (pv:662,at:6), (pv:663,at:7), (pv:664,at:2), (pv:665,at:4), (pv:666,at:5), (pv:667,at:1), (pv:668,at:4), (pv:669,at:1), (pv:670,at:9), (pv:671,at:13), (pv:672,at:16), (pv:673,at:1), (pv:674,at:1), (pv:675,at:4), (pv:676,at:1), (pv:677,at:1), (pv:678,at:5), (pv:679,at:2), (pv:680,at:2), (pv:681,at:1), (pv:682,at:6), (pv:683,at:2), (pv:684,at:1), (pv:685,at:5), (pv:686,at:18), (pv:687,at:1), (pv:688,at:5), (pv:689,at:5), (pv:690,at:4), (pv:691,at:8), (pv:692,at:1), (pv:693,at:1), (pv:694,at:3), (pv:695,at:1), (pv:696,at:3), (pv:697,at:1), (pv:698,at:3), (pv:699,at:8), (pv:700,at:2), (pv:701,at:4), (pv:702,at:8), (pv:703,at:5), (pv:704,at:8), (pv:705,at:9), (pv:706,at:1), (pv:707,at:2), (pv:708,at:1), (pv:709,at:2), (pv:710,at:5), (pv:711,at:1), (pv:712,at:2), (pv:713,at:1), (pv:714,at:3), (pv:715,at:5), (pv:716,at:1), (pv:717,at:3), (pv:718,at:9), (pv:719,at:2), (pv:720,at:1), (pv:721,at:8), (pv:722,at:2), (pv:723,at:3), (pv:724,at:2), (pv:725,at:4), (pv:726,at:1), (pv:727,at:4), (pv:728,at:2), (pv:729,at:9), (pv:730,at:21), (pv:731,at:1), (pv:732,at:1), (pv:733,at:1), (pv:734,at:1), (pv:735,at:1), (pv:736,at:1), (pv:737,at:4), (pv:738,at:3), (pv:739,at:1), (pv:740,at:1), (pv:741,at:1), (pv:742,at:7), (pv:743,at:4), (pv:744,at:1), (pv:745,at:1), (pv:746,at:3), (pv:747,at:4), (pv:748,at:9), (pv:749,at:2), (pv:750,at:8), (pv:751,at:5), (pv:752,at:5), (pv:753,at:2), (pv:754,at:2), (pv:755,at:1), (pv:756,at:2), (pv:757,at:2), (pv:758,at:1), (pv:759,at:5), (pv:760,at:4), (pv:761,at:1), (pv:762,at:3), (pv:763,at:9), (pv:764,at:4), (pv:765,at:7), (pv:766,at:3), (pv:767,at:8), (pv:768,at:1), (pv:769,at:16), (pv:770,at:1), (pv:771,at:9), (pv:772,at:1), (pv:773,at:2), (pv:774,at:2), (pv:775,at:1), (pv:776,at:4), (pv:777,at:21), (pv:778,at:1), (pv:779,at:1), (pv:780,at:1), (pv:781,at:7), (pv:782,at:1), (pv:783,at:2), (pv:784,at:14), (pv:785,at:1), (pv:786,at:93), (pv:787,at:4), (pv:788,at:2), (pv:789,at:3), (pv:790,at:3), (pv:791,at:1), (pv:792,at:3), (pv:793,at:2), (pv:794,at:3), (pv:795,at:6), (pv:796,at:1), (pv:797,at:46), (pv:798,at:1), (pv:799,at:2), (pv:800,at:38), (pv:801,at:3), (pv:802,at:1), (pv:803,at:18), (pv:804,at:1), (pv:805,at:1), (pv:806,at:8), (pv:807,at:1), (pv:808,at:8), (pv:809,at:5), (pv:810,at:2), (pv:811,at:5), (pv:812,at:6), (pv:813,at:1), (pv:814,at:11), (pv:815,at:4), (pv:816,at:1), (pv:817,at:4), (pv:818,at:42), (pv:819,at:2), (pv:820,at:3), (pv:821,at:1), (pv:822,at:1), (pv:823,at:5), (pv:824,at:31), (pv:825,at:3), (pv:826,at:4), (pv:827,at:6), (pv:828,at:2), (pv:829,at:6), (pv:830,at:6), (pv:831,at:1), (pv:832,at:1)]
[INFO ] fr.inria.astor.approaches.jgenprog.JGenProg.showResults(JGenProg.java:342) - 
pvariants_with_transformed_ingredients: [(pv:2,at:1), (pv:3,at:6), (pv:4,at:1), (pv:5,at:2), (pv:6,at:5), (pv:7,at:2), (pv:8,at:2), (pv:9,at:6), (pv:10,at:6), (pv:11,at:8), (pv:12,at:8), (pv:13,at:4), (pv:14,at:5), (pv:15,at:3), (pv:16,at:3), (pv:17,at:4), (pv:18,at:1), (pv:19,at:2), (pv:20,at:5), (pv:21,at:7), (pv:22,at:2), (pv:23,at:2), (pv:24,at:7), (pv:25,at:3), (pv:26,at:5), (pv:27,at:6), (pv:28,at:8), (pv:29,at:4), (pv:30,at:6), (pv:31,at:2), (pv:32,at:5), (pv:33,at:3), (pv:34,at:1), (pv:35,at:4), (pv:36,at:4), (pv:37,at:18), (pv:38,at:10), (pv:39,at:12), (pv:40,at:5), (pv:41,at:13), (pv:42,at:2), (pv:43,at:4), (pv:44,at:3), (pv:45,at:1), (pv:46,at:3), (pv:47,at:4), (pv:48,at:3), (pv:49,at:1), (pv:50,at:2), (pv:51,at:2), (pv:52,at:1), (pv:53,at:7), (pv:54,at:1), (pv:55,at:1), (pv:56,at:5), (pv:57,at:5), (pv:58,at:1), (pv:59,at:7), (pv:60,at:10), (pv:61,at:2), (pv:62,at:1), (pv:63,at:5), (pv:64,at:1), (pv:65,at:1), (pv:66,at:3), (pv:67,at:7), (pv:68,at:1), (pv:69,at:8), (pv:70,at:2), (pv:71,at:63), (pv:72,at:7), (pv:73,at:2), (pv:74,at:3), (pv:75,at:3), (pv:76,at:7), (pv:77,at:2), (pv:78,at:2), (pv:79,at:1), (pv:80,at:10), (pv:81,at:2), (pv:82,at:11), (pv:83,at:4), (pv:84,at:3), (pv:85,at:9), (pv:86,at:10), (pv:87,at:6), (pv:88,at:5), (pv:89,at:2), (pv:90,at:3), (pv:91,at:1), (pv:92,at:1), (pv:93,at:7), (pv:94,at:1), (pv:95,at:4), (pv:96,at:1), (pv:97,at:2), (pv:98,at:6), (pv:99,at:4), (pv:100,at:7), (pv:101,at:4), (pv:102,at:5), (pv:103,at:7), (pv:104,at:2), (pv:105,at:1), (pv:106,at:1), (pv:107,at:6), (pv:108,at:5), (pv:109,at:1), (pv:110,at:37), (pv:111,at:20), (pv:112,at:1), (pv:113,at:1), (pv:114,at:7), (pv:115,at:3), (pv:116,at:4), (pv:117,at:1), (pv:118,at:4), (pv:119,at:10), (pv:120,at:2), (pv:121,at:17), (pv:122,at:2), (pv:123,at:25), (pv:124,at:5), (pv:125,at:1), (pv:126,at:3), (pv:127,at:6), (pv:128,at:23), (pv:129,at:1), (pv:130,at:8), (pv:131,at:3), (pv:132,at:2), (pv:133,at:6), (pv:134,at:4), (pv:135,at:12), (pv:136,at:1), (pv:137,at:2), (pv:138,at:2), (pv:139,at:3), (pv:140,at:1), (pv:141,at:2), (pv:142,at:49), (pv:143,at:1), (pv:144,at:4), (pv:145,at:7), (pv:146,at:3), (pv:147,at:2), (pv:148,at:16), (pv:149,at:6), (pv:150,at:3), (pv:151,at:18), (pv:152,at:1), (pv:153,at:3), (pv:154,at:3), (pv:155,at:3), (pv:156,at:3), (pv:157,at:4), (pv:158,at:1), (pv:159,at:1), (pv:160,at:3), (pv:161,at:1), (pv:162,at:2), (pv:163,at:1), (pv:164,at:2), (pv:165,at:2), (pv:166,at:2), (pv:167,at:2), (pv:168,at:6), (pv:169,at:3), (pv:170,at:8), (pv:171,at:12), (pv:172,at:1), (pv:173,at:8), (pv:174,at:8), (pv:175,at:3), (pv:176,at:2), (pv:177,at:16), (pv:178,at:7), (pv:179,at:1), (pv:180,at:26), (pv:181,at:2), (pv:182,at:8), (pv:183,at:9), (pv:184,at:4), (pv:185,at:6), (pv:186,at:2), (pv:187,at:2), (pv:188,at:8), (pv:189,at:13), (pv:190,at:1), (pv:191,at:4), (pv:192,at:11), (pv:193,at:5), (pv:194,at:3), (pv:195,at:1), (pv:196,at:8), (pv:197,at:14), (pv:198,at:2), (pv:199,at:1), (pv:200,at:3), (pv:201,at:2), (pv:202,at:7), (pv:203,at:15), (pv:204,at:2), (pv:205,at:7), (pv:206,at:5), (pv:207,at:3), (pv:208,at:5), (pv:209,at:3), (pv:210,at:1), (pv:211,at:1), (pv:212,at:2), (pv:213,at:2), (pv:214,at:7), (pv:215,at:1), (pv:216,at:1), (pv:217,at:3), (pv:218,at:2), (pv:219,at:1), (pv:220,at:3), (pv:221,at:1), (pv:222,at:3), (pv:223,at:5), (pv:224,at:2), (pv:225,at:162), (pv:226,at:1), (pv:227,at:7), (pv:228,at:2), (pv:229,at:7), (pv:230,at:4), (pv:231,at:2), (pv:232,at:2), (pv:233,at:2), (pv:234,at:1), (pv:235,at:5), (pv:236,at:4), (pv:237,at:22), (pv:238,at:6), (pv:239,at:2), (pv:240,at:3), (pv:241,at:6), (pv:242,at:3), (pv:243,at:3), (pv:244,at:6), (pv:245,at:3), (pv:246,at:8), (pv:247,at:16), (pv:248,at:3), (pv:249,at:1), (pv:250,at:3), (pv:251,at:26), (pv:252,at:1), (pv:253,at:3), (pv:254,at:2), (pv:255,at:4), (pv:256,at:7), (pv:257,at:8), (pv:258,at:1), (pv:259,at:5), (pv:260,at:5), (pv:261,at:2), (pv:262,at:4), (pv:263,at:3), (pv:264,at:4), (pv:265,at:1), (pv:266,at:2), (pv:267,at:3), (pv:268,at:1), (pv:269,at:2), (pv:270,at:4), (pv:271,at:3), (pv:272,at:1), (pv:273,at:5), (pv:274,at:1), (pv:275,at:2), (pv:276,at:8), (pv:277,at:2), (pv:278,at:1), (pv:279,at:1), (pv:280,at:1), (pv:281,at:14), (pv:282,at:1), (pv:283,at:8), (pv:284,at:3), (pv:285,at:3), (pv:286,at:4), (pv:287,at:2), (pv:288,at:6), (pv:289,at:2), (pv:290,at:3), (pv:291,at:10), (pv:292,at:1), (pv:293,at:1), (pv:294,at:23), (pv:295,at:1), (pv:296,at:2), (pv:297,at:1), (pv:298,at:2), (pv:299,at:1), (pv:300,at:1), (pv:301,at:1), (pv:302,at:19), (pv:303,at:2), (pv:304,at:1), (pv:305,at:2), (pv:306,at:1), (pv:307,at:5), (pv:308,at:4), (pv:309,at:15), (pv:310,at:1), (pv:311,at:36), (pv:312,at:1), (pv:313,at:1), (pv:314,at:6), (pv:315,at:1), (pv:316,at:25), (pv:317,at:6), (pv:318,at:4), (pv:319,at:5), (pv:320,at:1), (pv:321,at:1), (pv:322,at:1), (pv:323,at:2), (pv:324,at:4), (pv:325,at:8), (pv:326,at:2), (pv:327,at:1), (pv:328,at:7), (pv:329,at:3), (pv:330,at:2), (pv:331,at:1), (pv:332,at:34), (pv:333,at:2), (pv:334,at:2), (pv:335,at:3), (pv:336,at:2), (pv:337,at:2), (pv:338,at:2), (pv:339,at:2), (pv:340,at:2), (pv:341,at:2), (pv:342,at:4), (pv:343,at:1), (pv:344,at:2), (pv:345,at:6), (pv:346,at:2), (pv:347,at:1), (pv:348,at:10), (pv:349,at:1), (pv:350,at:2), (pv:351,at:4), (pv:352,at:2), (pv:353,at:8), (pv:354,at:3), (pv:355,at:20), (pv:356,at:6), (pv:357,at:2), (pv:358,at:1), (pv:359,at:2), (pv:360,at:2), (pv:361,at:9), (pv:362,at:21), (pv:363,at:3), (pv:364,at:1), (pv:365,at:4), (pv:366,at:2), (pv:367,at:2), (pv:368,at:1), (pv:369,at:2), (pv:370,at:3), (pv:371,at:2), (pv:372,at:1), (pv:373,at:3), (pv:374,at:23), (pv:375,at:2), (pv:376,at:6), (pv:377,at:2), (pv:378,at:2), (pv:379,at:2), (pv:380,at:1), (pv:381,at:1), (pv:382,at:1), (pv:383,at:2), (pv:384,at:2), (pv:385,at:6), (pv:386,at:4), (pv:387,at:3), (pv:388,at:3), (pv:389,at:2), (pv:390,at:11), (pv:391,at:1), (pv:392,at:1), (pv:393,at:3), (pv:394,at:4), (pv:395,at:1), (pv:396,at:1), (pv:397,at:3), (pv:398,at:6), (pv:399,at:1), (pv:400,at:4), (pv:401,at:57), (pv:402,at:15), (pv:403,at:1), (pv:404,at:2), (pv:405,at:1), (pv:406,at:2), (pv:407,at:5), (pv:408,at:5), (pv:409,at:4), (pv:410,at:6), (pv:411,at:1), (pv:412,at:2), (pv:413,at:6), (pv:414,at:4), (pv:415,at:4), (pv:416,at:2), (pv:417,at:2), (pv:418,at:5), (pv:419,at:6), (pv:420,at:4), (pv:421,at:1), (pv:422,at:5), (pv:423,at:42), (pv:424,at:5), (pv:425,at:1), (pv:426,at:4), (pv:427,at:1), (pv:428,at:7), (pv:429,at:5), (pv:430,at:11), (pv:431,at:3), (pv:432,at:2), (pv:433,at:13), (pv:434,at:1), (pv:435,at:20), (pv:436,at:8), (pv:437,at:8), (pv:438,at:1), (pv:439,at:14), (pv:440,at:1), (pv:441,at:2), (pv:442,at:1), (pv:443,at:5), (pv:444,at:4), (pv:445,at:6), (pv:446,at:2), (pv:447,at:8), (pv:448,at:7), (pv:449,at:1), (pv:450,at:6), (pv:451,at:1), (pv:452,at:5), (pv:453,at:8), (pv:454,at:4), (pv:455,at:1), (pv:456,at:5), (pv:457,at:1), (pv:458,at:3), (pv:459,at:1), (pv:460,at:3), (pv:461,at:7), (pv:462,at:2), (pv:463,at:6), (pv:464,at:1), (pv:465,at:1), (pv:466,at:2), (pv:467,at:1), (pv:468,at:1), (pv:469,at:2), (pv:470,at:6), (pv:471,at:13), (pv:472,at:4), (pv:473,at:8), (pv:474,at:3), (pv:475,at:13), (pv:476,at:31), (pv:477,at:3), (pv:478,at:1), (pv:479,at:1), (pv:480,at:2), (pv:481,at:3), (pv:482,at:1), (pv:483,at:1), (pv:484,at:7), (pv:485,at:2), (pv:486,at:13), (pv:487,at:10), (pv:488,at:4), (pv:489,at:6), (pv:490,at:27), (pv:491,at:8), (pv:492,at:5), (pv:493,at:3), (pv:494,at:15), (pv:495,at:14), (pv:496,at:3), (pv:497,at:6), (pv:498,at:5), (pv:499,at:1), (pv:500,at:3), (pv:501,at:1), (pv:502,at:5), (pv:503,at:2), (pv:504,at:6), (pv:505,at:2), (pv:506,at:5), (pv:507,at:9), (pv:508,at:1), (pv:509,at:1), (pv:510,at:2), (pv:511,at:1), (pv:512,at:1), (pv:513,at:2), (pv:514,at:1), (pv:515,at:6), (pv:516,at:8), (pv:517,at:1), (pv:518,at:2), (pv:519,at:2), (pv:520,at:1), (pv:521,at:8), (pv:522,at:12), (pv:523,at:12), (pv:524,at:6), (pv:525,at:6), (pv:526,at:12), (pv:527,at:6), (pv:528,at:2), (pv:529,at:9), (pv:530,at:8), (pv:531,at:1), (pv:532,at:3), (pv:533,at:9), (pv:534,at:1), (pv:535,at:1), (pv:536,at:8), (pv:537,at:1), (pv:538,at:2), (pv:539,at:3), (pv:540,at:3), (pv:541,at:10), (pv:542,at:2), (pv:543,at:1), (pv:544,at:1), (pv:545,at:2), (pv:546,at:1), (pv:547,at:6), (pv:548,at:3), (pv:549,at:4), (pv:550,at:2), (pv:551,at:4), (pv:552,at:1), (pv:553,at:2), (pv:554,at:2), (pv:555,at:4), (pv:556,at:15), (pv:557,at:3), (pv:558,at:2), (pv:559,at:3), (pv:560,at:9), (pv:561,at:4), (pv:562,at:23), (pv:563,at:4), (pv:564,at:2), (pv:565,at:4), (pv:566,at:24), (pv:567,at:2), (pv:568,at:2), (pv:569,at:8), (pv:570,at:3), (pv:571,at:1), (pv:572,at:11), (pv:573,at:6), (pv:574,at:7), (pv:575,at:2), (pv:576,at:1), (pv:577,at:2), (pv:578,at:1), (pv:579,at:4), (pv:580,at:3), (pv:581,at:3), (pv:582,at:13), (pv:583,at:9), (pv:584,at:7), (pv:585,at:1), (pv:586,at:1), (pv:587,at:8), (pv:588,at:3), (pv:589,at:3), (pv:590,at:5), (pv:591,at:2), (pv:592,at:2), (pv:593,at:2), (pv:594,at:7), (pv:595,at:1), (pv:596,at:3), (pv:597,at:5), (pv:598,at:2), (pv:599,at:3), (pv:600,at:8), (pv:601,at:3), (pv:602,at:2), (pv:603,at:1), (pv:604,at:1), (pv:605,at:11), (pv:606,at:3), (pv:607,at:52), (pv:608,at:5), (pv:609,at:5), (pv:610,at:2), (pv:611,at:3), (pv:612,at:8), (pv:613,at:9), (pv:614,at:2), (pv:615,at:2), (pv:616,at:1), (pv:617,at:3), (pv:618,at:2), (pv:619,at:2), (pv:620,at:25), (pv:621,at:9), (pv:622,at:7), (pv:623,at:1), (pv:624,at:2), (pv:625,at:4), (pv:626,at:3), (pv:627,at:3), (pv:628,at:1), (pv:629,at:8), (pv:630,at:1), (pv:631,at:7), (pv:632,at:5), (pv:633,at:5), (pv:634,at:5), (pv:635,at:1), (pv:636,at:1), (pv:637,at:48), (pv:638,at:7), (pv:639,at:2), (pv:640,at:3), (pv:641,at:2), (pv:642,at:1), (pv:643,at:4), (pv:644,at:7), (pv:645,at:1), (pv:646,at:9), (pv:647,at:175), (pv:648,at:3), (pv:649,at:1), (pv:650,at:3), (pv:651,at:4), (pv:652,at:4), (pv:653,at:4), (pv:654,at:1), (pv:655,at:7), (pv:656,at:9), (pv:657,at:4), (pv:658,at:7), (pv:659,at:3), (pv:660,at:2), (pv:661,at:5), (pv:662,at:6), (pv:663,at:7), (pv:664,at:2), (pv:665,at:4), (pv:666,at:5), (pv:667,at:1), (pv:668,at:4), (pv:669,at:1), (pv:670,at:9), (pv:671,at:13), (pv:672,at:16), (pv:673,at:1), (pv:674,at:1), (pv:675,at:4), (pv:676,at:1), (pv:677,at:1), (pv:678,at:5), (pv:679,at:2), (pv:680,at:2), (pv:681,at:1), (pv:682,at:6), (pv:683,at:2), (pv:684,at:1), (pv:685,at:5), (pv:686,at:18), (pv:687,at:1), (pv:688,at:5), (pv:689,at:5), (pv:690,at:4), (pv:691,at:8), (pv:692,at:1), (pv:693,at:1), (pv:694,at:3), (pv:695,at:1), (pv:696,at:3), (pv:697,at:1), (pv:698,at:3), (pv:699,at:8), (pv:700,at:2), (pv:701,at:4), (pv:702,at:8), (pv:703,at:5), (pv:704,at:8), (pv:705,at:9), (pv:706,at:1), (pv:707,at:2), (pv:708,at:1), (pv:709,at:2), (pv:710,at:5), (pv:711,at:1), (pv:712,at:2), (pv:713,at:1), (pv:714,at:3), (pv:715,at:5), (pv:716,at:1), (pv:717,at:3), (pv:718,at:9), (pv:719,at:2), (pv:720,at:1), (pv:721,at:8), (pv:722,at:2), (pv:723,at:3), (pv:724,at:2), (pv:725,at:4), (pv:726,at:1), (pv:727,at:4), (pv:728,at:2), (pv:729,at:9), (pv:730,at:21), (pv:731,at:1), (pv:732,at:1), (pv:733,at:1), (pv:734,at:1), (pv:735,at:1), (pv:736,at:1), (pv:737,at:4), (pv:738,at:3), (pv:739,at:1), (pv:740,at:1), (pv:741,at:1), (pv:742,at:7), (pv:743,at:4), (pv:744,at:1), (pv:745,at:1), (pv:746,at:3), (pv:747,at:4), (pv:748,at:9), (pv:749,at:2), (pv:750,at:8), (pv:751,at:5), (pv:752,at:5), (pv:753,at:2), (pv:754,at:2), (pv:755,at:1), (pv:756,at:2), (pv:757,at:2), (pv:758,at:1), (pv:759,at:5), (pv:760,at:4), (pv:761,at:1), (pv:762,at:3), (pv:763,at:9), (pv:764,at:4), (pv:765,at:7), (pv:766,at:3), (pv:767,at:8), (pv:768,at:1), (pv:769,at:16), (pv:770,at:1), (pv:771,at:9), (pv:772,at:1), (pv:773,at:2), (pv:774,at:2), (pv:775,at:1), (pv:776,at:4), (pv:777,at:21), (pv:778,at:1), (pv:779,at:1), (pv:780,at:1), (pv:781,at:7), (pv:782,at:1), (pv:783,at:2), (pv:784,at:14), (pv:785,at:1), (pv:786,at:93), (pv:787,at:4), (pv:788,at:2), (pv:789,at:3), (pv:790,at:3), (pv:791,at:1), (pv:792,at:3), (pv:793,at:2), (pv:794,at:3), (pv:795,at:6), (pv:796,at:1), (pv:797,at:46), (pv:798,at:1), (pv:799,at:2), (pv:800,at:38), (pv:801,at:3), (pv:802,at:1), (pv:803,at:18), (pv:804,at:1), (pv:805,at:1), (pv:806,at:8), (pv:807,at:1), (pv:808,at:8), (pv:809,at:5), (pv:810,at:2), (pv:811,at:5), (pv:812,at:6), (pv:813,at:1), (pv:814,at:11), (pv:815,at:4), (pv:816,at:1), (pv:817,at:4), (pv:818,at:42), (pv:819,at:2), (pv:820,at:3), (pv:821,at:1), (pv:822,at:1), (pv:823,at:5), (pv:824,at:31), (pv:825,at:3), (pv:826,at:4), (pv:827,at:6), (pv:828,at:2), (pv:829,at:6), (pv:830,at:6), (pv:831,at:1), (pv:832,at:1)]
[INFO ] fr.inria.main.evolution.AstorMain.run(AstorMain.java:163) - Time Total(s): 11895.586
