Warning: no access to tty (Bad file descriptor).
Thus no job control in this shell.
tput: No value for $TERM and no -T specified
Node: hu11.sciclone.wm.edu
[INFO ] fr.inria.main.AbstractMain.processArguments(AbstractMain.java:295) - command line arguments: [-out  /local/scr/mtufano/Lang/59/b/similar-local-executables-embeddings/2  -jvm4testexecution  /usr/local/jdk1.7.0_80/bin/  -loglevel  INFO  -maxVarCombination  1000  -maxgen  1000000  -population  1  -maxtime  180  -timezone  America/New_York  -customop  fr.inria.astor.approaches.jgenprog.operators.InsertAfterOp:fr.inria.astor.approaches.jgenprog.operators.InsertBeforeOp:fr.inria.astor.approaches.jgenprog.operators.ReplaceOp  -seed  2  -javacompliancelevel  3  -package  org.apache.commons  -binjavafolder  target/classes/  -bintestfolder  target/tests/  -srcjavafolder  src/java/  -srctestfolder  src/test/  -learningdir  ../../out/learningdir/Lang/59/b/  -location  ../../dat/defects4j/Lang/59/b/  -failing  org.apache.commons.lang.text.StrBuilderAppendInsertTest  -dependencies  ../../dat/libs/Lang/cglib.jar:../../dat/libs/Lang/commons-io.jar:../../dat/libs/Lang/asm.jar:../../dat/libs/Lang/easymock.jar  -classestoinstrument  org.apache.commons.lang.text.StrBuilder:org.apache.commons.lang.text.StrTokenizer  -regressiontestcases4fl  org.apache.commons.lang.text.StrBuilderAppendInsertTest:org.apache.commons.lang.text.StrBuilderTest:org.apache.commons.lang.text.StrSubstitutorTest:org.apache.commons.lang.text.StrTokenizerTest  -scope  fr.inria.astor.core.loop.spaces.ingredients.scopes.ctscopes.CtClassIngredientSpace  -ingredientstrategy  fr.inria.astor.core.loop.spaces.ingredients.ingredientSearch.CloneIngredientSearchStrategy  -clonegranularity  spoon.reflect.declaration.CtExecutable  -transformingredient]
[INFO ] fr.inria.astor.core.manipulation.MutationSupporter.buildModel(MutationSupporter.java:76) - building model: /local/scr/mtufano/Lang/59/b/similar-local-executables-embeddings/2/AstorMain-b//src//default, compliance level: 3
[INFO ] fr.inria.astor.core.manipulation.MutationSupporter.buildModel(MutationSupporter.java:85) - Classpath for building SpoonModel [/sciclone/data20/mtufano/deeprepair/bin/eval/../../dat/libs/Lang/cglib.jar, /sciclone/data20/mtufano/deeprepair/bin/eval/../../dat/libs/Lang/commons-io.jar, /sciclone/data20/mtufano/deeprepair/bin/eval/../../dat/libs/Lang/asm.jar, /sciclone/data20/mtufano/deeprepair/bin/eval/../../dat/libs/Lang/easymock.jar]
[INFO ] fr.inria.astor.core.setup.ProjectRepairFacade.calculateSuspicious(ProjectRepairFacade.java:215) - -Executing Gzoltar classpath: /local/scr/mtufano/Lang/59/b/similar-local-executables-embeddings/2/AstorMain-b//bin//default from 4 classes with test cases
[INFO ] fr.inria.astor.core.faultlocalization.GZoltarFaultLocalization.searchSuspicious(GZoltarFaultLocalization.java:37) - Gzoltar fault localization: min susp value parameter: 0.1
[INFO ] fr.inria.astor.core.faultlocalization.GZoltarFaultLocalization.searchSuspicious(GZoltarFaultLocalization.java:57) - -gz-Adding classpath: [/sciclone/data20/mtufano/deeprepair/bin/eval/../../dat/libs/Lang/cglib.jar, /local/scr/mtufano/Lang/59/b/similar-local-executables-embeddings/2/AstorMain-b//bin//default, /sciclone/data20/mtufano/deeprepair/bin/eval/../../dat/libs/Lang/asm.jar, /sciclone/data20/mtufano/deeprepair/bin/eval/../../dat/libs/Lang/easymock.jar, /sciclone/data20/mtufano/deeprepair/bin/eval/../../dat/libs/Lang/commons-io.jar]
[INFO ] fr.inria.astor.core.faultlocalization.GZoltarFaultLocalization.searchSuspicious(GZoltarFaultLocalization.java:76) - Test failt: org.apache.commons.lang.text.StrBuilderAppendInsertTest#testLang299
[INFO ] fr.inria.astor.core.faultlocalization.GZoltarFaultLocalization.searchSuspicious(GZoltarFaultLocalization.java:81) - Gzoltar Test Result Total:186, fails: 1, GZoltar suspicious 1128
[INFO ] fr.inria.astor.core.faultlocalization.GZoltarFaultLocalization.searchSuspicious(GZoltarFaultLocalization.java:123) - Gzoltar found: 6 with susp > 0.1, we consider: 6
[INFO ] fr.inria.astor.approaches.jgenprog.JGenProg.initPopulation(JGenProg.java:80) - 
---- Initial suspicious size: 6
[INFO ] fr.inria.astor.core.loop.population.ProgramVariantFactory.createProgramInstance(ProgramVariantFactory.java:130) - Total suspicious from FL: 6,  6
[INFO ] fr.inria.astor.core.loop.population.ProgramVariantFactory.createProgramInstance(ProgramVariantFactory.java:138) - Total ModPoint created: 6
[INFO ] fr.inria.astor.core.loop.population.ProgramVariantFactory.createInitialPopulation(ProgramVariantFactory.java:82) - Creating program variant #1, [Variant id: 1, #gens: 6, #ops: 0, parent:-]
[INFO ] fr.inria.astor.core.setup.ConfigurationProperties.print(ConfigurationProperties.java:63) - ----------------------------
[INFO ] fr.inria.astor.core.setup.ConfigurationProperties.print(ConfigurationProperties.java:64) - ---Configuration properties:---Execution values
[INFO ] fr.inria.astor.core.setup.ConfigurationProperties.print(ConfigurationProperties.java:66) - p:lastJUnitVersion= ./examples/libs/junit-4.11.jar
[INFO ] fr.inria.astor.core.setup.ConfigurationProperties.print(ConfigurationProperties.java:66) - p:alternativecompliancelevel= 4
[INFO ] fr.inria.astor.core.setup.ConfigurationProperties.print(ConfigurationProperties.java:66) - p:ignoredTestCases= 
[INFO ] fr.inria.astor.core.setup.ConfigurationProperties.print(ConfigurationProperties.java:66) - p:workingDirectory= /local/scr/mtufano/Lang/59/b/similar-local-executables-embeddings/2
[INFO ] fr.inria.astor.core.setup.ConfigurationProperties.print(ConfigurationProperties.java:66) - p:manipulatesuper= false
[INFO ] fr.inria.astor.core.setup.ConfigurationProperties.print(ConfigurationProperties.java:66) - p:validation= process
[INFO ] fr.inria.astor.core.setup.ConfigurationProperties.print(ConfigurationProperties.java:66) - p:jvm4testexecution= /usr/local/jdk1.7.0_80/bin/
[INFO ] fr.inria.astor.core.setup.ConfigurationProperties.print(ConfigurationProperties.java:66) - p:binjavafolder= target/classes/
[INFO ] fr.inria.astor.core.setup.ConfigurationProperties.print(ConfigurationProperties.java:66) - p:evosuiteresultfolder= evosuite
[INFO ] fr.inria.astor.core.setup.ConfigurationProperties.print(ConfigurationProperties.java:66) - p:flthreshold= 0.1
[INFO ] fr.inria.astor.core.setup.ConfigurationProperties.print(ConfigurationProperties.java:66) - p:regressionforfaultlocalization= true
[INFO ] fr.inria.astor.core.setup.ConfigurationProperties.print(ConfigurationProperties.java:66) - p:tmax2= 960000
[INFO ] fr.inria.astor.core.setup.ConfigurationProperties.print(ConfigurationProperties.java:66) - p:tmax1= 120000
[INFO ] fr.inria.astor.core.setup.ConfigurationProperties.print(ConfigurationProperties.java:66) - p:probagenmutation= false
[INFO ] fr.inria.astor.core.setup.ConfigurationProperties.print(ConfigurationProperties.java:66) - p:srctestfolder= src/test/
[INFO ] fr.inria.astor.core.setup.ConfigurationProperties.print(ConfigurationProperties.java:66) - p:customop= fr.inria.astor.approaches.jgenprog.operators.InsertAfterOp:fr.inria.astor.approaches.jgenprog.operators.InsertBeforeOp:fr.inria.astor.approaches.jgenprog.operators.ReplaceOp
[INFO ] fr.inria.astor.core.setup.ConfigurationProperties.print(ConfigurationProperties.java:66) - p:forceExecuteRegression= false
[INFO ] fr.inria.astor.core.setup.ConfigurationProperties.print(ConfigurationProperties.java:66) - p:clusteringfilename= clustering.csv
[INFO ] fr.inria.astor.core.setup.ConfigurationProperties.print(ConfigurationProperties.java:66) - p:failing= org.apache.commons.lang.text.StrBuilderAppendInsertTest
[INFO ] fr.inria.astor.core.setup.ConfigurationProperties.print(ConfigurationProperties.java:66) - p:evo_buggy_class= true
[INFO ] fr.inria.astor.core.setup.ConfigurationProperties.print(ConfigurationProperties.java:66) - p:numberExecutions= 1
[INFO ] fr.inria.astor.core.setup.ConfigurationProperties.print(ConfigurationProperties.java:66) - p:evo_affected_by_op= true
[INFO ] fr.inria.astor.core.setup.ConfigurationProperties.print(ConfigurationProperties.java:66) - p:population= 1
[INFO ] fr.inria.astor.core.setup.ConfigurationProperties.print(ConfigurationProperties.java:66) - p:clonegranularity= spoon.reflect.declaration.CtExecutable
[INFO ] fr.inria.astor.core.setup.ConfigurationProperties.print(ConfigurationProperties.java:66) - p:regressiontestcases4fl= org.apache.commons.lang.text.StrBuilderAppendInsertTest:org.apache.commons.lang.text.StrBuilderTest:org.apache.commons.lang.text.StrSubstitutorTest:org.apache.commons.lang.text.StrTokenizerTest
[INFO ] fr.inria.astor.core.setup.ConfigurationProperties.print(ConfigurationProperties.java:66) - p:savesolution= true
[INFO ] fr.inria.astor.core.setup.ConfigurationProperties.print(ConfigurationProperties.java:66) - p:javacompliancelevel= 3
[INFO ] fr.inria.astor.core.setup.ConfigurationProperties.print(ConfigurationProperties.java:66) - p:uniqueoptogen= false
[INFO ] fr.inria.astor.core.setup.ConfigurationProperties.print(ConfigurationProperties.java:66) - p:projectIdentifier= 
[INFO ] fr.inria.astor.core.setup.ConfigurationProperties.print(ConfigurationProperties.java:66) - p:modificationpointnavigation= weight
[INFO ] fr.inria.astor.core.setup.ConfigurationProperties.print(ConfigurationProperties.java:66) - p:stopfirst= false
[INFO ] fr.inria.astor.core.setup.ConfigurationProperties.print(ConfigurationProperties.java:66) - p:multipointmodification= false
[INFO ] fr.inria.astor.core.setup.ConfigurationProperties.print(ConfigurationProperties.java:66) - p:elementsToMutate= 10
[INFO ] fr.inria.astor.core.setup.ConfigurationProperties.print(ConfigurationProperties.java:66) - p:evoDSE= false
[INFO ] fr.inria.astor.core.setup.ConfigurationProperties.print(ConfigurationProperties.java:66) - p:bintestfolder= target/tests/
[INFO ] fr.inria.astor.core.setup.ConfigurationProperties.print(ConfigurationProperties.java:66) - p:testbystep= false
[INFO ] fr.inria.astor.core.setup.ConfigurationProperties.print(ConfigurationProperties.java:66) - p:version-location= ./math-version/
[INFO ] fr.inria.astor.core.setup.ConfigurationProperties.print(ConfigurationProperties.java:66) - p:reintroduce= PARENTS
[INFO ] fr.inria.astor.core.setup.ConfigurationProperties.print(ConfigurationProperties.java:66) - p:maxGeneration= 1000000
[INFO ] fr.inria.astor.core.setup.ConfigurationProperties.print(ConfigurationProperties.java:66) - p:maxVarCombination= 1000
[INFO ] fr.inria.astor.core.setup.ConfigurationProperties.print(ConfigurationProperties.java:66) - p:maxtime= 180
[INFO ] fr.inria.astor.core.setup.ConfigurationProperties.print(ConfigurationProperties.java:66) - p:evosuitejar= ./lib/evosuite-master-1.0.4-SNAPSHOT.jar
[INFO ] fr.inria.astor.core.setup.ConfigurationProperties.print(ConfigurationProperties.java:66) - p:commandTrunk= 50000
[INFO ] fr.inria.astor.core.setup.ConfigurationProperties.print(ConfigurationProperties.java:66) - p:faultlocalization= fr.inria.astor.core.faultlocalization.GZoltarFaultLocalization
[INFO ] fr.inria.astor.core.setup.ConfigurationProperties.print(ConfigurationProperties.java:66) - p:maxsuspcandidates= 1000
[INFO ] fr.inria.astor.core.setup.ConfigurationProperties.print(ConfigurationProperties.java:66) - p:mode= statement
[INFO ] fr.inria.astor.core.setup.ConfigurationProperties.print(ConfigurationProperties.java:66) - p:learningdir= ../../out/learningdir/Lang/59/b/
[INFO ] fr.inria.astor.core.setup.ConfigurationProperties.print(ConfigurationProperties.java:66) - p:jvm4evosuitetestexecution= /usr/local/jdk1.7.0_80/bin/
[INFO ] fr.inria.astor.core.setup.ConfigurationProperties.print(ConfigurationProperties.java:66) - p:filterfaultlocalization= true
[INFO ] fr.inria.astor.core.setup.ConfigurationProperties.print(ConfigurationProperties.java:66) - p:mutationrate= 1 
[INFO ] fr.inria.astor.core.setup.ConfigurationProperties.print(ConfigurationProperties.java:66) - p:pathToMVNRepository= 
[INFO ] fr.inria.astor.core.setup.ConfigurationProperties.print(ConfigurationProperties.java:66) - p:resourcesfolder= /src/main/resources:/src/test/resources:
[INFO ] fr.inria.astor.core.setup.ConfigurationProperties.print(ConfigurationProperties.java:66) - p:timezone= America/New_York
[INFO ] fr.inria.astor.core.setup.ConfigurationProperties.print(ConfigurationProperties.java:66) - p:classestoinstrument= org.apache.commons.lang.text.StrBuilder:org.apache.commons.lang.text.StrTokenizer
[INFO ] fr.inria.astor.core.setup.ConfigurationProperties.print(ConfigurationProperties.java:66) - p:evoRunOnBuggyClass= true
[INFO ] fr.inria.astor.core.setup.ConfigurationProperties.print(ConfigurationProperties.java:66) - p:compiler= fr.inria.astor.core.manipulation.bytecode.compiler.SpoonClassCompiler
[INFO ] fr.inria.astor.core.setup.ConfigurationProperties.print(ConfigurationProperties.java:66) - p:dependenciespath= ../../dat/libs/Lang/cglib.jar:../../dat/libs/Lang/commons-io.jar:../../dat/libs/Lang/asm.jar:../../dat/libs/Lang/easymock.jar
[INFO ] fr.inria.astor.core.setup.ConfigurationProperties.print(ConfigurationProperties.java:66) - p:skipfaultlocalization= false
[INFO ] fr.inria.astor.core.setup.ConfigurationProperties.print(ConfigurationProperties.java:66) - p:packageToInstrument= org.apache.commons
[INFO ] fr.inria.astor.core.setup.ConfigurationProperties.print(ConfigurationProperties.java:66) - p:scope= fr.inria.astor.core.loop.spaces.ingredients.scopes.ctscopes.CtClassIngredientSpace
[INFO ] fr.inria.astor.core.setup.ConfigurationProperties.print(ConfigurationProperties.java:66) - p:transformingredient= true
[INFO ] fr.inria.astor.core.setup.ConfigurationProperties.print(ConfigurationProperties.java:66) - p:fitnessfunction= fr.inria.astor.core.loop.population.TestCaseFitnessFunction
[INFO ] fr.inria.astor.core.setup.ConfigurationProperties.print(ConfigurationProperties.java:66) - p:pvariantfoldername= variant-
[INFO ] fr.inria.astor.core.setup.ConfigurationProperties.print(ConfigurationProperties.java:66) - p:srcjavafolder= src/java/
[INFO ] fr.inria.astor.core.setup.ConfigurationProperties.print(ConfigurationProperties.java:66) - p:populationcontroller= fr.inria.astor.core.loop.population.TestCaseBasedFitnessPopulationController
[INFO ] fr.inria.astor.core.setup.ConfigurationProperties.print(ConfigurationProperties.java:66) - p:ignoreflakyinfl= false
[INFO ] fr.inria.astor.core.setup.ConfigurationProperties.print(ConfigurationProperties.java:66) - p:applyCrossover= false
[INFO ] fr.inria.astor.core.setup.ConfigurationProperties.print(ConfigurationProperties.java:66) - p:saveall= false
[INFO ] fr.inria.astor.core.setup.ConfigurationProperties.print(ConfigurationProperties.java:66) - p:seed= 2
[INFO ] fr.inria.astor.core.setup.ConfigurationProperties.print(ConfigurationProperties.java:66) - p:resetoperations= false
[INFO ] fr.inria.astor.core.setup.ConfigurationProperties.print(ConfigurationProperties.java:66) - p:location= ../../dat/defects4j/Lang/59/b/
[INFO ] fr.inria.astor.core.setup.ConfigurationProperties.print(ConfigurationProperties.java:66) - p:ingredientstrategy= fr.inria.astor.core.loop.spaces.ingredients.ingredientSearch.CloneIngredientSearchStrategy
[INFO ] fr.inria.astor.core.setup.ConfigurationProperties.print(ConfigurationProperties.java:66) - p:allpoints= false
[INFO ] fr.inria.astor.core.setup.ConfigurationProperties.print(ConfigurationProperties.java:66) - p:bugId= 280
[INFO ] fr.inria.astor.core.setup.ConfigurationProperties.print(ConfigurationProperties.java:66) - p:evosuitetimeout= 120
[INFO ] fr.inria.astor.core.setup.ConfigurationProperties.print(ConfigurationProperties.java:68) - ----------------------------
[INFO ] fr.inria.astor.core.loop.AstorCoreEngine.startEvolution(AstorCoreEngine.java:119) - 
----Starting Solution Search
0-->2org.apache.commons.lang.text.StrBuilder#org.apache.commons.lang.text.StrBuilder insert(int,double)
1-->2org.apache.commons.lang.text.StrBuilder#boolean equalsIgnoreCase(org.apache.commons.lang.text.StrBuilder)
2-->2org.apache.commons.lang.text.StrBuilder#boolean equals(org.apache.commons.lang.text.StrBuilder)
3-->2org.apache.commons.lang.text.StrBuilder$StrBuilderTokenizer#org.apache.commons.lang.text.StrBuilder$StrBuilderTokenizer()
4-->2org.apache.commons.lang.text.StrBuilder#boolean startsWith(java.lang.String)
5-->2org.apache.commons.lang.text.StrBuilder#org.apache.commons.lang.text.StrBuilder replace(org.apache.commons.lang.text.StrMatcher,java.lang.String,int,int,int)
6-->2org.apache.commons.lang.text.StrBuilder#void validateIndex(int)
7-->2org.apache.commons.lang.text.StrBuilder$StrBuilderWriter#void write(int)
8-->2org.apache.commons.lang.text.StrBuilder#boolean contains(java.lang.String)
9-->2org.apache.commons.lang.text.StrBuilder#org.apache.commons.lang.text.StrBuilder insert(int,java.lang.Object)
10-->2org.apache.commons.lang.text.StrBuilder#void deleteImpl(int,int,int)
11-->2org.apache.commons.lang.text.StrBuilder#org.apache.commons.lang.text.StrBuilder deleteAll(char)
12-->2org.apache.commons.lang.text.StrBuilder#org.apache.commons.lang.text.StrBuilder replaceImpl(org.apache.commons.lang.text.StrMatcher,java.lang.String,int,int,int)
13-->2org.apache.commons.lang.text.StrBuilder#int indexOf(java.lang.String)
14-->2org.apache.commons.lang.text.StrBuilder#org.apache.commons.lang.text.StrBuilder appendNull()
15-->2org.apache.commons.lang.text.StrBuilder#org.apache.commons.lang.text.StrBuilder insert(int,int)
16-->2org.apache.commons.lang.text.StrBuilder#java.io.Writer asWriter()
17-->2org.apache.commons.lang.text.StrBuilder#org.apache.commons.lang.text.StrBuilder appendFixedWidthPadLeft(int,int,char)
18-->2org.apache.commons.lang.text.StrBuilder#org.apache.commons.lang.text.StrBuilder replaceAll(java.lang.String,java.lang.String)
19-->2org.apache.commons.lang.text.StrBuilder$StrBuilderWriter#void write(java.lang.String,int,int)
20-->2org.apache.commons.lang.text.StrBuilder#org.apache.commons.lang.text.StrBuilder append(boolean)
21-->2org.apache.commons.lang.text.StrBuilder#java.io.Reader asReader()
22-->2org.apache.commons.lang.text.StrBuilder$StrBuilderTokenizer#java.util.List tokenize(char[],int,int)
23-->2org.apache.commons.lang.text.StrBuilder#org.apache.commons.lang.text.StrBuilder minimizeCapacity()
24-->2org.apache.commons.lang.text.StrBuilder$StrBuilderWriter#void flush()
25-->2org.apache.commons.lang.text.StrBuilder#org.apache.commons.lang.text.StrBuilder deleteFirst(org.apache.commons.lang.text.StrMatcher)
26-->2org.apache.commons.lang.text.StrBuilder#java.lang.String substring(int,int)
27-->2org.apache.commons.lang.text.StrBuilder$StrBuilderReader#void mark(int)
28-->2org.apache.commons.lang.text.StrBuilder#org.apache.commons.lang.text.StrBuilder deleteAll(java.lang.String)
29-->2org.apache.commons.lang.text.StrBuilder#java.lang.String substring(int)
30-->2org.apache.commons.lang.text.StrBuilder#org.apache.commons.lang.text.StrBuilder append(char[])
31-->2org.apache.commons.lang.text.StrBuilder$StrBuilderWriter#void write(char[])
32-->2org.apache.commons.lang.text.StrBuilder#int validateRange(int,int)
33-->2org.apache.commons.lang.text.StrBuilder#org.apache.commons.lang.text.StrBuilder ensureCapacity(int)
34-->2org.apache.commons.lang.text.StrBuilder$StrBuilderReader#long skip(long)
35-->2org.apache.commons.lang.text.StrBuilder$StrBuilderTokenizer#java.lang.String getContent()
36-->2org.apache.commons.lang.text.StrBuilder#java.lang.String rightString(int)
37-->2org.apache.commons.lang.text.StrBuilder#org.apache.commons.lang.text.StrBuilder replaceFirst(char,char)
38-->2org.apache.commons.lang.text.StrBuilder$StrBuilderReader#int read(char[],int,int)
39-->2org.apache.commons.lang.text.StrBuilder#org.apache.commons.lang.text.StrBuilder append(java.lang.StringBuffer,int,int)
40-->2org.apache.commons.lang.text.StrBuilder#org.apache.commons.lang.text.StrBuilder appendFixedWidthPadLeft(java.lang.Object,int,char)
41-->2org.apache.commons.lang.text.StrBuilder#int lastIndexOf(org.apache.commons.lang.text.StrMatcher)
42-->2org.apache.commons.lang.text.StrBuilder#org.apache.commons.lang.text.StrBuilder appendWithSeparators(java.util.Collection,java.lang.String)
43-->2org.apache.commons.lang.text.StrBuilder#org.apache.commons.lang.text.StrBuilder insert(int,char[],int,int)
44-->2org.apache.commons.lang.text.StrBuilder#org.apache.commons.lang.text.StrBuilder setNullText(java.lang.String)
45-->2org.apache.commons.lang.text.StrBuilder#int indexOf(org.apache.commons.lang.text.StrMatcher,int)
46-->2org.apache.commons.lang.text.StrBuilder#org.apache.commons.lang.text.StrBuilder insert(int,java.lang.String)
47-->2org.apache.commons.lang.text.StrBuilder$StrBuilderReader#void close()
48-->2org.apache.commons.lang.text.StrBuilder#org.apache.commons.lang.text.StrBuilder append(java.lang.StringBuffer)
49-->2org.apache.commons.lang.text.StrBuilder#org.apache.commons.lang.text.StrBuilder insert(int,char[])
50-->2org.apache.commons.lang.text.StrBuilder#org.apache.commons.lang.text.StrBuilder append(int)
51-->2org.apache.commons.lang.text.StrBuilder#int indexOf(char)
52-->2org.apache.commons.lang.text.StrBuilder#org.apache.commons.lang.text.StrBuilder append(java.lang.String)
53-->2org.apache.commons.lang.text.StrBuilder#org.apache.commons.lang.text.StrBuilder appendFixedWidthPadRight(java.lang.Object,int,char)
54-->2org.apache.commons.lang.text.StrBuilder#org.apache.commons.lang.text.StrBuilder append(char)
55-->2org.apache.commons.lang.text.StrBuilder#org.apache.commons.lang.text.StrBuilder deleteCharAt(int)
56-->2org.apache.commons.lang.text.StrBuilder#org.apache.commons.lang.text.StrBuilder insert(int,boolean)
57-->2org.apache.commons.lang.text.StrBuilder#boolean isEmpty()
58-->2org.apache.commons.lang.text.StrBuilder#void getChars(int,int,char[],int)
59-->2org.apache.commons.lang.text.StrBuilder#org.apache.commons.lang.text.StrBuilder replace(int,int,java.lang.String)
60-->2org.apache.commons.lang.text.StrBuilder#org.apache.commons.lang.text.StrBuilder trim()
61-->2org.apache.commons.lang.text.StrBuilder#org.apache.commons.lang.text.StrBuilder append(float)
62-->2org.apache.commons.lang.text.StrBuilder$StrBuilderReader#boolean ready()
63-->2org.apache.commons.lang.text.StrBuilder#org.apache.commons.lang.text.StrBuilder append(org.apache.commons.lang.text.StrBuilder)
64-->2org.apache.commons.lang.text.StrBuilder#org.apache.commons.lang.text.StrBuilder append(java.lang.Object)
65-->2org.apache.commons.lang.text.StrBuilder#org.apache.commons.lang.text.StrBuilder delete(int,int)
66-->2org.apache.commons.lang.text.StrBuilder#org.apache.commons.lang.text.StrBuilder deleteFirst(char)
67-->2org.apache.commons.lang.text.StrBuilder$StrBuilderReader#void reset()
68-->2org.apache.commons.lang.text.StrBuilder#java.lang.String getNullText()
69-->2org.apache.commons.lang.text.StrBuilder#org.apache.commons.lang.text.StrBuilder appendWithSeparators(java.util.Iterator,java.lang.String)
70-->2org.apache.commons.lang.text.StrBuilder#org.apache.commons.lang.text.StrBuilder insert(int,long)
71-->2org.apache.commons.lang.text.StrBuilder#org.apache.commons.lang.text.StrBuilder append(double)
72-->2org.apache.commons.lang.text.StrBuilder#int lastIndexOf(org.apache.commons.lang.text.StrMatcher,int)
73-->2org.apache.commons.lang.text.StrBuilder#org.apache.commons.lang.text.StrBuilder setNewLineText(java.lang.String)
74-->2org.apache.commons.lang.text.StrBuilder#int length()
75-->2org.apache.commons.lang.text.StrBuilder#org.apache.commons.lang.text.StrBuilder append(long)
76-->2org.apache.commons.lang.text.StrBuilder#boolean endsWith(java.lang.String)
77-->2org.apache.commons.lang.text.StrBuilder#int indexOf(char,int)
78-->2org.apache.commons.lang.text.StrBuilder#org.apache.commons.lang.text.StrBuilder appendNewLine()
79-->2org.apache.commons.lang.text.StrBuilder$StrBuilderReader#boolean markSupported()
80-->2org.apache.commons.lang.text.StrBuilder#org.apache.commons.lang.text.StrBuilder reverse()
81-->2org.apache.commons.lang.text.StrBuilder$StrBuilderWriter#void write(java.lang.String)
82-->2org.apache.commons.lang.text.StrBuilder#int lastIndexOf(java.lang.String)
83-->2org.apache.commons.lang.text.StrBuilder#boolean equals(java.lang.Object)
84-->2org.apache.commons.lang.text.StrBuilder#java.lang.String midString(int,int)
85-->2org.apache.commons.lang.text.StrBuilder#char charAt(int)
86-->2org.apache.commons.lang.text.StrBuilder#org.apache.commons.lang.text.StrBuilder appendPadding(int,char)
87-->2org.apache.commons.lang.text.StrBuilder#boolean contains(char)
88-->2org.apache.commons.lang.text.StrBuilder#org.apache.commons.lang.text.StrBuilder(int)
89-->2org.apache.commons.lang.text.StrBuilder#java.lang.reflect.Array toCharArray()
90-->2org.apache.commons.lang.text.StrBuilder#java.lang.String toString()
91-->2org.apache.commons.lang.text.StrBuilder#org.apache.commons.lang.text.StrBuilder setCharAt(int,char)
92-->2org.apache.commons.lang.text.StrBuilder#org.apache.commons.lang.text.StrBuilder insert(int,char)
93-->2org.apache.commons.lang.text.StrBuilder#int indexOf(org.apache.commons.lang.text.StrMatcher)
94-->2org.apache.commons.lang.text.StrBuilder$StrBuilderWriter#org.apache.commons.lang.text.StrBuilder$StrBuilderWriter()
95-->2org.apache.commons.lang.text.StrBuilder#org.apache.commons.lang.text.StrBuilder setLength(int)
96-->2org.apache.commons.lang.text.StrBuilder#org.apache.commons.lang.text.StrBuilder appendWithSeparators(java.lang.Object[],java.lang.String)
97-->2org.apache.commons.lang.text.StrBuilder#java.lang.reflect.Array toCharArray(int,int)
98-->2org.apache.commons.lang.text.StrBuilder#java.lang.reflect.Array getChars(char[])
99-->2org.apache.commons.lang.text.StrBuilder#org.apache.commons.lang.text.StrBuilder append(org.apache.commons.lang.text.StrBuilder,int,int)
100-->2org.apache.commons.lang.text.StrBuilder#int lastIndexOf(char)
101-->2org.apache.commons.lang.text.StrBuilder#org.apache.commons.lang.text.StrBuilder clear()
102-->2org.apache.commons.lang.text.StrBuilder$StrBuilderReader#int read()
103-->2org.apache.commons.lang.text.StrBuilder#org.apache.commons.lang.text.StrBuilder appendFixedWidthPadRight(int,int,char)
104-->2org.apache.commons.lang.text.StrBuilder#org.apache.commons.lang.text.StrBuilder(java.lang.String)
105-->2org.apache.commons.lang.text.StrBuilder#org.apache.commons.lang.text.StrTokenizer asTokenizer()
106-->2org.apache.commons.lang.text.StrBuilder#org.apache.commons.lang.text.StrBuilder()
107-->2org.apache.commons.lang.text.StrBuilder#java.lang.StringBuffer toStringBuffer()
108-->2org.apache.commons.lang.text.StrBuilder#java.lang.String leftString(int)
109-->2org.apache.commons.lang.text.StrBuilder#int hashCode()
110-->2org.apache.commons.lang.text.StrBuilder$StrBuilderWriter#void write(char[],int,int)
111-->2org.apache.commons.lang.text.StrBuilder$StrBuilderReader#org.apache.commons.lang.text.StrBuilder$StrBuilderReader()
112-->2org.apache.commons.lang.text.StrBuilder#void replaceImpl(int,int,int,java.lang.String,int)
113-->2org.apache.commons.lang.text.StrBuilder#int lastIndexOf(java.lang.String,int)
114-->2org.apache.commons.lang.text.StrBuilder#boolean contains(org.apache.commons.lang.text.StrMatcher)
115-->2org.apache.commons.lang.text.StrBuilder$StrBuilderWriter#void close()
116-->2org.apache.commons.lang.text.StrBuilder#org.apache.commons.lang.text.StrBuilder deleteFirst(java.lang.String)
117-->2org.apache.commons.lang.text.StrBuilder#org.apache.commons.lang.text.StrBuilder insert(int,float)
118-->2org.apache.commons.lang.text.StrBuilder#org.apache.commons.lang.text.StrBuilder append(java.lang.String,int,int)
119-->2org.apache.commons.lang.text.StrBuilder#org.apache.commons.lang.text.StrBuilder replaceAll(char,char)
120-->2org.apache.commons.lang.text.StrBuilder#int indexOf(java.lang.String,int)
121-->2org.apache.commons.lang.text.StrBuilder#int capacity()
122-->2org.apache.commons.lang.text.StrBuilder#org.apache.commons.lang.text.StrBuilder append(char[],int,int)
123-->2org.apache.commons.lang.text.StrBuilder#int size()
124-->2org.apache.commons.lang.text.StrBuilder#org.apache.commons.lang.text.StrBuilder replaceFirst(org.apache.commons.lang.text.StrMatcher,java.lang.String)
125-->2org.apache.commons.lang.text.StrBuilder#int lastIndexOf(char,int)
126-->2org.apache.commons.lang.text.StrBuilder#java.lang.String getNewLineText()
127-->2org.apache.commons.lang.text.StrBuilder#org.apache.commons.lang.text.StrBuilder replaceFirst(java.lang.String,java.lang.String)
128-->2org.apache.commons.lang.text.StrBuilder#org.apache.commons.lang.text.StrBuilder replaceAll(org.apache.commons.lang.text.StrMatcher,java.lang.String)
129-->2org.apache.commons.lang.text.StrBuilder#org.apache.commons.lang.text.StrBuilder deleteAll(org.apache.commons.lang.text.StrMatcher)
[INFO ] fr.inria.astor.core.loop.AstorCoreEngine.belowMaxTime(AstorCoreEngine.java:203) - 
 No more time for operating
[INFO ] fr.inria.astor.core.loop.AstorCoreEngine.startEvolution(AstorCoreEngine.java:143) - Time Repair Loop (s): 10860.17
[INFO ] fr.inria.astor.core.loop.AstorCoreEngine.showResults(AstorCoreEngine.java:165) - 
----SUMMARY_EXECUTION---
[INFO ] fr.inria.astor.approaches.jgenprog.JGenProg.showResults(JGenProg.java:332) - 
successful_ing_attempts (#trials 0, totalAttps 0): []
[INFO ] fr.inria.astor.approaches.jgenprog.JGenProg.showResults(JGenProg.java:334) - 
failing_ing_attempts (#trials 1265, totalAttps 4251): [1, 1, 2, 1, 1, 1, 1, 1, 1, 1, 13, 4, 3, 1, 3, 6, 1, 1, 4, 4, 4, 1, 1, 1, 1, 4, 6, 1, 3, 4, 1, 1, 2, 1, 2, 1, 6, 1, 1, 2, 2, 2, 1, 1, 6, 17, 3, 6, 2, 1, 4, 2, 3, 17, 1, 16, 6, 1, 6, 6, 16, 1, 1, 1, 1, 2, 1, 4, 17, 4, 16, 1, 1, 3, 3, 1, 1, 6, 1, 1, 1, 1, 8, 2, 6, 4, 8, 1, 1, 2, 1, 4, 1, 3, 4, 8, 1, 1, 1, 17, 1, 1, 2, 2, 6, 6, 3, 6, 2, 1, 4, 1, 13, 16, 1, 6, 3, 4, 26, 1, 13, 1, 2, 5, 2, 2, 6, 3, 1, 6, 2, 1, 1, 1, 17, 3, 6, 1, 1, 3, 5, 13, 6, 1, 8, 7, 1, 3, 1, 16, 6, 1, 16, 1, 1, 4, 1, 1, 6, 8, 1, 6, 17, 4, 6, 7, 6, 16, 3, 1, 1, 1, 1, 1, 1, 1, 1, 4, 6, 1, 6, 1, 1, 6, 1, 1, 6, 1, 3, 4, 16, 4, 1, 2, 6, 4, 7, 8, 4, 9, 16, 1, 16, 1, 3, 8, 1, 6, 1, 3, 1, 2, 1, 1, 1, 1, 1, 1, 2, 1, 1, 4, 24, 3, 2, 13, 1, 8, 1, 2, 6, 6, 6, 4, 1, 4, 1, 1, 4, 1, 8, 1, 6, 1, 8, 2, 6, 1, 3, 1, 1, 1, 17, 4, 6, 4, 1, 6, 1, 3, 1, 1, 1, 1, 5, 6, 8, 6, 1, 2, 7, 16, 1, 1, 1, 1, 1, 1, 3, 1, 1, 6, 1, 1, 16, 1, 1, 1, 5, 4, 1, 1, 2, 2, 8, 1, 6, 4, 1, 2, 1, 8, 1, 14, 9, 2, 1, 1, 1, 7, 1, 1, 1, 2, 1, 2, 3, 1, 6, 3, 4, 4, 3, 2, 1, 1, 2, 1, 6, 8, 1, 5, 2, 1, 1, 6, 1, 1, 1, 6, 1, 2, 1, 3, 1, 1, 1, 1, 4, 7, 1, 4, 1, 2, 3, 5, 1, 1, 1, 1, 1, 2, 5, 1, 5, 7, 9, 4, 1, 1, 5, 8, 1, 1, 1, 1, 9, 1, 2, 7, 8, 7, 3, 4, 1, 1, 1, 4, 1, 6, 3, 1, 1, 3, 8, 7, 3, 1, 33, 4, 5, 5, 1, 4, 1, 7, 1, 1, 7, 1, 4, 1, 2, 1, 1, 4, 3, 1, 4, 1, 1, 1, 3, 1, 1, 1, 1, 9, 5, 1, 4, 2, 2, 5, 1, 3, 4, 3, 9, 4, 7, 33, 1, 1, 1, 5, 1, 1, 5, 4, 1, 1, 1, 3, 1, 1, 5, 1, 1, 1, 1, 4, 1, 3, 3, 1, 1, 2, 1, 7, 1, 3, 6, 1, 3, 8, 1, 1, 1, 1, 1, 1, 4, 4, 1, 1, 7, 4, 1, 1, 2, 1, 3, 4, 1, 3, 1, 1, 1, 2, 9, 1, 1, 6, 6, 1, 3, 1, 3, 4, 1, 1, 3, 1, 3, 1, 1, 1, 1, 2, 4, 1, 2, 3, 2, 1, 1, 1, 1, 3, 1, 1, 1, 1, 1, 1, 1, 1, 1, 2, 14, 1, 1, 2, 2, 17, 1, 9, 4, 5, 1, 1, 1, 3, 1, 1, 2, 1, 3, 1, 7, 1, 5, 1, 2, 1, 1, 1, 1, 13, 6, 2, 1, 4, 1, 1, 1, 4, 17, 1, 7, 7, 1, 2, 1, 1, 1, 9, 1, 1, 11, 1, 1, 9, 1, 7, 1, 1, 3, 3, 1, 7, 7, 2, 13, 1, 3, 2, 4, 12, 1, 1, 1, 7, 1, 14, 1, 3, 1, 5, 1, 3, 6, 1, 1, 9, 1, 11, 6, 1, 1, 6, 2, 1, 1, 1, 9, 1, 1, 17, 4, 1, 1, 3, 3, 5, 7, 1, 1, 4, 2, 1, 14, 3, 1, 7, 17, 1, 7, 6, 1, 3, 1, 1, 3, 1, 1, 6, 1, 1, 7, 2, 4, 1, 3, 8, 2, 3, 1, 1, 7, 6, 3, 5, 7, 1, 9, 1, 1, 1, 9, 6, 2, 4, 1, 1, 1, 5, 2, 9, 1, 1, 9, 1, 14, 1, 3, 6, 1, 4, 2, 7, 4, 3, 6, 2, 3, 1, 6, 1, 7, 33, 3, 1, 6, 1, 7, 3, 4, 4, 3, 5, 2, 1, 1, 2, 1, 3, 1, 6, 7, 9, 1, 1, 3, 9, 5, 1, 1, 7, 5, 33, 3, 1, 5, 2, 1, 1, 2, 5, 9, 4, 1, 5, 9, 1, 2, 1, 7, 5, 33, 6, 1, 9, 3, 3, 1, 6, 4, 3, 4, 2, 3, 3, 1, 1, 1, 4, 5, 5, 7, 2, 1, 1, 33, 9, 5, 3, 1, 1, 1, 7, 1, 9, 5, 2, 7, 3, 4, 3, 5, 1, 4, 5, 1, 9, 1, 33, 9, 3, 7, 33, 33, 7, 5, 3, 5, 5, 1, 5, 5, 1, 1, 33, 1, 1, 5, 1, 1, 5, 4, 3, 1, 3, 1, 1, 1, 2, 1, 5, 5, 4, 1, 1, 1, 2, 4, 5, 3, 1, 2, 4, 1, 1, 1, 3, 1, 4, 1, 3, 2, 2, 1, 1, 5, 4, 1, 1, 5, 1, 1, 2, 2, 3, 1, 1, 1, 5, 1, 4, 4, 1, 3, 2, 1, 3, 1, 1, 2, 1, 3, 1, 1, 1, 3, 1, 5, 1, 1, 2, 3, 3, 2, 1, 4, 1, 2, 1, 1, 1, 5, 1, 1, 2, 1, 1, 1, 1, 1, 1, 1, 1, 1, 1, 1, 1, 1, 1, 1, 2, 1, 1, 1, 1, 1, 2, 2, 1, 4, 1, 1, 4, 4, 1, 1, 1, 1, 1, 1, 1, 1, 1, 2, 1, 2, 1, 5, 2, 1, 13, 1, 1, 2, 1, 1, 4, 1, 1, 5, 1, 1, 2, 1, 1, 1, 1, 1, 1, 2, 13, 1, 1, 1, 1, 2, 2, 1, 1, 4, 2, 2, 4, 2, 5, 2, 1, 5, 1, 1, 1, 1, 5, 1, 1, 11, 1, 1, 11, 1, 3, 1, 1, 3, 1, 1, 1, 1, 3, 12, 1, 1, 3, 1, 1, 13, 1, 1, 1, 12, 3, 2, 1, 6, 1, 13, 1, 1, 1, 2, 1, 5, 3, 1, 1, 1, 1, 1, 1, 4, 1, 1, 13, 1, 1, 3, 2, 1, 1, 1, 1, 4, 5, 1, 1, 1, 2, 1, 1, 11, 6, 1, 11, 1, 1, 2, 1, 1, 1, 1, 1, 13, 2, 1, 13, 1, 1, 1, 2, 1, 1, 2, 1, 1, 1, 11, 4, 1, 1, 1, 1, 1, 1, 3, 1, 5, 1, 1, 1, 1, 1, 1, 13, 3, 1, 1, 1, 3, 3, 2, 12, 1, 1, 1, 3, 4, 1, 3, 2, 1, 1, 4, 8, 1, 11, 1, 1, 1, 6, 1, 1, 3, 4, 1, 11, 11, 1, 4, 8, 1, 1, 1, 1, 1, 3, 3, 1, 5, 12, 2, 1, 1, 1, 2, 1, 1, 1, 1, 1, 3, 1, 1, 6, 1, 1, 1, 1, 4, 1, 6, 1, 1, 4, 1, 1, 2, 1, 1, 6, 3, 1, 4, 1, 3, 5, 1, 3, 4, 4, 1, 2, 3, 8, 5, 1, 1, 1, 1, 3, 1, 1, 8, 1, 2, 1, 6, 5, 2, 1, 1, 1, 1, 1, 2, 1, 1, 4, 2, 1, 1, 6, 1, 1, 1, 4, 1, 1, 3, 5, 3, 1, 2, 5, 1, 2, 2, 1, 1, 1, 1, 1, 2, 1, 2, 1, 1]
[INFO ] fr.inria.astor.approaches.jgenprog.JGenProg.showResults(JGenProg.java:337) - 
total Patch Attempts (0): []
[INFO ] fr.inria.astor.approaches.jgenprog.JGenProg.showResults(JGenProg.java:339) - 
successful_ing_attempts_by_patch: []
[INFO ] fr.inria.astor.approaches.jgenprog.JGenProg.showResults(JGenProg.java:340) - 
failing_ing_attempts_by_patch: [(pv:2,at:1), (pv:3,at:1), (pv:4,at:2), (pv:5,at:1), (pv:6,at:1), (pv:7,at:1), (pv:8,at:1), (pv:9,at:1), (pv:10,at:1), (pv:11,at:1), (pv:12,at:13), (pv:13,at:4), (pv:14,at:3), (pv:15,at:1), (pv:16,at:3), (pv:17,at:6), (pv:18,at:1), (pv:19,at:1), (pv:20,at:4), (pv:21,at:4), (pv:22,at:4), (pv:23,at:1), (pv:24,at:1), (pv:25,at:1), (pv:26,at:1), (pv:27,at:4), (pv:28,at:6), (pv:29,at:1), (pv:30,at:3), (pv:31,at:4), (pv:32,at:1), (pv:33,at:1), (pv:34,at:2), (pv:35,at:1), (pv:36,at:2), (pv:37,at:1), (pv:38,at:6), (pv:39,at:1), (pv:40,at:1), (pv:41,at:2), (pv:42,at:2), (pv:43,at:2), (pv:44,at:1), (pv:45,at:1), (pv:46,at:6), (pv:47,at:17), (pv:48,at:3), (pv:49,at:6), (pv:50,at:2), (pv:51,at:1), (pv:52,at:4), (pv:53,at:2), (pv:54,at:3), (pv:55,at:17), (pv:56,at:1), (pv:57,at:16), (pv:58,at:6), (pv:59,at:1), (pv:60,at:6), (pv:61,at:6), (pv:62,at:16), (pv:63,at:1), (pv:64,at:1), (pv:65,at:1), (pv:66,at:1), (pv:67,at:2), (pv:68,at:1), (pv:69,at:4), (pv:70,at:17), (pv:71,at:4), (pv:72,at:16), (pv:73,at:1), (pv:74,at:1), (pv:75,at:3), (pv:76,at:3), (pv:77,at:1), (pv:78,at:1), (pv:79,at:6), (pv:80,at:1), (pv:81,at:1), (pv:82,at:1), (pv:83,at:1), (pv:84,at:8), (pv:85,at:2), (pv:86,at:6), (pv:87,at:4), (pv:88,at:8), (pv:89,at:1), (pv:90,at:1), (pv:91,at:2), (pv:92,at:1), (pv:93,at:4), (pv:94,at:1), (pv:95,at:3), (pv:96,at:4), (pv:97,at:8), (pv:98,at:1), (pv:99,at:1), (pv:100,at:1), (pv:101,at:17), (pv:102,at:1), (pv:103,at:1), (pv:104,at:2), (pv:105,at:2), (pv:106,at:6), (pv:107,at:6), (pv:108,at:3), (pv:109,at:6), (pv:110,at:2), (pv:111,at:1), (pv:112,at:4), (pv:113,at:1), (pv:114,at:13), (pv:115,at:16), (pv:116,at:1), (pv:117,at:6), (pv:118,at:3), (pv:119,at:4), (pv:120,at:26), (pv:121,at:1), (pv:122,at:13), (pv:123,at:1), (pv:124,at:2), (pv:125,at:5), (pv:126,at:2), (pv:127,at:2), (pv:128,at:6), (pv:129,at:3), (pv:130,at:1), (pv:131,at:6), (pv:132,at:2), (pv:133,at:1), (pv:134,at:1), (pv:135,at:1), (pv:136,at:17), (pv:137,at:3), (pv:138,at:6), (pv:139,at:1), (pv:140,at:1), (pv:141,at:3), (pv:142,at:5), (pv:143,at:13), (pv:144,at:6), (pv:145,at:1), (pv:146,at:8), (pv:147,at:7), (pv:148,at:1), (pv:149,at:3), (pv:150,at:1), (pv:151,at:16), (pv:152,at:6), (pv:153,at:1), (pv:154,at:16), (pv:155,at:1), (pv:156,at:1), (pv:157,at:4), (pv:158,at:1), (pv:159,at:1), (pv:160,at:6), (pv:161,at:8), (pv:162,at:1), (pv:163,at:6), (pv:164,at:17), (pv:165,at:4), (pv:166,at:6), (pv:167,at:7), (pv:168,at:6), (pv:169,at:16), (pv:170,at:3), (pv:171,at:1), (pv:172,at:1), (pv:173,at:1), (pv:174,at:1), (pv:175,at:1), (pv:176,at:1), (pv:177,at:1), (pv:178,at:1), (pv:179,at:4), (pv:180,at:6), (pv:181,at:1), (pv:182,at:6), (pv:183,at:1), (pv:184,at:1), (pv:185,at:6), (pv:186,at:1), (pv:187,at:1), (pv:188,at:6), (pv:189,at:1), (pv:190,at:3), (pv:191,at:4), (pv:192,at:16), (pv:193,at:4), (pv:194,at:1), (pv:195,at:2), (pv:196,at:6), (pv:197,at:4), (pv:198,at:7), (pv:199,at:8), (pv:200,at:4), (pv:201,at:9), (pv:202,at:16), (pv:203,at:1), (pv:204,at:16), (pv:205,at:1), (pv:206,at:3), (pv:207,at:8), (pv:208,at:1), (pv:209,at:6), (pv:210,at:1), (pv:211,at:3), (pv:212,at:1), (pv:213,at:2), (pv:214,at:1), (pv:215,at:1), (pv:216,at:1), (pv:217,at:1), (pv:218,at:1), (pv:219,at:1), (pv:220,at:2), (pv:221,at:1), (pv:222,at:1), (pv:223,at:4), (pv:224,at:24), (pv:225,at:3), (pv:226,at:2), (pv:227,at:13), (pv:228,at:1), (pv:229,at:8), (pv:230,at:1), (pv:231,at:2), (pv:232,at:6), (pv:233,at:6), (pv:234,at:6), (pv:235,at:4), (pv:236,at:1), (pv:237,at:4), (pv:238,at:1), (pv:239,at:1), (pv:240,at:4), (pv:241,at:1), (pv:242,at:8), (pv:243,at:1), (pv:244,at:6), (pv:245,at:1), (pv:246,at:8), (pv:247,at:2), (pv:248,at:6), (pv:249,at:1), (pv:250,at:3), (pv:251,at:1), (pv:252,at:1), (pv:253,at:1), (pv:254,at:17), (pv:255,at:4), (pv:256,at:6), (pv:257,at:4), (pv:258,at:1), (pv:259,at:6), (pv:260,at:1), (pv:261,at:3), (pv:262,at:1), (pv:263,at:1), (pv:264,at:1), (pv:265,at:1), (pv:266,at:5), (pv:267,at:6), (pv:268,at:8), (pv:269,at:6), (pv:270,at:1), (pv:271,at:2), (pv:272,at:7), (pv:273,at:16), (pv:274,at:1), (pv:275,at:1), (pv:276,at:1), (pv:277,at:1), (pv:278,at:1), (pv:279,at:1), (pv:280,at:3), (pv:281,at:1), (pv:282,at:1), (pv:283,at:6), (pv:284,at:1), (pv:285,at:1), (pv:286,at:16), (pv:287,at:1), (pv:288,at:1), (pv:289,at:1), (pv:290,at:5), (pv:291,at:4), (pv:292,at:1), (pv:293,at:1), (pv:294,at:2), (pv:295,at:2), (pv:296,at:8), (pv:297,at:1), (pv:298,at:6), (pv:299,at:4), (pv:300,at:1), (pv:301,at:2), (pv:302,at:1), (pv:303,at:8), (pv:304,at:1), (pv:305,at:14), (pv:306,at:9), (pv:307,at:2), (pv:308,at:1), (pv:309,at:1), (pv:310,at:1), (pv:311,at:7), (pv:312,at:1), (pv:313,at:1), (pv:314,at:1), (pv:315,at:2), (pv:316,at:1), (pv:317,at:2), (pv:318,at:3), (pv:319,at:1), (pv:320,at:6), (pv:321,at:3), (pv:322,at:4), (pv:323,at:4), (pv:324,at:3), (pv:325,at:2), (pv:326,at:1), (pv:327,at:1), (pv:328,at:2), (pv:329,at:1), (pv:330,at:6), (pv:331,at:8), (pv:332,at:1), (pv:333,at:5), (pv:334,at:2), (pv:335,at:1), (pv:336,at:1), (pv:337,at:6), (pv:338,at:1), (pv:339,at:1), (pv:340,at:1), (pv:341,at:6), (pv:342,at:1), (pv:343,at:2), (pv:344,at:1), (pv:345,at:3), (pv:346,at:1), (pv:347,at:1), (pv:348,at:1), (pv:349,at:1), (pv:350,at:4), (pv:351,at:7), (pv:352,at:1), (pv:353,at:4), (pv:354,at:1), (pv:355,at:2), (pv:356,at:3), (pv:357,at:5), (pv:358,at:1), (pv:359,at:1), (pv:360,at:1), (pv:361,at:1), (pv:362,at:1), (pv:363,at:2), (pv:364,at:5), (pv:365,at:1), (pv:366,at:5), (pv:367,at:7), (pv:368,at:9), (pv:369,at:4), (pv:370,at:1), (pv:371,at:1), (pv:372,at:5), (pv:373,at:8), (pv:374,at:1), (pv:375,at:1), (pv:376,at:1), (pv:377,at:1), (pv:378,at:9), (pv:379,at:1), (pv:380,at:2), (pv:381,at:7), (pv:382,at:8), (pv:383,at:7), (pv:384,at:3), (pv:385,at:4), (pv:386,at:1), (pv:387,at:1), (pv:388,at:1), (pv:389,at:4), (pv:390,at:1), (pv:391,at:6), (pv:392,at:3), (pv:393,at:1), (pv:394,at:1), (pv:395,at:3), (pv:396,at:8), (pv:397,at:7), (pv:398,at:3), (pv:399,at:1), (pv:400,at:33), (pv:401,at:4), (pv:402,at:5), (pv:403,at:5), (pv:404,at:1), (pv:405,at:4), (pv:406,at:1), (pv:407,at:7), (pv:408,at:1), (pv:409,at:1), (pv:410,at:7), (pv:411,at:1), (pv:412,at:4), (pv:413,at:1), (pv:414,at:2), (pv:415,at:1), (pv:416,at:1), (pv:417,at:4), (pv:418,at:3), (pv:419,at:1), (pv:420,at:4), (pv:421,at:1), (pv:422,at:1), (pv:423,at:1), (pv:424,at:3), (pv:425,at:1), (pv:426,at:1), (pv:427,at:1), (pv:428,at:1), (pv:429,at:9), (pv:430,at:5), (pv:431,at:1), (pv:432,at:4), (pv:433,at:2), (pv:434,at:2), (pv:435,at:5), (pv:436,at:1), (pv:437,at:3), (pv:438,at:4), (pv:439,at:3), (pv:440,at:9), (pv:441,at:4), (pv:442,at:7), (pv:443,at:33), (pv:444,at:1), (pv:445,at:1), (pv:446,at:1), (pv:447,at:5), (pv:448,at:1), (pv:449,at:1), (pv:450,at:5), (pv:451,at:4), (pv:452,at:1), (pv:453,at:1), (pv:454,at:1), (pv:455,at:3), (pv:456,at:1), (pv:457,at:1), (pv:458,at:5), (pv:459,at:1), (pv:460,at:1), (pv:461,at:1), (pv:462,at:1), (pv:463,at:4), (pv:464,at:1), (pv:465,at:3), (pv:466,at:3), (pv:467,at:1), (pv:468,at:1), (pv:469,at:2), (pv:470,at:1), (pv:471,at:7), (pv:472,at:1), (pv:473,at:3), (pv:474,at:6), (pv:475,at:1), (pv:476,at:3), (pv:477,at:8), (pv:478,at:1), (pv:479,at:1), (pv:480,at:1), (pv:481,at:1), (pv:482,at:1), (pv:483,at:1), (pv:484,at:4), (pv:485,at:4), (pv:486,at:1), (pv:487,at:1), (pv:488,at:7), (pv:489,at:4), (pv:490,at:1), (pv:491,at:1), (pv:492,at:2), (pv:493,at:1), (pv:494,at:3), (pv:495,at:4), (pv:496,at:1), (pv:497,at:3), (pv:498,at:1), (pv:499,at:1), (pv:500,at:1), (pv:501,at:2), (pv:502,at:9), (pv:503,at:1), (pv:504,at:1), (pv:505,at:6), (pv:506,at:6), (pv:507,at:1), (pv:508,at:3), (pv:509,at:1), (pv:510,at:3), (pv:511,at:4), (pv:512,at:1), (pv:513,at:1), (pv:514,at:3), (pv:515,at:1), (pv:516,at:3), (pv:517,at:1), (pv:518,at:1), (pv:519,at:1), (pv:520,at:1), (pv:521,at:2), (pv:522,at:4), (pv:523,at:1), (pv:524,at:2), (pv:525,at:3), (pv:526,at:2), (pv:527,at:1), (pv:528,at:1), (pv:529,at:1), (pv:530,at:1), (pv:531,at:3), (pv:532,at:1), (pv:533,at:1), (pv:534,at:1), (pv:535,at:1), (pv:536,at:1), (pv:537,at:1), (pv:538,at:1), (pv:539,at:1), (pv:540,at:1), (pv:541,at:2), (pv:542,at:14), (pv:543,at:1), (pv:544,at:1), (pv:545,at:2), (pv:546,at:2), (pv:547,at:17), (pv:548,at:1), (pv:549,at:9), (pv:550,at:4), (pv:551,at:5), (pv:552,at:1), (pv:553,at:1), (pv:554,at:1), (pv:555,at:3), (pv:556,at:1), (pv:557,at:1), (pv:558,at:2), (pv:559,at:1), (pv:560,at:3), (pv:561,at:1), (pv:562,at:7), (pv:563,at:1), (pv:564,at:5), (pv:565,at:1), (pv:566,at:2), (pv:567,at:1), (pv:568,at:1), (pv:569,at:1), (pv:570,at:1), (pv:571,at:13), (pv:572,at:6), (pv:573,at:2), (pv:574,at:1), (pv:575,at:4), (pv:576,at:1), (pv:577,at:1), (pv:578,at:1), (pv:579,at:4), (pv:580,at:17), (pv:581,at:1), (pv:582,at:7), (pv:583,at:7), (pv:584,at:1), (pv:585,at:2), (pv:586,at:1), (pv:587,at:1), (pv:588,at:1), (pv:589,at:9), (pv:590,at:1), (pv:591,at:1), (pv:592,at:11), (pv:593,at:1), (pv:594,at:1), (pv:595,at:9), (pv:596,at:1), (pv:597,at:7), (pv:598,at:1), (pv:599,at:1), (pv:600,at:3), (pv:601,at:3), (pv:602,at:1), (pv:603,at:7), (pv:604,at:7), (pv:605,at:2), (pv:606,at:13), (pv:607,at:1), (pv:608,at:3), (pv:609,at:2), (pv:610,at:4), (pv:611,at:12), (pv:612,at:1), (pv:613,at:1), (pv:614,at:1), (pv:615,at:7), (pv:616,at:1), (pv:617,at:14), (pv:618,at:1), (pv:619,at:3), (pv:620,at:1), (pv:621,at:5), (pv:622,at:1), (pv:623,at:3), (pv:624,at:6), (pv:625,at:1), (pv:626,at:1), (pv:627,at:9), (pv:628,at:1), (pv:629,at:11), (pv:630,at:6), (pv:631,at:1), (pv:632,at:1), (pv:633,at:6), (pv:634,at:2), (pv:635,at:1), (pv:636,at:1), (pv:637,at:1), (pv:638,at:9), (pv:639,at:1), (pv:640,at:1), (pv:641,at:17), (pv:642,at:4), (pv:643,at:1), (pv:644,at:1), (pv:645,at:3), (pv:646,at:3), (pv:647,at:5), (pv:648,at:7), (pv:649,at:1), (pv:650,at:1), (pv:651,at:4), (pv:652,at:2), (pv:653,at:1), (pv:654,at:14), (pv:655,at:3), (pv:656,at:1), (pv:657,at:7), (pv:658,at:17), (pv:659,at:1), (pv:660,at:7), (pv:661,at:6), (pv:662,at:1), (pv:663,at:3), (pv:664,at:1), (pv:665,at:1), (pv:666,at:3), (pv:667,at:1), (pv:668,at:1), (pv:669,at:6), (pv:670,at:1), (pv:671,at:1), (pv:672,at:7), (pv:673,at:2), (pv:674,at:4), (pv:675,at:1), (pv:676,at:3), (pv:677,at:8), (pv:678,at:2), (pv:679,at:3), (pv:680,at:1), (pv:681,at:1), (pv:682,at:7), (pv:683,at:6), (pv:684,at:3), (pv:685,at:5), (pv:686,at:7), (pv:687,at:1), (pv:688,at:9), (pv:689,at:1), (pv:690,at:1), (pv:691,at:1), (pv:692,at:9), (pv:693,at:6), (pv:694,at:2), (pv:695,at:4), (pv:696,at:1), (pv:697,at:1), (pv:698,at:1), (pv:699,at:5), (pv:700,at:2), (pv:701,at:9), (pv:702,at:1), (pv:703,at:1), (pv:704,at:9), (pv:705,at:1), (pv:706,at:14), (pv:707,at:1), (pv:708,at:3), (pv:709,at:6), (pv:710,at:1), (pv:711,at:4), (pv:712,at:2), (pv:713,at:7), (pv:714,at:4), (pv:715,at:3), (pv:716,at:6), (pv:717,at:2), (pv:718,at:3), (pv:719,at:1), (pv:720,at:6), (pv:721,at:1), (pv:722,at:7), (pv:723,at:33), (pv:724,at:3), (pv:725,at:1), (pv:726,at:6), (pv:727,at:1), (pv:728,at:7), (pv:729,at:3), (pv:730,at:4), (pv:731,at:4), (pv:732,at:3), (pv:733,at:5), (pv:734,at:2), (pv:735,at:1), (pv:736,at:1), (pv:737,at:2), (pv:738,at:1), (pv:739,at:3), (pv:740,at:1), (pv:741,at:6), (pv:742,at:7), (pv:743,at:9), (pv:744,at:1), (pv:745,at:1), (pv:746,at:3), (pv:747,at:9), (pv:748,at:5), (pv:749,at:1), (pv:750,at:1), (pv:751,at:7), (pv:752,at:5), (pv:753,at:33), (pv:754,at:3), (pv:756,at:1), (pv:757,at:5), (pv:758,at:2), (pv:759,at:1), (pv:760,at:1), (pv:761,at:2), (pv:762,at:5), (pv:763,at:9), (pv:764,at:4), (pv:765,at:1), (pv:766,at:5), (pv:767,at:9), (pv:768,at:1), (pv:769,at:2), (pv:770,at:1), (pv:771,at:7), (pv:772,at:5), (pv:773,at:33), (pv:774,at:6), (pv:775,at:1), (pv:776,at:9), (pv:777,at:3), (pv:778,at:3), (pv:779,at:1), (pv:780,at:6), (pv:781,at:4), (pv:782,at:3), (pv:783,at:4), (pv:784,at:2), (pv:785,at:3), (pv:786,at:3), (pv:787,at:1), (pv:788,at:1), (pv:789,at:1), (pv:790,at:4), (pv:791,at:5), (pv:792,at:5), (pv:793,at:7), (pv:794,at:2), (pv:795,at:1), (pv:796,at:1), (pv:797,at:33), (pv:798,at:9), (pv:799,at:5), (pv:800,at:3), (pv:801,at:1), (pv:802,at:1), (pv:803,at:1), (pv:804,at:7), (pv:805,at:1), (pv:806,at:9), (pv:807,at:5), (pv:808,at:2), (pv:809,at:7), (pv:810,at:3), (pv:811,at:4), (pv:812,at:3), (pv:813,at:5), (pv:814,at:1), (pv:815,at:4), (pv:817,at:5), (pv:818,at:1), (pv:819,at:9), (pv:820,at:1), (pv:821,at:33), (pv:822,at:9), (pv:823,at:3), (pv:825,at:7), (pv:826,at:33), (pv:827,at:33), (pv:828,at:7), (pv:829,at:5), (pv:830,at:3), (pv:831,at:5), (pv:832,at:5), (pv:833,at:1), (pv:834,at:5), (pv:835,at:5), (pv:836,at:1), (pv:837,at:1), (pv:838,at:33), (pv:839,at:1), (pv:840,at:1), (pv:841,at:5), (pv:842,at:1), (pv:843,at:1), (pv:844,at:5), (pv:845,at:4), (pv:846,at:3), (pv:847,at:1), (pv:848,at:3), (pv:849,at:1), (pv:850,at:1), (pv:851,at:1), (pv:852,at:2), (pv:853,at:1), (pv:854,at:5), (pv:855,at:5), (pv:856,at:4), (pv:857,at:1), (pv:858,at:1), (pv:859,at:1), (pv:860,at:2), (pv:861,at:4), (pv:862,at:5), (pv:863,at:3), (pv:864,at:1), (pv:865,at:2), (pv:866,at:4), (pv:867,at:1), (pv:868,at:1), (pv:869,at:1), (pv:870,at:3), (pv:871,at:1), (pv:872,at:4), (pv:873,at:1), (pv:874,at:3), (pv:875,at:2), (pv:876,at:2), (pv:877,at:1), (pv:878,at:1), (pv:879,at:5), (pv:880,at:4), (pv:881,at:1), (pv:882,at:1), (pv:883,at:5), (pv:884,at:1), (pv:885,at:1), (pv:886,at:2), (pv:887,at:2), (pv:888,at:3), (pv:889,at:1), (pv:890,at:1), (pv:891,at:1), (pv:892,at:5), (pv:893,at:1), (pv:894,at:4), (pv:895,at:4), (pv:896,at:1), (pv:897,at:3), (pv:898,at:2), (pv:899,at:1), (pv:900,at:3), (pv:901,at:1), (pv:902,at:1), (pv:903,at:2), (pv:904,at:1), (pv:905,at:3), (pv:906,at:1), (pv:907,at:1), (pv:908,at:1), (pv:909,at:3), (pv:910,at:1), (pv:911,at:5), (pv:912,at:1), (pv:913,at:1), (pv:914,at:2), (pv:915,at:3), (pv:916,at:3), (pv:917,at:2), (pv:918,at:1), (pv:919,at:4), (pv:920,at:1), (pv:921,at:2), (pv:922,at:1), (pv:923,at:1), (pv:924,at:1), (pv:925,at:5), (pv:926,at:1), (pv:927,at:1), (pv:928,at:2), (pv:929,at:1), (pv:930,at:1), (pv:931,at:1), (pv:932,at:1), (pv:933,at:1), (pv:934,at:1), (pv:935,at:1), (pv:936,at:1), (pv:937,at:1), (pv:939,at:1), (pv:940,at:1), (pv:941,at:1), (pv:942,at:1), (pv:943,at:1), (pv:944,at:1), (pv:945,at:2), (pv:946,at:1), (pv:947,at:1), (pv:948,at:1), (pv:949,at:1), (pv:950,at:1), (pv:951,at:2), (pv:952,at:2), (pv:953,at:1), (pv:954,at:4), (pv:955,at:1), (pv:956,at:1), (pv:957,at:4), (pv:958,at:4), (pv:959,at:1), (pv:960,at:1), (pv:961,at:1), (pv:962,at:1), (pv:963,at:1), (pv:964,at:1), (pv:965,at:1), (pv:966,at:1), (pv:967,at:1), (pv:968,at:2), (pv:969,at:1), (pv:970,at:2), (pv:971,at:1), (pv:972,at:5), (pv:973,at:2), (pv:974,at:1), (pv:975,at:13), (pv:976,at:1), (pv:977,at:1), (pv:978,at:2), (pv:979,at:1), (pv:980,at:1), (pv:981,at:4), (pv:982,at:1), (pv:983,at:1), (pv:984,at:5), (pv:985,at:1), (pv:986,at:1), (pv:987,at:2), (pv:988,at:1), (pv:989,at:1), (pv:990,at:1), (pv:991,at:1), (pv:992,at:1), (pv:993,at:1), (pv:994,at:2), (pv:995,at:13), (pv:996,at:1), (pv:997,at:1), (pv:998,at:1), (pv:999,at:1), (pv:1000,at:2), (pv:1001,at:2), (pv:1002,at:1), (pv:1003,at:1), (pv:1004,at:4), (pv:1005,at:2), (pv:1006,at:2), (pv:1007,at:4), (pv:1008,at:2), (pv:1009,at:5), (pv:1010,at:2), (pv:1012,at:1), (pv:1013,at:5), (pv:1014,at:1), (pv:1015,at:1), (pv:1016,at:1), (pv:1017,at:1), (pv:1018,at:5), (pv:1019,at:1), (pv:1021,at:1), (pv:1022,at:11), (pv:1023,at:1), (pv:1024,at:1), (pv:1025,at:11), (pv:1026,at:1), (pv:1027,at:3), (pv:1028,at:1), (pv:1029,at:1), (pv:1030,at:3), (pv:1031,at:1), (pv:1032,at:1), (pv:1033,at:1), (pv:1034,at:1), (pv:1035,at:3), (pv:1036,at:12), (pv:1037,at:1), (pv:1038,at:1), (pv:1039,at:3), (pv:1040,at:1), (pv:1041,at:1), (pv:1042,at:13), (pv:1043,at:1), (pv:1044,at:1), (pv:1045,at:1), (pv:1046,at:12), (pv:1047,at:3), (pv:1048,at:2), (pv:1049,at:1), (pv:1050,at:6), (pv:1051,at:1), (pv:1052,at:13), (pv:1053,at:1), (pv:1054,at:1), (pv:1055,at:1), (pv:1056,at:2), (pv:1057,at:1), (pv:1058,at:5), (pv:1059,at:3), (pv:1060,at:1), (pv:1061,at:1), (pv:1062,at:1), (pv:1063,at:1), (pv:1064,at:1), (pv:1065,at:1), (pv:1066,at:4), (pv:1067,at:1), (pv:1068,at:1), (pv:1069,at:13), (pv:1070,at:1), (pv:1071,at:1), (pv:1072,at:3), (pv:1073,at:2), (pv:1074,at:1), (pv:1075,at:1), (pv:1076,at:1), (pv:1077,at:1), (pv:1078,at:4), (pv:1079,at:5), (pv:1080,at:1), (pv:1081,at:1), (pv:1082,at:1), (pv:1083,at:2), (pv:1084,at:1), (pv:1085,at:1), (pv:1086,at:11), (pv:1087,at:6), (pv:1088,at:1), (pv:1089,at:11), (pv:1090,at:1), (pv:1091,at:1), (pv:1092,at:2), (pv:1093,at:1), (pv:1094,at:1), (pv:1095,at:1), (pv:1096,at:1), (pv:1097,at:1), (pv:1098,at:13), (pv:1099,at:2), (pv:1100,at:1), (pv:1101,at:13), (pv:1102,at:1), (pv:1103,at:1), (pv:1104,at:1), (pv:1105,at:2), (pv:1106,at:1), (pv:1107,at:1), (pv:1108,at:2), (pv:1109,at:1), (pv:1110,at:1), (pv:1111,at:1), (pv:1113,at:11), (pv:1114,at:4), (pv:1115,at:1), (pv:1116,at:1), (pv:1117,at:1), (pv:1118,at:1), (pv:1119,at:1), (pv:1120,at:1), (pv:1121,at:3), (pv:1122,at:1), (pv:1123,at:5), (pv:1124,at:1), (pv:1125,at:1), (pv:1126,at:1), (pv:1127,at:1), (pv:1128,at:1), (pv:1129,at:1), (pv:1130,at:13), (pv:1131,at:3), (pv:1132,at:1), (pv:1134,at:1), (pv:1135,at:1), (pv:1136,at:3), (pv:1137,at:3), (pv:1138,at:2), (pv:1139,at:12), (pv:1140,at:1), (pv:1141,at:1), (pv:1142,at:1), (pv:1143,at:3), (pv:1144,at:4), (pv:1145,at:1), (pv:1146,at:3), (pv:1147,at:2), (pv:1148,at:1), (pv:1149,at:1), (pv:1150,at:4), (pv:1151,at:8), (pv:1152,at:1), (pv:1153,at:11), (pv:1154,at:1), (pv:1155,at:1), (pv:1156,at:1), (pv:1159,at:6), (pv:1160,at:1), (pv:1161,at:1), (pv:1162,at:3), (pv:1163,at:4), (pv:1164,at:1), (pv:1165,at:11), (pv:1166,at:11), (pv:1167,at:1), (pv:1168,at:4), (pv:1169,at:8), (pv:1170,at:1), (pv:1171,at:1), (pv:1172,at:1), (pv:1173,at:1), (pv:1174,at:1), (pv:1175,at:3), (pv:1176,at:3), (pv:1177,at:1), (pv:1178,at:5), (pv:1179,at:12), (pv:1180,at:2), (pv:1181,at:1), (pv:1182,at:1), (pv:1183,at:1), (pv:1184,at:2), (pv:1185,at:1), (pv:1186,at:1), (pv:1187,at:1), (pv:1188,at:1), (pv:1189,at:1), (pv:1190,at:3), (pv:1191,at:1), (pv:1192,at:1), (pv:1193,at:6), (pv:1194,at:1), (pv:1195,at:1), (pv:1196,at:1), (pv:1197,at:1), (pv:1198,at:4), (pv:1199,at:1), (pv:1200,at:6), (pv:1201,at:1), (pv:1202,at:1), (pv:1203,at:4), (pv:1205,at:1), (pv:1206,at:1), (pv:1207,at:2), (pv:1208,at:1), (pv:1209,at:1), (pv:1210,at:6), (pv:1211,at:3), (pv:1212,at:1), (pv:1213,at:4), (pv:1214,at:1), (pv:1215,at:3), (pv:1216,at:5), (pv:1218,at:1), (pv:1219,at:3), (pv:1220,at:4), (pv:1222,at:4), (pv:1224,at:1), (pv:1225,at:2), (pv:1226,at:3), (pv:1227,at:8), (pv:1228,at:5), (pv:1229,at:1), (pv:1230,at:1), (pv:1231,at:1), (pv:1232,at:1), (pv:1233,at:3), (pv:1234,at:1), (pv:1235,at:1), (pv:1236,at:8), (pv:1237,at:1), (pv:1238,at:2), (pv:1239,at:1), (pv:1240,at:6), (pv:1241,at:5), (pv:1242,at:2), (pv:1243,at:1), (pv:1244,at:1), (pv:1245,at:1), (pv:1246,at:1), (pv:1247,at:1), (pv:1248,at:2), (pv:1249,at:1), (pv:1250,at:1), (pv:1251,at:4), (pv:1252,at:2), (pv:1253,at:1), (pv:1254,at:1), (pv:1255,at:6), (pv:1256,at:1), (pv:1257,at:1), (pv:1258,at:1), (pv:1259,at:4), (pv:1260,at:1), (pv:1261,at:1), (pv:1262,at:3), (pv:1264,at:5), (pv:1265,at:3), (pv:1266,at:1), (pv:1267,at:2), (pv:1269,at:5), (pv:1270,at:1), (pv:1271,at:2), (pv:1272,at:2), (pv:1273,at:1), (pv:1275,at:1), (pv:1278,at:1), (pv:1279,at:1), (pv:1280,at:1), (pv:1282,at:2), (pv:1283,at:1), (pv:1284,at:2), (pv:1288,at:1), (pv:1290,at:1)]
[INFO ] fr.inria.astor.approaches.jgenprog.JGenProg.showResults(JGenProg.java:342) - 
pvariants_with_transformed_ingredients: [(pv:2,at:1), (pv:3,at:1), (pv:4,at:2), (pv:5,at:1), (pv:6,at:1), (pv:7,at:1), (pv:8,at:1), (pv:9,at:1), (pv:10,at:1), (pv:11,at:1), (pv:12,at:13), (pv:13,at:4), (pv:14,at:3), (pv:15,at:1), (pv:16,at:3), (pv:17,at:6), (pv:18,at:1), (pv:19,at:1), (pv:20,at:4), (pv:21,at:4), (pv:22,at:4), (pv:23,at:1), (pv:24,at:1), (pv:25,at:1), (pv:26,at:1), (pv:27,at:4), (pv:28,at:6), (pv:29,at:1), (pv:30,at:3), (pv:31,at:4), (pv:32,at:1), (pv:33,at:1), (pv:34,at:2), (pv:35,at:1), (pv:36,at:2), (pv:37,at:1), (pv:38,at:6), (pv:39,at:1), (pv:40,at:1), (pv:41,at:2), (pv:42,at:2), (pv:43,at:2), (pv:44,at:1), (pv:45,at:1), (pv:46,at:6), (pv:47,at:17), (pv:48,at:3), (pv:49,at:6), (pv:50,at:2), (pv:51,at:1), (pv:52,at:4), (pv:53,at:2), (pv:54,at:3), (pv:55,at:17), (pv:56,at:1), (pv:57,at:16), (pv:58,at:6), (pv:59,at:1), (pv:60,at:6), (pv:61,at:6), (pv:62,at:16), (pv:63,at:1), (pv:64,at:1), (pv:65,at:1), (pv:66,at:1), (pv:67,at:2), (pv:68,at:1), (pv:69,at:4), (pv:70,at:17), (pv:71,at:4), (pv:72,at:16), (pv:73,at:1), (pv:74,at:1), (pv:75,at:3), (pv:76,at:3), (pv:77,at:1), (pv:78,at:1), (pv:79,at:6), (pv:80,at:1), (pv:81,at:1), (pv:82,at:1), (pv:83,at:1), (pv:84,at:8), (pv:85,at:2), (pv:86,at:6), (pv:87,at:4), (pv:88,at:8), (pv:89,at:1), (pv:90,at:1), (pv:91,at:2), (pv:92,at:1), (pv:93,at:4), (pv:94,at:1), (pv:95,at:3), (pv:96,at:4), (pv:97,at:8), (pv:98,at:1), (pv:99,at:1), (pv:100,at:1), (pv:101,at:17), (pv:102,at:1), (pv:103,at:1), (pv:104,at:2), (pv:105,at:2), (pv:106,at:6), (pv:107,at:6), (pv:108,at:3), (pv:109,at:6), (pv:110,at:2), (pv:111,at:1), (pv:112,at:4), (pv:113,at:1), (pv:114,at:13), (pv:115,at:16), (pv:116,at:1), (pv:117,at:6), (pv:118,at:3), (pv:119,at:4), (pv:120,at:26), (pv:121,at:1), (pv:122,at:13), (pv:123,at:1), (pv:124,at:2), (pv:125,at:5), (pv:126,at:2), (pv:127,at:2), (pv:128,at:6), (pv:129,at:3), (pv:130,at:1), (pv:131,at:6), (pv:132,at:2), (pv:133,at:1), (pv:134,at:1), (pv:135,at:1), (pv:136,at:17), (pv:137,at:3), (pv:138,at:6), (pv:139,at:1), (pv:140,at:1), (pv:141,at:3), (pv:142,at:5), (pv:143,at:13), (pv:144,at:6), (pv:145,at:1), (pv:146,at:8), (pv:147,at:7), (pv:148,at:1), (pv:149,at:3), (pv:150,at:1), (pv:151,at:16), (pv:152,at:6), (pv:153,at:1), (pv:154,at:16), (pv:155,at:1), (pv:156,at:1), (pv:157,at:4), (pv:158,at:1), (pv:159,at:1), (pv:160,at:6), (pv:161,at:8), (pv:162,at:1), (pv:163,at:6), (pv:164,at:17), (pv:165,at:4), (pv:166,at:6), (pv:167,at:7), (pv:168,at:6), (pv:169,at:16), (pv:170,at:3), (pv:171,at:1), (pv:172,at:1), (pv:173,at:1), (pv:174,at:1), (pv:175,at:1), (pv:176,at:1), (pv:177,at:1), (pv:178,at:1), (pv:179,at:4), (pv:180,at:6), (pv:181,at:1), (pv:182,at:6), (pv:183,at:1), (pv:184,at:1), (pv:185,at:6), (pv:186,at:1), (pv:187,at:1), (pv:188,at:6), (pv:189,at:1), (pv:190,at:3), (pv:191,at:4), (pv:192,at:16), (pv:193,at:4), (pv:194,at:1), (pv:195,at:2), (pv:196,at:6), (pv:197,at:4), (pv:198,at:7), (pv:199,at:8), (pv:200,at:4), (pv:201,at:9), (pv:202,at:16), (pv:203,at:1), (pv:204,at:16), (pv:205,at:1), (pv:206,at:3), (pv:207,at:8), (pv:208,at:1), (pv:209,at:6), (pv:210,at:1), (pv:211,at:3), (pv:212,at:1), (pv:213,at:2), (pv:214,at:1), (pv:215,at:1), (pv:216,at:1), (pv:217,at:1), (pv:218,at:1), (pv:219,at:1), (pv:220,at:2), (pv:221,at:1), (pv:222,at:1), (pv:223,at:4), (pv:224,at:24), (pv:225,at:3), (pv:226,at:2), (pv:227,at:13), (pv:228,at:1), (pv:229,at:8), (pv:230,at:1), (pv:231,at:2), (pv:232,at:6), (pv:233,at:6), (pv:234,at:6), (pv:235,at:4), (pv:236,at:1), (pv:237,at:4), (pv:238,at:1), (pv:239,at:1), (pv:240,at:4), (pv:241,at:1), (pv:242,at:8), (pv:243,at:1), (pv:244,at:6), (pv:245,at:1), (pv:246,at:8), (pv:247,at:2), (pv:248,at:6), (pv:249,at:1), (pv:250,at:3), (pv:251,at:1), (pv:252,at:1), (pv:253,at:1), (pv:254,at:17), (pv:255,at:4), (pv:256,at:6), (pv:257,at:4), (pv:258,at:1), (pv:259,at:6), (pv:260,at:1), (pv:261,at:3), (pv:262,at:1), (pv:263,at:1), (pv:264,at:1), (pv:265,at:1), (pv:266,at:5), (pv:267,at:6), (pv:268,at:8), (pv:269,at:6), (pv:270,at:1), (pv:271,at:2), (pv:272,at:7), (pv:273,at:16), (pv:274,at:1), (pv:275,at:1), (pv:276,at:1), (pv:277,at:1), (pv:278,at:1), (pv:279,at:1), (pv:280,at:3), (pv:281,at:1), (pv:282,at:1), (pv:283,at:6), (pv:284,at:1), (pv:285,at:1), (pv:286,at:16), (pv:287,at:1), (pv:288,at:1), (pv:289,at:1), (pv:290,at:5), (pv:291,at:4), (pv:292,at:1), (pv:293,at:1), (pv:294,at:2), (pv:295,at:2), (pv:296,at:8), (pv:297,at:1), (pv:298,at:6), (pv:299,at:4), (pv:300,at:1), (pv:301,at:2), (pv:302,at:1), (pv:303,at:8), (pv:304,at:1), (pv:305,at:14), (pv:306,at:9), (pv:307,at:2), (pv:308,at:1), (pv:309,at:1), (pv:310,at:1), (pv:311,at:7), (pv:312,at:1), (pv:313,at:1), (pv:314,at:1), (pv:315,at:2), (pv:316,at:1), (pv:317,at:2), (pv:318,at:3), (pv:319,at:1), (pv:320,at:6), (pv:321,at:3), (pv:322,at:4), (pv:323,at:4), (pv:324,at:3), (pv:325,at:2), (pv:326,at:1), (pv:327,at:1), (pv:328,at:2), (pv:329,at:1), (pv:330,at:6), (pv:331,at:8), (pv:332,at:1), (pv:333,at:5), (pv:334,at:2), (pv:335,at:1), (pv:336,at:1), (pv:337,at:6), (pv:338,at:1), (pv:339,at:1), (pv:340,at:1), (pv:341,at:6), (pv:342,at:1), (pv:343,at:2), (pv:344,at:1), (pv:345,at:3), (pv:346,at:1), (pv:347,at:1), (pv:348,at:1), (pv:349,at:1), (pv:350,at:4), (pv:351,at:7), (pv:352,at:1), (pv:353,at:4), (pv:354,at:1), (pv:355,at:2), (pv:356,at:3), (pv:357,at:5), (pv:358,at:1), (pv:359,at:1), (pv:360,at:1), (pv:361,at:1), (pv:362,at:1), (pv:363,at:2), (pv:364,at:5), (pv:365,at:1), (pv:366,at:5), (pv:367,at:7), (pv:368,at:9), (pv:369,at:4), (pv:370,at:1), (pv:371,at:1), (pv:372,at:5), (pv:373,at:8), (pv:374,at:1), (pv:375,at:1), (pv:376,at:1), (pv:377,at:1), (pv:378,at:9), (pv:379,at:1), (pv:380,at:2), (pv:381,at:7), (pv:382,at:8), (pv:383,at:7), (pv:384,at:3), (pv:385,at:4), (pv:386,at:1), (pv:387,at:1), (pv:388,at:1), (pv:389,at:4), (pv:390,at:1), (pv:391,at:6), (pv:392,at:3), (pv:393,at:1), (pv:394,at:1), (pv:395,at:3), (pv:396,at:8), (pv:397,at:7), (pv:398,at:3), (pv:399,at:1), (pv:400,at:33), (pv:401,at:4), (pv:402,at:5), (pv:403,at:5), (pv:404,at:1), (pv:405,at:4), (pv:406,at:1), (pv:407,at:7), (pv:408,at:1), (pv:409,at:1), (pv:410,at:7), (pv:411,at:1), (pv:412,at:4), (pv:413,at:1), (pv:414,at:2), (pv:415,at:1), (pv:416,at:1), (pv:417,at:4), (pv:418,at:3), (pv:419,at:1), (pv:420,at:4), (pv:421,at:1), (pv:422,at:1), (pv:423,at:1), (pv:424,at:3), (pv:425,at:1), (pv:426,at:1), (pv:427,at:1), (pv:428,at:1), (pv:429,at:9), (pv:430,at:5), (pv:431,at:1), (pv:432,at:4), (pv:433,at:2), (pv:434,at:2), (pv:435,at:5), (pv:436,at:1), (pv:437,at:3), (pv:438,at:4), (pv:439,at:3), (pv:440,at:9), (pv:441,at:4), (pv:442,at:7), (pv:443,at:33), (pv:444,at:1), (pv:445,at:1), (pv:446,at:1), (pv:447,at:5), (pv:448,at:1), (pv:449,at:1), (pv:450,at:5), (pv:451,at:4), (pv:452,at:1), (pv:453,at:1), (pv:454,at:1), (pv:455,at:3), (pv:456,at:1), (pv:457,at:1), (pv:458,at:5), (pv:459,at:1), (pv:460,at:1), (pv:461,at:1), (pv:462,at:1), (pv:463,at:4), (pv:464,at:1), (pv:465,at:3), (pv:466,at:3), (pv:467,at:1), (pv:468,at:1), (pv:469,at:2), (pv:470,at:1), (pv:471,at:7), (pv:472,at:1), (pv:473,at:3), (pv:474,at:6), (pv:475,at:1), (pv:476,at:3), (pv:477,at:8), (pv:478,at:1), (pv:479,at:1), (pv:480,at:1), (pv:481,at:1), (pv:482,at:1), (pv:483,at:1), (pv:484,at:4), (pv:485,at:4), (pv:486,at:1), (pv:487,at:1), (pv:488,at:7), (pv:489,at:4), (pv:490,at:1), (pv:491,at:1), (pv:492,at:2), (pv:493,at:1), (pv:494,at:3), (pv:495,at:4), (pv:496,at:1), (pv:497,at:3), (pv:498,at:1), (pv:499,at:1), (pv:500,at:1), (pv:501,at:2), (pv:502,at:9), (pv:503,at:1), (pv:504,at:1), (pv:505,at:6), (pv:506,at:6), (pv:507,at:1), (pv:508,at:3), (pv:509,at:1), (pv:510,at:3), (pv:511,at:4), (pv:512,at:1), (pv:513,at:1), (pv:514,at:3), (pv:515,at:1), (pv:516,at:3), (pv:517,at:1), (pv:518,at:1), (pv:519,at:1), (pv:520,at:1), (pv:521,at:2), (pv:522,at:4), (pv:523,at:1), (pv:524,at:2), (pv:525,at:3), (pv:526,at:2), (pv:527,at:1), (pv:528,at:1), (pv:529,at:1), (pv:530,at:1), (pv:531,at:3), (pv:532,at:1), (pv:533,at:1), (pv:534,at:1), (pv:535,at:1), (pv:536,at:1), (pv:537,at:1), (pv:538,at:1), (pv:539,at:1), (pv:540,at:1), (pv:541,at:2), (pv:542,at:14), (pv:543,at:1), (pv:544,at:1), (pv:545,at:2), (pv:546,at:2), (pv:547,at:17), (pv:548,at:1), (pv:549,at:9), (pv:550,at:4), (pv:551,at:5), (pv:552,at:1), (pv:553,at:1), (pv:554,at:1), (pv:555,at:3), (pv:556,at:1), (pv:557,at:1), (pv:558,at:2), (pv:559,at:1), (pv:560,at:3), (pv:561,at:1), (pv:562,at:7), (pv:563,at:1), (pv:564,at:5), (pv:565,at:1), (pv:566,at:2), (pv:567,at:1), (pv:568,at:1), (pv:569,at:1), (pv:570,at:1), (pv:571,at:13), (pv:572,at:6), (pv:573,at:2), (pv:574,at:1), (pv:575,at:4), (pv:576,at:1), (pv:577,at:1), (pv:578,at:1), (pv:579,at:4), (pv:580,at:17), (pv:581,at:1), (pv:582,at:7), (pv:583,at:7), (pv:584,at:1), (pv:585,at:2), (pv:586,at:1), (pv:587,at:1), (pv:588,at:1), (pv:589,at:9), (pv:590,at:1), (pv:591,at:1), (pv:592,at:11), (pv:593,at:1), (pv:594,at:1), (pv:595,at:9), (pv:596,at:1), (pv:597,at:7), (pv:598,at:1), (pv:599,at:1), (pv:600,at:3), (pv:601,at:3), (pv:602,at:1), (pv:603,at:7), (pv:604,at:7), (pv:605,at:2), (pv:606,at:13), (pv:607,at:1), (pv:608,at:3), (pv:609,at:2), (pv:610,at:4), (pv:611,at:12), (pv:612,at:1), (pv:613,at:1), (pv:614,at:1), (pv:615,at:7), (pv:616,at:1), (pv:617,at:14), (pv:618,at:1), (pv:619,at:3), (pv:620,at:1), (pv:621,at:5), (pv:622,at:1), (pv:623,at:3), (pv:624,at:6), (pv:625,at:1), (pv:626,at:1), (pv:627,at:9), (pv:628,at:1), (pv:629,at:11), (pv:630,at:6), (pv:631,at:1), (pv:632,at:1), (pv:633,at:6), (pv:634,at:2), (pv:635,at:1), (pv:636,at:1), (pv:637,at:1), (pv:638,at:9), (pv:639,at:1), (pv:640,at:1), (pv:641,at:17), (pv:642,at:4), (pv:643,at:1), (pv:644,at:1), (pv:645,at:3), (pv:646,at:3), (pv:647,at:5), (pv:648,at:7), (pv:649,at:1), (pv:650,at:1), (pv:651,at:4), (pv:652,at:2), (pv:653,at:1), (pv:654,at:14), (pv:655,at:3), (pv:656,at:1), (pv:657,at:7), (pv:658,at:17), (pv:659,at:1), (pv:660,at:7), (pv:661,at:6), (pv:662,at:1), (pv:663,at:3), (pv:664,at:1), (pv:665,at:1), (pv:666,at:3), (pv:667,at:1), (pv:668,at:1), (pv:669,at:6), (pv:670,at:1), (pv:671,at:1), (pv:672,at:7), (pv:673,at:2), (pv:674,at:4), (pv:675,at:1), (pv:676,at:3), (pv:677,at:8), (pv:678,at:2), (pv:679,at:3), (pv:680,at:1), (pv:681,at:1), (pv:682,at:7), (pv:683,at:6), (pv:684,at:3), (pv:685,at:5), (pv:686,at:7), (pv:687,at:1), (pv:688,at:9), (pv:689,at:1), (pv:690,at:1), (pv:691,at:1), (pv:692,at:9), (pv:693,at:6), (pv:694,at:2), (pv:695,at:4), (pv:696,at:1), (pv:697,at:1), (pv:698,at:1), (pv:699,at:5), (pv:700,at:2), (pv:701,at:9), (pv:702,at:1), (pv:703,at:1), (pv:704,at:9), (pv:705,at:1), (pv:706,at:14), (pv:707,at:1), (pv:708,at:3), (pv:709,at:6), (pv:710,at:1), (pv:711,at:4), (pv:712,at:2), (pv:713,at:7), (pv:714,at:4), (pv:715,at:3), (pv:716,at:6), (pv:717,at:2), (pv:718,at:3), (pv:719,at:1), (pv:720,at:6), (pv:721,at:1), (pv:722,at:7), (pv:723,at:33), (pv:724,at:3), (pv:725,at:1), (pv:726,at:6), (pv:727,at:1), (pv:728,at:7), (pv:729,at:3), (pv:730,at:4), (pv:731,at:4), (pv:732,at:3), (pv:733,at:5), (pv:734,at:2), (pv:735,at:1), (pv:736,at:1), (pv:737,at:2), (pv:738,at:1), (pv:739,at:3), (pv:740,at:1), (pv:741,at:6), (pv:742,at:7), (pv:743,at:9), (pv:744,at:1), (pv:745,at:1), (pv:746,at:3), (pv:747,at:9), (pv:748,at:5), (pv:749,at:1), (pv:750,at:1), (pv:751,at:7), (pv:752,at:5), (pv:753,at:33), (pv:754,at:3), (pv:756,at:1), (pv:757,at:5), (pv:758,at:2), (pv:759,at:1), (pv:760,at:1), (pv:761,at:2), (pv:762,at:5), (pv:763,at:9), (pv:764,at:4), (pv:765,at:1), (pv:766,at:5), (pv:767,at:9), (pv:768,at:1), (pv:769,at:2), (pv:770,at:1), (pv:771,at:7), (pv:772,at:5), (pv:773,at:33), (pv:774,at:6), (pv:775,at:1), (pv:776,at:9), (pv:777,at:3), (pv:778,at:3), (pv:779,at:1), (pv:780,at:6), (pv:781,at:4), (pv:782,at:3), (pv:783,at:4), (pv:784,at:2), (pv:785,at:3), (pv:786,at:3), (pv:787,at:1), (pv:788,at:1), (pv:789,at:1), (pv:790,at:4), (pv:791,at:5), (pv:792,at:5), (pv:793,at:7), (pv:794,at:2), (pv:795,at:1), (pv:796,at:1), (pv:797,at:33), (pv:798,at:9), (pv:799,at:5), (pv:800,at:3), (pv:801,at:1), (pv:802,at:1), (pv:803,at:1), (pv:804,at:7), (pv:805,at:1), (pv:806,at:9), (pv:807,at:5), (pv:808,at:2), (pv:809,at:7), (pv:810,at:3), (pv:811,at:4), (pv:812,at:3), (pv:813,at:5), (pv:814,at:1), (pv:815,at:4), (pv:817,at:5), (pv:818,at:1), (pv:819,at:9), (pv:820,at:1), (pv:821,at:33), (pv:822,at:9), (pv:823,at:3), (pv:825,at:7), (pv:826,at:33), (pv:827,at:33), (pv:828,at:7), (pv:829,at:5), (pv:830,at:3), (pv:831,at:5), (pv:832,at:5), (pv:833,at:1), (pv:834,at:5), (pv:835,at:5), (pv:836,at:1), (pv:837,at:1), (pv:838,at:33), (pv:839,at:1), (pv:840,at:1), (pv:841,at:5), (pv:842,at:1), (pv:843,at:1), (pv:844,at:5), (pv:845,at:4), (pv:846,at:3), (pv:847,at:1), (pv:848,at:3), (pv:849,at:1), (pv:850,at:1), (pv:851,at:1), (pv:852,at:2), (pv:853,at:1), (pv:854,at:5), (pv:855,at:5), (pv:856,at:4), (pv:857,at:1), (pv:858,at:1), (pv:859,at:1), (pv:860,at:2), (pv:861,at:4), (pv:862,at:5), (pv:863,at:3), (pv:864,at:1), (pv:865,at:2), (pv:866,at:4), (pv:867,at:1), (pv:868,at:1), (pv:869,at:1), (pv:870,at:3), (pv:871,at:1), (pv:872,at:4), (pv:873,at:1), (pv:874,at:3), (pv:875,at:2), (pv:876,at:2), (pv:877,at:1), (pv:878,at:1), (pv:879,at:5), (pv:880,at:4), (pv:881,at:1), (pv:882,at:1), (pv:883,at:5), (pv:884,at:1), (pv:885,at:1), (pv:886,at:2), (pv:887,at:2), (pv:888,at:3), (pv:889,at:1), (pv:890,at:1), (pv:891,at:1), (pv:892,at:5), (pv:893,at:1), (pv:894,at:4), (pv:895,at:4), (pv:896,at:1), (pv:897,at:3), (pv:898,at:2), (pv:899,at:1), (pv:900,at:3), (pv:901,at:1), (pv:902,at:1), (pv:903,at:2), (pv:904,at:1), (pv:905,at:3), (pv:906,at:1), (pv:907,at:1), (pv:908,at:1), (pv:909,at:3), (pv:910,at:1), (pv:911,at:5), (pv:912,at:1), (pv:913,at:1), (pv:914,at:2), (pv:915,at:3), (pv:916,at:3), (pv:917,at:2), (pv:918,at:1), (pv:919,at:4), (pv:920,at:1), (pv:921,at:2), (pv:922,at:1), (pv:923,at:1), (pv:924,at:1), (pv:925,at:5), (pv:926,at:1), (pv:927,at:1), (pv:928,at:2), (pv:929,at:1), (pv:930,at:1), (pv:931,at:1), (pv:932,at:1), (pv:933,at:1), (pv:934,at:1), (pv:935,at:1), (pv:936,at:1), (pv:937,at:1), (pv:939,at:1), (pv:940,at:1), (pv:941,at:1), (pv:942,at:1), (pv:943,at:1), (pv:944,at:1), (pv:945,at:2), (pv:946,at:1), (pv:947,at:1), (pv:948,at:1), (pv:949,at:1), (pv:950,at:1), (pv:951,at:2), (pv:952,at:2), (pv:953,at:1), (pv:954,at:4), (pv:955,at:1), (pv:956,at:1), (pv:957,at:4), (pv:958,at:4), (pv:959,at:1), (pv:960,at:1), (pv:961,at:1), (pv:962,at:1), (pv:963,at:1), (pv:964,at:1), (pv:965,at:1), (pv:966,at:1), (pv:967,at:1), (pv:968,at:2), (pv:969,at:1), (pv:970,at:2), (pv:971,at:1), (pv:972,at:5), (pv:973,at:2), (pv:974,at:1), (pv:975,at:13), (pv:976,at:1), (pv:977,at:1), (pv:978,at:2), (pv:979,at:1), (pv:980,at:1), (pv:981,at:4), (pv:982,at:1), (pv:983,at:1), (pv:984,at:5), (pv:985,at:1), (pv:986,at:1), (pv:987,at:2), (pv:988,at:1), (pv:989,at:1), (pv:990,at:1), (pv:991,at:1), (pv:992,at:1), (pv:993,at:1), (pv:994,at:2), (pv:995,at:13), (pv:996,at:1), (pv:997,at:1), (pv:998,at:1), (pv:999,at:1), (pv:1000,at:2), (pv:1001,at:2), (pv:1002,at:1), (pv:1003,at:1), (pv:1004,at:4), (pv:1005,at:2), (pv:1006,at:2), (pv:1007,at:4), (pv:1008,at:2), (pv:1009,at:5), (pv:1010,at:2), (pv:1012,at:1), (pv:1013,at:5), (pv:1014,at:1), (pv:1015,at:1), (pv:1016,at:1), (pv:1017,at:1), (pv:1018,at:5), (pv:1019,at:1), (pv:1021,at:1), (pv:1022,at:11), (pv:1023,at:1), (pv:1024,at:1), (pv:1025,at:11), (pv:1026,at:1), (pv:1027,at:3), (pv:1028,at:1), (pv:1029,at:1), (pv:1030,at:3), (pv:1031,at:1), (pv:1032,at:1), (pv:1033,at:1), (pv:1034,at:1), (pv:1035,at:3), (pv:1036,at:12), (pv:1037,at:1), (pv:1038,at:1), (pv:1039,at:3), (pv:1040,at:1), (pv:1041,at:1), (pv:1042,at:13), (pv:1043,at:1), (pv:1044,at:1), (pv:1045,at:1), (pv:1046,at:12), (pv:1047,at:3), (pv:1048,at:2), (pv:1049,at:1), (pv:1050,at:6), (pv:1051,at:1), (pv:1052,at:13), (pv:1053,at:1), (pv:1054,at:1), (pv:1055,at:1), (pv:1056,at:2), (pv:1057,at:1), (pv:1058,at:5), (pv:1059,at:3), (pv:1060,at:1), (pv:1061,at:1), (pv:1062,at:1), (pv:1063,at:1), (pv:1064,at:1), (pv:1065,at:1), (pv:1066,at:4), (pv:1067,at:1), (pv:1068,at:1), (pv:1069,at:13), (pv:1070,at:1), (pv:1071,at:1), (pv:1072,at:3), (pv:1073,at:2), (pv:1074,at:1), (pv:1075,at:1), (pv:1076,at:1), (pv:1077,at:1), (pv:1078,at:4), (pv:1079,at:5), (pv:1080,at:1), (pv:1081,at:1), (pv:1082,at:1), (pv:1083,at:2), (pv:1084,at:1), (pv:1085,at:1), (pv:1086,at:11), (pv:1087,at:6), (pv:1088,at:1), (pv:1089,at:11), (pv:1090,at:1), (pv:1091,at:1), (pv:1092,at:2), (pv:1093,at:1), (pv:1094,at:1), (pv:1095,at:1), (pv:1096,at:1), (pv:1097,at:1), (pv:1098,at:13), (pv:1099,at:2), (pv:1100,at:1), (pv:1101,at:13), (pv:1102,at:1), (pv:1103,at:1), (pv:1104,at:1), (pv:1105,at:2), (pv:1106,at:1), (pv:1107,at:1), (pv:1108,at:2), (pv:1109,at:1), (pv:1110,at:1), (pv:1111,at:1), (pv:1113,at:11), (pv:1114,at:4), (pv:1115,at:1), (pv:1116,at:1), (pv:1117,at:1), (pv:1118,at:1), (pv:1119,at:1), (pv:1120,at:1), (pv:1121,at:3), (pv:1122,at:1), (pv:1123,at:5), (pv:1124,at:1), (pv:1125,at:1), (pv:1126,at:1), (pv:1127,at:1), (pv:1128,at:1), (pv:1129,at:1), (pv:1130,at:13), (pv:1131,at:3), (pv:1132,at:1), (pv:1134,at:1), (pv:1135,at:1), (pv:1136,at:3), (pv:1137,at:3), (pv:1138,at:2), (pv:1139,at:12), (pv:1140,at:1), (pv:1141,at:1), (pv:1142,at:1), (pv:1143,at:3), (pv:1144,at:4), (pv:1145,at:1), (pv:1146,at:3), (pv:1147,at:2), (pv:1148,at:1), (pv:1149,at:1), (pv:1150,at:4), (pv:1151,at:8), (pv:1152,at:1), (pv:1153,at:11), (pv:1154,at:1), (pv:1155,at:1), (pv:1156,at:1), (pv:1159,at:6), (pv:1160,at:1), (pv:1161,at:1), (pv:1162,at:3), (pv:1163,at:4), (pv:1164,at:1), (pv:1165,at:11), (pv:1166,at:11), (pv:1167,at:1), (pv:1168,at:4), (pv:1169,at:8), (pv:1170,at:1), (pv:1171,at:1), (pv:1172,at:1), (pv:1173,at:1), (pv:1174,at:1), (pv:1175,at:3), (pv:1176,at:3), (pv:1177,at:1), (pv:1178,at:5), (pv:1179,at:12), (pv:1180,at:2), (pv:1181,at:1), (pv:1182,at:1), (pv:1183,at:1), (pv:1184,at:2), (pv:1185,at:1), (pv:1186,at:1), (pv:1187,at:1), (pv:1188,at:1), (pv:1189,at:1), (pv:1190,at:3), (pv:1191,at:1), (pv:1192,at:1), (pv:1193,at:6), (pv:1194,at:1), (pv:1195,at:1), (pv:1196,at:1), (pv:1197,at:1), (pv:1198,at:4), (pv:1199,at:1), (pv:1200,at:6), (pv:1201,at:1), (pv:1202,at:1), (pv:1203,at:4), (pv:1205,at:1), (pv:1206,at:1), (pv:1207,at:2), (pv:1208,at:1), (pv:1209,at:1), (pv:1210,at:6), (pv:1211,at:3), (pv:1212,at:1), (pv:1213,at:4), (pv:1214,at:1), (pv:1215,at:3), (pv:1216,at:5), (pv:1218,at:1), (pv:1219,at:3), (pv:1220,at:4), (pv:1222,at:4), (pv:1224,at:1), (pv:1225,at:2), (pv:1226,at:3), (pv:1227,at:8), (pv:1228,at:5), (pv:1229,at:1), (pv:1230,at:1), (pv:1231,at:1), (pv:1232,at:1), (pv:1233,at:3), (pv:1234,at:1), (pv:1235,at:1), (pv:1236,at:8), (pv:1237,at:1), (pv:1238,at:2), (pv:1239,at:1), (pv:1240,at:6), (pv:1241,at:5), (pv:1242,at:2), (pv:1243,at:1), (pv:1244,at:1), (pv:1245,at:1), (pv:1246,at:1), (pv:1247,at:1), (pv:1248,at:2), (pv:1249,at:1), (pv:1250,at:1), (pv:1251,at:4), (pv:1252,at:2), (pv:1253,at:1), (pv:1254,at:1), (pv:1255,at:6), (pv:1256,at:1), (pv:1257,at:1), (pv:1258,at:1), (pv:1259,at:4), (pv:1260,at:1), (pv:1261,at:1), (pv:1262,at:3), (pv:1264,at:5), (pv:1265,at:3), (pv:1266,at:1), (pv:1267,at:2), (pv:1269,at:5), (pv:1270,at:1), (pv:1271,at:2), (pv:1272,at:2), (pv:1273,at:1), (pv:1275,at:1), (pv:1278,at:1), (pv:1279,at:1), (pv:1280,at:1), (pv:1282,at:2), (pv:1283,at:1), (pv:1284,at:2), (pv:1288,at:1), (pv:1290,at:1)]
[INFO ] fr.inria.main.evolution.AstorMain.run(AstorMain.java:163) - Time Total(s): 10881.281
