Warning: no access to tty (Bad file descriptor).
Thus no job control in this shell.
tput: No value for $TERM and no -T specified
Node: wh04.sciclone.wm.edu
[INFO ] fr.inria.main.AbstractMain.processArguments(AbstractMain.java:295) - command line arguments: [-out  /local/scr/mtufano/Mockito/22/b/similar-package-executables-default/2  -jvm4testexecution  /usr/local/jdk1.7.0_80/bin/  -loglevel  INFO  -maxVarCombination  1000  -maxgen  1000000  -population  1  -maxtime  180  -timezone  America/New_York  -customop  fr.inria.astor.approaches.jgenprog.operators.InsertAfterOp:fr.inria.astor.approaches.jgenprog.operators.InsertBeforeOp:fr.inria.astor.approaches.jgenprog.operators.ReplaceOp  -seed  2  -javacompliancelevel  6  -package  org.mockito  -binjavafolder  target/classes  -bintestfolder  target/test-classes  -srcjavafolder  src  -srctestfolder  test  -learningdir  ../../out/learningdir/Mockito/22/b/  -location  ../../dat/defects4j/Mockito/22/b/  -failing  org.mockito.internal.matchers.EqualityTest  -dependencies  ../../dat/defects4j/Mockito/22/b/lib/build/ant-googlecode-0.0.3.jar:../../dat/defects4j/Mockito/22/b/lib/build/bnd-0.0.313.jar:../../dat/defects4j/Mockito/22/b/lib/build/ant4hg-V0.07.jar:../../dat/defects4j/Mockito/22/b/lib/build/jaxen-1.1.1.jar:../../dat/defects4j/Mockito/22/b/lib/build/asm-3.1.jar:../../dat/defects4j/Mockito/22/b/lib/build/sorcerer.jar:../../dat/defects4j/Mockito/22/b/lib/build/pmd-4.1.jar:../../dat/defects4j/Mockito/22/b/lib/build/maven-ant-tasks-2.0.9.jar:../../dat/defects4j/Mockito/22/b/lib/build/jarjar-1.0.jar:../../dat/defects4j/Mockito/22/b/lib/compile/junit-4.10.jar:../../dat/defects4j/Mockito/22/b/lib/test/fest-util-1.1.4.jar:../../dat/defects4j/Mockito/22/b/lib/test/fest-assert-1.3.jar:../../dat/defects4j/Mockito/22/b/lib/test/powermock-reflect-1.2.5.jar:../../dat/defects4j/Mockito/22/b/lib/sources/com.springsource.org.hamcrest.core-1.1.0-sources.jar:../../dat/defects4j/Mockito/22/b/lib/sources/cglib-and-asm-1.0-sources.jar:../../dat/defects4j/Mockito/22/b/lib/sources/objenesis-2.1-sources.jar:../../dat/defects4j/Mockito/22/b/lib/repackaged/cglib-and-asm-1.0.jar:../../dat/defects4j/Mockito/22/b/lib/run/com.springsource.org.hamcrest.core-1.1.0.jar:../../dat/defects4j/Mockito/22/b/lib/run/objenesis-2.1.jar  -scope  fr.inria.astor.core.loop.spaces.ingredients.scopes.ctscopes.CtPackageIngredientScope  -ingredientstrategy  fr.inria.astor.core.loop.spaces.ingredients.ingredientSearch.CloneIngredientSearchStrategy  -clonegranularity  spoon.reflect.declaration.CtExecutable  -classestoinstrument  org.mockito.internal.progress.ThreadSafeMockingProgress:org.mockito.MockitoAnnotations:org.mockito.exceptions.misusing.MockitoConfigurationException:org.mockito.internal.configuration.injection.filter.MockCandidateFilter:org.mockito.internal.invocation.realmethod.RealMethod:org.mockito.exceptions.misusing.NullInsteadOfMockException:org.mockito.Mock:org.mockito.internal.configuration.ClassPathLoader:org.mockito.exceptions.base.MockitoException:org.mockito.internal.configuration.InjectingAnnotationEngine:org.mockito.exceptions.base.MockitoAssertionError:org.mockito.exceptions.verification.TooLittleActualInvocations:org.mockito.invocation.MockHandler:org.mockito.internal.configuration.SpyAnnotationEngine:org.mockito.exceptions.verification.NeverWantedButInvoked:org.mockito.internal.invocation.MockitoMethod:org.mockito.internal.configuration.injection.ConstructorInjection:org.mockito.stubbing.Answer:org.mockito.exceptions.misusing.FriendlyReminderException:org.mockito.exceptions.misusing.InvalidUseOfMatchersException:org.mockito.internal.configuration.injection.scanner.InjectMocksScanner:org.mockito.exceptions.verification.NoInteractionsWanted:org.mockito.internal.matchers.Equality:org.mockito.invocation.Invocation:org.mockito.internal.configuration.GlobalConfiguration:org.mockito.exceptions.PrintableInvocation:org.mockito.plugins.MockMaker:org.mockito.configuration.IMockitoConfiguration:org.mockito.internal.configuration.injection.MockInjection:org.mockito.internal.util.collections.Sets:org.mockito.exceptions.misusing.WrongTypeOfReturnValue:org.mockito.invocation.InvocationOnMock:org.mockito.internal.configuration.MockAnnotationProcessor:org.mockito.exceptions.misusing.UnfinishedStubbingException:org.mockito.internal.util.MockUtil:org.mockito.exceptions.Reporter:org.mockito.exceptions.misusing.MissingMethodInvocationException:org.mockito.internal.configuration.injection.scanner.MockScanner:org.mockito.exceptions.misusing.UnfinishedVerificationException:org.mockito.internal.configuration.injection.filter.FinalMockCandidateFilter:org.mockito.mock.MockName:org.mockito.internal.configuration.injection.filter.NameBasedCandidateFilter:org.mockito.exceptions.verification.WantedButNotInvoked:org.mockito.configuration.DefaultMockitoConfiguration:org.mockito.internal.configuration.injection.filter.TypeBasedCandidateFilter:org.mockito.internal.util.reflection.FieldInitializer:org.mockito.exceptions.misusing.CannotVerifyStubOnlyMock:org.mockito.internal.progress.ArgumentMatcherStorageImpl:org.mockito.internal.configuration.MockitoAnnotationsMockAnnotationProcessor:org.mockito.exceptions.verification.TooManyActualInvocations:org.mockito.internal.util.Checks:org.mockito.Captor:org.mockito.internal.invocation.AbstractAwareMethod:org.mockito.internal.util.collections.ListUtil:org.mockito.internal.progress.ArgumentMatcherStorage:org.mockito.internal.configuration.injection.MockInjectionStrategy:org.mockito.exceptions.verification.VerificationInOrderFailure:org.mockito.internal.configuration.FieldAnnotationProcessor:org.mockito.internal.configuration.injection.PropertyAndSetterInjection:org.mockito.internal.configuration.DefaultAnnotationEngine:org.mockito.internal.creation.CglibMockMaker:org.mockito.invocation.DescribedInvocation:org.mockito.internal.progress.MockingProgress:org.mockito.internal.exceptions.stacktrace.DefaultStackTraceCleanerProvider:org.mockito.exceptions.misusing.NotAMockException:org.mockito.configuration.AnnotationEngine:org.mockito.exceptions.verification.ArgumentsAreDifferent:org.mockito.internal.configuration.injection.SpyOnInjectedFieldsHandler:org.mockito.internal.configuration.CaptorAnnotationProcessor:org.mockito.plugins.StackTraceCleanerProvider:org.mockito.invocation.Location:org.mockito.internal.progress.MockingProgressImpl:org.mockito.internal.util.reflection.FieldInitializationReport:org.mockito.internal.configuration.DefaultInjectionEngine:org.mockito.internal.configuration.injection.filter.OngoingInjecter:org.mockito.internal.util.collections.HashCodeAndEqualsSafeSet:org.mockito.exceptions.verification.SmartNullPointerException:  -regressiontestcases4fl  org.concurrentmockito.ThreadsShareAMockTest:org.concurrentmockito.ThreadsShareGenerouslyStubbedMockTest:org.mockito.internal.InvalidStateDetectionTest:org.mockito.internal.debugging.WarningsFinderTest:org.mockito.internal.handler.InvocationNotifierHandlerTest:org.mockito.internal.invocation.ArgumentsComparatorTest:org.mockito.internal.invocation.InvocationMatcherTest:org.mockito.internal.matchers.EqualityTest:org.mockito.internal.matchers.EqualsTest:org.mockito.internal.progress.MockingProgressImplTest:org.mockito.internal.stubbing.defaultanswers.ReturnsGenericDeepStubsTest:org.mockito.internal.verification.argumentmatching.ArgumentMatchingToolTest:org.mockito.internal.verification.checkers.AtLeastXNumberOfInvocationsCheckerTest:org.mockito.verification.TimeoutTest:org.mockitousage.PlaygroundWithDemoOfUnclonedParametersProblemTest:org.mockitousage.annotation.MockInjectionUsingConstructorTest$ATest:org.mockitousage.annotation.MockInjectionUsingConstructorTest:org.mockitousage.annotation.SpyAnnotationTest:org.mockitousage.basicapi.MocksSerializationForAnnotationTest:org.mockitousage.basicapi.MocksSerializationTest:org.mockitousage.basicapi.UsingVarargsTest:org.mockitousage.bugs.ActualInvocationHasNullArgumentNPEBugTest:org.mockitousage.bugs.ConcurrentModificationExceptionOnMultiThreadedVerificationTest:org.mockitousage.bugs.MultipleInOrdersTest:org.mockitousage.bugs.NPEWithCertainMatchersTest:org.mockitousage.bugs.ShouldAllowInlineMockCreationTest:org.mockitousage.bugs.SpyShouldHaveNiceNameTest:org.mockitousage.bugs.VerifyingWithAnExtraCallToADifferentMockTest:org.mockitousage.bugs.varargs.VarargsAndAnyObjectPicksUpExtraInvocationsTest:org.mockitousage.bugs.varargs.VarargsNotPlayingWithAnyObjectTest:org.mockitousage.configuration.CustomizedAnnotationForSmartMockTest:org.mockitousage.customization.BDDMockitoTest:org.mockitousage.debugging.InvocationListenerCallbackTest:org.mockitousage.debugging.PrintingInvocationsDetectsUnusedStubTest:org.mockitousage.debugging.PrintingInvocationsWhenEverythingOkTest:org.mockitousage.debugging.PrintingInvocationsWhenStubNotUsedTest:org.mockitousage.debugging.VerboseLoggingOfInvocationsOnMockTest:org.mockitousage.examples.use.ExampleTest:org.mockitousage.junitrunner.JUnit44RunnerTest:org.mockitousage.junitrunner.JUnit45RunnerTest:org.mockitousage.matchers.CapturingArgumentsTest:org.mockitousage.matchers.GenericMatchersTest:org.mockitousage.matchers.MatchersTest:org.mockitousage.matchers.VerificationAndStubbingUsingMatchersTest:org.mockitousage.puzzlers.BridgeMethodPuzzleTest:org.mockitousage.puzzlers.OverloadingPuzzleTest:org.mockitousage.serialization.DeepStubsSerializableTest:org.mockitousage.spies.SpyingOnInterfacesTest:org.mockitousage.spies.SpyingOnRealObjectsTest:org.mockitousage.stacktrace.ClickableStackTracesTest:org.mockitousage.stacktrace.PointingStackTraceToActualInvocationChunkInOrderTest:org.mockitousage.stacktrace.PointingStackTraceToActualInvocationInOrderTest:org.mockitousage.stacktrace.PointingStackTraceToActualInvocationTest:org.mockitousage.stacktrace.StackTraceFilteringTest:org.mockitousage.stubbing.BasicStubbingTest:org.mockitousage.stubbing.CloningParameterTest:org.mockitousage.stubbing.DeepStubbingTest:org.mockitousage.stubbing.DeprecatedStubbingTest:org.mockitousage.stubbing.StubbingUsingDoReturnTest:org.mockitousage.stubbing.StubbingWithThrowablesTest:org.mockitousage.verification.AtLeastXVerificationTest:org.mockitousage.verification.BasicVerificationInOrderTest:org.mockitousage.verification.BasicVerificationTest:org.mockitousage.verification.DescriptiveMessagesOnVerificationInOrderErrorsTest:org.mockitousage.verification.DescriptiveMessagesWhenVerificationFailsTest:org.mockitousage.verification.ExactNumberOfTimesVerificationTest:org.mockitousage.verification.FindingRedundantInvocationsInOrderTest:org.mockitousage.verification.NoMoreInteractionsVerificationTest:org.mockitousage.verification.OnlyVerificationTest:org.mockitousage.verification.PrintingVerboseTypesWithArgumentsTest:org.mockitousage.verification.RelaxedVerificationInOrderTest:org.mockitousage.verification.SelectedMocksInOrderVerificationTest:org.mockitousage.verification.VerificationExcludingStubsTest:org.mockitousage.verification.VerificationInOrderMixedWithOrdiraryVerificationTest:org.mockitousage.verification.VerificationInOrderTest:org.mockitousage.verification.VerificationInOrderWithCallsTest:org.mockitousage.verification.VerificationOnMultipleMocksUsingMatchersTest:org.mockitousage.verification.VerificationUsingMatchersTest:]
[INFO ] fr.inria.astor.core.manipulation.MutationSupporter.buildModel(MutationSupporter.java:76) - building model: /local/scr/mtufano/Mockito/22/b/similar-package-executables-default/2/AstorMain-b//src//default, compliance level: 6
[INFO ] fr.inria.astor.core.manipulation.MutationSupporter.buildModel(MutationSupporter.java:85) - Classpath for building SpoonModel [/sciclone/data20/mtufano/deeprepair/bin/eval/../../dat/defects4j/Mockito/22/b/lib/build/ant-googlecode-0.0.3.jar, /sciclone/data20/mtufano/deeprepair/bin/eval/../../dat/defects4j/Mockito/22/b/lib/build/bnd-0.0.313.jar, /sciclone/data20/mtufano/deeprepair/bin/eval/../../dat/defects4j/Mockito/22/b/lib/build/ant4hg-V0.07.jar, /sciclone/data20/mtufano/deeprepair/bin/eval/../../dat/defects4j/Mockito/22/b/lib/build/jaxen-1.1.1.jar, /sciclone/data20/mtufano/deeprepair/bin/eval/../../dat/defects4j/Mockito/22/b/lib/build/asm-3.1.jar, /sciclone/data20/mtufano/deeprepair/bin/eval/../../dat/defects4j/Mockito/22/b/lib/build/sorcerer.jar, /sciclone/data20/mtufano/deeprepair/bin/eval/../../dat/defects4j/Mockito/22/b/lib/build/pmd-4.1.jar, /sciclone/data20/mtufano/deeprepair/bin/eval/../../dat/defects4j/Mockito/22/b/lib/build/maven-ant-tasks-2.0.9.jar, /sciclone/data20/mtufano/deeprepair/bin/eval/../../dat/defects4j/Mockito/22/b/lib/build/jarjar-1.0.jar, /sciclone/data20/mtufano/deeprepair/bin/eval/../../dat/defects4j/Mockito/22/b/lib/compile/junit-4.10.jar, /sciclone/data20/mtufano/deeprepair/bin/eval/../../dat/defects4j/Mockito/22/b/lib/test/fest-util-1.1.4.jar, /sciclone/data20/mtufano/deeprepair/bin/eval/../../dat/defects4j/Mockito/22/b/lib/test/fest-assert-1.3.jar, /sciclone/data20/mtufano/deeprepair/bin/eval/../../dat/defects4j/Mockito/22/b/lib/test/powermock-reflect-1.2.5.jar, /sciclone/data20/mtufano/deeprepair/bin/eval/../../dat/defects4j/Mockito/22/b/lib/sources/com.springsource.org.hamcrest.core-1.1.0-sources.jar, /sciclone/data20/mtufano/deeprepair/bin/eval/../../dat/defects4j/Mockito/22/b/lib/sources/cglib-and-asm-1.0-sources.jar, /sciclone/data20/mtufano/deeprepair/bin/eval/../../dat/defects4j/Mockito/22/b/lib/sources/objenesis-2.1-sources.jar, /sciclone/data20/mtufano/deeprepair/bin/eval/../../dat/defects4j/Mockito/22/b/lib/repackaged/cglib-and-asm-1.0.jar, /sciclone/data20/mtufano/deeprepair/bin/eval/../../dat/defects4j/Mockito/22/b/lib/run/com.springsource.org.hamcrest.core-1.1.0.jar, /sciclone/data20/mtufano/deeprepair/bin/eval/../../dat/defects4j/Mockito/22/b/lib/run/objenesis-2.1.jar]
[INFO ] fr.inria.astor.core.setup.ProjectRepairFacade.calculateSuspicious(ProjectRepairFacade.java:215) - -Executing Gzoltar classpath: /local/scr/mtufano/Mockito/22/b/similar-package-executables-default/2/AstorMain-b//bin//default from 78 classes with test cases
[INFO ] fr.inria.astor.core.faultlocalization.GZoltarFaultLocalization.searchSuspicious(GZoltarFaultLocalization.java:37) - Gzoltar fault localization: min susp value parameter: 0.1
[INFO ] fr.inria.astor.core.faultlocalization.GZoltarFaultLocalization.searchSuspicious(GZoltarFaultLocalization.java:57) - -gz-Adding classpath: [/sciclone/data20/mtufano/deeprepair/bin/eval/../../dat/defects4j/Mockito/22/b/lib/compile/junit-4.10.jar, /sciclone/data20/mtufano/deeprepair/bin/eval/../../dat/defects4j/Mockito/22/b/lib/test/fest-assert-1.3.jar, /sciclone/data20/mtufano/deeprepair/bin/eval/../../dat/defects4j/Mockito/22/b/lib/test/fest-util-1.1.4.jar, /sciclone/data20/mtufano/deeprepair/bin/eval/../../dat/defects4j/Mockito/22/b/lib/run/objenesis-2.1.jar, /sciclone/data20/mtufano/deeprepair/bin/eval/../../dat/defects4j/Mockito/22/b/lib/sources/com.springsource.org.hamcrest.core-1.1.0-sources.jar, /local/scr/mtufano/Mockito/22/b/similar-package-executables-default/2/AstorMain-b//bin//default, /sciclone/data20/mtufano/deeprepair/bin/eval/../../dat/defects4j/Mockito/22/b/lib/build/maven-ant-tasks-2.0.9.jar, /sciclone/data20/mtufano/deeprepair/bin/eval/../../dat/defects4j/Mockito/22/b/lib/run/com.springsource.org.hamcrest.core-1.1.0.jar, /sciclone/data20/mtufano/deeprepair/bin/eval/../../dat/defects4j/Mockito/22/b/lib/repackaged/cglib-and-asm-1.0.jar, /sciclone/data20/mtufano/deeprepair/bin/eval/../../dat/defects4j/Mockito/22/b/lib/build/jaxen-1.1.1.jar, /sciclone/data20/mtufano/deeprepair/bin/eval/../../dat/defects4j/Mockito/22/b/lib/build/pmd-4.1.jar, /sciclone/data20/mtufano/deeprepair/bin/eval/../../dat/defects4j/Mockito/22/b/lib/test/powermock-reflect-1.2.5.jar, /sciclone/data20/mtufano/deeprepair/bin/eval/../../dat/defects4j/Mockito/22/b/lib/sources/objenesis-2.1-sources.jar, /sciclone/data20/mtufano/deeprepair/bin/eval/../../dat/defects4j/Mockito/22/b/lib/build/ant4hg-V0.07.jar, /sciclone/data20/mtufano/deeprepair/bin/eval/../../dat/defects4j/Mockito/22/b/lib/build/ant-googlecode-0.0.3.jar, /sciclone/data20/mtufano/deeprepair/bin/eval/../../dat/defects4j/Mockito/22/b/lib/build/asm-3.1.jar, /sciclone/data20/mtufano/deeprepair/bin/eval/../../dat/defects4j/Mockito/22/b/lib/build/sorcerer.jar, /sciclone/data20/mtufano/deeprepair/bin/eval/../../dat/defects4j/Mockito/22/b/lib/sources/cglib-and-asm-1.0-sources.jar, /sciclone/data20/mtufano/deeprepair/bin/eval/../../dat/defects4j/Mockito/22/b/lib/build/bnd-0.0.313.jar, /sciclone/data20/mtufano/deeprepair/bin/eval/../../dat/defects4j/Mockito/22/b/lib/build/jarjar-1.0.jar]
[INFO ] fr.inria.astor.core.faultlocalization.GZoltarFaultLocalization.searchSuspicious(GZoltarFaultLocalization.java:76) - Test failt: org.mockito.internal.matchers.EqualityTest#shouldKnowIfObjectsAreEqual
[INFO ] fr.inria.astor.core.faultlocalization.GZoltarFaultLocalization.searchSuspicious(GZoltarFaultLocalization.java:81) - Gzoltar Test Result Total:564, fails: 1, GZoltar suspicious 5025
[INFO ] fr.inria.astor.core.faultlocalization.GZoltarFaultLocalization.searchSuspicious(GZoltarFaultLocalization.java:123) - Gzoltar found: 7 with susp > 0.1, we consider: 7
[INFO ] fr.inria.astor.approaches.jgenprog.JGenProg.initPopulation(JGenProg.java:80) - 
---- Initial suspicious size: 7
[INFO ] fr.inria.astor.core.loop.population.ProgramVariantFactory.createProgramInstance(ProgramVariantFactory.java:130) - Total suspicious from FL: 7,  8
[INFO ] fr.inria.astor.core.loop.population.ProgramVariantFactory.createProgramInstance(ProgramVariantFactory.java:138) - Total ModPoint created: 8
[INFO ] fr.inria.astor.core.loop.population.ProgramVariantFactory.createInitialPopulation(ProgramVariantFactory.java:82) - Creating program variant #1, [Variant id: 1, #gens: 8, #ops: 0, parent:-]
[INFO ] fr.inria.astor.core.setup.ConfigurationProperties.print(ConfigurationProperties.java:63) - ----------------------------
[INFO ] fr.inria.astor.core.setup.ConfigurationProperties.print(ConfigurationProperties.java:64) - ---Configuration properties:---Execution values
[INFO ] fr.inria.astor.core.setup.ConfigurationProperties.print(ConfigurationProperties.java:66) - p:lastJUnitVersion= ./examples/libs/junit-4.11.jar
[INFO ] fr.inria.astor.core.setup.ConfigurationProperties.print(ConfigurationProperties.java:66) - p:alternativecompliancelevel= 4
[INFO ] fr.inria.astor.core.setup.ConfigurationProperties.print(ConfigurationProperties.java:66) - p:ignoredTestCases= 
[INFO ] fr.inria.astor.core.setup.ConfigurationProperties.print(ConfigurationProperties.java:66) - p:workingDirectory= /local/scr/mtufano/Mockito/22/b/similar-package-executables-default/2
[INFO ] fr.inria.astor.core.setup.ConfigurationProperties.print(ConfigurationProperties.java:66) - p:manipulatesuper= false
[INFO ] fr.inria.astor.core.setup.ConfigurationProperties.print(ConfigurationProperties.java:66) - p:validation= process
[INFO ] fr.inria.astor.core.setup.ConfigurationProperties.print(ConfigurationProperties.java:66) - p:jvm4testexecution= /usr/local/jdk1.7.0_80/bin/
[INFO ] fr.inria.astor.core.setup.ConfigurationProperties.print(ConfigurationProperties.java:66) - p:binjavafolder= target/classes
[INFO ] fr.inria.astor.core.setup.ConfigurationProperties.print(ConfigurationProperties.java:66) - p:evosuiteresultfolder= evosuite
[INFO ] fr.inria.astor.core.setup.ConfigurationProperties.print(ConfigurationProperties.java:66) - p:flthreshold= 0.1
[INFO ] fr.inria.astor.core.setup.ConfigurationProperties.print(ConfigurationProperties.java:66) - p:regressionforfaultlocalization= true
[INFO ] fr.inria.astor.core.setup.ConfigurationProperties.print(ConfigurationProperties.java:66) - p:tmax2= 960000
[INFO ] fr.inria.astor.core.setup.ConfigurationProperties.print(ConfigurationProperties.java:66) - p:tmax1= 120000
[INFO ] fr.inria.astor.core.setup.ConfigurationProperties.print(ConfigurationProperties.java:66) - p:probagenmutation= false
[INFO ] fr.inria.astor.core.setup.ConfigurationProperties.print(ConfigurationProperties.java:66) - p:srctestfolder= test
[INFO ] fr.inria.astor.core.setup.ConfigurationProperties.print(ConfigurationProperties.java:66) - p:customop= fr.inria.astor.approaches.jgenprog.operators.InsertAfterOp:fr.inria.astor.approaches.jgenprog.operators.InsertBeforeOp:fr.inria.astor.approaches.jgenprog.operators.ReplaceOp
[INFO ] fr.inria.astor.core.setup.ConfigurationProperties.print(ConfigurationProperties.java:66) - p:forceExecuteRegression= false
[INFO ] fr.inria.astor.core.setup.ConfigurationProperties.print(ConfigurationProperties.java:66) - p:clusteringfilename= clustering.csv
[INFO ] fr.inria.astor.core.setup.ConfigurationProperties.print(ConfigurationProperties.java:66) - p:failing= org.mockito.internal.matchers.EqualityTest
[INFO ] fr.inria.astor.core.setup.ConfigurationProperties.print(ConfigurationProperties.java:66) - p:evo_buggy_class= true
[INFO ] fr.inria.astor.core.setup.ConfigurationProperties.print(ConfigurationProperties.java:66) - p:numberExecutions= 1
[INFO ] fr.inria.astor.core.setup.ConfigurationProperties.print(ConfigurationProperties.java:66) - p:evo_affected_by_op= true
[INFO ] fr.inria.astor.core.setup.ConfigurationProperties.print(ConfigurationProperties.java:66) - p:population= 1
[INFO ] fr.inria.astor.core.setup.ConfigurationProperties.print(ConfigurationProperties.java:66) - p:clonegranularity= spoon.reflect.declaration.CtExecutable
[INFO ] fr.inria.astor.core.setup.ConfigurationProperties.print(ConfigurationProperties.java:66) - p:regressiontestcases4fl= org.concurrentmockito.ThreadsShareAMockTest:org.concurrentmockito.ThreadsShareGenerouslyStubbedMockTest:org.mockito.internal.InvalidStateDetectionTest:org.mockito.internal.debugging.WarningsFinderTest:org.mockito.internal.handler.InvocationNotifierHandlerTest:org.mockito.internal.invocation.ArgumentsComparatorTest:org.mockito.internal.invocation.InvocationMatcherTest:org.mockito.internal.matchers.EqualityTest:org.mockito.internal.matchers.EqualsTest:org.mockito.internal.progress.MockingProgressImplTest:org.mockito.internal.stubbing.defaultanswers.ReturnsGenericDeepStubsTest:org.mockito.internal.verification.argumentmatching.ArgumentMatchingToolTest:org.mockito.internal.verification.checkers.AtLeastXNumberOfInvocationsCheckerTest:org.mockito.verification.TimeoutTest:org.mockitousage.PlaygroundWithDemoOfUnclonedParametersProblemTest:org.mockitousage.annotation.MockInjectionUsingConstructorTest$ATest:org.mockitousage.annotation.MockInjectionUsingConstructorTest:org.mockitousage.annotation.SpyAnnotationTest:org.mockitousage.basicapi.MocksSerializationForAnnotationTest:org.mockitousage.basicapi.MocksSerializationTest:org.mockitousage.basicapi.UsingVarargsTest:org.mockitousage.bugs.ActualInvocationHasNullArgumentNPEBugTest:org.mockitousage.bugs.ConcurrentModificationExceptionOnMultiThreadedVerificationTest:org.mockitousage.bugs.MultipleInOrdersTest:org.mockitousage.bugs.NPEWithCertainMatchersTest:org.mockitousage.bugs.ShouldAllowInlineMockCreationTest:org.mockitousage.bugs.SpyShouldHaveNiceNameTest:org.mockitousage.bugs.VerifyingWithAnExtraCallToADifferentMockTest:org.mockitousage.bugs.varargs.VarargsAndAnyObjectPicksUpExtraInvocationsTest:org.mockitousage.bugs.varargs.VarargsNotPlayingWithAnyObjectTest:org.mockitousage.configuration.CustomizedAnnotationForSmartMockTest:org.mockitousage.customization.BDDMockitoTest:org.mockitousage.debugging.InvocationListenerCallbackTest:org.mockitousage.debugging.PrintingInvocationsDetectsUnusedStubTest:org.mockitousage.debugging.PrintingInvocationsWhenEverythingOkTest:org.mockitousage.debugging.PrintingInvocationsWhenStubNotUsedTest:org.mockitousage.debugging.VerboseLoggingOfInvocationsOnMockTest:org.mockitousage.examples.use.ExampleTest:org.mockitousage.junitrunner.JUnit44RunnerTest:org.mockitousage.junitrunner.JUnit45RunnerTest:org.mockitousage.matchers.CapturingArgumentsTest:org.mockitousage.matchers.GenericMatchersTest:org.mockitousage.matchers.MatchersTest:org.mockitousage.matchers.VerificationAndStubbingUsingMatchersTest:org.mockitousage.puzzlers.BridgeMethodPuzzleTest:org.mockitousage.puzzlers.OverloadingPuzzleTest:org.mockitousage.serialization.DeepStubsSerializableTest:org.mockitousage.spies.SpyingOnInterfacesTest:org.mockitousage.spies.SpyingOnRealObjectsTest:org.mockitousage.stacktrace.ClickableStackTracesTest:org.mockitousage.stacktrace.PointingStackTraceToActualInvocationChunkInOrderTest:org.mockitousage.stacktrace.PointingStackTraceToActualInvocationInOrderTest:org.mockitousage.stacktrace.PointingStackTraceToActualInvocationTest:org.mockitousage.stacktrace.StackTraceFilteringTest:org.mockitousage.stubbing.BasicStubbingTest:org.mockitousage.stubbing.CloningParameterTest:org.mockitousage.stubbing.DeepStubbingTest:org.mockitousage.stubbing.DeprecatedStubbingTest:org.mockitousage.stubbing.StubbingUsingDoReturnTest:org.mockitousage.stubbing.StubbingWithThrowablesTest:org.mockitousage.verification.AtLeastXVerificationTest:org.mockitousage.verification.BasicVerificationInOrderTest:org.mockitousage.verification.BasicVerificationTest:org.mockitousage.verification.DescriptiveMessagesOnVerificationInOrderErrorsTest:org.mockitousage.verification.DescriptiveMessagesWhenVerificationFailsTest:org.mockitousage.verification.ExactNumberOfTimesVerificationTest:org.mockitousage.verification.FindingRedundantInvocationsInOrderTest:org.mockitousage.verification.NoMoreInteractionsVerificationTest:org.mockitousage.verification.OnlyVerificationTest:org.mockitousage.verification.PrintingVerboseTypesWithArgumentsTest:org.mockitousage.verification.RelaxedVerificationInOrderTest:org.mockitousage.verification.SelectedMocksInOrderVerificationTest:org.mockitousage.verification.VerificationExcludingStubsTest:org.mockitousage.verification.VerificationInOrderMixedWithOrdiraryVerificationTest:org.mockitousage.verification.VerificationInOrderTest:org.mockitousage.verification.VerificationInOrderWithCallsTest:org.mockitousage.verification.VerificationOnMultipleMocksUsingMatchersTest:org.mockitousage.verification.VerificationUsingMatchersTest:
[INFO ] fr.inria.astor.core.setup.ConfigurationProperties.print(ConfigurationProperties.java:66) - p:savesolution= true
[INFO ] fr.inria.astor.core.setup.ConfigurationProperties.print(ConfigurationProperties.java:66) - p:javacompliancelevel= 6
[INFO ] fr.inria.astor.core.setup.ConfigurationProperties.print(ConfigurationProperties.java:66) - p:uniqueoptogen= false
[INFO ] fr.inria.astor.core.setup.ConfigurationProperties.print(ConfigurationProperties.java:66) - p:projectIdentifier= 
[INFO ] fr.inria.astor.core.setup.ConfigurationProperties.print(ConfigurationProperties.java:66) - p:modificationpointnavigation= weight
[INFO ] fr.inria.astor.core.setup.ConfigurationProperties.print(ConfigurationProperties.java:66) - p:stopfirst= false
[INFO ] fr.inria.astor.core.setup.ConfigurationProperties.print(ConfigurationProperties.java:66) - p:multipointmodification= false
[INFO ] fr.inria.astor.core.setup.ConfigurationProperties.print(ConfigurationProperties.java:66) - p:elementsToMutate= 10
[INFO ] fr.inria.astor.core.setup.ConfigurationProperties.print(ConfigurationProperties.java:66) - p:evoDSE= false
[INFO ] fr.inria.astor.core.setup.ConfigurationProperties.print(ConfigurationProperties.java:66) - p:bintestfolder= target/test-classes
[INFO ] fr.inria.astor.core.setup.ConfigurationProperties.print(ConfigurationProperties.java:66) - p:testbystep= false
[INFO ] fr.inria.astor.core.setup.ConfigurationProperties.print(ConfigurationProperties.java:66) - p:version-location= ./math-version/
[INFO ] fr.inria.astor.core.setup.ConfigurationProperties.print(ConfigurationProperties.java:66) - p:reintroduce= PARENTS
[INFO ] fr.inria.astor.core.setup.ConfigurationProperties.print(ConfigurationProperties.java:66) - p:maxGeneration= 1000000
[INFO ] fr.inria.astor.core.setup.ConfigurationProperties.print(ConfigurationProperties.java:66) - p:maxVarCombination= 1000
[INFO ] fr.inria.astor.core.setup.ConfigurationProperties.print(ConfigurationProperties.java:66) - p:maxtime= 180
[INFO ] fr.inria.astor.core.setup.ConfigurationProperties.print(ConfigurationProperties.java:66) - p:evosuitejar= ./lib/evosuite-master-1.0.4-SNAPSHOT.jar
[INFO ] fr.inria.astor.core.setup.ConfigurationProperties.print(ConfigurationProperties.java:66) - p:commandTrunk= 50000
[INFO ] fr.inria.astor.core.setup.ConfigurationProperties.print(ConfigurationProperties.java:66) - p:faultlocalization= fr.inria.astor.core.faultlocalization.GZoltarFaultLocalization
[INFO ] fr.inria.astor.core.setup.ConfigurationProperties.print(ConfigurationProperties.java:66) - p:maxsuspcandidates= 1000
[INFO ] fr.inria.astor.core.setup.ConfigurationProperties.print(ConfigurationProperties.java:66) - p:mode= statement
[INFO ] fr.inria.astor.core.setup.ConfigurationProperties.print(ConfigurationProperties.java:66) - p:learningdir= ../../out/learningdir/Mockito/22/b/
[INFO ] fr.inria.astor.core.setup.ConfigurationProperties.print(ConfigurationProperties.java:66) - p:jvm4evosuitetestexecution= /usr/local/jdk1.7.0_80/bin/
[INFO ] fr.inria.astor.core.setup.ConfigurationProperties.print(ConfigurationProperties.java:66) - p:filterfaultlocalization= true
[INFO ] fr.inria.astor.core.setup.ConfigurationProperties.print(ConfigurationProperties.java:66) - p:mutationrate= 1 
[INFO ] fr.inria.astor.core.setup.ConfigurationProperties.print(ConfigurationProperties.java:66) - p:pathToMVNRepository= 
[INFO ] fr.inria.astor.core.setup.ConfigurationProperties.print(ConfigurationProperties.java:66) - p:resourcesfolder= /src/main/resources:/src/test/resources:
[INFO ] fr.inria.astor.core.setup.ConfigurationProperties.print(ConfigurationProperties.java:66) - p:timezone= America/New_York
[INFO ] fr.inria.astor.core.setup.ConfigurationProperties.print(ConfigurationProperties.java:66) - p:classestoinstrument= org.mockito.internal.progress.ThreadSafeMockingProgress:org.mockito.MockitoAnnotations:org.mockito.exceptions.misusing.MockitoConfigurationException:org.mockito.internal.configuration.injection.filter.MockCandidateFilter:org.mockito.internal.invocation.realmethod.RealMethod:org.mockito.exceptions.misusing.NullInsteadOfMockException:org.mockito.Mock:org.mockito.internal.configuration.ClassPathLoader:org.mockito.exceptions.base.MockitoException:org.mockito.internal.configuration.InjectingAnnotationEngine:org.mockito.exceptions.base.MockitoAssertionError:org.mockito.exceptions.verification.TooLittleActualInvocations:org.mockito.invocation.MockHandler:org.mockito.internal.configuration.SpyAnnotationEngine:org.mockito.exceptions.verification.NeverWantedButInvoked:org.mockito.internal.invocation.MockitoMethod:org.mockito.internal.configuration.injection.ConstructorInjection:org.mockito.stubbing.Answer:org.mockito.exceptions.misusing.FriendlyReminderException:org.mockito.exceptions.misusing.InvalidUseOfMatchersException:org.mockito.internal.configuration.injection.scanner.InjectMocksScanner:org.mockito.exceptions.verification.NoInteractionsWanted:org.mockito.internal.matchers.Equality:org.mockito.invocation.Invocation:org.mockito.internal.configuration.GlobalConfiguration:org.mockito.exceptions.PrintableInvocation:org.mockito.plugins.MockMaker:org.mockito.configuration.IMockitoConfiguration:org.mockito.internal.configuration.injection.MockInjection:org.mockito.internal.util.collections.Sets:org.mockito.exceptions.misusing.WrongTypeOfReturnValue:org.mockito.invocation.InvocationOnMock:org.mockito.internal.configuration.MockAnnotationProcessor:org.mockito.exceptions.misusing.UnfinishedStubbingException:org.mockito.internal.util.MockUtil:org.mockito.exceptions.Reporter:org.mockito.exceptions.misusing.MissingMethodInvocationException:org.mockito.internal.configuration.injection.scanner.MockScanner:org.mockito.exceptions.misusing.UnfinishedVerificationException:org.mockito.internal.configuration.injection.filter.FinalMockCandidateFilter:org.mockito.mock.MockName:org.mockito.internal.configuration.injection.filter.NameBasedCandidateFilter:org.mockito.exceptions.verification.WantedButNotInvoked:org.mockito.configuration.DefaultMockitoConfiguration:org.mockito.internal.configuration.injection.filter.TypeBasedCandidateFilter:org.mockito.internal.util.reflection.FieldInitializer:org.mockito.exceptions.misusing.CannotVerifyStubOnlyMock:org.mockito.internal.progress.ArgumentMatcherStorageImpl:org.mockito.internal.configuration.MockitoAnnotationsMockAnnotationProcessor:org.mockito.exceptions.verification.TooManyActualInvocations:org.mockito.internal.util.Checks:org.mockito.Captor:org.mockito.internal.invocation.AbstractAwareMethod:org.mockito.internal.util.collections.ListUtil:org.mockito.internal.progress.ArgumentMatcherStorage:org.mockito.internal.configuration.injection.MockInjectionStrategy:org.mockito.exceptions.verification.VerificationInOrderFailure:org.mockito.internal.configuration.FieldAnnotationProcessor:org.mockito.internal.configuration.injection.PropertyAndSetterInjection:org.mockito.internal.configuration.DefaultAnnotationEngine:org.mockito.internal.creation.CglibMockMaker:org.mockito.invocation.DescribedInvocation:org.mockito.internal.progress.MockingProgress:org.mockito.internal.exceptions.stacktrace.DefaultStackTraceCleanerProvider:org.mockito.exceptions.misusing.NotAMockException:org.mockito.configuration.AnnotationEngine:org.mockito.exceptions.verification.ArgumentsAreDifferent:org.mockito.internal.configuration.injection.SpyOnInjectedFieldsHandler:org.mockito.internal.configuration.CaptorAnnotationProcessor:org.mockito.plugins.StackTraceCleanerProvider:org.mockito.invocation.Location:org.mockito.internal.progress.MockingProgressImpl:org.mockito.internal.util.reflection.FieldInitializationReport:org.mockito.internal.configuration.DefaultInjectionEngine:org.mockito.internal.configuration.injection.filter.OngoingInjecter:org.mockito.internal.util.collections.HashCodeAndEqualsSafeSet:org.mockito.exceptions.verification.SmartNullPointerException:
[INFO ] fr.inria.astor.core.setup.ConfigurationProperties.print(ConfigurationProperties.java:66) - p:evoRunOnBuggyClass= true
[INFO ] fr.inria.astor.core.setup.ConfigurationProperties.print(ConfigurationProperties.java:66) - p:compiler= fr.inria.astor.core.manipulation.bytecode.compiler.SpoonClassCompiler
[INFO ] fr.inria.astor.core.setup.ConfigurationProperties.print(ConfigurationProperties.java:66) - p:dependenciespath= ../../dat/defects4j/Mockito/22/b/lib/build/ant-googlecode-0.0.3.jar:../../dat/defects4j/Mockito/22/b/lib/build/bnd-0.0.313.jar:../../dat/defects4j/Mockito/22/b/lib/build/ant4hg-V0.07.jar:../../dat/defects4j/Mockito/22/b/lib/build/jaxen-1.1.1.jar:../../dat/defects4j/Mockito/22/b/lib/build/asm-3.1.jar:../../dat/defects4j/Mockito/22/b/lib/build/sorcerer.jar:../../dat/defects4j/Mockito/22/b/lib/build/pmd-4.1.jar:../../dat/defects4j/Mockito/22/b/lib/build/maven-ant-tasks-2.0.9.jar:../../dat/defects4j/Mockito/22/b/lib/build/jarjar-1.0.jar:../../dat/defects4j/Mockito/22/b/lib/compile/junit-4.10.jar:../../dat/defects4j/Mockito/22/b/lib/test/fest-util-1.1.4.jar:../../dat/defects4j/Mockito/22/b/lib/test/fest-assert-1.3.jar:../../dat/defects4j/Mockito/22/b/lib/test/powermock-reflect-1.2.5.jar:../../dat/defects4j/Mockito/22/b/lib/sources/com.springsource.org.hamcrest.core-1.1.0-sources.jar:../../dat/defects4j/Mockito/22/b/lib/sources/cglib-and-asm-1.0-sources.jar:../../dat/defects4j/Mockito/22/b/lib/sources/objenesis-2.1-sources.jar:../../dat/defects4j/Mockito/22/b/lib/repackaged/cglib-and-asm-1.0.jar:../../dat/defects4j/Mockito/22/b/lib/run/com.springsource.org.hamcrest.core-1.1.0.jar:../../dat/defects4j/Mockito/22/b/lib/run/objenesis-2.1.jar
[INFO ] fr.inria.astor.core.setup.ConfigurationProperties.print(ConfigurationProperties.java:66) - p:skipfaultlocalization= false
[INFO ] fr.inria.astor.core.setup.ConfigurationProperties.print(ConfigurationProperties.java:66) - p:packageToInstrument= org.mockito
[INFO ] fr.inria.astor.core.setup.ConfigurationProperties.print(ConfigurationProperties.java:66) - p:scope= fr.inria.astor.core.loop.spaces.ingredients.scopes.ctscopes.CtPackageIngredientScope
[INFO ] fr.inria.astor.core.setup.ConfigurationProperties.print(ConfigurationProperties.java:66) - p:transformingredient= false
[INFO ] fr.inria.astor.core.setup.ConfigurationProperties.print(ConfigurationProperties.java:66) - p:fitnessfunction= fr.inria.astor.core.loop.population.TestCaseFitnessFunction
[INFO ] fr.inria.astor.core.setup.ConfigurationProperties.print(ConfigurationProperties.java:66) - p:pvariantfoldername= variant-
[INFO ] fr.inria.astor.core.setup.ConfigurationProperties.print(ConfigurationProperties.java:66) - p:srcjavafolder= src
[INFO ] fr.inria.astor.core.setup.ConfigurationProperties.print(ConfigurationProperties.java:66) - p:populationcontroller= fr.inria.astor.core.loop.population.TestCaseBasedFitnessPopulationController
[INFO ] fr.inria.astor.core.setup.ConfigurationProperties.print(ConfigurationProperties.java:66) - p:ignoreflakyinfl= false
[INFO ] fr.inria.astor.core.setup.ConfigurationProperties.print(ConfigurationProperties.java:66) - p:applyCrossover= false
[INFO ] fr.inria.astor.core.setup.ConfigurationProperties.print(ConfigurationProperties.java:66) - p:saveall= false
[INFO ] fr.inria.astor.core.setup.ConfigurationProperties.print(ConfigurationProperties.java:66) - p:seed= 2
[INFO ] fr.inria.astor.core.setup.ConfigurationProperties.print(ConfigurationProperties.java:66) - p:resetoperations= false
[INFO ] fr.inria.astor.core.setup.ConfigurationProperties.print(ConfigurationProperties.java:66) - p:location= ../../dat/defects4j/Mockito/22/b/
[INFO ] fr.inria.astor.core.setup.ConfigurationProperties.print(ConfigurationProperties.java:66) - p:ingredientstrategy= fr.inria.astor.core.loop.spaces.ingredients.ingredientSearch.CloneIngredientSearchStrategy
[INFO ] fr.inria.astor.core.setup.ConfigurationProperties.print(ConfigurationProperties.java:66) - p:allpoints= false
[INFO ] fr.inria.astor.core.setup.ConfigurationProperties.print(ConfigurationProperties.java:66) - p:bugId= 280
[INFO ] fr.inria.astor.core.setup.ConfigurationProperties.print(ConfigurationProperties.java:66) - p:evosuitetimeout= 120
[INFO ] fr.inria.astor.core.setup.ConfigurationProperties.print(ConfigurationProperties.java:68) - ----------------------------
[INFO ] fr.inria.astor.core.loop.AstorCoreEngine.startEvolution(AstorCoreEngine.java:119) - 
----Starting Solution Search
0-->2org.mockito.internal.matchers.Contains#boolean matches(java.lang.Object)
1-->2org.mockito.internal.matchers.Equals#org.mockito.internal.matchers.Equals(java.lang.Object)
2-->2org.mockito.internal.matchers.LocalizedMatcher#java.lang.String toString()
3-->2org.mockito.internal.matchers.Matches#org.mockito.internal.matchers.Matches(java.lang.String)
4-->2org.mockito.internal.matchers.apachecommons.EqualsBuilder#boolean reflectionEquals(java.lang.Object,java.lang.Object,java.lang.String[])
5-->2org.mockito.internal.matchers.CompareTo#java.lang.String getName()
6-->2org.mockito.internal.matchers.ArrayEquals#void appendArray(java.lang.Object[],org.hamcrest.Description)
7-->2org.mockito.internal.matchers.VarargCapturingMatcher#void captureFrom(java.lang.Object)
8-->2org.mockito.internal.matchers.LocalizedMatcher#org.mockito.internal.matchers.LocalizedMatcher(org.hamcrest.Matcher)
9-->2org.mockito.internal.matchers.VarargCapturingMatcher#java.util.List unpackAsList(java.lang.Object)
10-->2org.mockito.internal.matchers.GreaterThan#boolean matchResult(int)
11-->2org.mockito.internal.matchers.EndsWith#boolean matches(java.lang.Object)
12-->2org.mockito.internal.matchers.apachecommons.EqualsBuilder#org.mockito.internal.matchers.apachecommons.EqualsBuilder append(float,float)
13-->2org.mockito.internal.matchers.LocalizedMatcher#org.hamcrest.SelfDescribing withExtraTypeInfo()
14-->2org.mockito.internal.matchers.Same#org.mockito.internal.matchers.Same(java.lang.Object)
15-->2org.mockito.internal.matchers.apachecommons.EqualsBuilder#org.mockito.internal.matchers.apachecommons.EqualsBuilder append(byte,byte)
16-->2org.mockito.internal.matchers.Matches#boolean matches(java.lang.Object)
17-->2org.mockito.internal.matchers.LessThan#java.lang.String getName()
18-->2org.mockito.internal.matchers.apachecommons.ReflectionEquals#boolean matches(java.lang.Object)
19-->2org.mockito.internal.matchers.Any#boolean matches(java.lang.Object)
20-->2org.mockito.internal.matchers.Equality#boolean areArrayElementsEqual(java.lang.Object,java.lang.Object)
21-->2org.mockito.internal.matchers.Equals#boolean equals(java.lang.Object)
22-->2org.mockito.internal.matchers.apachecommons.EqualsBuilder#org.mockito.internal.matchers.apachecommons.EqualsBuilder append(boolean[],boolean[])
23-->2org.mockito.internal.matchers.apachecommons.EqualsBuilder#org.mockito.internal.matchers.apachecommons.EqualsBuilder append(java.lang.Object,java.lang.Object)
24-->2org.mockito.internal.matchers.apachecommons.EqualsBuilder#org.mockito.internal.matchers.apachecommons.EqualsBuilder append(byte[],byte[])
25-->2org.mockito.internal.matchers.Equals#void describeTo(org.hamcrest.Description)
26-->2org.mockito.internal.matchers.apachecommons.EqualsBuilder#boolean reflectionEquals(java.lang.Object,java.lang.Object,boolean,java.lang.Class)
27-->2org.mockito.internal.matchers.LessOrEqual#java.lang.String getName()
28-->2org.mockito.internal.matchers.StartsWith#boolean matches(java.lang.Object)
29-->2org.mockito.internal.matchers.ArrayEquals#void describeTo(org.hamcrest.Description)
30-->2org.mockito.internal.matchers.ArrayEquals#java.lang.reflect.Array createObjectArray(java.lang.Object)
31-->2org.mockito.internal.matchers.apachecommons.EqualsBuilder#org.mockito.internal.matchers.apachecommons.EqualsBuilder()
32-->2org.mockito.internal.matchers.EqualsWithDelta#org.mockito.internal.matchers.EqualsWithDelta(java.lang.Number,java.lang.Number)
33-->2org.mockito.internal.matchers.Matches#void describeTo(org.hamcrest.Description)
34-->2org.mockito.internal.matchers.VarargCapturingMatcher#java.util.List getLastVarargs()
35-->2org.mockito.internal.matchers.GreaterOrEqual#java.lang.String getName()
36-->2org.mockito.internal.matchers.Equals#java.lang.String describe(java.lang.Object)
37-->2org.mockito.internal.matchers.LessThan#org.mockito.internal.matchers.LessThan(java.lang.Comparable)
38-->2org.mockito.internal.matchers.EndsWith#void describeTo(org.hamcrest.Description)
39-->2org.mockito.internal.matchers.ArrayEquals#org.mockito.internal.matchers.ArrayEquals(java.lang.Object)
40-->2org.mockito.internal.matchers.Or#org.mockito.internal.matchers.Or(java.util.List)
41-->2org.mockito.internal.matchers.CapturingMatcher#void captureFrom(java.lang.Object)
42-->2org.mockito.internal.matchers.apachecommons.ReflectionEquals#void describeTo(org.hamcrest.Description)
43-->2org.mockito.internal.matchers.AnyVararg#boolean matches(java.lang.Object)
44-->2org.mockito.internal.matchers.VarargCapturingMatcher#java.util.List getAllVarargs()
45-->2org.mockito.internal.matchers.InstanceOf#org.mockito.internal.matchers.InstanceOf(java.lang.Class)
46-->2org.mockito.internal.matchers.Or#void describeTo(org.hamcrest.Description)
47-->2org.mockito.internal.matchers.apachecommons.EqualsBuilder#org.mockito.internal.matchers.apachecommons.EqualsBuilder append(short,short)
48-->2org.mockito.internal.matchers.Equals#int hashCode()
49-->2org.mockito.internal.matchers.CapturingMatcher#java.util.List getAllValues()
50-->2org.mockito.internal.matchers.apachecommons.EqualsBuilder#org.mockito.internal.matchers.apachecommons.EqualsBuilder append(int,int)
51-->2org.mockito.internal.matchers.VarargCapturingMatcher#void describeTo(org.hamcrest.Description)
52-->2org.mockito.internal.matchers.ContainsExtraTypeInformation#org.hamcrest.SelfDescribing withExtraTypeInfo()
53-->2org.mockito.internal.matchers.CompareEqual#org.mockito.internal.matchers.CompareEqual(java.lang.Comparable)
54-->2org.mockito.internal.matchers.Equality#boolean areArrayLengthsEqual(java.lang.Object,java.lang.Object)
55-->2org.mockito.internal.matchers.apachecommons.EqualsBuilder#boolean reflectionEquals(java.lang.Object,java.lang.Object,boolean)
56-->2org.mockito.internal.matchers.LocalizedMatcher#boolean typeMatches(java.lang.Object)
57-->2org.mockito.internal.matchers.LocalizedMatcher#boolean matches(java.lang.Object)
58-->2org.mockito.internal.matchers.EndsWith#org.mockito.internal.matchers.EndsWith(java.lang.String)
59-->2org.mockito.internal.matchers.LocalizedMatcher#org.mockito.invocation.Location getLocation()
60-->2org.mockito.internal.matchers.CompareTo#org.mockito.internal.matchers.CompareTo(java.lang.Comparable)
61-->2org.mockito.internal.matchers.NotNull#void describeTo(org.hamcrest.Description)
62-->2org.mockito.internal.matchers.MatcherDecorator#org.hamcrest.Matcher getActualMatcher()
63-->2org.mockito.internal.matchers.NotNull#boolean matches(java.lang.Object)
64-->2org.mockito.internal.matchers.Find#org.mockito.internal.matchers.Find(java.lang.String)
65-->2org.mockito.internal.matchers.GreaterOrEqual#org.mockito.internal.matchers.GreaterOrEqual(java.lang.Comparable)
66-->2org.mockito.internal.matchers.Or#boolean matches(java.lang.Object)
67-->2org.mockito.internal.matchers.apachecommons.ReflectionEquals#org.mockito.internal.matchers.apachecommons.ReflectionEquals(java.lang.Object,java.lang.String[])
68-->2org.mockito.internal.matchers.And#org.mockito.internal.matchers.And(java.util.List)
69-->2org.mockito.internal.matchers.Equals#org.hamcrest.SelfDescribing withExtraTypeInfo()
70-->2org.mockito.internal.matchers.InstanceOf#boolean matches(java.lang.Object)
71-->2org.mockito.internal.matchers.CompareTo#boolean matches(java.lang.Object)
72-->2org.mockito.internal.matchers.LocalizedMatcher#void describeTo(org.hamcrest.Description)
73-->2org.mockito.internal.matchers.apachecommons.EqualsBuilder#boolean reflectionEquals(java.lang.Object,java.lang.Object)
74-->2org.mockito.internal.matchers.StartsWith#void describeTo(org.hamcrest.Description)
75-->2org.mockito.internal.matchers.apachecommons.EqualsBuilder#org.mockito.internal.matchers.apachecommons.EqualsBuilder append(double[],double[])
76-->2org.mockito.internal.matchers.ArrayEquals#boolean matches(java.lang.Object)
77-->2org.mockito.internal.matchers.LocalizedMatcher#org.hamcrest.Matcher getActualMatcher()
78-->2org.mockito.internal.matchers.Same#boolean matches(java.lang.Object)
79-->2org.mockito.internal.matchers.Equals#java.lang.Object getWanted()
80-->2org.mockito.internal.matchers.Contains#void describeTo(org.hamcrest.Description)
81-->2org.mockito.internal.matchers.Equality#boolean areArraysEqual(java.lang.Object,java.lang.Object)
82-->2org.mockito.internal.matchers.apachecommons.EqualsBuilder#boolean reflectionEquals(java.lang.Object,java.lang.Object,boolean,java.lang.Class,java.lang.String[])
83-->2org.mockito.internal.matchers.LocalizedMatcher#void captureFrom(java.lang.Object)
84-->2org.mockito.internal.matchers.CapturingMatcher#boolean matches(java.lang.Object)
85-->2org.mockito.internal.matchers.Equality#boolean areEqual(java.lang.Object,java.lang.Object)
86-->2org.mockito.internal.matchers.GreaterThan#org.mockito.internal.matchers.GreaterThan(java.lang.Comparable)
87-->2org.mockito.internal.matchers.apachecommons.EqualsBuilder#org.mockito.internal.matchers.apachecommons.EqualsBuilder append(boolean,boolean)
88-->2org.mockito.internal.matchers.Equality#boolean isArray(java.lang.Object)
89-->2org.mockito.internal.matchers.InstanceOf#void describeTo(org.hamcrest.Description)
90-->2org.mockito.internal.matchers.LessOrEqual#org.mockito.internal.matchers.LessOrEqual(java.lang.Comparable)
91-->2org.mockito.internal.matchers.LessThan#boolean matchResult(int)
92-->2org.mockito.internal.matchers.apachecommons.EqualsBuilder#org.mockito.internal.matchers.apachecommons.EqualsBuilder append(char,char)
93-->2org.mockito.internal.matchers.LessOrEqual#boolean matchResult(int)
94-->2org.mockito.internal.matchers.Any#void describeTo(org.hamcrest.Description)
95-->2org.mockito.internal.matchers.GreaterThan#java.lang.String getName()
96-->2org.mockito.internal.matchers.CompareEqual#java.lang.String getName()
97-->2org.mockito.internal.matchers.Find#void describeTo(org.hamcrest.Description)
98-->2org.mockito.internal.matchers.NotNull#org.mockito.internal.matchers.NotNull()
99-->2org.mockito.internal.matchers.CapturingMatcher#T getLastValue()
100-->2org.mockito.internal.matchers.apachecommons.EqualsBuilder#void reflectionAppend(java.lang.Object,java.lang.Object,java.lang.Class,org.mockito.internal.matchers.apachecommons.EqualsBuilder,boolean,java.lang.String[])
101-->2org.mockito.internal.matchers.MatchersPrinter#java.lang.String getArgumentsBlock(java.util.List,org.mockito.internal.reporting.PrintSettings)
102-->2org.mockito.internal.matchers.Not#boolean matches(java.lang.Object)
103-->2org.mockito.internal.matchers.apachecommons.EqualsBuilder#org.mockito.internal.matchers.apachecommons.EqualsBuilder append(short[],short[])
104-->2org.mockito.internal.matchers.MatchersPrinter#java.lang.String getArgumentsLine(java.util.List,org.mockito.internal.reporting.PrintSettings)
105-->2org.mockito.internal.matchers.StartsWith#org.mockito.internal.matchers.StartsWith(java.lang.String)
106-->2org.mockito.internal.matchers.EqualsWithDelta#boolean matches(java.lang.Object)
107-->2org.mockito.internal.matchers.CompareTo#boolean matchResult(int)
108-->2org.mockito.internal.matchers.apachecommons.EqualsBuilder#org.mockito.internal.matchers.apachecommons.EqualsBuilder appendSuper(boolean)
109-->2org.mockito.internal.matchers.Null#org.mockito.internal.matchers.Null()
110-->2org.mockito.internal.matchers.CompareEqual#boolean matchResult(int)
111-->2org.mockito.internal.matchers.apachecommons.EqualsBuilder#boolean isEquals()
112-->2org.mockito.internal.matchers.EqualsWithDelta#void describeTo(org.hamcrest.Description)
113-->2org.mockito.internal.matchers.Contains#org.mockito.internal.matchers.Contains(java.lang.String)
114-->2org.mockito.internal.matchers.LocalizedMatcher#void _dont_implement_Matcher___instead_extend_BaseMatcher_()
115-->2org.mockito.internal.matchers.VarargCapturingMatcher#boolean matches(java.lang.Object)
116-->2org.mockito.internal.matchers.Null#void describeTo(org.hamcrest.Description)
117-->2org.mockito.internal.matchers.apachecommons.EqualsBuilder#org.mockito.internal.matchers.apachecommons.EqualsBuilder append(int[],int[])
118-->2org.mockito.internal.matchers.apachecommons.EqualsBuilder#org.mockito.internal.matchers.apachecommons.EqualsBuilder append(char[],char[])
119-->2org.mockito.internal.matchers.Equals#boolean typeMatches(java.lang.Object)
120-->2org.mockito.internal.matchers.MatchersPrinter#java.util.List applyPrintSettings(java.util.List,org.mockito.internal.reporting.PrintSettings)
121-->2org.mockito.internal.matchers.Same#void appendQuoting(org.hamcrest.Description)
122-->2org.mockito.internal.matchers.CapturesArguments#void captureFrom(java.lang.Object)
123-->2org.mockito.internal.matchers.Equals#java.lang.String quoting()
124-->2org.mockito.internal.matchers.Any#org.mockito.internal.matchers.Any()
125-->2org.mockito.internal.matchers.apachecommons.EqualsBuilder#org.mockito.internal.matchers.apachecommons.EqualsBuilder append(long,long)
126-->2org.mockito.internal.matchers.Not#void describeTo(org.hamcrest.Description)
127-->2org.mockito.internal.matchers.Null#boolean matches(java.lang.Object)
128-->2org.mockito.internal.matchers.CapturingMatcher#void describeTo(org.hamcrest.Description)
129-->2org.mockito.internal.matchers.apachecommons.EqualsBuilder#org.mockito.internal.matchers.apachecommons.EqualsBuilder append(long[],long[])
130-->2org.mockito.internal.matchers.Find#boolean matches(java.lang.Object)
131-->2org.mockito.internal.matchers.apachecommons.EqualsBuilder#org.mockito.internal.matchers.apachecommons.EqualsBuilder append(double,double)
132-->2org.mockito.internal.matchers.apachecommons.EqualsBuilder#org.mockito.internal.matchers.apachecommons.EqualsBuilder append(java.lang.Object[],java.lang.Object[])
133-->2org.mockito.internal.matchers.Not#org.mockito.internal.matchers.Not(org.hamcrest.Matcher)
134-->2org.mockito.internal.matchers.apachecommons.EqualsBuilder#void setEquals(boolean)
135-->2org.mockito.internal.matchers.CompareTo#void describeTo(org.hamcrest.Description)
136-->2org.mockito.internal.matchers.And#void describeTo(org.hamcrest.Description)
137-->2org.mockito.internal.matchers.Same#void describeTo(org.hamcrest.Description)
138-->2org.mockito.internal.matchers.ContainsExtraTypeInformation#boolean typeMatches(java.lang.Object)
139-->2org.mockito.internal.matchers.GreaterOrEqual#boolean matchResult(int)
140-->2org.mockito.internal.matchers.Equals#boolean matches(java.lang.Object)
141-->2org.mockito.internal.matchers.And#boolean matches(java.lang.Object)
142-->2org.mockito.internal.matchers.apachecommons.EqualsBuilder#org.mockito.internal.matchers.apachecommons.EqualsBuilder append(float[],float[])
[INFO ] fr.inria.astor.core.loop.AstorCoreEngine.belowMaxTime(AstorCoreEngine.java:203) - 
 No more time for operating
[INFO ] fr.inria.astor.core.loop.AstorCoreEngine.startEvolution(AstorCoreEngine.java:143) - Time Repair Loop (s): 10860.227
[INFO ] fr.inria.astor.core.loop.AstorCoreEngine.showResults(AstorCoreEngine.java:165) - 
----SUMMARY_EXECUTION---
[INFO ] fr.inria.astor.approaches.jgenprog.JGenProg.showResults(JGenProg.java:332) - 
successful_ing_attempts (#trials 0, totalAttps 0): []
[INFO ] fr.inria.astor.approaches.jgenprog.JGenProg.showResults(JGenProg.java:334) - 
failing_ing_attempts (#trials 608, totalAttps 3920): [1, 1, 1, 1, 1, 1, 1, 1, 41, 2, 1, 1, 1, 1, 1, 1, 1, 1, 1, 1, 1, 1, 2, 1, 1, 1, 1, 7, 7, 2, 15, 2, 2, 1, 8, 1, 2, 2, 1, 1, 1, 1, 2, 1, 7, 2, 1, 6, 1, 1, 1, 1, 1, 11, 1, 3, 1, 1, 1, 1, 1, 1, 11, 3, 1, 1, 1, 1, 7, 1, 7, 1, 24, 7, 12, 1, 11, 1, 4, 12, 1, 12, 3, 1, 1, 2, 15, 8, 1, 1, 1, 3, 12, 3, 12, 3, 6, 1, 1, 2, 1, 1, 3, 2, 32, 1, 1, 3, 3, 3, 3, 3, 8, 1, 1, 12, 1, 4, 11, 42, 3, 3, 12, 1, 42, 3, 1, 7, 2, 9, 1, 3, 1, 1, 24, 3, 1, 42, 5, 3, 1, 42, 3, 4, 3, 23, 42, 1, 1, 3, 3, 2, 32, 1, 12, 5, 23, 1, 7, 4, 1, 1, 3, 42, 5, 9, 1, 1, 7, 5, 4, 1, 3, 2, 1, 7, 1, 10, 23, 3, 7, 5, 7, 5, 1, 8, 1, 23, 7, 1, 24, 1, 5, 3, 12, 1, 23, 1, 1, 2, 42, 3, 8, 1, 1, 1, 1, 11, 9, 3, 1, 23, 20, 1, 1, 7, 32, 1, 3, 5, 1, 23, 3, 23, 5, 2, 4, 4, 1, 20, 3, 4, 1, 7, 7, 12, 1, 2, 5, 12, 20, 23, 4, 1, 1, 15, 4, 1, 12, 5, 1, 20, 1, 1, 23, 4, 4, 1, 7, 1, 4, 5, 3, 11, 1, 10, 11, 5, 1, 1, 12, 1, 1, 8, 1, 1, 20, 3, 24, 1, 4, 1, 2, 31, 1, 1, 3, 1, 1, 1, 20, 1, 23, 7, 2, 15, 2, 2, 7, 1, 23, 7, 3, 4, 13, 4, 1, 3, 22, 42, 12, 12, 9, 1, 1, 1, 22, 32, 1, 1, 1, 1, 1, 5, 23, 1, 3, 23, 1, 12, 1, 3, 1, 23, 1, 1, 1, 1, 4, 1, 1, 7, 1, 1, 7, 1, 1, 7, 1, 12, 9, 23, 1, 4, 1, 1, 1, 9, 1, 15, 1, 9, 1, 1, 1, 14, 1, 10, 3, 9, 9, 1, 15, 27, 12, 7, 25, 1, 12, 1, 7, 20, 1, 12, 1, 1, 1, 1, 27, 7, 1, 2, 21, 23, 1, 7, 1, 12, 1, 1, 1, 1, 1, 25, 1, 5, 1, 4, 1, 5, 1, 23, 1, 12, 1, 1, 3, 1, 1, 23, 23, 5, 37, 1, 1, 1, 1, 23, 1, 1, 4, 1, 1, 1, 20, 1, 1, 1, 5, 1, 1, 4, 21, 1, 37, 21, 1, 9, 1, 1, 9, 1, 1, 23, 12, 1, 1, 1, 4, 4, 1, 12, 1, 7, 1, 12, 1, 10, 1, 1, 1, 1, 1, 1, 1, 3, 9, 1, 1, 1, 1, 10, 1, 11, 10, 9, 8, 11, 12, 1, 31, 1, 1, 1, 1, 1, 1, 5, 1, 1, 1, 7, 1, 1, 1, 12, 1, 1, 1, 1, 1, 1, 8, 1, 7, 1, 1, 1, 1, 1, 5, 1, 1, 1, 1, 3, 3, 5, 37, 1, 7, 37, 1, 37, 1, 1, 1, 1, 1, 1, 23, 1, 1, 5, 1, 7, 1, 2, 37, 23, 2, 7, 1, 39, 1, 1, 3, 27, 9, 7, 3, 1, 12, 7, 1, 1, 2, 1, 1, 5, 21, 27, 4, 1, 39, 1, 1, 37, 10, 1, 7, 1, 1, 1, 10, 1, 11, 1, 1, 2, 1, 5, 1, 1, 3, 1, 1, 39, 1, 37, 1, 3, 1, 2, 1, 39, 1, 2]
[INFO ] fr.inria.astor.approaches.jgenprog.JGenProg.showResults(JGenProg.java:337) - 
total Patch Attempts (0): []
[INFO ] fr.inria.astor.approaches.jgenprog.JGenProg.showResults(JGenProg.java:339) - 
successful_ing_attempts_by_patch: []
[INFO ] fr.inria.astor.approaches.jgenprog.JGenProg.showResults(JGenProg.java:340) - 
failing_ing_attempts_by_patch: [(pv:2,at:1), (pv:3,at:1), (pv:4,at:1), (pv:5,at:1), (pv:6,at:1), (pv:7,at:1), (pv:8,at:1), (pv:9,at:1), (pv:10,at:41), (pv:11,at:2), (pv:12,at:1), (pv:13,at:1), (pv:14,at:1), (pv:15,at:1), (pv:16,at:1), (pv:17,at:1), (pv:18,at:1), (pv:19,at:1), (pv:20,at:1), (pv:21,at:1), (pv:22,at:1), (pv:23,at:1), (pv:24,at:2), (pv:25,at:1), (pv:26,at:1), (pv:27,at:1), (pv:28,at:1), (pv:29,at:7), (pv:30,at:7), (pv:31,at:2), (pv:32,at:15), (pv:33,at:2), (pv:34,at:2), (pv:35,at:1), (pv:36,at:8), (pv:37,at:1), (pv:38,at:2), (pv:39,at:2), (pv:40,at:1), (pv:41,at:1), (pv:42,at:1), (pv:43,at:1), (pv:44,at:2), (pv:45,at:1), (pv:46,at:7), (pv:47,at:2), (pv:48,at:1), (pv:49,at:6), (pv:50,at:1), (pv:51,at:1), (pv:52,at:1), (pv:53,at:1), (pv:54,at:1), (pv:55,at:11), (pv:56,at:1), (pv:57,at:3), (pv:58,at:1), (pv:59,at:1), (pv:60,at:1), (pv:61,at:1), (pv:62,at:1), (pv:63,at:1), (pv:64,at:11), (pv:65,at:3), (pv:66,at:1), (pv:67,at:1), (pv:68,at:1), (pv:69,at:1), (pv:70,at:7), (pv:71,at:1), (pv:72,at:7), (pv:73,at:1), (pv:74,at:24), (pv:75,at:7), (pv:76,at:12), (pv:77,at:1), (pv:78,at:11), (pv:79,at:1), (pv:80,at:4), (pv:81,at:12), (pv:82,at:1), (pv:83,at:12), (pv:84,at:3), (pv:85,at:1), (pv:86,at:1), (pv:87,at:2), (pv:88,at:15), (pv:89,at:8), (pv:90,at:1), (pv:91,at:1), (pv:92,at:1), (pv:93,at:3), (pv:94,at:12), (pv:95,at:3), (pv:96,at:12), (pv:97,at:3), (pv:98,at:6), (pv:99,at:1), (pv:100,at:1), (pv:101,at:2), (pv:102,at:1), (pv:103,at:1), (pv:104,at:3), (pv:105,at:2), (pv:106,at:32), (pv:107,at:1), (pv:108,at:1), (pv:109,at:3), (pv:110,at:3), (pv:111,at:3), (pv:112,at:3), (pv:113,at:3), (pv:114,at:8), (pv:115,at:1), (pv:116,at:1), (pv:117,at:12), (pv:118,at:1), (pv:119,at:4), (pv:120,at:11), (pv:121,at:42), (pv:122,at:3), (pv:123,at:3), (pv:124,at:12), (pv:125,at:1), (pv:126,at:42), (pv:127,at:3), (pv:128,at:1), (pv:129,at:7), (pv:130,at:2), (pv:131,at:9), (pv:132,at:1), (pv:133,at:3), (pv:134,at:1), (pv:135,at:1), (pv:136,at:24), (pv:137,at:3), (pv:138,at:1), (pv:139,at:42), (pv:140,at:5), (pv:141,at:3), (pv:142,at:1), (pv:143,at:42), (pv:144,at:3), (pv:145,at:4), (pv:146,at:3), (pv:147,at:23), (pv:148,at:42), (pv:149,at:1), (pv:150,at:1), (pv:151,at:3), (pv:152,at:3), (pv:153,at:2), (pv:154,at:32), (pv:155,at:1), (pv:156,at:12), (pv:157,at:5), (pv:158,at:23), (pv:159,at:1), (pv:160,at:7), (pv:161,at:4), (pv:162,at:1), (pv:163,at:1), (pv:164,at:3), (pv:165,at:42), (pv:166,at:5), (pv:167,at:9), (pv:168,at:1), (pv:169,at:1), (pv:170,at:7), (pv:171,at:5), (pv:172,at:4), (pv:173,at:1), (pv:174,at:3), (pv:175,at:2), (pv:176,at:1), (pv:177,at:7), (pv:178,at:1), (pv:179,at:10), (pv:180,at:23), (pv:181,at:3), (pv:182,at:7), (pv:183,at:5), (pv:184,at:7), (pv:185,at:5), (pv:186,at:1), (pv:187,at:8), (pv:188,at:1), (pv:189,at:23), (pv:190,at:7), (pv:191,at:1), (pv:192,at:24), (pv:193,at:1), (pv:194,at:5), (pv:195,at:3), (pv:196,at:12), (pv:197,at:1), (pv:198,at:23), (pv:199,at:1), (pv:200,at:1), (pv:201,at:2), (pv:202,at:42), (pv:203,at:3), (pv:204,at:8), (pv:205,at:1), (pv:206,at:1), (pv:207,at:1), (pv:208,at:1), (pv:209,at:11), (pv:210,at:9), (pv:211,at:3), (pv:212,at:1), (pv:213,at:23), (pv:214,at:20), (pv:215,at:1), (pv:216,at:1), (pv:217,at:7), (pv:218,at:32), (pv:219,at:1), (pv:220,at:3), (pv:221,at:5), (pv:222,at:1), (pv:223,at:23), (pv:224,at:3), (pv:225,at:23), (pv:226,at:5), (pv:227,at:2), (pv:228,at:4), (pv:229,at:4), (pv:230,at:1), (pv:231,at:20), (pv:232,at:3), (pv:233,at:4), (pv:234,at:1), (pv:235,at:7), (pv:236,at:7), (pv:237,at:12), (pv:238,at:1), (pv:239,at:2), (pv:240,at:5), (pv:241,at:12), (pv:242,at:20), (pv:243,at:23), (pv:244,at:4), (pv:245,at:1), (pv:246,at:1), (pv:247,at:15), (pv:248,at:4), (pv:249,at:1), (pv:250,at:12), (pv:251,at:5), (pv:252,at:1), (pv:253,at:20), (pv:254,at:1), (pv:255,at:1), (pv:256,at:23), (pv:257,at:4), (pv:258,at:4), (pv:259,at:1), (pv:260,at:7), (pv:261,at:1), (pv:262,at:4), (pv:263,at:5), (pv:264,at:3), (pv:265,at:11), (pv:266,at:1), (pv:267,at:10), (pv:268,at:11), (pv:269,at:5), (pv:270,at:1), (pv:271,at:1), (pv:272,at:12), (pv:273,at:1), (pv:274,at:1), (pv:275,at:8), (pv:276,at:1), (pv:277,at:1), (pv:278,at:20), (pv:279,at:3), (pv:280,at:24), (pv:281,at:1), (pv:282,at:4), (pv:283,at:1), (pv:284,at:2), (pv:285,at:31), (pv:286,at:1), (pv:287,at:1), (pv:288,at:3), (pv:289,at:1), (pv:290,at:1), (pv:291,at:1), (pv:292,at:20), (pv:293,at:1), (pv:294,at:23), (pv:295,at:7), (pv:296,at:2), (pv:297,at:15), (pv:298,at:2), (pv:299,at:2), (pv:300,at:7), (pv:301,at:1), (pv:302,at:23), (pv:303,at:7), (pv:304,at:3), (pv:305,at:4), (pv:306,at:13), (pv:307,at:4), (pv:308,at:1), (pv:309,at:3), (pv:310,at:22), (pv:311,at:42), (pv:312,at:12), (pv:313,at:12), (pv:314,at:9), (pv:315,at:1), (pv:316,at:1), (pv:317,at:1), (pv:318,at:22), (pv:319,at:32), (pv:320,at:1), (pv:321,at:1), (pv:322,at:1), (pv:323,at:1), (pv:324,at:1), (pv:325,at:5), (pv:326,at:23), (pv:327,at:1), (pv:328,at:3), (pv:329,at:23), (pv:330,at:1), (pv:331,at:12), (pv:332,at:1), (pv:333,at:3), (pv:334,at:1), (pv:335,at:23), (pv:336,at:1), (pv:337,at:1), (pv:338,at:1), (pv:339,at:1), (pv:340,at:4), (pv:341,at:1), (pv:342,at:1), (pv:343,at:7), (pv:344,at:1), (pv:345,at:1), (pv:346,at:7), (pv:347,at:1), (pv:348,at:1), (pv:349,at:7), (pv:350,at:1), (pv:351,at:12), (pv:352,at:9), (pv:353,at:23), (pv:354,at:1), (pv:355,at:4), (pv:356,at:1), (pv:357,at:1), (pv:358,at:1), (pv:359,at:9), (pv:360,at:1), (pv:361,at:15), (pv:362,at:1), (pv:363,at:9), (pv:364,at:1), (pv:365,at:1), (pv:366,at:1), (pv:367,at:14), (pv:368,at:1), (pv:369,at:10), (pv:370,at:3), (pv:371,at:9), (pv:372,at:9), (pv:373,at:1), (pv:374,at:15), (pv:375,at:27), (pv:376,at:12), (pv:377,at:7), (pv:378,at:25), (pv:379,at:1), (pv:380,at:12), (pv:381,at:1), (pv:382,at:7), (pv:383,at:20), (pv:384,at:1), (pv:385,at:12), (pv:386,at:1), (pv:387,at:1), (pv:388,at:1), (pv:389,at:1), (pv:390,at:27), (pv:391,at:7), (pv:392,at:1), (pv:393,at:2), (pv:394,at:21), (pv:395,at:23), (pv:396,at:1), (pv:397,at:7), (pv:398,at:1), (pv:399,at:12), (pv:400,at:1), (pv:401,at:1), (pv:402,at:1), (pv:403,at:1), (pv:404,at:1), (pv:405,at:25), (pv:406,at:1), (pv:407,at:5), (pv:408,at:1), (pv:409,at:4), (pv:410,at:1), (pv:411,at:5), (pv:412,at:1), (pv:413,at:23), (pv:414,at:1), (pv:415,at:12), (pv:416,at:1), (pv:417,at:1), (pv:418,at:3), (pv:419,at:1), (pv:420,at:1), (pv:421,at:23), (pv:422,at:23), (pv:423,at:5), (pv:424,at:37), (pv:425,at:1), (pv:426,at:1), (pv:427,at:1), (pv:428,at:1), (pv:429,at:23), (pv:430,at:1), (pv:431,at:1), (pv:432,at:4), (pv:433,at:1), (pv:434,at:1), (pv:435,at:1), (pv:436,at:20), (pv:437,at:1), (pv:438,at:1), (pv:439,at:1), (pv:440,at:5), (pv:441,at:1), (pv:442,at:1), (pv:443,at:4), (pv:444,at:21), (pv:445,at:1), (pv:446,at:37), (pv:447,at:21), (pv:448,at:1), (pv:449,at:9), (pv:450,at:1), (pv:451,at:1), (pv:452,at:9), (pv:453,at:1), (pv:454,at:1), (pv:455,at:23), (pv:456,at:12), (pv:457,at:1), (pv:458,at:1), (pv:459,at:1), (pv:460,at:4), (pv:461,at:4), (pv:462,at:1), (pv:463,at:12), (pv:464,at:1), (pv:465,at:7), (pv:466,at:1), (pv:467,at:12), (pv:468,at:1), (pv:469,at:10), (pv:470,at:1), (pv:471,at:1), (pv:472,at:1), (pv:473,at:1), (pv:474,at:1), (pv:475,at:1), (pv:476,at:1), (pv:477,at:3), (pv:478,at:9), (pv:479,at:1), (pv:480,at:1), (pv:481,at:1), (pv:482,at:1), (pv:483,at:10), (pv:484,at:1), (pv:485,at:11), (pv:486,at:10), (pv:487,at:9), (pv:488,at:8), (pv:489,at:11), (pv:490,at:12), (pv:491,at:1), (pv:492,at:31), (pv:493,at:1), (pv:494,at:1), (pv:495,at:1), (pv:496,at:1), (pv:497,at:1), (pv:498,at:1), (pv:499,at:5), (pv:500,at:1), (pv:501,at:1), (pv:502,at:1), (pv:503,at:7), (pv:504,at:1), (pv:505,at:1), (pv:506,at:1), (pv:507,at:12), (pv:508,at:1), (pv:509,at:1), (pv:510,at:1), (pv:511,at:1), (pv:512,at:1), (pv:513,at:1), (pv:514,at:8), (pv:515,at:1), (pv:516,at:7), (pv:517,at:1), (pv:518,at:1), (pv:519,at:1), (pv:520,at:1), (pv:521,at:1), (pv:522,at:5), (pv:523,at:1), (pv:524,at:1), (pv:525,at:1), (pv:526,at:1), (pv:527,at:3), (pv:528,at:3), (pv:529,at:5), (pv:530,at:37), (pv:531,at:1), (pv:532,at:7), (pv:533,at:37), (pv:534,at:1), (pv:535,at:37), (pv:536,at:1), (pv:537,at:1), (pv:538,at:1), (pv:539,at:1), (pv:540,at:1), (pv:541,at:1), (pv:542,at:23), (pv:543,at:1), (pv:544,at:1), (pv:545,at:5), (pv:546,at:1), (pv:547,at:7), (pv:548,at:1), (pv:549,at:2), (pv:550,at:37), (pv:551,at:23), (pv:552,at:2), (pv:553,at:7), (pv:554,at:1), (pv:555,at:39), (pv:556,at:1), (pv:557,at:1), (pv:558,at:3), (pv:559,at:27), (pv:560,at:9), (pv:561,at:7), (pv:562,at:3), (pv:563,at:1), (pv:564,at:12), (pv:565,at:7), (pv:566,at:1), (pv:567,at:1), (pv:568,at:2), (pv:570,at:1), (pv:571,at:1), (pv:572,at:5), (pv:573,at:21), (pv:574,at:27), (pv:575,at:4), (pv:576,at:1), (pv:577,at:39), (pv:578,at:1), (pv:579,at:1), (pv:580,at:37), (pv:581,at:10), (pv:582,at:1), (pv:583,at:7), (pv:584,at:1), (pv:585,at:1), (pv:586,at:1), (pv:587,at:10), (pv:589,at:1), (pv:590,at:11), (pv:591,at:1), (pv:592,at:1), (pv:593,at:2), (pv:594,at:1), (pv:596,at:5), (pv:597,at:1), (pv:598,at:1), (pv:599,at:3), (pv:600,at:1), (pv:602,at:1), (pv:603,at:39), (pv:605,at:1), (pv:606,at:37), (pv:607,at:1), (pv:608,at:3), (pv:609,at:1), (pv:610,at:2), (pv:611,at:1), (pv:612,at:39), (pv:614,at:1), (pv:620,at:2)]
[INFO ] fr.inria.astor.approaches.jgenprog.JGenProg.showResults(JGenProg.java:342) - 
pvariants_with_transformed_ingredients: [(pv:2,at:1), (pv:3,at:1), (pv:4,at:1), (pv:5,at:1), (pv:6,at:1), (pv:7,at:1), (pv:8,at:1), (pv:9,at:1), (pv:10,at:41), (pv:11,at:2), (pv:12,at:1), (pv:13,at:1), (pv:14,at:1), (pv:15,at:1), (pv:16,at:1), (pv:17,at:1), (pv:18,at:1), (pv:19,at:1), (pv:20,at:1), (pv:21,at:1), (pv:22,at:1), (pv:23,at:1), (pv:24,at:2), (pv:25,at:1), (pv:26,at:1), (pv:27,at:1), (pv:28,at:1), (pv:29,at:7), (pv:30,at:7), (pv:31,at:2), (pv:32,at:15), (pv:33,at:2), (pv:34,at:2), (pv:35,at:1), (pv:36,at:8), (pv:37,at:1), (pv:38,at:2), (pv:39,at:2), (pv:40,at:1), (pv:41,at:1), (pv:42,at:1), (pv:43,at:1), (pv:44,at:2), (pv:45,at:1), (pv:46,at:7), (pv:47,at:2), (pv:48,at:1), (pv:49,at:6), (pv:50,at:1), (pv:51,at:1), (pv:52,at:1), (pv:53,at:1), (pv:54,at:1), (pv:55,at:11), (pv:56,at:1), (pv:57,at:3), (pv:58,at:1), (pv:59,at:1), (pv:60,at:1), (pv:61,at:1), (pv:62,at:1), (pv:63,at:1), (pv:64,at:11), (pv:65,at:3), (pv:66,at:1), (pv:67,at:1), (pv:68,at:1), (pv:69,at:1), (pv:70,at:7), (pv:71,at:1), (pv:72,at:7), (pv:73,at:1), (pv:74,at:24), (pv:75,at:7), (pv:76,at:12), (pv:77,at:1), (pv:78,at:11), (pv:79,at:1), (pv:80,at:4), (pv:81,at:12), (pv:82,at:1), (pv:83,at:12), (pv:84,at:3), (pv:85,at:1), (pv:86,at:1), (pv:87,at:2), (pv:88,at:15), (pv:89,at:8), (pv:90,at:1), (pv:91,at:1), (pv:92,at:1), (pv:93,at:3), (pv:94,at:12), (pv:95,at:3), (pv:96,at:12), (pv:97,at:3), (pv:98,at:6), (pv:99,at:1), (pv:100,at:1), (pv:101,at:2), (pv:102,at:1), (pv:103,at:1), (pv:104,at:3), (pv:105,at:2), (pv:106,at:32), (pv:107,at:1), (pv:108,at:1), (pv:109,at:3), (pv:110,at:3), (pv:111,at:3), (pv:112,at:3), (pv:113,at:3), (pv:114,at:8), (pv:115,at:1), (pv:116,at:1), (pv:117,at:12), (pv:118,at:1), (pv:119,at:4), (pv:120,at:11), (pv:121,at:42), (pv:122,at:3), (pv:123,at:3), (pv:124,at:12), (pv:125,at:1), (pv:126,at:42), (pv:127,at:3), (pv:128,at:1), (pv:129,at:7), (pv:130,at:2), (pv:131,at:9), (pv:132,at:1), (pv:133,at:3), (pv:134,at:1), (pv:135,at:1), (pv:136,at:24), (pv:137,at:3), (pv:138,at:1), (pv:139,at:42), (pv:140,at:5), (pv:141,at:3), (pv:142,at:1), (pv:143,at:42), (pv:144,at:3), (pv:145,at:4), (pv:146,at:3), (pv:147,at:23), (pv:148,at:42), (pv:149,at:1), (pv:150,at:1), (pv:151,at:3), (pv:152,at:3), (pv:153,at:2), (pv:154,at:32), (pv:155,at:1), (pv:156,at:12), (pv:157,at:5), (pv:158,at:23), (pv:159,at:1), (pv:160,at:7), (pv:161,at:4), (pv:162,at:1), (pv:163,at:1), (pv:164,at:3), (pv:165,at:42), (pv:166,at:5), (pv:167,at:9), (pv:168,at:1), (pv:169,at:1), (pv:170,at:7), (pv:171,at:5), (pv:172,at:4), (pv:173,at:1), (pv:174,at:3), (pv:175,at:2), (pv:176,at:1), (pv:177,at:7), (pv:178,at:1), (pv:179,at:10), (pv:180,at:23), (pv:181,at:3), (pv:182,at:7), (pv:183,at:5), (pv:184,at:7), (pv:185,at:5), (pv:186,at:1), (pv:187,at:8), (pv:188,at:1), (pv:189,at:23), (pv:190,at:7), (pv:191,at:1), (pv:192,at:24), (pv:193,at:1), (pv:194,at:5), (pv:195,at:3), (pv:196,at:12), (pv:197,at:1), (pv:198,at:23), (pv:199,at:1), (pv:200,at:1), (pv:201,at:2), (pv:202,at:42), (pv:203,at:3), (pv:204,at:8), (pv:205,at:1), (pv:206,at:1), (pv:207,at:1), (pv:208,at:1), (pv:209,at:11), (pv:210,at:9), (pv:211,at:3), (pv:212,at:1), (pv:213,at:23), (pv:214,at:20), (pv:215,at:1), (pv:216,at:1), (pv:217,at:7), (pv:218,at:32), (pv:219,at:1), (pv:220,at:3), (pv:221,at:5), (pv:222,at:1), (pv:223,at:23), (pv:224,at:3), (pv:225,at:23), (pv:226,at:5), (pv:227,at:2), (pv:228,at:4), (pv:229,at:4), (pv:230,at:1), (pv:231,at:20), (pv:232,at:3), (pv:233,at:4), (pv:234,at:1), (pv:235,at:7), (pv:236,at:7), (pv:237,at:12), (pv:238,at:1), (pv:239,at:2), (pv:240,at:5), (pv:241,at:12), (pv:242,at:20), (pv:243,at:23), (pv:244,at:4), (pv:245,at:1), (pv:246,at:1), (pv:247,at:15), (pv:248,at:4), (pv:249,at:1), (pv:250,at:12), (pv:251,at:5), (pv:252,at:1), (pv:253,at:20), (pv:254,at:1), (pv:255,at:1), (pv:256,at:23), (pv:257,at:4), (pv:258,at:4), (pv:259,at:1), (pv:260,at:7), (pv:261,at:1), (pv:262,at:4), (pv:263,at:5), (pv:264,at:3), (pv:265,at:11), (pv:266,at:1), (pv:267,at:10), (pv:268,at:11), (pv:269,at:5), (pv:270,at:1), (pv:271,at:1), (pv:272,at:12), (pv:273,at:1), (pv:274,at:1), (pv:275,at:8), (pv:276,at:1), (pv:277,at:1), (pv:278,at:20), (pv:279,at:3), (pv:280,at:24), (pv:281,at:1), (pv:282,at:4), (pv:283,at:1), (pv:284,at:2), (pv:285,at:31), (pv:286,at:1), (pv:287,at:1), (pv:288,at:3), (pv:289,at:1), (pv:290,at:1), (pv:291,at:1), (pv:292,at:20), (pv:293,at:1), (pv:294,at:23), (pv:295,at:7), (pv:296,at:2), (pv:297,at:15), (pv:298,at:2), (pv:299,at:2), (pv:300,at:7), (pv:301,at:1), (pv:302,at:23), (pv:303,at:7), (pv:304,at:3), (pv:305,at:4), (pv:306,at:13), (pv:307,at:4), (pv:308,at:1), (pv:309,at:3), (pv:310,at:22), (pv:311,at:42), (pv:312,at:12), (pv:313,at:12), (pv:314,at:9), (pv:315,at:1), (pv:316,at:1), (pv:317,at:1), (pv:318,at:22), (pv:319,at:32), (pv:320,at:1), (pv:321,at:1), (pv:322,at:1), (pv:323,at:1), (pv:324,at:1), (pv:325,at:5), (pv:326,at:23), (pv:327,at:1), (pv:328,at:3), (pv:329,at:23), (pv:330,at:1), (pv:331,at:12), (pv:332,at:1), (pv:333,at:3), (pv:334,at:1), (pv:335,at:23), (pv:336,at:1), (pv:337,at:1), (pv:338,at:1), (pv:339,at:1), (pv:340,at:4), (pv:341,at:1), (pv:342,at:1), (pv:343,at:7), (pv:344,at:1), (pv:345,at:1), (pv:346,at:7), (pv:347,at:1), (pv:348,at:1), (pv:349,at:7), (pv:350,at:1), (pv:351,at:12), (pv:352,at:9), (pv:353,at:23), (pv:354,at:1), (pv:355,at:4), (pv:356,at:1), (pv:357,at:1), (pv:358,at:1), (pv:359,at:9), (pv:360,at:1), (pv:361,at:15), (pv:362,at:1), (pv:363,at:9), (pv:364,at:1), (pv:365,at:1), (pv:366,at:1), (pv:367,at:14), (pv:368,at:1), (pv:369,at:10), (pv:370,at:3), (pv:371,at:9), (pv:372,at:9), (pv:373,at:1), (pv:374,at:15), (pv:375,at:27), (pv:376,at:12), (pv:377,at:7), (pv:378,at:25), (pv:379,at:1), (pv:380,at:12), (pv:381,at:1), (pv:382,at:7), (pv:383,at:20), (pv:384,at:1), (pv:385,at:12), (pv:386,at:1), (pv:387,at:1), (pv:388,at:1), (pv:389,at:1), (pv:390,at:27), (pv:391,at:7), (pv:392,at:1), (pv:393,at:2), (pv:394,at:21), (pv:395,at:23), (pv:396,at:1), (pv:397,at:7), (pv:398,at:1), (pv:399,at:12), (pv:400,at:1), (pv:401,at:1), (pv:402,at:1), (pv:403,at:1), (pv:404,at:1), (pv:405,at:25), (pv:406,at:1), (pv:407,at:5), (pv:408,at:1), (pv:409,at:4), (pv:410,at:1), (pv:411,at:5), (pv:412,at:1), (pv:413,at:23), (pv:414,at:1), (pv:415,at:12), (pv:416,at:1), (pv:417,at:1), (pv:418,at:3), (pv:419,at:1), (pv:420,at:1), (pv:421,at:23), (pv:422,at:23), (pv:423,at:5), (pv:424,at:37), (pv:425,at:1), (pv:426,at:1), (pv:427,at:1), (pv:428,at:1), (pv:429,at:23), (pv:430,at:1), (pv:431,at:1), (pv:432,at:4), (pv:433,at:1), (pv:434,at:1), (pv:435,at:1), (pv:436,at:20), (pv:437,at:1), (pv:438,at:1), (pv:439,at:1), (pv:440,at:5), (pv:441,at:1), (pv:442,at:1), (pv:443,at:4), (pv:444,at:21), (pv:445,at:1), (pv:446,at:37), (pv:447,at:21), (pv:448,at:1), (pv:449,at:9), (pv:450,at:1), (pv:451,at:1), (pv:452,at:9), (pv:453,at:1), (pv:454,at:1), (pv:455,at:23), (pv:456,at:12), (pv:457,at:1), (pv:458,at:1), (pv:459,at:1), (pv:460,at:4), (pv:461,at:4), (pv:462,at:1), (pv:463,at:12), (pv:464,at:1), (pv:465,at:7), (pv:466,at:1), (pv:467,at:12), (pv:468,at:1), (pv:469,at:10), (pv:470,at:1), (pv:471,at:1), (pv:472,at:1), (pv:473,at:1), (pv:474,at:1), (pv:475,at:1), (pv:476,at:1), (pv:477,at:3), (pv:478,at:9), (pv:479,at:1), (pv:480,at:1), (pv:481,at:1), (pv:482,at:1), (pv:483,at:10), (pv:484,at:1), (pv:485,at:11), (pv:486,at:10), (pv:487,at:9), (pv:488,at:8), (pv:489,at:11), (pv:490,at:12), (pv:491,at:1), (pv:492,at:31), (pv:493,at:1), (pv:494,at:1), (pv:495,at:1), (pv:496,at:1), (pv:497,at:1), (pv:498,at:1), (pv:499,at:5), (pv:500,at:1), (pv:501,at:1), (pv:502,at:1), (pv:503,at:7), (pv:504,at:1), (pv:505,at:1), (pv:506,at:1), (pv:507,at:12), (pv:508,at:1), (pv:509,at:1), (pv:510,at:1), (pv:511,at:1), (pv:512,at:1), (pv:513,at:1), (pv:514,at:8), (pv:515,at:1), (pv:516,at:7), (pv:517,at:1), (pv:518,at:1), (pv:519,at:1), (pv:520,at:1), (pv:521,at:1), (pv:522,at:5), (pv:523,at:1), (pv:524,at:1), (pv:525,at:1), (pv:526,at:1), (pv:527,at:3), (pv:528,at:3), (pv:529,at:5), (pv:530,at:37), (pv:531,at:1), (pv:532,at:7), (pv:533,at:37), (pv:534,at:1), (pv:535,at:37), (pv:536,at:1), (pv:537,at:1), (pv:538,at:1), (pv:539,at:1), (pv:540,at:1), (pv:541,at:1), (pv:542,at:23), (pv:543,at:1), (pv:544,at:1), (pv:545,at:5), (pv:546,at:1), (pv:547,at:7), (pv:548,at:1), (pv:549,at:2), (pv:550,at:37), (pv:551,at:23), (pv:552,at:2), (pv:553,at:7), (pv:554,at:1), (pv:555,at:39), (pv:556,at:1), (pv:557,at:1), (pv:558,at:3), (pv:559,at:27), (pv:560,at:9), (pv:561,at:7), (pv:562,at:3), (pv:563,at:1), (pv:564,at:12), (pv:565,at:7), (pv:566,at:1), (pv:567,at:1), (pv:568,at:2), (pv:570,at:1), (pv:571,at:1), (pv:572,at:5), (pv:573,at:21), (pv:574,at:27), (pv:575,at:4), (pv:576,at:1), (pv:577,at:39), (pv:578,at:1), (pv:579,at:1), (pv:580,at:37), (pv:581,at:10), (pv:582,at:1), (pv:583,at:7), (pv:584,at:1), (pv:585,at:1), (pv:586,at:1), (pv:587,at:10), (pv:589,at:1), (pv:590,at:11), (pv:591,at:1), (pv:592,at:1), (pv:593,at:2), (pv:594,at:1), (pv:596,at:5), (pv:597,at:1), (pv:598,at:1), (pv:599,at:3), (pv:600,at:1), (pv:602,at:1), (pv:603,at:39), (pv:605,at:1), (pv:606,at:37), (pv:607,at:1), (pv:608,at:3), (pv:609,at:1), (pv:610,at:2), (pv:611,at:1), (pv:612,at:39), (pv:614,at:1), (pv:620,at:2)]
[INFO ] fr.inria.main.evolution.AstorMain.run(AstorMain.java:163) - Time Total(s): 10896.436
