Warning: no access to tty (Bad file descriptor).
Thus no job control in this shell.
tput: No value for $TERM and no -T specified
Node: wh04.sciclone.wm.edu
[INFO ] fr.inria.main.AbstractMain.processArguments(AbstractMain.java:295) - command line arguments: [-out  /local/scr/mtufano/Math/96/b/random-package-default/2  -jvm4testexecution  /usr/local/jdk1.7.0_80/bin/  -loglevel  INFO  -maxVarCombination  1000  -maxgen  1000000  -population  1  -maxtime  180  -timezone  America/New_York  -customop  fr.inria.astor.approaches.jgenprog.operators.InsertAfterOp:fr.inria.astor.approaches.jgenprog.operators.InsertBeforeOp:fr.inria.astor.approaches.jgenprog.operators.ReplaceOp  -seed  2  -javacompliancelevel  6  -package  org.apache.commons  -binjavafolder  target/classes/  -bintestfolder  target/test-classes/  -srcjavafolder  src/java/  -srctestfolder  src/test/  -learningdir  ../../out/learningdir/Math/96/b/  -location  ../../dat/defects4j/Math/96/b/  -failing  org.apache.commons.math.complex.ComplexTest  -dependencies  ../../dat/libs/Math/commons-discovery-0.5.jar  -scope  fr.inria.astor.core.loop.spaces.ingredients.scopes.ctscopes.CtPackageIngredientScope  -ingredientstrategy  fr.inria.astor.core.loop.spaces.ingredients.ingredientSearch.EfficientIngredientStrategy  -classestoinstrument  org.apache.commons.math.complex.Complex:  -regressiontestcases4fl  org.apache.commons.math.analysis.LaguerreSolverTest:org.apache.commons.math.complex.ComplexFormatTest:org.apache.commons.math.complex.ComplexTest:org.apache.commons.math.complex.ComplexUtilsTest:org.apache.commons.math.complex.FrenchComplexFormatTest:org.apache.commons.math.transform.FastCosineTransformerTest:org.apache.commons.math.transform.FastFourierTransformerTest:org.apache.commons.math.transform.FastSineTransformerTest:]
[INFO ] fr.inria.astor.core.manipulation.MutationSupporter.buildModel(MutationSupporter.java:76) - building model: /local/scr/mtufano/Math/96/b/random-package-default/2/AstorMain-b//src//default, compliance level: 6
[INFO ] fr.inria.astor.core.manipulation.MutationSupporter.buildModel(MutationSupporter.java:85) - Classpath for building SpoonModel [/sciclone/data20/mtufano/deeprepair/bin/eval/../../dat/libs/Math/commons-discovery-0.5.jar]
[INFO ] fr.inria.astor.core.setup.ProjectRepairFacade.calculateSuspicious(ProjectRepairFacade.java:215) - -Executing Gzoltar classpath: /local/scr/mtufano/Math/96/b/random-package-default/2/AstorMain-b//bin//default from 8 classes with test cases
[INFO ] fr.inria.astor.core.faultlocalization.GZoltarFaultLocalization.searchSuspicious(GZoltarFaultLocalization.java:37) - Gzoltar fault localization: min susp value parameter: 0.1
[INFO ] fr.inria.astor.core.faultlocalization.GZoltarFaultLocalization.searchSuspicious(GZoltarFaultLocalization.java:57) - -gz-Adding classpath: [/local/scr/mtufano/Math/96/b/random-package-default/2/AstorMain-b//bin//default, /sciclone/data20/mtufano/deeprepair/bin/eval/../../dat/libs/Math/commons-discovery-0.5.jar]
[INFO ] fr.inria.astor.core.faultlocalization.GZoltarFaultLocalization.searchSuspicious(GZoltarFaultLocalization.java:76) - Test failt: org.apache.commons.math.complex.ComplexTest#testMath221
[INFO ] fr.inria.astor.core.faultlocalization.GZoltarFaultLocalization.searchSuspicious(GZoltarFaultLocalization.java:81) - Gzoltar Test Result Total:171, fails: 1, GZoltar suspicious 737
[INFO ] fr.inria.astor.core.faultlocalization.GZoltarFaultLocalization.searchSuspicious(GZoltarFaultLocalization.java:123) - Gzoltar found: 15 with susp > 0.1, we consider: 15
[INFO ] fr.inria.astor.approaches.jgenprog.JGenProg.initPopulation(JGenProg.java:80) - 
---- Initial suspicious size: 15
[INFO ] fr.inria.astor.core.loop.population.ProgramVariantFactory.createProgramInstance(ProgramVariantFactory.java:126) - -any mod point created for suspicious Candidate [className=org.apache.commons.math.complex.Complex, methodName=org.apache.commons.math.complex.Complex{equals(Ljava/lang/Object;)Z 0.0, lineNumber=263, susp=0.17407765595569785]
[INFO ] fr.inria.astor.core.loop.population.ProgramVariantFactory.createProgramInstance(ProgramVariantFactory.java:130) - Total suspicious from FL: 15,  14
[INFO ] fr.inria.astor.core.loop.population.ProgramVariantFactory.createProgramInstance(ProgramVariantFactory.java:138) - Total ModPoint created: 14
[INFO ] fr.inria.astor.core.loop.population.ProgramVariantFactory.createInitialPopulation(ProgramVariantFactory.java:82) - Creating program variant #1, [Variant id: 1, #gens: 14, #ops: 0, parent:-]
[INFO ] fr.inria.astor.core.setup.ConfigurationProperties.print(ConfigurationProperties.java:63) - ----------------------------
[INFO ] fr.inria.astor.core.setup.ConfigurationProperties.print(ConfigurationProperties.java:64) - ---Configuration properties:---Execution values
[INFO ] fr.inria.astor.core.setup.ConfigurationProperties.print(ConfigurationProperties.java:66) - p:lastJUnitVersion= ./examples/libs/junit-4.11.jar
[INFO ] fr.inria.astor.core.setup.ConfigurationProperties.print(ConfigurationProperties.java:66) - p:alternativecompliancelevel= 4
[INFO ] fr.inria.astor.core.setup.ConfigurationProperties.print(ConfigurationProperties.java:66) - p:ignoredTestCases= 
[INFO ] fr.inria.astor.core.setup.ConfigurationProperties.print(ConfigurationProperties.java:66) - p:workingDirectory= /local/scr/mtufano/Math/96/b/random-package-default/2
[INFO ] fr.inria.astor.core.setup.ConfigurationProperties.print(ConfigurationProperties.java:66) - p:manipulatesuper= false
[INFO ] fr.inria.astor.core.setup.ConfigurationProperties.print(ConfigurationProperties.java:66) - p:validation= process
[INFO ] fr.inria.astor.core.setup.ConfigurationProperties.print(ConfigurationProperties.java:66) - p:jvm4testexecution= /usr/local/jdk1.7.0_80/bin/
[INFO ] fr.inria.astor.core.setup.ConfigurationProperties.print(ConfigurationProperties.java:66) - p:binjavafolder= target/classes/
[INFO ] fr.inria.astor.core.setup.ConfigurationProperties.print(ConfigurationProperties.java:66) - p:evosuiteresultfolder= evosuite
[INFO ] fr.inria.astor.core.setup.ConfigurationProperties.print(ConfigurationProperties.java:66) - p:flthreshold= 0.1
[INFO ] fr.inria.astor.core.setup.ConfigurationProperties.print(ConfigurationProperties.java:66) - p:regressionforfaultlocalization= true
[INFO ] fr.inria.astor.core.setup.ConfigurationProperties.print(ConfigurationProperties.java:66) - p:tmax2= 960000
[INFO ] fr.inria.astor.core.setup.ConfigurationProperties.print(ConfigurationProperties.java:66) - p:tmax1= 120000
[INFO ] fr.inria.astor.core.setup.ConfigurationProperties.print(ConfigurationProperties.java:66) - p:probagenmutation= false
[INFO ] fr.inria.astor.core.setup.ConfigurationProperties.print(ConfigurationProperties.java:66) - p:srctestfolder= src/test/
[INFO ] fr.inria.astor.core.setup.ConfigurationProperties.print(ConfigurationProperties.java:66) - p:customop= fr.inria.astor.approaches.jgenprog.operators.InsertAfterOp:fr.inria.astor.approaches.jgenprog.operators.InsertBeforeOp:fr.inria.astor.approaches.jgenprog.operators.ReplaceOp
[INFO ] fr.inria.astor.core.setup.ConfigurationProperties.print(ConfigurationProperties.java:66) - p:forceExecuteRegression= false
[INFO ] fr.inria.astor.core.setup.ConfigurationProperties.print(ConfigurationProperties.java:66) - p:clusteringfilename= clustering.csv
[INFO ] fr.inria.astor.core.setup.ConfigurationProperties.print(ConfigurationProperties.java:66) - p:failing= org.apache.commons.math.complex.ComplexTest
[INFO ] fr.inria.astor.core.setup.ConfigurationProperties.print(ConfigurationProperties.java:66) - p:evo_buggy_class= true
[INFO ] fr.inria.astor.core.setup.ConfigurationProperties.print(ConfigurationProperties.java:66) - p:numberExecutions= 1
[INFO ] fr.inria.astor.core.setup.ConfigurationProperties.print(ConfigurationProperties.java:66) - p:evo_affected_by_op= true
[INFO ] fr.inria.astor.core.setup.ConfigurationProperties.print(ConfigurationProperties.java:66) - p:population= 1
[INFO ] fr.inria.astor.core.setup.ConfigurationProperties.print(ConfigurationProperties.java:66) - p:clonegranularity= types
[INFO ] fr.inria.astor.core.setup.ConfigurationProperties.print(ConfigurationProperties.java:66) - p:regressiontestcases4fl= org.apache.commons.math.analysis.LaguerreSolverTest:org.apache.commons.math.complex.ComplexFormatTest:org.apache.commons.math.complex.ComplexTest:org.apache.commons.math.complex.ComplexUtilsTest:org.apache.commons.math.complex.FrenchComplexFormatTest:org.apache.commons.math.transform.FastCosineTransformerTest:org.apache.commons.math.transform.FastFourierTransformerTest:org.apache.commons.math.transform.FastSineTransformerTest:
[INFO ] fr.inria.astor.core.setup.ConfigurationProperties.print(ConfigurationProperties.java:66) - p:savesolution= true
[INFO ] fr.inria.astor.core.setup.ConfigurationProperties.print(ConfigurationProperties.java:66) - p:javacompliancelevel= 6
[INFO ] fr.inria.astor.core.setup.ConfigurationProperties.print(ConfigurationProperties.java:66) - p:uniqueoptogen= false
[INFO ] fr.inria.astor.core.setup.ConfigurationProperties.print(ConfigurationProperties.java:66) - p:projectIdentifier= 
[INFO ] fr.inria.astor.core.setup.ConfigurationProperties.print(ConfigurationProperties.java:66) - p:modificationpointnavigation= weight
[INFO ] fr.inria.astor.core.setup.ConfigurationProperties.print(ConfigurationProperties.java:66) - p:stopfirst= false
[INFO ] fr.inria.astor.core.setup.ConfigurationProperties.print(ConfigurationProperties.java:66) - p:multipointmodification= false
[INFO ] fr.inria.astor.core.setup.ConfigurationProperties.print(ConfigurationProperties.java:66) - p:elementsToMutate= 10
[INFO ] fr.inria.astor.core.setup.ConfigurationProperties.print(ConfigurationProperties.java:66) - p:evoDSE= false
[INFO ] fr.inria.astor.core.setup.ConfigurationProperties.print(ConfigurationProperties.java:66) - p:bintestfolder= target/test-classes/
[INFO ] fr.inria.astor.core.setup.ConfigurationProperties.print(ConfigurationProperties.java:66) - p:testbystep= false
[INFO ] fr.inria.astor.core.setup.ConfigurationProperties.print(ConfigurationProperties.java:66) - p:version-location= ./math-version/
[INFO ] fr.inria.astor.core.setup.ConfigurationProperties.print(ConfigurationProperties.java:66) - p:reintroduce= PARENTS
[INFO ] fr.inria.astor.core.setup.ConfigurationProperties.print(ConfigurationProperties.java:66) - p:maxGeneration= 1000000
[INFO ] fr.inria.astor.core.setup.ConfigurationProperties.print(ConfigurationProperties.java:66) - p:maxVarCombination= 1000
[INFO ] fr.inria.astor.core.setup.ConfigurationProperties.print(ConfigurationProperties.java:66) - p:maxtime= 180
[INFO ] fr.inria.astor.core.setup.ConfigurationProperties.print(ConfigurationProperties.java:66) - p:evosuitejar= ./lib/evosuite-master-1.0.4-SNAPSHOT.jar
[INFO ] fr.inria.astor.core.setup.ConfigurationProperties.print(ConfigurationProperties.java:66) - p:commandTrunk= 50000
[INFO ] fr.inria.astor.core.setup.ConfigurationProperties.print(ConfigurationProperties.java:66) - p:faultlocalization= fr.inria.astor.core.faultlocalization.GZoltarFaultLocalization
[INFO ] fr.inria.astor.core.setup.ConfigurationProperties.print(ConfigurationProperties.java:66) - p:maxsuspcandidates= 1000
[INFO ] fr.inria.astor.core.setup.ConfigurationProperties.print(ConfigurationProperties.java:66) - p:mode= statement
[INFO ] fr.inria.astor.core.setup.ConfigurationProperties.print(ConfigurationProperties.java:66) - p:learningdir= ../../out/learningdir/Math/96/b/
[INFO ] fr.inria.astor.core.setup.ConfigurationProperties.print(ConfigurationProperties.java:66) - p:jvm4evosuitetestexecution= /usr/local/jdk1.7.0_80/bin/
[INFO ] fr.inria.astor.core.setup.ConfigurationProperties.print(ConfigurationProperties.java:66) - p:filterfaultlocalization= true
[INFO ] fr.inria.astor.core.setup.ConfigurationProperties.print(ConfigurationProperties.java:66) - p:mutationrate= 1 
[INFO ] fr.inria.astor.core.setup.ConfigurationProperties.print(ConfigurationProperties.java:66) - p:pathToMVNRepository= 
[INFO ] fr.inria.astor.core.setup.ConfigurationProperties.print(ConfigurationProperties.java:66) - p:resourcesfolder= /src/main/resources:/src/test/resources:
[INFO ] fr.inria.astor.core.setup.ConfigurationProperties.print(ConfigurationProperties.java:66) - p:timezone= America/New_York
[INFO ] fr.inria.astor.core.setup.ConfigurationProperties.print(ConfigurationProperties.java:66) - p:classestoinstrument= org.apache.commons.math.complex.Complex:
[INFO ] fr.inria.astor.core.setup.ConfigurationProperties.print(ConfigurationProperties.java:66) - p:evoRunOnBuggyClass= true
[INFO ] fr.inria.astor.core.setup.ConfigurationProperties.print(ConfigurationProperties.java:66) - p:compiler= fr.inria.astor.core.manipulation.bytecode.compiler.SpoonClassCompiler
[INFO ] fr.inria.astor.core.setup.ConfigurationProperties.print(ConfigurationProperties.java:66) - p:dependenciespath= ../../dat/libs/Math/commons-discovery-0.5.jar
[INFO ] fr.inria.astor.core.setup.ConfigurationProperties.print(ConfigurationProperties.java:66) - p:skipfaultlocalization= false
[INFO ] fr.inria.astor.core.setup.ConfigurationProperties.print(ConfigurationProperties.java:66) - p:packageToInstrument= org.apache.commons
[INFO ] fr.inria.astor.core.setup.ConfigurationProperties.print(ConfigurationProperties.java:66) - p:scope= fr.inria.astor.core.loop.spaces.ingredients.scopes.ctscopes.CtPackageIngredientScope
[INFO ] fr.inria.astor.core.setup.ConfigurationProperties.print(ConfigurationProperties.java:66) - p:transformingredient= false
[INFO ] fr.inria.astor.core.setup.ConfigurationProperties.print(ConfigurationProperties.java:66) - p:fitnessfunction= fr.inria.astor.core.loop.population.TestCaseFitnessFunction
[INFO ] fr.inria.astor.core.setup.ConfigurationProperties.print(ConfigurationProperties.java:66) - p:pvariantfoldername= variant-
[INFO ] fr.inria.astor.core.setup.ConfigurationProperties.print(ConfigurationProperties.java:66) - p:srcjavafolder= src/java/
[INFO ] fr.inria.astor.core.setup.ConfigurationProperties.print(ConfigurationProperties.java:66) - p:populationcontroller= fr.inria.astor.core.loop.population.TestCaseBasedFitnessPopulationController
[INFO ] fr.inria.astor.core.setup.ConfigurationProperties.print(ConfigurationProperties.java:66) - p:ignoreflakyinfl= false
[INFO ] fr.inria.astor.core.setup.ConfigurationProperties.print(ConfigurationProperties.java:66) - p:applyCrossover= false
[INFO ] fr.inria.astor.core.setup.ConfigurationProperties.print(ConfigurationProperties.java:66) - p:saveall= false
[INFO ] fr.inria.astor.core.setup.ConfigurationProperties.print(ConfigurationProperties.java:66) - p:seed= 2
[INFO ] fr.inria.astor.core.setup.ConfigurationProperties.print(ConfigurationProperties.java:66) - p:resetoperations= false
[INFO ] fr.inria.astor.core.setup.ConfigurationProperties.print(ConfigurationProperties.java:66) - p:location= ../../dat/defects4j/Math/96/b/
[INFO ] fr.inria.astor.core.setup.ConfigurationProperties.print(ConfigurationProperties.java:66) - p:ingredientstrategy= fr.inria.astor.core.loop.spaces.ingredients.ingredientSearch.EfficientIngredientStrategy
[INFO ] fr.inria.astor.core.setup.ConfigurationProperties.print(ConfigurationProperties.java:66) - p:allpoints= false
[INFO ] fr.inria.astor.core.setup.ConfigurationProperties.print(ConfigurationProperties.java:66) - p:bugId= 280
[INFO ] fr.inria.astor.core.setup.ConfigurationProperties.print(ConfigurationProperties.java:66) - p:evosuitetimeout= 120
[INFO ] fr.inria.astor.core.setup.ConfigurationProperties.print(ConfigurationProperties.java:68) - ----------------------------
[INFO ] fr.inria.astor.core.loop.AstorCoreEngine.startEvolution(AstorCoreEngine.java:119) - 
----Starting Solution Search
[INFO ] fr.inria.astor.core.loop.AstorCoreEngine.belowMaxTime(AstorCoreEngine.java:203) - 
 No more time for operating
[INFO ] fr.inria.astor.core.loop.AstorCoreEngine.startEvolution(AstorCoreEngine.java:143) - Time Repair Loop (s): 10860.071
[INFO ] fr.inria.astor.core.loop.AstorCoreEngine.showResults(AstorCoreEngine.java:165) - 
----SUMMARY_EXECUTION---
[INFO ] fr.inria.astor.approaches.jgenprog.JGenProg.showResults(JGenProg.java:332) - 
successful_ing_attempts (#trials 0, totalAttps 0): []
[INFO ] fr.inria.astor.approaches.jgenprog.JGenProg.showResults(JGenProg.java:334) - 
failing_ing_attempts (#trials 1487, totalAttps 2921): [1, 1, 2, 1, 1, 3, 3, 1, 1, 2, 4, 1, 2, 1, 2, 1, 1, 1, 1, 1, 1, 8, 2, 8, 9, 1, 1, 3, 1, 1, 5, 1, 8, 6, 2, 1, 2, 2, 3, 17, 4, 1, 2, 1, 1, 1, 1, 10, 1, 4, 1, 1, 2, 2, 1, 1, 1, 1, 1, 1, 3, 4, 1, 1, 2, 1, 2, 1, 3, 1, 1, 1, 2, 2, 1, 3, 3, 1, 4, 1, 1, 1, 4, 1, 4, 3, 2, 1, 5, 1, 2, 6, 1, 1, 1, 1, 6, 1, 3, 1, 4, 4, 1, 3, 2, 1, 9, 2, 1, 1, 2, 1, 2, 1, 2, 2, 1, 9, 1, 1, 2, 1, 4, 3, 2, 1, 2, 4, 1, 1, 1, 2, 4, 2, 2, 1, 8, 1, 1, 2, 1, 1, 1, 1, 7, 1, 3, 1, 2, 1, 3, 1, 1, 1, 1, 3, 5, 2, 27, 1, 1, 1, 7, 4, 3, 1, 8, 1, 2, 3, 1, 1, 1, 2, 2, 2, 2, 2, 1, 2, 1, 2, 1, 3, 1, 1, 1, 1, 2, 1, 1, 1, 2, 1, 4, 4, 6, 4, 5, 1, 1, 1, 1, 1, 1, 1, 2, 3, 6, 1, 1, 1, 10, 4, 2, 1, 2, 1, 3, 4, 1, 3, 18, 3, 1, 3, 2, 3, 3, 2, 6, 1, 1, 1, 1, 2, 1, 6, 4, 8, 1, 1, 2, 1, 1, 5, 1, 3, 1, 1, 1, 1, 1, 1, 6, 5, 1, 1, 4, 1, 3, 1, 5, 2, 1, 5, 1, 1, 2, 9, 1, 2, 9, 3, 3, 1, 4, 2, 5, 1, 1, 1, 3, 10, 2, 1, 1, 1, 1, 3, 1, 1, 1, 1, 2, 1, 14, 2, 1, 15, 6, 5, 2, 2, 1, 21, 1, 2, 2, 6, 1, 1, 2, 15, 3, 1, 1, 1, 2, 3, 3, 1, 9, 1, 1, 5, 2, 1, 1, 1, 8, 5, 3, 3, 2, 3, 5, 1, 2, 1, 1, 8, 1, 1, 1, 4, 1, 1, 1, 1, 1, 1, 1, 2, 1, 3, 6, 6, 1, 1, 5, 1, 4, 3, 1, 1, 20, 2, 1, 1, 2, 1, 1, 4, 1, 1, 2, 1, 2, 21, 2, 1, 2, 2, 1, 5, 2, 2, 4, 1, 1, 1, 1, 2, 1, 5, 2, 3, 1, 2, 16, 1, 5, 3, 1, 1, 6, 1, 2, 2, 1, 5, 1, 1, 1, 1, 1, 6, 1, 1, 2, 2, 1, 2, 1, 2, 1, 2, 3, 1, 1, 1, 1, 1, 2, 3, 34, 1, 2, 2, 1, 1, 2, 2, 1, 1, 2, 3, 1, 1, 2, 1, 1, 1, 1, 1, 1, 1, 1, 1, 1, 2, 1, 4, 2, 2, 6, 1, 12, 2, 1, 1, 1, 1, 2, 1, 1, 4, 10, 3, 1, 2, 1, 4, 1, 1, 1, 4, 2, 2, 2, 2, 1, 1, 1, 6, 3, 1, 1, 1, 2, 1, 1, 1, 1, 6, 2, 1, 1, 1, 1, 1, 1, 2, 1, 1, 1, 2, 2, 3, 1, 1, 1, 2, 1, 3, 1, 2, 2, 4, 1, 1, 2, 2, 1, 2, 1, 1, 4, 2, 1, 1, 1, 1, 1, 2, 2, 1, 3, 1, 1, 1, 1, 1, 1, 1, 1, 2, 1, 2, 7, 4, 1, 1, 2, 1, 1, 1, 4, 3, 4, 3, 1, 1, 3, 4, 3, 1, 1, 1, 1, 2, 1, 1, 1, 2, 3, 1, 2, 3, 1, 1, 1, 1, 5, 1, 1, 5, 1, 3, 3, 3, 1, 1, 1, 3, 1, 1, 1, 1, 3, 2, 1, 1, 1, 1, 2, 1, 1, 1, 1, 1, 1, 1, 2, 1, 4, 1, 3, 2, 1, 1, 2, 2, 1, 2, 3, 1, 1, 1, 1, 4, 4, 1, 2, 1, 1, 1, 1, 1, 2, 1, 1, 1, 3, 3, 2, 1, 1, 1, 2, 1, 1, 1, 1, 1, 1, 1, 2, 1, 2, 1, 1, 1, 3, 2, 5, 2, 1, 1, 2, 1, 1, 1, 1, 2, 2, 2, 1, 2, 2, 2, 2, 2, 1, 1, 1, 1, 1, 1, 5, 3, 1, 1, 1, 1, 1, 1, 3, 1, 1, 1, 1, 1, 1, 1, 2, 1, 1, 1, 1, 1, 2, 1, 2, 2, 1, 1, 1, 1, 3, 1, 1, 2, 2, 2, 1, 1, 1, 1, 1, 3, 1, 1, 1, 1, 2, 1, 2, 1, 2, 2, 1, 2, 1, 1, 1, 1, 1, 1, 1, 1, 1, 1, 1, 1, 2, 1, 1, 3, 3, 1, 6, 1, 1, 1, 3, 1, 1, 7, 5, 2, 1, 2, 1, 2, 1, 2, 1, 4, 1, 1, 1, 1, 1, 1, 3, 1, 1, 2, 1, 1, 3, 1, 2, 2, 1, 1, 2, 2, 2, 1, 1, 1, 1, 1, 1, 6, 1, 1, 2, 3, 2, 1, 2, 1, 1, 1, 2, 1, 1, 2, 2, 1, 1, 1, 1, 1, 1, 1, 1, 2, 3, 7, 1, 2, 1, 1, 1, 2, 1, 1, 2, 2, 2, 2, 2, 1, 1, 5, 1, 4, 4, 2, 1, 1, 1, 2, 3, 2, 2, 2, 1, 2, 3, 3, 1, 2, 3, 1, 6, 1, 1, 1, 1, 2, 3, 2, 1, 1, 1, 2, 1, 1, 2, 1, 1, 1, 1, 5, 1, 1, 4, 3, 1, 3, 1, 2, 1, 1, 2, 2, 1, 2, 3, 1, 4, 1, 1, 3, 1, 4, 1, 1, 1, 1, 1, 1, 1, 1, 3, 1, 2, 1, 1, 2, 1, 2, 1, 1, 1, 2, 1, 1, 1, 1, 1, 1, 2, 1, 1, 3, 3, 1, 1, 1, 1, 1, 1, 2, 2, 1, 1, 3, 1, 1, 1, 2, 1, 1, 1, 1, 1, 1, 1, 1, 1, 1, 2, 1, 2, 1, 1, 1, 4, 3, 1, 1, 1, 3, 2, 1, 1, 1, 1, 1, 1, 2, 1, 3, 2, 1, 2, 1, 1, 1, 1, 3, 1, 1, 2, 1, 1, 3, 1, 1, 1, 3, 2, 1, 1, 1, 1, 1, 1, 1, 1, 1, 1, 1, 1, 2, 1, 1, 1, 1, 1, 1, 1, 1, 1, 1, 1, 1, 3, 3, 1, 1, 1, 2, 3, 2, 2, 1, 3, 2, 1, 2, 4, 3, 1, 2, 1, 1, 2, 3, 3, 3, 1, 1, 1, 1, 1, 1, 1, 1, 1, 2, 2, 1, 1, 2, 1, 2, 1, 1, 2, 4, 1, 2, 1, 5, 3, 2, 3, 1, 2, 1, 6, 2, 1, 2, 1, 1, 2, 2, 2, 1, 2, 2, 2, 2, 1, 1, 1, 1, 4, 1, 1, 3, 1, 3, 1, 2, 1, 2, 2, 1, 1, 1, 1, 2, 2, 3, 2, 5, 3, 2, 2, 1, 1, 1, 1, 1, 1, 1, 1, 1, 1, 1, 1, 2, 1, 2, 1, 5, 2, 7, 2, 1, 1, 1, 3, 1, 2, 2, 2, 2, 1, 2, 1, 2, 1, 1, 1, 1, 1, 1, 1, 1, 2, 1, 1, 1, 4, 1, 1, 1, 1, 2, 2, 1, 1, 4, 3, 1, 1, 1, 1, 1, 1, 1, 3, 2, 1, 2, 1, 2, 1, 1, 1, 3, 1, 1, 1, 1, 4, 1, 2, 1, 1, 2, 1, 2, 1, 2, 1, 3, 2, 1, 3, 3, 2, 1, 1, 1, 2, 2, 2, 3, 1, 1, 3, 3, 2, 2, 4, 1, 1, 1, 1, 1, 1, 2, 1, 1, 1, 1, 1, 1, 1, 1, 2, 1, 4, 5, 2, 2, 1, 1, 1, 1, 2, 1, 3, 1, 2, 1, 1, 1, 1, 2, 6, 1, 1, 1, 1, 1, 1, 1, 2, 2, 2, 3, 1, 1, 5, 4, 1, 3, 3, 3, 1, 2, 1, 2, 2, 1, 2, 5, 1, 1, 1, 2, 1, 3, 1, 3, 1, 1, 1, 4, 2, 1, 3, 1, 1, 2, 1, 1, 1, 1, 2, 1, 1, 4, 2, 1, 1, 2, 1, 1, 1, 2, 1, 1, 2, 2, 3, 2, 3, 1, 3, 6, 2, 3, 1, 1, 1, 1, 1, 1, 1, 1, 1, 1, 3, 3, 5, 1, 1, 1, 1, 1, 1, 1, 1, 1, 1, 1, 1, 2, 1, 8, 3, 1, 1, 1, 1, 1, 1, 1, 1, 1, 1, 1, 1, 1, 2, 4, 2, 1, 2, 1, 1, 2, 1, 1, 2, 1, 1, 2, 1, 2, 1, 1, 1, 1, 2, 2, 1, 1, 4, 1, 1, 2, 1, 2, 2, 2, 1, 1, 2, 2, 2, 1, 1, 2, 1, 1, 3, 1, 1, 1, 2, 1, 1, 2, 1, 1, 1, 2, 1, 1, 1, 2, 1, 3, 1, 3, 3, 1, 1, 1, 2, 1, 1, 1, 2, 1, 4, 3, 3, 2, 4, 2, 1, 1, 2, 3, 2, 2, 1, 1, 1, 1, 1]
[INFO ] fr.inria.astor.approaches.jgenprog.JGenProg.showResults(JGenProg.java:337) - 
total Patch Attempts (0): []
[INFO ] fr.inria.astor.approaches.jgenprog.JGenProg.showResults(JGenProg.java:339) - 
successful_ing_attempts_by_patch: []
[INFO ] fr.inria.astor.approaches.jgenprog.JGenProg.showResults(JGenProg.java:340) - 
failing_ing_attempts_by_patch: [(pv:2,at:1), (pv:3,at:1), (pv:4,at:2), (pv:5,at:1), (pv:6,at:1), (pv:7,at:3), (pv:8,at:3), (pv:9,at:1), (pv:10,at:1), (pv:11,at:2), (pv:12,at:4), (pv:13,at:1), (pv:14,at:2), (pv:15,at:1), (pv:16,at:2), (pv:17,at:1), (pv:18,at:1), (pv:19,at:1), (pv:20,at:1), (pv:21,at:1), (pv:22,at:1), (pv:23,at:8), (pv:24,at:2), (pv:25,at:8), (pv:26,at:9), (pv:27,at:1), (pv:28,at:1), (pv:29,at:3), (pv:30,at:1), (pv:31,at:1), (pv:32,at:5), (pv:33,at:1), (pv:34,at:8), (pv:35,at:6), (pv:36,at:2), (pv:37,at:1), (pv:38,at:2), (pv:39,at:2), (pv:40,at:3), (pv:41,at:17), (pv:42,at:4), (pv:43,at:1), (pv:44,at:2), (pv:45,at:1), (pv:46,at:1), (pv:47,at:1), (pv:48,at:1), (pv:49,at:10), (pv:50,at:1), (pv:51,at:4), (pv:52,at:1), (pv:53,at:1), (pv:54,at:2), (pv:55,at:2), (pv:56,at:1), (pv:57,at:1), (pv:58,at:1), (pv:59,at:1), (pv:60,at:1), (pv:61,at:1), (pv:62,at:3), (pv:63,at:4), (pv:64,at:1), (pv:65,at:1), (pv:66,at:2), (pv:67,at:1), (pv:68,at:2), (pv:69,at:1), (pv:70,at:3), (pv:71,at:1), (pv:72,at:1), (pv:73,at:1), (pv:74,at:2), (pv:75,at:2), (pv:76,at:1), (pv:77,at:3), (pv:78,at:3), (pv:79,at:1), (pv:80,at:4), (pv:81,at:1), (pv:82,at:1), (pv:83,at:1), (pv:84,at:4), (pv:85,at:1), (pv:86,at:4), (pv:87,at:3), (pv:88,at:2), (pv:89,at:1), (pv:90,at:5), (pv:91,at:1), (pv:92,at:2), (pv:93,at:6), (pv:94,at:1), (pv:95,at:1), (pv:96,at:1), (pv:97,at:1), (pv:98,at:6), (pv:99,at:1), (pv:100,at:3), (pv:101,at:1), (pv:102,at:4), (pv:103,at:4), (pv:104,at:1), (pv:105,at:3), (pv:106,at:2), (pv:107,at:1), (pv:108,at:9), (pv:109,at:2), (pv:110,at:1), (pv:111,at:1), (pv:112,at:2), (pv:113,at:1), (pv:114,at:2), (pv:115,at:1), (pv:116,at:2), (pv:117,at:2), (pv:118,at:1), (pv:119,at:9), (pv:120,at:1), (pv:121,at:1), (pv:122,at:2), (pv:123,at:1), (pv:124,at:4), (pv:125,at:3), (pv:126,at:2), (pv:127,at:1), (pv:128,at:2), (pv:129,at:4), (pv:130,at:1), (pv:131,at:1), (pv:132,at:1), (pv:133,at:2), (pv:134,at:4), (pv:135,at:2), (pv:136,at:2), (pv:137,at:1), (pv:138,at:8), (pv:139,at:1), (pv:140,at:1), (pv:141,at:2), (pv:142,at:1), (pv:143,at:1), (pv:144,at:1), (pv:145,at:1), (pv:146,at:7), (pv:147,at:1), (pv:148,at:3), (pv:149,at:1), (pv:150,at:2), (pv:151,at:1), (pv:152,at:3), (pv:153,at:1), (pv:154,at:1), (pv:155,at:1), (pv:156,at:1), (pv:157,at:3), (pv:158,at:5), (pv:159,at:2), (pv:160,at:27), (pv:161,at:1), (pv:162,at:1), (pv:163,at:1), (pv:164,at:7), (pv:165,at:4), (pv:166,at:3), (pv:167,at:1), (pv:168,at:8), (pv:169,at:1), (pv:170,at:2), (pv:171,at:3), (pv:172,at:1), (pv:173,at:1), (pv:174,at:1), (pv:175,at:2), (pv:176,at:2), (pv:177,at:2), (pv:178,at:2), (pv:179,at:2), (pv:180,at:1), (pv:181,at:2), (pv:182,at:1), (pv:183,at:2), (pv:184,at:1), (pv:185,at:3), (pv:186,at:1), (pv:187,at:1), (pv:188,at:1), (pv:189,at:1), (pv:190,at:2), (pv:191,at:1), (pv:192,at:1), (pv:193,at:1), (pv:194,at:2), (pv:195,at:1), (pv:196,at:4), (pv:197,at:4), (pv:198,at:6), (pv:199,at:4), (pv:200,at:5), (pv:201,at:1), (pv:202,at:1), (pv:203,at:1), (pv:204,at:1), (pv:205,at:1), (pv:206,at:1), (pv:207,at:1), (pv:208,at:2), (pv:209,at:3), (pv:210,at:6), (pv:211,at:1), (pv:212,at:1), (pv:213,at:1), (pv:214,at:10), (pv:215,at:4), (pv:216,at:2), (pv:217,at:1), (pv:218,at:2), (pv:219,at:1), (pv:220,at:3), (pv:221,at:4), (pv:222,at:1), (pv:223,at:3), (pv:224,at:18), (pv:225,at:3), (pv:226,at:1), (pv:227,at:3), (pv:228,at:2), (pv:229,at:3), (pv:230,at:3), (pv:231,at:2), (pv:232,at:6), (pv:233,at:1), (pv:234,at:1), (pv:235,at:1), (pv:236,at:1), (pv:237,at:2), (pv:238,at:1), (pv:239,at:6), (pv:240,at:4), (pv:241,at:8), (pv:242,at:1), (pv:243,at:1), (pv:244,at:2), (pv:245,at:1), (pv:246,at:1), (pv:247,at:5), (pv:248,at:1), (pv:249,at:3), (pv:250,at:1), (pv:251,at:1), (pv:252,at:1), (pv:253,at:1), (pv:254,at:1), (pv:255,at:1), (pv:256,at:6), (pv:257,at:5), (pv:258,at:1), (pv:259,at:1), (pv:260,at:4), (pv:261,at:1), (pv:262,at:3), (pv:263,at:1), (pv:264,at:5), (pv:265,at:2), (pv:266,at:1), (pv:267,at:5), (pv:268,at:1), (pv:269,at:1), (pv:270,at:2), (pv:271,at:9), (pv:272,at:1), (pv:273,at:2), (pv:274,at:9), (pv:275,at:3), (pv:276,at:3), (pv:277,at:1), (pv:278,at:4), (pv:279,at:2), (pv:280,at:5), (pv:281,at:1), (pv:282,at:1), (pv:283,at:1), (pv:284,at:3), (pv:285,at:10), (pv:286,at:2), (pv:287,at:1), (pv:288,at:1), (pv:289,at:1), (pv:290,at:1), (pv:291,at:3), (pv:292,at:1), (pv:293,at:1), (pv:294,at:1), (pv:295,at:1), (pv:296,at:2), (pv:297,at:1), (pv:298,at:14), (pv:299,at:2), (pv:300,at:1), (pv:301,at:15), (pv:302,at:6), (pv:303,at:5), (pv:304,at:2), (pv:305,at:2), (pv:306,at:1), (pv:307,at:21), (pv:308,at:1), (pv:309,at:2), (pv:310,at:2), (pv:311,at:6), (pv:312,at:1), (pv:313,at:1), (pv:314,at:2), (pv:315,at:15), (pv:316,at:3), (pv:317,at:1), (pv:318,at:1), (pv:319,at:1), (pv:320,at:2), (pv:321,at:3), (pv:322,at:3), (pv:323,at:1), (pv:324,at:9), (pv:325,at:1), (pv:326,at:1), (pv:327,at:5), (pv:328,at:2), (pv:329,at:1), (pv:330,at:1), (pv:331,at:1), (pv:332,at:8), (pv:333,at:5), (pv:334,at:3), (pv:335,at:3), (pv:336,at:2), (pv:337,at:3), (pv:338,at:5), (pv:339,at:1), (pv:340,at:2), (pv:341,at:1), (pv:342,at:1), (pv:343,at:8), (pv:344,at:1), (pv:345,at:1), (pv:346,at:1), (pv:347,at:4), (pv:348,at:1), (pv:349,at:1), (pv:350,at:1), (pv:351,at:1), (pv:352,at:1), (pv:353,at:1), (pv:354,at:1), (pv:355,at:2), (pv:356,at:1), (pv:357,at:3), (pv:358,at:6), (pv:359,at:6), (pv:360,at:1), (pv:361,at:1), (pv:362,at:5), (pv:363,at:1), (pv:364,at:4), (pv:365,at:3), (pv:366,at:1), (pv:367,at:1), (pv:368,at:20), (pv:369,at:2), (pv:370,at:1), (pv:371,at:1), (pv:372,at:2), (pv:373,at:1), (pv:374,at:1), (pv:375,at:4), (pv:376,at:1), (pv:377,at:1), (pv:378,at:2), (pv:379,at:1), (pv:380,at:2), (pv:381,at:21), (pv:382,at:2), (pv:383,at:1), (pv:384,at:2), (pv:385,at:2), (pv:386,at:1), (pv:387,at:5), (pv:388,at:2), (pv:389,at:2), (pv:390,at:4), (pv:391,at:1), (pv:392,at:1), (pv:393,at:1), (pv:394,at:1), (pv:395,at:2), (pv:396,at:1), (pv:397,at:5), (pv:398,at:2), (pv:399,at:3), (pv:400,at:1), (pv:401,at:2), (pv:402,at:16), (pv:403,at:1), (pv:404,at:5), (pv:405,at:3), (pv:406,at:1), (pv:407,at:1), (pv:408,at:6), (pv:409,at:1), (pv:410,at:2), (pv:411,at:2), (pv:412,at:1), (pv:413,at:5), (pv:414,at:1), (pv:415,at:1), (pv:416,at:1), (pv:417,at:1), (pv:418,at:1), (pv:419,at:6), (pv:420,at:1), (pv:421,at:1), (pv:422,at:2), (pv:423,at:2), (pv:424,at:1), (pv:425,at:2), (pv:426,at:1), (pv:427,at:2), (pv:428,at:1), (pv:429,at:2), (pv:430,at:3), (pv:431,at:1), (pv:432,at:1), (pv:433,at:1), (pv:434,at:1), (pv:435,at:1), (pv:436,at:2), (pv:437,at:3), (pv:438,at:34), (pv:439,at:1), (pv:440,at:2), (pv:441,at:2), (pv:442,at:1), (pv:443,at:1), (pv:444,at:2), (pv:445,at:2), (pv:446,at:1), (pv:447,at:1), (pv:448,at:2), (pv:449,at:3), (pv:450,at:1), (pv:451,at:1), (pv:452,at:2), (pv:453,at:1), (pv:454,at:1), (pv:455,at:1), (pv:456,at:1), (pv:457,at:1), (pv:458,at:1), (pv:459,at:1), (pv:460,at:1), (pv:461,at:1), (pv:462,at:1), (pv:463,at:2), (pv:464,at:1), (pv:465,at:4), (pv:466,at:2), (pv:467,at:2), (pv:468,at:6), (pv:469,at:1), (pv:470,at:12), (pv:471,at:2), (pv:472,at:1), (pv:473,at:1), (pv:474,at:1), (pv:475,at:1), (pv:476,at:2), (pv:477,at:1), (pv:478,at:1), (pv:479,at:4), (pv:480,at:10), (pv:481,at:3), (pv:482,at:1), (pv:483,at:2), (pv:484,at:1), (pv:485,at:4), (pv:486,at:1), (pv:487,at:1), (pv:488,at:1), (pv:489,at:4), (pv:490,at:2), (pv:491,at:2), (pv:492,at:2), (pv:493,at:2), (pv:494,at:1), (pv:495,at:1), (pv:496,at:1), (pv:497,at:6), (pv:498,at:3), (pv:499,at:1), (pv:500,at:1), (pv:501,at:1), (pv:502,at:2), (pv:503,at:1), (pv:504,at:1), (pv:505,at:1), (pv:506,at:1), (pv:507,at:6), (pv:508,at:2), (pv:509,at:1), (pv:510,at:1), (pv:511,at:1), (pv:512,at:1), (pv:513,at:1), (pv:514,at:1), (pv:515,at:2), (pv:516,at:1), (pv:517,at:1), (pv:518,at:1), (pv:519,at:2), (pv:520,at:2), (pv:521,at:3), (pv:522,at:1), (pv:523,at:1), (pv:524,at:1), (pv:525,at:2), (pv:526,at:1), (pv:527,at:3), (pv:528,at:1), (pv:529,at:2), (pv:530,at:2), (pv:531,at:4), (pv:532,at:1), (pv:533,at:1), (pv:534,at:2), (pv:535,at:2), (pv:536,at:1), (pv:537,at:2), (pv:538,at:1), (pv:539,at:1), (pv:540,at:4), (pv:541,at:2), (pv:542,at:1), (pv:543,at:1), (pv:544,at:1), (pv:545,at:1), (pv:546,at:1), (pv:547,at:2), (pv:548,at:2), (pv:549,at:1), (pv:550,at:3), (pv:551,at:1), (pv:552,at:1), (pv:553,at:1), (pv:554,at:1), (pv:555,at:1), (pv:556,at:1), (pv:557,at:1), (pv:558,at:1), (pv:559,at:2), (pv:560,at:1), (pv:561,at:2), (pv:562,at:7), (pv:563,at:4), (pv:564,at:1), (pv:565,at:1), (pv:566,at:2), (pv:567,at:1), (pv:568,at:1), (pv:569,at:1), (pv:570,at:4), (pv:571,at:3), (pv:572,at:4), (pv:573,at:3), (pv:574,at:1), (pv:575,at:1), (pv:576,at:3), (pv:577,at:4), (pv:578,at:3), (pv:579,at:1), (pv:580,at:1), (pv:581,at:1), (pv:582,at:1), (pv:583,at:2), (pv:584,at:1), (pv:585,at:1), (pv:586,at:1), (pv:587,at:2), (pv:588,at:3), (pv:589,at:1), (pv:590,at:2), (pv:591,at:3), (pv:592,at:1), (pv:593,at:1), (pv:594,at:1), (pv:595,at:1), (pv:596,at:5), (pv:597,at:1), (pv:598,at:1), (pv:599,at:5), (pv:600,at:1), (pv:601,at:3), (pv:602,at:3), (pv:603,at:3), (pv:604,at:1), (pv:605,at:1), (pv:606,at:1), (pv:607,at:3), (pv:608,at:1), (pv:609,at:1), (pv:610,at:1), (pv:611,at:1), (pv:612,at:3), (pv:613,at:2), (pv:614,at:1), (pv:615,at:1), (pv:616,at:1), (pv:617,at:1), (pv:618,at:2), (pv:619,at:1), (pv:620,at:1), (pv:621,at:1), (pv:622,at:1), (pv:623,at:1), (pv:624,at:1), (pv:625,at:1), (pv:626,at:2), (pv:627,at:1), (pv:628,at:4), (pv:629,at:1), (pv:630,at:3), (pv:631,at:2), (pv:632,at:1), (pv:633,at:1), (pv:634,at:2), (pv:635,at:2), (pv:636,at:1), (pv:637,at:2), (pv:638,at:3), (pv:639,at:1), (pv:640,at:1), (pv:641,at:1), (pv:642,at:1), (pv:643,at:4), (pv:644,at:4), (pv:645,at:1), (pv:646,at:2), (pv:647,at:1), (pv:648,at:1), (pv:649,at:1), (pv:650,at:1), (pv:651,at:1), (pv:652,at:2), (pv:653,at:1), (pv:654,at:1), (pv:655,at:1), (pv:656,at:3), (pv:657,at:3), (pv:658,at:2), (pv:659,at:1), (pv:660,at:1), (pv:661,at:1), (pv:662,at:2), (pv:663,at:1), (pv:664,at:1), (pv:665,at:1), (pv:666,at:1), (pv:667,at:1), (pv:668,at:1), (pv:669,at:1), (pv:670,at:2), (pv:671,at:1), (pv:672,at:2), (pv:673,at:1), (pv:674,at:1), (pv:675,at:1), (pv:676,at:3), (pv:677,at:2), (pv:678,at:5), (pv:679,at:2), (pv:680,at:1), (pv:681,at:1), (pv:682,at:2), (pv:683,at:1), (pv:684,at:1), (pv:685,at:1), (pv:686,at:1), (pv:687,at:2), (pv:688,at:2), (pv:689,at:2), (pv:690,at:1), (pv:691,at:2), (pv:692,at:2), (pv:693,at:2), (pv:694,at:2), (pv:695,at:2), (pv:696,at:1), (pv:697,at:1), (pv:698,at:1), (pv:699,at:1), (pv:700,at:1), (pv:701,at:1), (pv:702,at:5), (pv:703,at:3), (pv:704,at:1), (pv:705,at:1), (pv:706,at:1), (pv:707,at:1), (pv:708,at:1), (pv:709,at:1), (pv:710,at:3), (pv:711,at:1), (pv:712,at:1), (pv:713,at:1), (pv:714,at:1), (pv:715,at:1), (pv:716,at:1), (pv:717,at:1), (pv:718,at:2), (pv:719,at:1), (pv:720,at:1), (pv:721,at:1), (pv:722,at:1), (pv:723,at:1), (pv:724,at:2), (pv:725,at:1), (pv:726,at:2), (pv:727,at:2), (pv:728,at:1), (pv:729,at:1), (pv:730,at:1), (pv:731,at:1), (pv:732,at:3), (pv:733,at:1), (pv:734,at:1), (pv:735,at:2), (pv:736,at:2), (pv:737,at:2), (pv:738,at:1), (pv:739,at:1), (pv:740,at:1), (pv:741,at:1), (pv:742,at:1), (pv:743,at:3), (pv:744,at:1), (pv:745,at:1), (pv:746,at:1), (pv:747,at:1), (pv:748,at:2), (pv:749,at:1), (pv:750,at:2), (pv:751,at:1), (pv:752,at:2), (pv:753,at:2), (pv:754,at:1), (pv:755,at:2), (pv:756,at:1), (pv:757,at:1), (pv:758,at:1), (pv:759,at:1), (pv:760,at:1), (pv:761,at:1), (pv:762,at:1), (pv:763,at:1), (pv:764,at:1), (pv:765,at:1), (pv:766,at:1), (pv:767,at:1), (pv:768,at:2), (pv:769,at:1), (pv:770,at:1), (pv:771,at:3), (pv:772,at:3), (pv:773,at:1), (pv:774,at:6), (pv:775,at:1), (pv:776,at:1), (pv:777,at:1), (pv:778,at:3), (pv:779,at:1), (pv:780,at:1), (pv:781,at:7), (pv:782,at:5), (pv:783,at:2), (pv:784,at:1), (pv:785,at:2), (pv:786,at:1), (pv:787,at:2), (pv:788,at:1), (pv:789,at:2), (pv:790,at:1), (pv:791,at:4), (pv:792,at:1), (pv:793,at:1), (pv:794,at:1), (pv:795,at:1), (pv:796,at:1), (pv:797,at:1), (pv:798,at:3), (pv:799,at:1), (pv:800,at:1), (pv:801,at:2), (pv:802,at:1), (pv:803,at:1), (pv:804,at:3), (pv:805,at:1), (pv:806,at:2), (pv:807,at:2), (pv:808,at:1), (pv:809,at:1), (pv:810,at:2), (pv:811,at:2), (pv:812,at:2), (pv:813,at:1), (pv:814,at:1), (pv:815,at:1), (pv:816,at:1), (pv:817,at:1), (pv:818,at:1), (pv:819,at:6), (pv:820,at:1), (pv:821,at:1), (pv:822,at:2), (pv:823,at:3), (pv:824,at:2), (pv:825,at:1), (pv:826,at:2), (pv:827,at:1), (pv:828,at:1), (pv:829,at:1), (pv:830,at:2), (pv:831,at:1), (pv:832,at:1), (pv:833,at:2), (pv:834,at:2), (pv:835,at:1), (pv:836,at:1), (pv:837,at:1), (pv:838,at:1), (pv:839,at:1), (pv:840,at:1), (pv:841,at:1), (pv:842,at:1), (pv:843,at:2), (pv:844,at:3), (pv:845,at:7), (pv:846,at:1), (pv:847,at:2), (pv:848,at:1), (pv:849,at:1), (pv:850,at:1), (pv:851,at:2), (pv:852,at:1), (pv:853,at:1), (pv:854,at:2), (pv:855,at:2), (pv:856,at:2), (pv:857,at:2), (pv:858,at:2), (pv:859,at:1), (pv:860,at:1), (pv:861,at:5), (pv:862,at:1), (pv:863,at:4), (pv:864,at:4), (pv:865,at:2), (pv:866,at:1), (pv:867,at:1), (pv:868,at:1), (pv:869,at:2), (pv:870,at:3), (pv:871,at:2), (pv:872,at:2), (pv:873,at:2), (pv:874,at:1), (pv:875,at:2), (pv:876,at:3), (pv:877,at:3), (pv:878,at:1), (pv:879,at:2), (pv:880,at:3), (pv:881,at:1), (pv:882,at:6), (pv:883,at:1), (pv:884,at:1), (pv:885,at:1), (pv:886,at:1), (pv:887,at:2), (pv:888,at:3), (pv:889,at:2), (pv:890,at:1), (pv:891,at:1), (pv:892,at:1), (pv:893,at:2), (pv:894,at:1), (pv:895,at:1), (pv:896,at:2), (pv:897,at:1), (pv:898,at:1), (pv:899,at:1), (pv:900,at:1), (pv:901,at:5), (pv:902,at:1), (pv:903,at:1), (pv:904,at:4), (pv:905,at:3), (pv:906,at:1), (pv:907,at:3), (pv:908,at:1), (pv:909,at:2), (pv:910,at:1), (pv:911,at:1), (pv:912,at:2), (pv:913,at:2), (pv:914,at:1), (pv:915,at:2), (pv:916,at:3), (pv:917,at:1), (pv:918,at:4), (pv:919,at:1), (pv:920,at:1), (pv:921,at:3), (pv:922,at:1), (pv:923,at:4), (pv:924,at:1), (pv:925,at:1), (pv:926,at:1), (pv:927,at:1), (pv:928,at:1), (pv:929,at:1), (pv:930,at:1), (pv:931,at:1), (pv:932,at:3), (pv:933,at:1), (pv:934,at:2), (pv:935,at:1), (pv:936,at:1), (pv:937,at:2), (pv:938,at:1), (pv:939,at:2), (pv:940,at:1), (pv:941,at:1), (pv:942,at:1), (pv:943,at:2), (pv:944,at:1), (pv:945,at:1), (pv:946,at:1), (pv:947,at:1), (pv:948,at:1), (pv:949,at:1), (pv:950,at:2), (pv:951,at:1), (pv:952,at:1), (pv:953,at:3), (pv:954,at:3), (pv:955,at:1), (pv:956,at:1), (pv:957,at:1), (pv:958,at:1), (pv:959,at:1), (pv:960,at:1), (pv:961,at:2), (pv:962,at:2), (pv:963,at:1), (pv:964,at:1), (pv:965,at:3), (pv:966,at:1), (pv:967,at:1), (pv:968,at:1), (pv:969,at:2), (pv:970,at:1), (pv:971,at:1), (pv:972,at:1), (pv:973,at:1), (pv:974,at:1), (pv:975,at:1), (pv:976,at:1), (pv:977,at:1), (pv:978,at:1), (pv:979,at:1), (pv:980,at:2), (pv:981,at:1), (pv:982,at:2), (pv:983,at:1), (pv:984,at:1), (pv:985,at:1), (pv:986,at:4), (pv:987,at:3), (pv:988,at:1), (pv:989,at:1), (pv:990,at:1), (pv:991,at:3), (pv:992,at:2), (pv:993,at:1), (pv:994,at:1), (pv:995,at:1), (pv:996,at:1), (pv:997,at:1), (pv:998,at:1), (pv:999,at:2), (pv:1000,at:1), (pv:1001,at:3), (pv:1002,at:2), (pv:1003,at:1), (pv:1004,at:2), (pv:1005,at:1), (pv:1006,at:1), (pv:1007,at:1), (pv:1008,at:1), (pv:1009,at:3), (pv:1010,at:1), (pv:1011,at:1), (pv:1012,at:2), (pv:1013,at:1), (pv:1014,at:1), (pv:1015,at:3), (pv:1016,at:1), (pv:1017,at:1), (pv:1018,at:1), (pv:1019,at:3), (pv:1020,at:2), (pv:1021,at:1), (pv:1022,at:1), (pv:1023,at:1), (pv:1024,at:1), (pv:1025,at:1), (pv:1026,at:1), (pv:1027,at:1), (pv:1028,at:1), (pv:1029,at:1), (pv:1030,at:1), (pv:1031,at:1), (pv:1032,at:1), (pv:1033,at:2), (pv:1034,at:1), (pv:1035,at:1), (pv:1036,at:1), (pv:1037,at:1), (pv:1038,at:1), (pv:1039,at:1), (pv:1040,at:1), (pv:1041,at:1), (pv:1042,at:1), (pv:1043,at:1), (pv:1044,at:1), (pv:1045,at:1), (pv:1046,at:3), (pv:1047,at:3), (pv:1048,at:1), (pv:1049,at:1), (pv:1050,at:1), (pv:1051,at:2), (pv:1052,at:3), (pv:1053,at:2), (pv:1054,at:2), (pv:1055,at:1), (pv:1056,at:3), (pv:1057,at:2), (pv:1058,at:1), (pv:1059,at:2), (pv:1060,at:4), (pv:1061,at:3), (pv:1062,at:1), (pv:1063,at:2), (pv:1064,at:1), (pv:1065,at:1), (pv:1066,at:2), (pv:1067,at:3), (pv:1068,at:3), (pv:1069,at:3), (pv:1070,at:1), (pv:1071,at:1), (pv:1072,at:1), (pv:1073,at:1), (pv:1074,at:1), (pv:1075,at:1), (pv:1076,at:1), (pv:1077,at:1), (pv:1078,at:1), (pv:1079,at:2), (pv:1080,at:2), (pv:1081,at:1), (pv:1082,at:1), (pv:1083,at:2), (pv:1084,at:1), (pv:1085,at:2), (pv:1086,at:1), (pv:1087,at:1), (pv:1088,at:2), (pv:1089,at:4), (pv:1090,at:1), (pv:1091,at:2), (pv:1092,at:1), (pv:1093,at:5), (pv:1094,at:3), (pv:1095,at:2), (pv:1096,at:3), (pv:1097,at:1), (pv:1098,at:2), (pv:1099,at:1), (pv:1100,at:6), (pv:1101,at:2), (pv:1102,at:1), (pv:1103,at:2), (pv:1104,at:1), (pv:1105,at:1), (pv:1106,at:2), (pv:1107,at:2), (pv:1108,at:2), (pv:1109,at:1), (pv:1110,at:2), (pv:1111,at:2), (pv:1112,at:2), (pv:1113,at:2), (pv:1114,at:1), (pv:1115,at:1), (pv:1116,at:1), (pv:1117,at:1), (pv:1118,at:4), (pv:1119,at:1), (pv:1120,at:1), (pv:1121,at:3), (pv:1122,at:1), (pv:1123,at:3), (pv:1124,at:1), (pv:1125,at:2), (pv:1126,at:1), (pv:1127,at:2), (pv:1128,at:2), (pv:1129,at:1), (pv:1130,at:1), (pv:1131,at:1), (pv:1132,at:1), (pv:1133,at:2), (pv:1134,at:2), (pv:1135,at:3), (pv:1136,at:2), (pv:1137,at:5), (pv:1138,at:3), (pv:1139,at:2), (pv:1140,at:2), (pv:1141,at:1), (pv:1142,at:1), (pv:1143,at:1), (pv:1144,at:1), (pv:1145,at:1), (pv:1146,at:1), (pv:1147,at:1), (pv:1148,at:1), (pv:1149,at:1), (pv:1150,at:1), (pv:1151,at:1), (pv:1152,at:1), (pv:1153,at:2), (pv:1154,at:1), (pv:1155,at:2), (pv:1156,at:1), (pv:1157,at:5), (pv:1158,at:2), (pv:1159,at:7), (pv:1160,at:2), (pv:1161,at:1), (pv:1162,at:1), (pv:1163,at:1), (pv:1164,at:3), (pv:1165,at:1), (pv:1166,at:2), (pv:1167,at:2), (pv:1168,at:2), (pv:1169,at:2), (pv:1170,at:1), (pv:1171,at:2), (pv:1172,at:1), (pv:1173,at:2), (pv:1174,at:1), (pv:1175,at:1), (pv:1176,at:1), (pv:1177,at:1), (pv:1178,at:1), (pv:1179,at:1), (pv:1180,at:1), (pv:1181,at:1), (pv:1182,at:2), (pv:1183,at:1), (pv:1184,at:1), (pv:1185,at:1), (pv:1186,at:4), (pv:1187,at:1), (pv:1188,at:1), (pv:1189,at:1), (pv:1190,at:1), (pv:1191,at:2), (pv:1192,at:2), (pv:1193,at:1), (pv:1194,at:1), (pv:1195,at:4), (pv:1196,at:3), (pv:1197,at:1), (pv:1198,at:1), (pv:1199,at:1), (pv:1200,at:1), (pv:1201,at:1), (pv:1202,at:1), (pv:1203,at:1), (pv:1204,at:3), (pv:1205,at:2), (pv:1206,at:1), (pv:1207,at:2), (pv:1208,at:1), (pv:1209,at:2), (pv:1210,at:1), (pv:1211,at:1), (pv:1212,at:1), (pv:1213,at:3), (pv:1214,at:1), (pv:1215,at:1), (pv:1216,at:1), (pv:1217,at:1), (pv:1218,at:4), (pv:1219,at:1), (pv:1220,at:2), (pv:1221,at:1), (pv:1222,at:1), (pv:1223,at:2), (pv:1224,at:1), (pv:1225,at:2), (pv:1226,at:1), (pv:1227,at:2), (pv:1228,at:1), (pv:1229,at:3), (pv:1230,at:2), (pv:1231,at:1), (pv:1232,at:3), (pv:1233,at:3), (pv:1234,at:2), (pv:1235,at:1), (pv:1236,at:1), (pv:1237,at:1), (pv:1238,at:2), (pv:1239,at:2), (pv:1240,at:2), (pv:1241,at:3), (pv:1242,at:1), (pv:1243,at:1), (pv:1244,at:3), (pv:1245,at:3), (pv:1246,at:2), (pv:1247,at:2), (pv:1248,at:4), (pv:1249,at:1), (pv:1250,at:1), (pv:1251,at:1), (pv:1252,at:1), (pv:1253,at:1), (pv:1254,at:1), (pv:1255,at:2), (pv:1256,at:1), (pv:1257,at:1), (pv:1258,at:1), (pv:1259,at:1), (pv:1260,at:1), (pv:1261,at:1), (pv:1262,at:1), (pv:1263,at:1), (pv:1264,at:2), (pv:1265,at:1), (pv:1266,at:4), (pv:1267,at:5), (pv:1268,at:2), (pv:1269,at:2), (pv:1270,at:1), (pv:1271,at:1), (pv:1272,at:1), (pv:1273,at:1), (pv:1274,at:2), (pv:1275,at:1), (pv:1276,at:3), (pv:1277,at:1), (pv:1278,at:2), (pv:1279,at:1), (pv:1280,at:1), (pv:1281,at:1), (pv:1282,at:1), (pv:1283,at:2), (pv:1284,at:6), (pv:1285,at:1), (pv:1286,at:1), (pv:1287,at:1), (pv:1288,at:1), (pv:1289,at:1), (pv:1290,at:1), (pv:1291,at:1), (pv:1292,at:2), (pv:1293,at:2), (pv:1294,at:2), (pv:1295,at:3), (pv:1296,at:1), (pv:1297,at:1), (pv:1298,at:5), (pv:1299,at:4), (pv:1300,at:1), (pv:1301,at:3), (pv:1302,at:3), (pv:1303,at:3), (pv:1304,at:1), (pv:1305,at:2), (pv:1306,at:1), (pv:1307,at:2), (pv:1308,at:2), (pv:1309,at:1), (pv:1310,at:2), (pv:1311,at:5), (pv:1312,at:1), (pv:1313,at:1), (pv:1314,at:1), (pv:1315,at:2), (pv:1316,at:1), (pv:1317,at:3), (pv:1318,at:1), (pv:1319,at:3), (pv:1320,at:1), (pv:1321,at:1), (pv:1322,at:1), (pv:1323,at:4), (pv:1324,at:2), (pv:1325,at:1), (pv:1326,at:3), (pv:1327,at:1), (pv:1328,at:1), (pv:1329,at:2), (pv:1330,at:1), (pv:1331,at:1), (pv:1332,at:1), (pv:1333,at:1), (pv:1334,at:2), (pv:1335,at:1), (pv:1336,at:1), (pv:1337,at:4), (pv:1338,at:2), (pv:1339,at:1), (pv:1340,at:1), (pv:1341,at:2), (pv:1342,at:1), (pv:1343,at:1), (pv:1344,at:1), (pv:1345,at:2), (pv:1346,at:1), (pv:1347,at:1), (pv:1348,at:2), (pv:1349,at:2), (pv:1350,at:3), (pv:1351,at:2), (pv:1352,at:3), (pv:1353,at:1), (pv:1354,at:3), (pv:1355,at:6), (pv:1356,at:2), (pv:1357,at:3), (pv:1358,at:1), (pv:1359,at:1), (pv:1360,at:1), (pv:1361,at:1), (pv:1362,at:1), (pv:1363,at:1), (pv:1364,at:1), (pv:1365,at:1), (pv:1366,at:1), (pv:1367,at:1), (pv:1368,at:3), (pv:1369,at:3), (pv:1370,at:5), (pv:1371,at:1), (pv:1372,at:1), (pv:1373,at:1), (pv:1374,at:1), (pv:1375,at:1), (pv:1376,at:1), (pv:1377,at:1), (pv:1378,at:1), (pv:1379,at:1), (pv:1380,at:1), (pv:1381,at:1), (pv:1382,at:1), (pv:1383,at:2), (pv:1384,at:1), (pv:1385,at:8), (pv:1386,at:3), (pv:1387,at:1), (pv:1388,at:1), (pv:1389,at:1), (pv:1390,at:1), (pv:1391,at:1), (pv:1392,at:1), (pv:1393,at:1), (pv:1394,at:1), (pv:1395,at:1), (pv:1396,at:1), (pv:1397,at:1), (pv:1398,at:1), (pv:1399,at:1), (pv:1400,at:2), (pv:1401,at:4), (pv:1402,at:2), (pv:1403,at:1), (pv:1404,at:2), (pv:1405,at:1), (pv:1406,at:1), (pv:1407,at:2), (pv:1408,at:1), (pv:1409,at:1), (pv:1410,at:2), (pv:1411,at:1), (pv:1412,at:1), (pv:1413,at:2), (pv:1414,at:1), (pv:1415,at:2), (pv:1416,at:1), (pv:1417,at:1), (pv:1418,at:1), (pv:1419,at:1), (pv:1420,at:2), (pv:1421,at:2), (pv:1422,at:1), (pv:1423,at:1), (pv:1424,at:4), (pv:1425,at:1), (pv:1426,at:1), (pv:1427,at:2), (pv:1428,at:1), (pv:1429,at:2), (pv:1430,at:2), (pv:1431,at:2), (pv:1432,at:1), (pv:1433,at:1), (pv:1434,at:2), (pv:1435,at:2), (pv:1436,at:2), (pv:1437,at:1), (pv:1438,at:1), (pv:1439,at:2), (pv:1440,at:1), (pv:1441,at:1), (pv:1442,at:3), (pv:1443,at:1), (pv:1444,at:1), (pv:1445,at:1), (pv:1446,at:2), (pv:1447,at:1), (pv:1448,at:1), (pv:1449,at:2), (pv:1450,at:1), (pv:1451,at:1), (pv:1452,at:1), (pv:1453,at:2), (pv:1454,at:1), (pv:1455,at:1), (pv:1456,at:1), (pv:1457,at:2), (pv:1458,at:1), (pv:1459,at:3), (pv:1460,at:1), (pv:1461,at:3), (pv:1463,at:3), (pv:1464,at:1), (pv:1465,at:1), (pv:1466,at:1), (pv:1467,at:2), (pv:1468,at:1), (pv:1469,at:1), (pv:1470,at:1), (pv:1471,at:2), (pv:1472,at:1), (pv:1473,at:4), (pv:1474,at:3), (pv:1475,at:3), (pv:1477,at:2), (pv:1478,at:4), (pv:1479,at:2), (pv:1480,at:1), (pv:1481,at:1), (pv:1482,at:2), (pv:1483,at:3), (pv:1485,at:2), (pv:1486,at:2), (pv:1487,at:1), (pv:1489,at:1), (pv:1490,at:1), (pv:1499,at:1), (pv:1501,at:1)]
[INFO ] fr.inria.astor.approaches.jgenprog.JGenProg.showResults(JGenProg.java:342) - 
pvariants_with_transformed_ingredients: [(pv:2,at:1), (pv:3,at:1), (pv:4,at:2), (pv:5,at:1), (pv:6,at:1), (pv:7,at:3), (pv:8,at:3), (pv:9,at:1), (pv:10,at:1), (pv:11,at:2), (pv:12,at:4), (pv:13,at:1), (pv:14,at:2), (pv:15,at:1), (pv:16,at:2), (pv:17,at:1), (pv:18,at:1), (pv:19,at:1), (pv:20,at:1), (pv:21,at:1), (pv:22,at:1), (pv:23,at:8), (pv:24,at:2), (pv:25,at:8), (pv:26,at:9), (pv:27,at:1), (pv:28,at:1), (pv:29,at:3), (pv:30,at:1), (pv:31,at:1), (pv:32,at:5), (pv:33,at:1), (pv:34,at:8), (pv:35,at:6), (pv:36,at:2), (pv:37,at:1), (pv:38,at:2), (pv:39,at:2), (pv:40,at:3), (pv:41,at:17), (pv:42,at:4), (pv:43,at:1), (pv:44,at:2), (pv:45,at:1), (pv:46,at:1), (pv:47,at:1), (pv:48,at:1), (pv:49,at:10), (pv:50,at:1), (pv:51,at:4), (pv:52,at:1), (pv:53,at:1), (pv:54,at:2), (pv:55,at:2), (pv:56,at:1), (pv:57,at:1), (pv:58,at:1), (pv:59,at:1), (pv:60,at:1), (pv:61,at:1), (pv:62,at:3), (pv:63,at:4), (pv:64,at:1), (pv:65,at:1), (pv:66,at:2), (pv:67,at:1), (pv:68,at:2), (pv:69,at:1), (pv:70,at:3), (pv:71,at:1), (pv:72,at:1), (pv:73,at:1), (pv:74,at:2), (pv:75,at:2), (pv:76,at:1), (pv:77,at:3), (pv:78,at:3), (pv:79,at:1), (pv:80,at:4), (pv:81,at:1), (pv:82,at:1), (pv:83,at:1), (pv:84,at:4), (pv:85,at:1), (pv:86,at:4), (pv:87,at:3), (pv:88,at:2), (pv:89,at:1), (pv:90,at:5), (pv:91,at:1), (pv:92,at:2), (pv:93,at:6), (pv:94,at:1), (pv:95,at:1), (pv:96,at:1), (pv:97,at:1), (pv:98,at:6), (pv:99,at:1), (pv:100,at:3), (pv:101,at:1), (pv:102,at:4), (pv:103,at:4), (pv:104,at:1), (pv:105,at:3), (pv:106,at:2), (pv:107,at:1), (pv:108,at:9), (pv:109,at:2), (pv:110,at:1), (pv:111,at:1), (pv:112,at:2), (pv:113,at:1), (pv:114,at:2), (pv:115,at:1), (pv:116,at:2), (pv:117,at:2), (pv:118,at:1), (pv:119,at:9), (pv:120,at:1), (pv:121,at:1), (pv:122,at:2), (pv:123,at:1), (pv:124,at:4), (pv:125,at:3), (pv:126,at:2), (pv:127,at:1), (pv:128,at:2), (pv:129,at:4), (pv:130,at:1), (pv:131,at:1), (pv:132,at:1), (pv:133,at:2), (pv:134,at:4), (pv:135,at:2), (pv:136,at:2), (pv:137,at:1), (pv:138,at:8), (pv:139,at:1), (pv:140,at:1), (pv:141,at:2), (pv:142,at:1), (pv:143,at:1), (pv:144,at:1), (pv:145,at:1), (pv:146,at:7), (pv:147,at:1), (pv:148,at:3), (pv:149,at:1), (pv:150,at:2), (pv:151,at:1), (pv:152,at:3), (pv:153,at:1), (pv:154,at:1), (pv:155,at:1), (pv:156,at:1), (pv:157,at:3), (pv:158,at:5), (pv:159,at:2), (pv:160,at:27), (pv:161,at:1), (pv:162,at:1), (pv:163,at:1), (pv:164,at:7), (pv:165,at:4), (pv:166,at:3), (pv:167,at:1), (pv:168,at:8), (pv:169,at:1), (pv:170,at:2), (pv:171,at:3), (pv:172,at:1), (pv:173,at:1), (pv:174,at:1), (pv:175,at:2), (pv:176,at:2), (pv:177,at:2), (pv:178,at:2), (pv:179,at:2), (pv:180,at:1), (pv:181,at:2), (pv:182,at:1), (pv:183,at:2), (pv:184,at:1), (pv:185,at:3), (pv:186,at:1), (pv:187,at:1), (pv:188,at:1), (pv:189,at:1), (pv:190,at:2), (pv:191,at:1), (pv:192,at:1), (pv:193,at:1), (pv:194,at:2), (pv:195,at:1), (pv:196,at:4), (pv:197,at:4), (pv:198,at:6), (pv:199,at:4), (pv:200,at:5), (pv:201,at:1), (pv:202,at:1), (pv:203,at:1), (pv:204,at:1), (pv:205,at:1), (pv:206,at:1), (pv:207,at:1), (pv:208,at:2), (pv:209,at:3), (pv:210,at:6), (pv:211,at:1), (pv:212,at:1), (pv:213,at:1), (pv:214,at:10), (pv:215,at:4), (pv:216,at:2), (pv:217,at:1), (pv:218,at:2), (pv:219,at:1), (pv:220,at:3), (pv:221,at:4), (pv:222,at:1), (pv:223,at:3), (pv:224,at:18), (pv:225,at:3), (pv:226,at:1), (pv:227,at:3), (pv:228,at:2), (pv:229,at:3), (pv:230,at:3), (pv:231,at:2), (pv:232,at:6), (pv:233,at:1), (pv:234,at:1), (pv:235,at:1), (pv:236,at:1), (pv:237,at:2), (pv:238,at:1), (pv:239,at:6), (pv:240,at:4), (pv:241,at:8), (pv:242,at:1), (pv:243,at:1), (pv:244,at:2), (pv:245,at:1), (pv:246,at:1), (pv:247,at:5), (pv:248,at:1), (pv:249,at:3), (pv:250,at:1), (pv:251,at:1), (pv:252,at:1), (pv:253,at:1), (pv:254,at:1), (pv:255,at:1), (pv:256,at:6), (pv:257,at:5), (pv:258,at:1), (pv:259,at:1), (pv:260,at:4), (pv:261,at:1), (pv:262,at:3), (pv:263,at:1), (pv:264,at:5), (pv:265,at:2), (pv:266,at:1), (pv:267,at:5), (pv:268,at:1), (pv:269,at:1), (pv:270,at:2), (pv:271,at:9), (pv:272,at:1), (pv:273,at:2), (pv:274,at:9), (pv:275,at:3), (pv:276,at:3), (pv:277,at:1), (pv:278,at:4), (pv:279,at:2), (pv:280,at:5), (pv:281,at:1), (pv:282,at:1), (pv:283,at:1), (pv:284,at:3), (pv:285,at:10), (pv:286,at:2), (pv:287,at:1), (pv:288,at:1), (pv:289,at:1), (pv:290,at:1), (pv:291,at:3), (pv:292,at:1), (pv:293,at:1), (pv:294,at:1), (pv:295,at:1), (pv:296,at:2), (pv:297,at:1), (pv:298,at:14), (pv:299,at:2), (pv:300,at:1), (pv:301,at:15), (pv:302,at:6), (pv:303,at:5), (pv:304,at:2), (pv:305,at:2), (pv:306,at:1), (pv:307,at:21), (pv:308,at:1), (pv:309,at:2), (pv:310,at:2), (pv:311,at:6), (pv:312,at:1), (pv:313,at:1), (pv:314,at:2), (pv:315,at:15), (pv:316,at:3), (pv:317,at:1), (pv:318,at:1), (pv:319,at:1), (pv:320,at:2), (pv:321,at:3), (pv:322,at:3), (pv:323,at:1), (pv:324,at:9), (pv:325,at:1), (pv:326,at:1), (pv:327,at:5), (pv:328,at:2), (pv:329,at:1), (pv:330,at:1), (pv:331,at:1), (pv:332,at:8), (pv:333,at:5), (pv:334,at:3), (pv:335,at:3), (pv:336,at:2), (pv:337,at:3), (pv:338,at:5), (pv:339,at:1), (pv:340,at:2), (pv:341,at:1), (pv:342,at:1), (pv:343,at:8), (pv:344,at:1), (pv:345,at:1), (pv:346,at:1), (pv:347,at:4), (pv:348,at:1), (pv:349,at:1), (pv:350,at:1), (pv:351,at:1), (pv:352,at:1), (pv:353,at:1), (pv:354,at:1), (pv:355,at:2), (pv:356,at:1), (pv:357,at:3), (pv:358,at:6), (pv:359,at:6), (pv:360,at:1), (pv:361,at:1), (pv:362,at:5), (pv:363,at:1), (pv:364,at:4), (pv:365,at:3), (pv:366,at:1), (pv:367,at:1), (pv:368,at:20), (pv:369,at:2), (pv:370,at:1), (pv:371,at:1), (pv:372,at:2), (pv:373,at:1), (pv:374,at:1), (pv:375,at:4), (pv:376,at:1), (pv:377,at:1), (pv:378,at:2), (pv:379,at:1), (pv:380,at:2), (pv:381,at:21), (pv:382,at:2), (pv:383,at:1), (pv:384,at:2), (pv:385,at:2), (pv:386,at:1), (pv:387,at:5), (pv:388,at:2), (pv:389,at:2), (pv:390,at:4), (pv:391,at:1), (pv:392,at:1), (pv:393,at:1), (pv:394,at:1), (pv:395,at:2), (pv:396,at:1), (pv:397,at:5), (pv:398,at:2), (pv:399,at:3), (pv:400,at:1), (pv:401,at:2), (pv:402,at:16), (pv:403,at:1), (pv:404,at:5), (pv:405,at:3), (pv:406,at:1), (pv:407,at:1), (pv:408,at:6), (pv:409,at:1), (pv:410,at:2), (pv:411,at:2), (pv:412,at:1), (pv:413,at:5), (pv:414,at:1), (pv:415,at:1), (pv:416,at:1), (pv:417,at:1), (pv:418,at:1), (pv:419,at:6), (pv:420,at:1), (pv:421,at:1), (pv:422,at:2), (pv:423,at:2), (pv:424,at:1), (pv:425,at:2), (pv:426,at:1), (pv:427,at:2), (pv:428,at:1), (pv:429,at:2), (pv:430,at:3), (pv:431,at:1), (pv:432,at:1), (pv:433,at:1), (pv:434,at:1), (pv:435,at:1), (pv:436,at:2), (pv:437,at:3), (pv:438,at:34), (pv:439,at:1), (pv:440,at:2), (pv:441,at:2), (pv:442,at:1), (pv:443,at:1), (pv:444,at:2), (pv:445,at:2), (pv:446,at:1), (pv:447,at:1), (pv:448,at:2), (pv:449,at:3), (pv:450,at:1), (pv:451,at:1), (pv:452,at:2), (pv:453,at:1), (pv:454,at:1), (pv:455,at:1), (pv:456,at:1), (pv:457,at:1), (pv:458,at:1), (pv:459,at:1), (pv:460,at:1), (pv:461,at:1), (pv:462,at:1), (pv:463,at:2), (pv:464,at:1), (pv:465,at:4), (pv:466,at:2), (pv:467,at:2), (pv:468,at:6), (pv:469,at:1), (pv:470,at:12), (pv:471,at:2), (pv:472,at:1), (pv:473,at:1), (pv:474,at:1), (pv:475,at:1), (pv:476,at:2), (pv:477,at:1), (pv:478,at:1), (pv:479,at:4), (pv:480,at:10), (pv:481,at:3), (pv:482,at:1), (pv:483,at:2), (pv:484,at:1), (pv:485,at:4), (pv:486,at:1), (pv:487,at:1), (pv:488,at:1), (pv:489,at:4), (pv:490,at:2), (pv:491,at:2), (pv:492,at:2), (pv:493,at:2), (pv:494,at:1), (pv:495,at:1), (pv:496,at:1), (pv:497,at:6), (pv:498,at:3), (pv:499,at:1), (pv:500,at:1), (pv:501,at:1), (pv:502,at:2), (pv:503,at:1), (pv:504,at:1), (pv:505,at:1), (pv:506,at:1), (pv:507,at:6), (pv:508,at:2), (pv:509,at:1), (pv:510,at:1), (pv:511,at:1), (pv:512,at:1), (pv:513,at:1), (pv:514,at:1), (pv:515,at:2), (pv:516,at:1), (pv:517,at:1), (pv:518,at:1), (pv:519,at:2), (pv:520,at:2), (pv:521,at:3), (pv:522,at:1), (pv:523,at:1), (pv:524,at:1), (pv:525,at:2), (pv:526,at:1), (pv:527,at:3), (pv:528,at:1), (pv:529,at:2), (pv:530,at:2), (pv:531,at:4), (pv:532,at:1), (pv:533,at:1), (pv:534,at:2), (pv:535,at:2), (pv:536,at:1), (pv:537,at:2), (pv:538,at:1), (pv:539,at:1), (pv:540,at:4), (pv:541,at:2), (pv:542,at:1), (pv:543,at:1), (pv:544,at:1), (pv:545,at:1), (pv:546,at:1), (pv:547,at:2), (pv:548,at:2), (pv:549,at:1), (pv:550,at:3), (pv:551,at:1), (pv:552,at:1), (pv:553,at:1), (pv:554,at:1), (pv:555,at:1), (pv:556,at:1), (pv:557,at:1), (pv:558,at:1), (pv:559,at:2), (pv:560,at:1), (pv:561,at:2), (pv:562,at:7), (pv:563,at:4), (pv:564,at:1), (pv:565,at:1), (pv:566,at:2), (pv:567,at:1), (pv:568,at:1), (pv:569,at:1), (pv:570,at:4), (pv:571,at:3), (pv:572,at:4), (pv:573,at:3), (pv:574,at:1), (pv:575,at:1), (pv:576,at:3), (pv:577,at:4), (pv:578,at:3), (pv:579,at:1), (pv:580,at:1), (pv:581,at:1), (pv:582,at:1), (pv:583,at:2), (pv:584,at:1), (pv:585,at:1), (pv:586,at:1), (pv:587,at:2), (pv:588,at:3), (pv:589,at:1), (pv:590,at:2), (pv:591,at:3), (pv:592,at:1), (pv:593,at:1), (pv:594,at:1), (pv:595,at:1), (pv:596,at:5), (pv:597,at:1), (pv:598,at:1), (pv:599,at:5), (pv:600,at:1), (pv:601,at:3), (pv:602,at:3), (pv:603,at:3), (pv:604,at:1), (pv:605,at:1), (pv:606,at:1), (pv:607,at:3), (pv:608,at:1), (pv:609,at:1), (pv:610,at:1), (pv:611,at:1), (pv:612,at:3), (pv:613,at:2), (pv:614,at:1), (pv:615,at:1), (pv:616,at:1), (pv:617,at:1), (pv:618,at:2), (pv:619,at:1), (pv:620,at:1), (pv:621,at:1), (pv:622,at:1), (pv:623,at:1), (pv:624,at:1), (pv:625,at:1), (pv:626,at:2), (pv:627,at:1), (pv:628,at:4), (pv:629,at:1), (pv:630,at:3), (pv:631,at:2), (pv:632,at:1), (pv:633,at:1), (pv:634,at:2), (pv:635,at:2), (pv:636,at:1), (pv:637,at:2), (pv:638,at:3), (pv:639,at:1), (pv:640,at:1), (pv:641,at:1), (pv:642,at:1), (pv:643,at:4), (pv:644,at:4), (pv:645,at:1), (pv:646,at:2), (pv:647,at:1), (pv:648,at:1), (pv:649,at:1), (pv:650,at:1), (pv:651,at:1), (pv:652,at:2), (pv:653,at:1), (pv:654,at:1), (pv:655,at:1), (pv:656,at:3), (pv:657,at:3), (pv:658,at:2), (pv:659,at:1), (pv:660,at:1), (pv:661,at:1), (pv:662,at:2), (pv:663,at:1), (pv:664,at:1), (pv:665,at:1), (pv:666,at:1), (pv:667,at:1), (pv:668,at:1), (pv:669,at:1), (pv:670,at:2), (pv:671,at:1), (pv:672,at:2), (pv:673,at:1), (pv:674,at:1), (pv:675,at:1), (pv:676,at:3), (pv:677,at:2), (pv:678,at:5), (pv:679,at:2), (pv:680,at:1), (pv:681,at:1), (pv:682,at:2), (pv:683,at:1), (pv:684,at:1), (pv:685,at:1), (pv:686,at:1), (pv:687,at:2), (pv:688,at:2), (pv:689,at:2), (pv:690,at:1), (pv:691,at:2), (pv:692,at:2), (pv:693,at:2), (pv:694,at:2), (pv:695,at:2), (pv:696,at:1), (pv:697,at:1), (pv:698,at:1), (pv:699,at:1), (pv:700,at:1), (pv:701,at:1), (pv:702,at:5), (pv:703,at:3), (pv:704,at:1), (pv:705,at:1), (pv:706,at:1), (pv:707,at:1), (pv:708,at:1), (pv:709,at:1), (pv:710,at:3), (pv:711,at:1), (pv:712,at:1), (pv:713,at:1), (pv:714,at:1), (pv:715,at:1), (pv:716,at:1), (pv:717,at:1), (pv:718,at:2), (pv:719,at:1), (pv:720,at:1), (pv:721,at:1), (pv:722,at:1), (pv:723,at:1), (pv:724,at:2), (pv:725,at:1), (pv:726,at:2), (pv:727,at:2), (pv:728,at:1), (pv:729,at:1), (pv:730,at:1), (pv:731,at:1), (pv:732,at:3), (pv:733,at:1), (pv:734,at:1), (pv:735,at:2), (pv:736,at:2), (pv:737,at:2), (pv:738,at:1), (pv:739,at:1), (pv:740,at:1), (pv:741,at:1), (pv:742,at:1), (pv:743,at:3), (pv:744,at:1), (pv:745,at:1), (pv:746,at:1), (pv:747,at:1), (pv:748,at:2), (pv:749,at:1), (pv:750,at:2), (pv:751,at:1), (pv:752,at:2), (pv:753,at:2), (pv:754,at:1), (pv:755,at:2), (pv:756,at:1), (pv:757,at:1), (pv:758,at:1), (pv:759,at:1), (pv:760,at:1), (pv:761,at:1), (pv:762,at:1), (pv:763,at:1), (pv:764,at:1), (pv:765,at:1), (pv:766,at:1), (pv:767,at:1), (pv:768,at:2), (pv:769,at:1), (pv:770,at:1), (pv:771,at:3), (pv:772,at:3), (pv:773,at:1), (pv:774,at:6), (pv:775,at:1), (pv:776,at:1), (pv:777,at:1), (pv:778,at:3), (pv:779,at:1), (pv:780,at:1), (pv:781,at:7), (pv:782,at:5), (pv:783,at:2), (pv:784,at:1), (pv:785,at:2), (pv:786,at:1), (pv:787,at:2), (pv:788,at:1), (pv:789,at:2), (pv:790,at:1), (pv:791,at:4), (pv:792,at:1), (pv:793,at:1), (pv:794,at:1), (pv:795,at:1), (pv:796,at:1), (pv:797,at:1), (pv:798,at:3), (pv:799,at:1), (pv:800,at:1), (pv:801,at:2), (pv:802,at:1), (pv:803,at:1), (pv:804,at:3), (pv:805,at:1), (pv:806,at:2), (pv:807,at:2), (pv:808,at:1), (pv:809,at:1), (pv:810,at:2), (pv:811,at:2), (pv:812,at:2), (pv:813,at:1), (pv:814,at:1), (pv:815,at:1), (pv:816,at:1), (pv:817,at:1), (pv:818,at:1), (pv:819,at:6), (pv:820,at:1), (pv:821,at:1), (pv:822,at:2), (pv:823,at:3), (pv:824,at:2), (pv:825,at:1), (pv:826,at:2), (pv:827,at:1), (pv:828,at:1), (pv:829,at:1), (pv:830,at:2), (pv:831,at:1), (pv:832,at:1), (pv:833,at:2), (pv:834,at:2), (pv:835,at:1), (pv:836,at:1), (pv:837,at:1), (pv:838,at:1), (pv:839,at:1), (pv:840,at:1), (pv:841,at:1), (pv:842,at:1), (pv:843,at:2), (pv:844,at:3), (pv:845,at:7), (pv:846,at:1), (pv:847,at:2), (pv:848,at:1), (pv:849,at:1), (pv:850,at:1), (pv:851,at:2), (pv:852,at:1), (pv:853,at:1), (pv:854,at:2), (pv:855,at:2), (pv:856,at:2), (pv:857,at:2), (pv:858,at:2), (pv:859,at:1), (pv:860,at:1), (pv:861,at:5), (pv:862,at:1), (pv:863,at:4), (pv:864,at:4), (pv:865,at:2), (pv:866,at:1), (pv:867,at:1), (pv:868,at:1), (pv:869,at:2), (pv:870,at:3), (pv:871,at:2), (pv:872,at:2), (pv:873,at:2), (pv:874,at:1), (pv:875,at:2), (pv:876,at:3), (pv:877,at:3), (pv:878,at:1), (pv:879,at:2), (pv:880,at:3), (pv:881,at:1), (pv:882,at:6), (pv:883,at:1), (pv:884,at:1), (pv:885,at:1), (pv:886,at:1), (pv:887,at:2), (pv:888,at:3), (pv:889,at:2), (pv:890,at:1), (pv:891,at:1), (pv:892,at:1), (pv:893,at:2), (pv:894,at:1), (pv:895,at:1), (pv:896,at:2), (pv:897,at:1), (pv:898,at:1), (pv:899,at:1), (pv:900,at:1), (pv:901,at:5), (pv:902,at:1), (pv:903,at:1), (pv:904,at:4), (pv:905,at:3), (pv:906,at:1), (pv:907,at:3), (pv:908,at:1), (pv:909,at:2), (pv:910,at:1), (pv:911,at:1), (pv:912,at:2), (pv:913,at:2), (pv:914,at:1), (pv:915,at:2), (pv:916,at:3), (pv:917,at:1), (pv:918,at:4), (pv:919,at:1), (pv:920,at:1), (pv:921,at:3), (pv:922,at:1), (pv:923,at:4), (pv:924,at:1), (pv:925,at:1), (pv:926,at:1), (pv:927,at:1), (pv:928,at:1), (pv:929,at:1), (pv:930,at:1), (pv:931,at:1), (pv:932,at:3), (pv:933,at:1), (pv:934,at:2), (pv:935,at:1), (pv:936,at:1), (pv:937,at:2), (pv:938,at:1), (pv:939,at:2), (pv:940,at:1), (pv:941,at:1), (pv:942,at:1), (pv:943,at:2), (pv:944,at:1), (pv:945,at:1), (pv:946,at:1), (pv:947,at:1), (pv:948,at:1), (pv:949,at:1), (pv:950,at:2), (pv:951,at:1), (pv:952,at:1), (pv:953,at:3), (pv:954,at:3), (pv:955,at:1), (pv:956,at:1), (pv:957,at:1), (pv:958,at:1), (pv:959,at:1), (pv:960,at:1), (pv:961,at:2), (pv:962,at:2), (pv:963,at:1), (pv:964,at:1), (pv:965,at:3), (pv:966,at:1), (pv:967,at:1), (pv:968,at:1), (pv:969,at:2), (pv:970,at:1), (pv:971,at:1), (pv:972,at:1), (pv:973,at:1), (pv:974,at:1), (pv:975,at:1), (pv:976,at:1), (pv:977,at:1), (pv:978,at:1), (pv:979,at:1), (pv:980,at:2), (pv:981,at:1), (pv:982,at:2), (pv:983,at:1), (pv:984,at:1), (pv:985,at:1), (pv:986,at:4), (pv:987,at:3), (pv:988,at:1), (pv:989,at:1), (pv:990,at:1), (pv:991,at:3), (pv:992,at:2), (pv:993,at:1), (pv:994,at:1), (pv:995,at:1), (pv:996,at:1), (pv:997,at:1), (pv:998,at:1), (pv:999,at:2), (pv:1000,at:1), (pv:1001,at:3), (pv:1002,at:2), (pv:1003,at:1), (pv:1004,at:2), (pv:1005,at:1), (pv:1006,at:1), (pv:1007,at:1), (pv:1008,at:1), (pv:1009,at:3), (pv:1010,at:1), (pv:1011,at:1), (pv:1012,at:2), (pv:1013,at:1), (pv:1014,at:1), (pv:1015,at:3), (pv:1016,at:1), (pv:1017,at:1), (pv:1018,at:1), (pv:1019,at:3), (pv:1020,at:2), (pv:1021,at:1), (pv:1022,at:1), (pv:1023,at:1), (pv:1024,at:1), (pv:1025,at:1), (pv:1026,at:1), (pv:1027,at:1), (pv:1028,at:1), (pv:1029,at:1), (pv:1030,at:1), (pv:1031,at:1), (pv:1032,at:1), (pv:1033,at:2), (pv:1034,at:1), (pv:1035,at:1), (pv:1036,at:1), (pv:1037,at:1), (pv:1038,at:1), (pv:1039,at:1), (pv:1040,at:1), (pv:1041,at:1), (pv:1042,at:1), (pv:1043,at:1), (pv:1044,at:1), (pv:1045,at:1), (pv:1046,at:3), (pv:1047,at:3), (pv:1048,at:1), (pv:1049,at:1), (pv:1050,at:1), (pv:1051,at:2), (pv:1052,at:3), (pv:1053,at:2), (pv:1054,at:2), (pv:1055,at:1), (pv:1056,at:3), (pv:1057,at:2), (pv:1058,at:1), (pv:1059,at:2), (pv:1060,at:4), (pv:1061,at:3), (pv:1062,at:1), (pv:1063,at:2), (pv:1064,at:1), (pv:1065,at:1), (pv:1066,at:2), (pv:1067,at:3), (pv:1068,at:3), (pv:1069,at:3), (pv:1070,at:1), (pv:1071,at:1), (pv:1072,at:1), (pv:1073,at:1), (pv:1074,at:1), (pv:1075,at:1), (pv:1076,at:1), (pv:1077,at:1), (pv:1078,at:1), (pv:1079,at:2), (pv:1080,at:2), (pv:1081,at:1), (pv:1082,at:1), (pv:1083,at:2), (pv:1084,at:1), (pv:1085,at:2), (pv:1086,at:1), (pv:1087,at:1), (pv:1088,at:2), (pv:1089,at:4), (pv:1090,at:1), (pv:1091,at:2), (pv:1092,at:1), (pv:1093,at:5), (pv:1094,at:3), (pv:1095,at:2), (pv:1096,at:3), (pv:1097,at:1), (pv:1098,at:2), (pv:1099,at:1), (pv:1100,at:6), (pv:1101,at:2), (pv:1102,at:1), (pv:1103,at:2), (pv:1104,at:1), (pv:1105,at:1), (pv:1106,at:2), (pv:1107,at:2), (pv:1108,at:2), (pv:1109,at:1), (pv:1110,at:2), (pv:1111,at:2), (pv:1112,at:2), (pv:1113,at:2), (pv:1114,at:1), (pv:1115,at:1), (pv:1116,at:1), (pv:1117,at:1), (pv:1118,at:4), (pv:1119,at:1), (pv:1120,at:1), (pv:1121,at:3), (pv:1122,at:1), (pv:1123,at:3), (pv:1124,at:1), (pv:1125,at:2), (pv:1126,at:1), (pv:1127,at:2), (pv:1128,at:2), (pv:1129,at:1), (pv:1130,at:1), (pv:1131,at:1), (pv:1132,at:1), (pv:1133,at:2), (pv:1134,at:2), (pv:1135,at:3), (pv:1136,at:2), (pv:1137,at:5), (pv:1138,at:3), (pv:1139,at:2), (pv:1140,at:2), (pv:1141,at:1), (pv:1142,at:1), (pv:1143,at:1), (pv:1144,at:1), (pv:1145,at:1), (pv:1146,at:1), (pv:1147,at:1), (pv:1148,at:1), (pv:1149,at:1), (pv:1150,at:1), (pv:1151,at:1), (pv:1152,at:1), (pv:1153,at:2), (pv:1154,at:1), (pv:1155,at:2), (pv:1156,at:1), (pv:1157,at:5), (pv:1158,at:2), (pv:1159,at:7), (pv:1160,at:2), (pv:1161,at:1), (pv:1162,at:1), (pv:1163,at:1), (pv:1164,at:3), (pv:1165,at:1), (pv:1166,at:2), (pv:1167,at:2), (pv:1168,at:2), (pv:1169,at:2), (pv:1170,at:1), (pv:1171,at:2), (pv:1172,at:1), (pv:1173,at:2), (pv:1174,at:1), (pv:1175,at:1), (pv:1176,at:1), (pv:1177,at:1), (pv:1178,at:1), (pv:1179,at:1), (pv:1180,at:1), (pv:1181,at:1), (pv:1182,at:2), (pv:1183,at:1), (pv:1184,at:1), (pv:1185,at:1), (pv:1186,at:4), (pv:1187,at:1), (pv:1188,at:1), (pv:1189,at:1), (pv:1190,at:1), (pv:1191,at:2), (pv:1192,at:2), (pv:1193,at:1), (pv:1194,at:1), (pv:1195,at:4), (pv:1196,at:3), (pv:1197,at:1), (pv:1198,at:1), (pv:1199,at:1), (pv:1200,at:1), (pv:1201,at:1), (pv:1202,at:1), (pv:1203,at:1), (pv:1204,at:3), (pv:1205,at:2), (pv:1206,at:1), (pv:1207,at:2), (pv:1208,at:1), (pv:1209,at:2), (pv:1210,at:1), (pv:1211,at:1), (pv:1212,at:1), (pv:1213,at:3), (pv:1214,at:1), (pv:1215,at:1), (pv:1216,at:1), (pv:1217,at:1), (pv:1218,at:4), (pv:1219,at:1), (pv:1220,at:2), (pv:1221,at:1), (pv:1222,at:1), (pv:1223,at:2), (pv:1224,at:1), (pv:1225,at:2), (pv:1226,at:1), (pv:1227,at:2), (pv:1228,at:1), (pv:1229,at:3), (pv:1230,at:2), (pv:1231,at:1), (pv:1232,at:3), (pv:1233,at:3), (pv:1234,at:2), (pv:1235,at:1), (pv:1236,at:1), (pv:1237,at:1), (pv:1238,at:2), (pv:1239,at:2), (pv:1240,at:2), (pv:1241,at:3), (pv:1242,at:1), (pv:1243,at:1), (pv:1244,at:3), (pv:1245,at:3), (pv:1246,at:2), (pv:1247,at:2), (pv:1248,at:4), (pv:1249,at:1), (pv:1250,at:1), (pv:1251,at:1), (pv:1252,at:1), (pv:1253,at:1), (pv:1254,at:1), (pv:1255,at:2), (pv:1256,at:1), (pv:1257,at:1), (pv:1258,at:1), (pv:1259,at:1), (pv:1260,at:1), (pv:1261,at:1), (pv:1262,at:1), (pv:1263,at:1), (pv:1264,at:2), (pv:1265,at:1), (pv:1266,at:4), (pv:1267,at:5), (pv:1268,at:2), (pv:1269,at:2), (pv:1270,at:1), (pv:1271,at:1), (pv:1272,at:1), (pv:1273,at:1), (pv:1274,at:2), (pv:1275,at:1), (pv:1276,at:3), (pv:1277,at:1), (pv:1278,at:2), (pv:1279,at:1), (pv:1280,at:1), (pv:1281,at:1), (pv:1282,at:1), (pv:1283,at:2), (pv:1284,at:6), (pv:1285,at:1), (pv:1286,at:1), (pv:1287,at:1), (pv:1288,at:1), (pv:1289,at:1), (pv:1290,at:1), (pv:1291,at:1), (pv:1292,at:2), (pv:1293,at:2), (pv:1294,at:2), (pv:1295,at:3), (pv:1296,at:1), (pv:1297,at:1), (pv:1298,at:5), (pv:1299,at:4), (pv:1300,at:1), (pv:1301,at:3), (pv:1302,at:3), (pv:1303,at:3), (pv:1304,at:1), (pv:1305,at:2), (pv:1306,at:1), (pv:1307,at:2), (pv:1308,at:2), (pv:1309,at:1), (pv:1310,at:2), (pv:1311,at:5), (pv:1312,at:1), (pv:1313,at:1), (pv:1314,at:1), (pv:1315,at:2), (pv:1316,at:1), (pv:1317,at:3), (pv:1318,at:1), (pv:1319,at:3), (pv:1320,at:1), (pv:1321,at:1), (pv:1322,at:1), (pv:1323,at:4), (pv:1324,at:2), (pv:1325,at:1), (pv:1326,at:3), (pv:1327,at:1), (pv:1328,at:1), (pv:1329,at:2), (pv:1330,at:1), (pv:1331,at:1), (pv:1332,at:1), (pv:1333,at:1), (pv:1334,at:2), (pv:1335,at:1), (pv:1336,at:1), (pv:1337,at:4), (pv:1338,at:2), (pv:1339,at:1), (pv:1340,at:1), (pv:1341,at:2), (pv:1342,at:1), (pv:1343,at:1), (pv:1344,at:1), (pv:1345,at:2), (pv:1346,at:1), (pv:1347,at:1), (pv:1348,at:2), (pv:1349,at:2), (pv:1350,at:3), (pv:1351,at:2), (pv:1352,at:3), (pv:1353,at:1), (pv:1354,at:3), (pv:1355,at:6), (pv:1356,at:2), (pv:1357,at:3), (pv:1358,at:1), (pv:1359,at:1), (pv:1360,at:1), (pv:1361,at:1), (pv:1362,at:1), (pv:1363,at:1), (pv:1364,at:1), (pv:1365,at:1), (pv:1366,at:1), (pv:1367,at:1), (pv:1368,at:3), (pv:1369,at:3), (pv:1370,at:5), (pv:1371,at:1), (pv:1372,at:1), (pv:1373,at:1), (pv:1374,at:1), (pv:1375,at:1), (pv:1376,at:1), (pv:1377,at:1), (pv:1378,at:1), (pv:1379,at:1), (pv:1380,at:1), (pv:1381,at:1), (pv:1382,at:1), (pv:1383,at:2), (pv:1384,at:1), (pv:1385,at:8), (pv:1386,at:3), (pv:1387,at:1), (pv:1388,at:1), (pv:1389,at:1), (pv:1390,at:1), (pv:1391,at:1), (pv:1392,at:1), (pv:1393,at:1), (pv:1394,at:1), (pv:1395,at:1), (pv:1396,at:1), (pv:1397,at:1), (pv:1398,at:1), (pv:1399,at:1), (pv:1400,at:2), (pv:1401,at:4), (pv:1402,at:2), (pv:1403,at:1), (pv:1404,at:2), (pv:1405,at:1), (pv:1406,at:1), (pv:1407,at:2), (pv:1408,at:1), (pv:1409,at:1), (pv:1410,at:2), (pv:1411,at:1), (pv:1412,at:1), (pv:1413,at:2), (pv:1414,at:1), (pv:1415,at:2), (pv:1416,at:1), (pv:1417,at:1), (pv:1418,at:1), (pv:1419,at:1), (pv:1420,at:2), (pv:1421,at:2), (pv:1422,at:1), (pv:1423,at:1), (pv:1424,at:4), (pv:1425,at:1), (pv:1426,at:1), (pv:1427,at:2), (pv:1428,at:1), (pv:1429,at:2), (pv:1430,at:2), (pv:1431,at:2), (pv:1432,at:1), (pv:1433,at:1), (pv:1434,at:2), (pv:1435,at:2), (pv:1436,at:2), (pv:1437,at:1), (pv:1438,at:1), (pv:1439,at:2), (pv:1440,at:1), (pv:1441,at:1), (pv:1442,at:3), (pv:1443,at:1), (pv:1444,at:1), (pv:1445,at:1), (pv:1446,at:2), (pv:1447,at:1), (pv:1448,at:1), (pv:1449,at:2), (pv:1450,at:1), (pv:1451,at:1), (pv:1452,at:1), (pv:1453,at:2), (pv:1454,at:1), (pv:1455,at:1), (pv:1456,at:1), (pv:1457,at:2), (pv:1458,at:1), (pv:1459,at:3), (pv:1460,at:1), (pv:1461,at:3), (pv:1463,at:3), (pv:1464,at:1), (pv:1465,at:1), (pv:1466,at:1), (pv:1467,at:2), (pv:1468,at:1), (pv:1469,at:1), (pv:1470,at:1), (pv:1471,at:2), (pv:1472,at:1), (pv:1473,at:4), (pv:1474,at:3), (pv:1475,at:3), (pv:1477,at:2), (pv:1478,at:4), (pv:1479,at:2), (pv:1480,at:1), (pv:1481,at:1), (pv:1482,at:2), (pv:1483,at:3), (pv:1485,at:2), (pv:1486,at:2), (pv:1487,at:1), (pv:1489,at:1), (pv:1490,at:1), (pv:1499,at:1), (pv:1501,at:1)]
[INFO ] fr.inria.main.evolution.AstorMain.run(AstorMain.java:163) - Time Total(s): 10882.498
