Warning: no access to tty (Bad file descriptor).
Thus no job control in this shell.
tput: No value for $TERM and no -T specified
Node: wh39.sciclone.wm.edu
[INFO ] fr.inria.main.AbstractMain.processArguments(AbstractMain.java:295) - command line arguments: [-out  /local/scr/mtufano/Closure/46/b/similar-global-types-default/2  -jvm4testexecution  /usr/local/jdk1.7.0_80/bin/  -loglevel  INFO  -maxVarCombination  1000  -maxgen  1000000  -population  1  -maxtime  180  -timezone  America/New_York  -customop  fr.inria.astor.approaches.jgenprog.operators.InsertAfterOp:fr.inria.astor.approaches.jgenprog.operators.InsertBeforeOp:fr.inria.astor.approaches.jgenprog.operators.ReplaceOp  -seed  2  -javacompliancelevel  6  -package  com.google  -binjavafolder  build/classes/  -bintestfolder  build/test/  -srcjavafolder  src/  -srctestfolder  test  -learningdir  ../../out/learningdir/Closure/46/b/  -location  ../../dat/defects4j/Closure/46/b/  -failing  com.google.javascript.rhino.jstype.RecordTypeTest:com.google.javascript.rhino.jstype.JSTypeTest  -dependencies  ../../dat/defects4j/Closure/46/b/lib/ant-launcher.jar:../../dat/defects4j/Closure/46/b/lib/caja-r4314.jar:../../dat/defects4j/Closure/46/b/lib/json.jar:../../dat/defects4j/Closure/46/b/lib/jsr305.jar:../../dat/defects4j/Closure/46/b/lib/args4j.jar:../../dat/defects4j/Closure/46/b/lib/ant.jar:../../dat/defects4j/Closure/46/b/lib/jarjar.jar:../../dat/defects4j/Closure/46/b/lib/junit.jar:../../dat/defects4j/Closure/46/b/lib/guava.jar:../../dat/defects4j/Closure/46/b/lib/protobuf-java.jar:../../dat/defects4j/Closure/46/b/build/lib/rhino1_7R3pre/js.jar:../../dat/defects4j/Closure/46/b/build/lib/rhino.jar:../../dat/defects4j/Closure/46/b/build/classes:../../dat/defects4j/Closure/46/b/build/test  -scope  fr.inria.astor.core.loop.spaces.ingredients.scopes.ctscopes.CtGlobalIngredientScope  -ingredientstrategy  fr.inria.astor.core.loop.spaces.ingredients.ingredientSearch.CloneIngredientSearchStrategy  -clonegranularity  spoon.reflect.declaration.CtType  -classestoinstrument  com.google.javascript.rhino.jstype.StringType:com.google.javascript.rhino.Node:com.google.javascript.rhino.jstype.NumberType:com.google.javascript.rhino.jstype.PrototypeObjectType:com.google.javascript.rhino.jstype.TemplateType:com.google.javascript.rhino.jstype.JSTypeRegistry:com.google.javascript.rhino.SimpleErrorReporter:com.google.javascript.rhino.jstype.ObjectType:com.google.javascript.rhino.jstype.FunctionType:com.google.javascript.rhino.jstype.RecordTypeBuilder:com.google.javascript.rhino.jstype.JSType:com.google.javascript.rhino.jstype.UnresolvedTypeExpression:com.google.javascript.rhino.jstype.NoType:com.google.javascript.rhino.jstype.UnionTypeBuilder:com.google.javascript.rhino.jstype.AllType:com.google.javascript.rhino.jstype.ValueType:com.google.javascript.rhino.ErrorReporter:com.google.javascript.rhino.jstype.JSTypeNative:com.google.javascript.rhino.jstype.StaticScope:com.google.javascript.rhino.jstype.TernaryValue:com.google.javascript.rhino.jstype.SimpleSlot:com.google.javascript.rhino.JSTypeExpression:com.google.javascript.rhino.jstype.NamedType:com.google.javascript.rhino.jstype.StaticSlot:com.google.javascript.rhino.jstype.RecordType:com.google.javascript.rhino.jstype.NoResolvedType:com.google.javascript.rhino.jstype.InstanceObjectType:com.google.javascript.rhino.jstype.FunctionBuilder:com.google.javascript.rhino.jstype.StaticReference:com.google.javascript.rhino.jstype.IndexedType:com.google.javascript.rhino.jstype.VoidType:com.google.javascript.rhino.jstype.UnknownType:com.google.javascript.rhino.jstype.ErrorFunctionType:com.google.javascript.rhino.jstype.EnumElementType:com.google.javascript.rhino.jstype.NoObjectType:com.google.javascript.rhino.jstype.NullType:com.google.javascript.rhino.jstype.EnumType:com.google.javascript.rhino.jstype.ArrowType:com.google.javascript.rhino.jstype.ProxyObjectType:com.google.javascript.rhino.jstype.ParameterizedType:com.google.javascript.rhino.jstype.FunctionParamBuilder:com.google.javascript.rhino.jstype.BooleanType:com.google.javascript.rhino.jstype.UnionType:  -regressiontestcases4fl  com.google.javascript.jscomp.InlineFunctionsTest:com.google.javascript.jscomp.LooseTypeCheckTest:com.google.javascript.jscomp.NameAnalyzerTest:com.google.javascript.jscomp.PeepholeFoldConstantsTest:com.google.javascript.jscomp.PeepholeSubstituteAlternateSyntaxTest:com.google.javascript.jscomp.PureFunctionIdentifierTest:com.google.javascript.jscomp.TypeCheckTest:com.google.javascript.jscomp.TypedScopeCreatorTest:com.google.javascript.jscomp.parsing.JsDocInfoParserTest:com.google.javascript.jscomp.parsing.ParserTest:com.google.javascript.rhino.jstype.JSTypeRegistryTest:com.google.javascript.rhino.jstype.JSTypeTest:com.google.javascript.rhino.jstype.RecordTypeTest:]
[INFO ] fr.inria.astor.core.manipulation.MutationSupporter.buildModel(MutationSupporter.java:76) - building model: /local/scr/mtufano/Closure/46/b/similar-global-types-default/2/AstorMain-b//src//default, compliance level: 6
[INFO ] fr.inria.astor.core.manipulation.MutationSupporter.buildModel(MutationSupporter.java:85) - Classpath for building SpoonModel [/sciclone/data20/mtufano/deeprepair/bin/eval/../../dat/defects4j/Closure/46/b/lib/ant-launcher.jar, /sciclone/data20/mtufano/deeprepair/bin/eval/../../dat/defects4j/Closure/46/b/lib/caja-r4314.jar, /sciclone/data20/mtufano/deeprepair/bin/eval/../../dat/defects4j/Closure/46/b/lib/json.jar, /sciclone/data20/mtufano/deeprepair/bin/eval/../../dat/defects4j/Closure/46/b/lib/jsr305.jar, /sciclone/data20/mtufano/deeprepair/bin/eval/../../dat/defects4j/Closure/46/b/lib/args4j.jar, /sciclone/data20/mtufano/deeprepair/bin/eval/../../dat/defects4j/Closure/46/b/lib/ant.jar, /sciclone/data20/mtufano/deeprepair/bin/eval/../../dat/defects4j/Closure/46/b/lib/jarjar.jar, /sciclone/data20/mtufano/deeprepair/bin/eval/../../dat/defects4j/Closure/46/b/lib/junit.jar, /sciclone/data20/mtufano/deeprepair/bin/eval/../../dat/defects4j/Closure/46/b/lib/guava.jar, /sciclone/data20/mtufano/deeprepair/bin/eval/../../dat/defects4j/Closure/46/b/lib/protobuf-java.jar, /sciclone/data20/mtufano/deeprepair/bin/eval/../../dat/defects4j/Closure/46/b/build/lib/rhino1_7R3pre/js.jar, /sciclone/data20/mtufano/deeprepair/bin/eval/../../dat/defects4j/Closure/46/b/build/lib/rhino.jar, /sciclone/data20/mtufano/deeprepair/bin/eval/../../dat/defects4j/Closure/46/b/build/classes/, /sciclone/data20/mtufano/deeprepair/bin/eval/../../dat/defects4j/Closure/46/b/build/test/]
[INFO ] fr.inria.astor.core.setup.ProjectRepairFacade.calculateSuspicious(ProjectRepairFacade.java:215) - -Executing Gzoltar classpath: /local/scr/mtufano/Closure/46/b/similar-global-types-default/2/AstorMain-b//bin//default from 13 classes with test cases
[INFO ] fr.inria.astor.core.faultlocalization.GZoltarFaultLocalization.searchSuspicious(GZoltarFaultLocalization.java:37) - Gzoltar fault localization: min susp value parameter: 0.1
[INFO ] fr.inria.astor.core.faultlocalization.GZoltarFaultLocalization.searchSuspicious(GZoltarFaultLocalization.java:57) - -gz-Adding classpath: [/local/scr/mtufano/Closure/46/b/similar-global-types-default/2/AstorMain-b//bin//default, /sciclone/data20/mtufano/deeprepair/bin/eval/../../dat/defects4j/Closure/46/b/lib/jsr305.jar, /sciclone/data20/mtufano/deeprepair/bin/eval/../../dat/defects4j/Closure/46/b/lib/caja-r4314.jar, /sciclone/data20/mtufano/deeprepair/bin/eval/../../dat/defects4j/Closure/46/b/lib/junit.jar, /sciclone/data20/mtufano/deeprepair/bin/eval/../../dat/defects4j/Closure/46/b/build/classes/, /sciclone/data20/mtufano/deeprepair/bin/eval/../../dat/defects4j/Closure/46/b/lib/ant-launcher.jar, /sciclone/data20/mtufano/deeprepair/bin/eval/../../dat/defects4j/Closure/46/b/build/lib/rhino1_7R3pre/js.jar, /sciclone/data20/mtufano/deeprepair/bin/eval/../../dat/defects4j/Closure/46/b/lib/guava.jar, /sciclone/data20/mtufano/deeprepair/bin/eval/../../dat/defects4j/Closure/46/b/lib/json.jar, /sciclone/data20/mtufano/deeprepair/bin/eval/../../dat/defects4j/Closure/46/b/lib/jarjar.jar, /sciclone/data20/mtufano/deeprepair/bin/eval/../../dat/defects4j/Closure/46/b/lib/ant.jar, /sciclone/data20/mtufano/deeprepair/bin/eval/../../dat/defects4j/Closure/46/b/lib/args4j.jar, /sciclone/data20/mtufano/deeprepair/bin/eval/../../dat/defects4j/Closure/46/b/lib/protobuf-java.jar, /sciclone/data20/mtufano/deeprepair/bin/eval/../../dat/defects4j/Closure/46/b/build/lib/rhino.jar, /sciclone/data20/mtufano/deeprepair/bin/eval/../../dat/defects4j/Closure/46/b/build/test/]
[INFO ] fr.inria.astor.core.faultlocalization.GZoltarFaultLocalization.searchSuspicious(GZoltarFaultLocalization.java:76) - Test failt: com.google.javascript.rhino.jstype.RecordTypeTest#testSupAndInf
[INFO ] fr.inria.astor.core.faultlocalization.GZoltarFaultLocalization.searchSuspicious(GZoltarFaultLocalization.java:76) - Test failt: com.google.javascript.rhino.jstype.JSTypeTest#testRecordTypeLeastSuperType2
[INFO ] fr.inria.astor.core.faultlocalization.GZoltarFaultLocalization.searchSuspicious(GZoltarFaultLocalization.java:76) - Test failt: com.google.javascript.rhino.jstype.JSTypeTest#testRecordTypeLeastSuperType3
[INFO ] fr.inria.astor.core.faultlocalization.GZoltarFaultLocalization.searchSuspicious(GZoltarFaultLocalization.java:81) - Gzoltar Test Result Total:3218, fails: 3, GZoltar suspicious 17376
[INFO ] fr.inria.astor.core.faultlocalization.GZoltarFaultLocalization.searchSuspicious(GZoltarFaultLocalization.java:123) - Gzoltar found: 107 with susp > 0.1, we consider: 107
[INFO ] fr.inria.astor.approaches.jgenprog.JGenProg.initPopulation(JGenProg.java:80) - 
---- Initial suspicious size: 107
[INFO ] fr.inria.astor.core.loop.population.ProgramVariantFactory.createProgramInstance(ProgramVariantFactory.java:126) - -any mod point created for suspicious Candidate [className=com.google.javascript.rhino.jstype.RecordType, methodName=com.google.javascript.rhino.jstype.RecordType{getLeastSupertype(Lcom/google/javascript/rhino/jstype/JSType;)Lcom/google/javascript/rhino/jstype/JSType; 0.0, lineNumber=153, susp=0.5477225575051661]
[INFO ] fr.inria.astor.core.loop.population.ProgramVariantFactory.createProgramInstance(ProgramVariantFactory.java:126) - -any mod point created for suspicious Candidate [className=com.google.javascript.rhino.jstype.RecordType, methodName=com.google.javascript.rhino.jstype.RecordType{getGreatestSubtypeHelper(Lcom/google/javascript/rhino/jstype/JSType;)Lcom/google/javascript/rhino/jstype/JSType; 0.0, lineNumber=173, susp=0.4082482904638631]
[INFO ] fr.inria.astor.core.loop.population.ProgramVariantFactory.createProgramInstance(ProgramVariantFactory.java:126) - -any mod point created for suspicious Candidate [className=com.google.javascript.rhino.jstype.RecordType, methodName=com.google.javascript.rhino.jstype.RecordType{getGreatestSubtypeHelper(Lcom/google/javascript/rhino/jstype/JSType;)Lcom/google/javascript/rhino/jstype/JSType; 0.0, lineNumber=180, susp=0.4082482904638631]
[INFO ] fr.inria.astor.core.loop.population.ProgramVariantFactory.createProgramInstance(ProgramVariantFactory.java:126) - -any mod point created for suspicious Candidate [className=com.google.javascript.rhino.jstype.PrototypeObjectType, methodName=com.google.javascript.rhino.jstype.PrototypeObjectType{toString()Ljava/lang/String; 0.0, lineNumber=387, susp=0.2672612419124244]
[INFO ] fr.inria.astor.core.loop.population.ProgramVariantFactory.createProgramInstance(ProgramVariantFactory.java:126) - -any mod point created for suspicious Candidate [className=com.google.javascript.rhino.jstype.PrototypeObjectType, methodName=com.google.javascript.rhino.jstype.PrototypeObjectType{toString()Ljava/lang/String; 0.0, lineNumber=363, susp=0.22941573387056177]
[INFO ] fr.inria.astor.core.loop.population.ProgramVariantFactory.createProgramInstance(ProgramVariantFactory.java:126) - -any mod point created for suspicious Candidate [className=com.google.javascript.rhino.jstype.RecordType, methodName=com.google.javascript.rhino.jstype.RecordType{isSubtype(Lcom/google/javascript/rhino/jstype/ObjectType;Lcom/google/javascript/rhino/jstype/RecordType;)Z 0.0, lineNumber=281, susp=0.2182178902359924]
[INFO ] fr.inria.astor.core.loop.population.ProgramVariantFactory.createProgramInstance(ProgramVariantFactory.java:126) - -any mod point created for suspicious Candidate [className=com.google.javascript.rhino.jstype.RecordType, methodName=com.google.javascript.rhino.jstype.RecordType{isEquivalentTo(Lcom/google/javascript/rhino/jstype/JSType;)Z 0.0, lineNumber=116, susp=0.13245323570650439]
[INFO ] fr.inria.astor.core.loop.population.ProgramVariantFactory.createProgramInstance(ProgramVariantFactory.java:126) - -any mod point created for suspicious Candidate [className=com.google.javascript.rhino.jstype.JSType$1, methodName=com.google.javascript.rhino.jstype.JSType$1{compare(Ljava/lang/Object;Ljava/lang/Object;)I 0.0, lineNumber=90, susp=0.12838814775327387]
[INFO ] fr.inria.astor.core.loop.population.ProgramVariantFactory.createProgramInstance(ProgramVariantFactory.java:126) - -any mod point created for suspicious Candidate [className=com.google.javascript.rhino.jstype.UnionType, methodName=com.google.javascript.rhino.jstype.UnionType{toString()Ljava/lang/String; 0.0, lineNumber=417, susp=0.12838814775327387]
[INFO ] fr.inria.astor.core.loop.population.ProgramVariantFactory.createProgramInstance(ProgramVariantFactory.java:130) - Total suspicious from FL: 107,  98
[INFO ] fr.inria.astor.core.loop.population.ProgramVariantFactory.createProgramInstance(ProgramVariantFactory.java:138) - Total ModPoint created: 98
[INFO ] fr.inria.astor.core.loop.population.ProgramVariantFactory.createInitialPopulation(ProgramVariantFactory.java:82) - Creating program variant #1, [Variant id: 1, #gens: 98, #ops: 0, parent:-]
[INFO ] fr.inria.astor.core.validation.executors.JUnitExecutorProcess.execute(JUnitExecutorProcess.java:120) - The Process that runs JUnit test cases had problems: process hasn't exited
[INFO ] fr.inria.astor.core.setup.ConfigurationProperties.print(ConfigurationProperties.java:63) - ----------------------------
[INFO ] fr.inria.astor.core.setup.ConfigurationProperties.print(ConfigurationProperties.java:64) - ---Configuration properties:---Execution values
[INFO ] fr.inria.astor.core.setup.ConfigurationProperties.print(ConfigurationProperties.java:66) - p:lastJUnitVersion= ./examples/libs/junit-4.11.jar
[INFO ] fr.inria.astor.core.setup.ConfigurationProperties.print(ConfigurationProperties.java:66) - p:alternativecompliancelevel= 4
[INFO ] fr.inria.astor.core.setup.ConfigurationProperties.print(ConfigurationProperties.java:66) - p:ignoredTestCases= 
[INFO ] fr.inria.astor.core.setup.ConfigurationProperties.print(ConfigurationProperties.java:66) - p:workingDirectory= /local/scr/mtufano/Closure/46/b/similar-global-types-default/2
[INFO ] fr.inria.astor.core.setup.ConfigurationProperties.print(ConfigurationProperties.java:66) - p:manipulatesuper= false
[INFO ] fr.inria.astor.core.setup.ConfigurationProperties.print(ConfigurationProperties.java:66) - p:validation= process
[INFO ] fr.inria.astor.core.setup.ConfigurationProperties.print(ConfigurationProperties.java:66) - p:jvm4testexecution= /usr/local/jdk1.7.0_80/bin/
[INFO ] fr.inria.astor.core.setup.ConfigurationProperties.print(ConfigurationProperties.java:66) - p:binjavafolder= build/classes/
[INFO ] fr.inria.astor.core.setup.ConfigurationProperties.print(ConfigurationProperties.java:66) - p:evosuiteresultfolder= evosuite
[INFO ] fr.inria.astor.core.setup.ConfigurationProperties.print(ConfigurationProperties.java:66) - p:flthreshold= 0.1
[INFO ] fr.inria.astor.core.setup.ConfigurationProperties.print(ConfigurationProperties.java:66) - p:regressionforfaultlocalization= true
[INFO ] fr.inria.astor.core.setup.ConfigurationProperties.print(ConfigurationProperties.java:66) - p:tmax2= 960000
[INFO ] fr.inria.astor.core.setup.ConfigurationProperties.print(ConfigurationProperties.java:66) - p:tmax1= 120000
[INFO ] fr.inria.astor.core.setup.ConfigurationProperties.print(ConfigurationProperties.java:66) - p:probagenmutation= false
[INFO ] fr.inria.astor.core.setup.ConfigurationProperties.print(ConfigurationProperties.java:66) - p:srctestfolder= test
[INFO ] fr.inria.astor.core.setup.ConfigurationProperties.print(ConfigurationProperties.java:66) - p:customop= fr.inria.astor.approaches.jgenprog.operators.InsertAfterOp:fr.inria.astor.approaches.jgenprog.operators.InsertBeforeOp:fr.inria.astor.approaches.jgenprog.operators.ReplaceOp
[INFO ] fr.inria.astor.core.setup.ConfigurationProperties.print(ConfigurationProperties.java:66) - p:forceExecuteRegression= false
[INFO ] fr.inria.astor.core.setup.ConfigurationProperties.print(ConfigurationProperties.java:66) - p:clusteringfilename= clustering.csv
[INFO ] fr.inria.astor.core.setup.ConfigurationProperties.print(ConfigurationProperties.java:66) - p:failing= com.google.javascript.rhino.jstype.RecordTypeTest:com.google.javascript.rhino.jstype.JSTypeTest
[INFO ] fr.inria.astor.core.setup.ConfigurationProperties.print(ConfigurationProperties.java:66) - p:evo_buggy_class= true
[INFO ] fr.inria.astor.core.setup.ConfigurationProperties.print(ConfigurationProperties.java:66) - p:numberExecutions= 1
[INFO ] fr.inria.astor.core.setup.ConfigurationProperties.print(ConfigurationProperties.java:66) - p:evo_affected_by_op= true
[INFO ] fr.inria.astor.core.setup.ConfigurationProperties.print(ConfigurationProperties.java:66) - p:population= 1
[INFO ] fr.inria.astor.core.setup.ConfigurationProperties.print(ConfigurationProperties.java:66) - p:clonegranularity= spoon.reflect.declaration.CtType
[INFO ] fr.inria.astor.core.setup.ConfigurationProperties.print(ConfigurationProperties.java:66) - p:regressiontestcases4fl= com.google.javascript.jscomp.InlineFunctionsTest:com.google.javascript.jscomp.LooseTypeCheckTest:com.google.javascript.jscomp.NameAnalyzerTest:com.google.javascript.jscomp.PeepholeFoldConstantsTest:com.google.javascript.jscomp.PeepholeSubstituteAlternateSyntaxTest:com.google.javascript.jscomp.PureFunctionIdentifierTest:com.google.javascript.jscomp.TypeCheckTest:com.google.javascript.jscomp.TypedScopeCreatorTest:com.google.javascript.jscomp.parsing.JsDocInfoParserTest:com.google.javascript.jscomp.parsing.ParserTest:com.google.javascript.rhino.jstype.JSTypeRegistryTest:com.google.javascript.rhino.jstype.JSTypeTest:com.google.javascript.rhino.jstype.RecordTypeTest:
[INFO ] fr.inria.astor.core.setup.ConfigurationProperties.print(ConfigurationProperties.java:66) - p:savesolution= true
[INFO ] fr.inria.astor.core.setup.ConfigurationProperties.print(ConfigurationProperties.java:66) - p:javacompliancelevel= 6
[INFO ] fr.inria.astor.core.setup.ConfigurationProperties.print(ConfigurationProperties.java:66) - p:uniqueoptogen= false
[INFO ] fr.inria.astor.core.setup.ConfigurationProperties.print(ConfigurationProperties.java:66) - p:projectIdentifier= 
[INFO ] fr.inria.astor.core.setup.ConfigurationProperties.print(ConfigurationProperties.java:66) - p:modificationpointnavigation= weight
[INFO ] fr.inria.astor.core.setup.ConfigurationProperties.print(ConfigurationProperties.java:66) - p:stopfirst= false
[INFO ] fr.inria.astor.core.setup.ConfigurationProperties.print(ConfigurationProperties.java:66) - p:multipointmodification= false
[INFO ] fr.inria.astor.core.setup.ConfigurationProperties.print(ConfigurationProperties.java:66) - p:elementsToMutate= 10
[INFO ] fr.inria.astor.core.setup.ConfigurationProperties.print(ConfigurationProperties.java:66) - p:evoDSE= false
[INFO ] fr.inria.astor.core.setup.ConfigurationProperties.print(ConfigurationProperties.java:66) - p:bintestfolder= build/test/
[INFO ] fr.inria.astor.core.setup.ConfigurationProperties.print(ConfigurationProperties.java:66) - p:testbystep= false
[INFO ] fr.inria.astor.core.setup.ConfigurationProperties.print(ConfigurationProperties.java:66) - p:version-location= ./math-version/
[INFO ] fr.inria.astor.core.setup.ConfigurationProperties.print(ConfigurationProperties.java:66) - p:reintroduce= PARENTS
[INFO ] fr.inria.astor.core.setup.ConfigurationProperties.print(ConfigurationProperties.java:66) - p:maxGeneration= 1000000
[INFO ] fr.inria.astor.core.setup.ConfigurationProperties.print(ConfigurationProperties.java:66) - p:maxVarCombination= 1000
[INFO ] fr.inria.astor.core.setup.ConfigurationProperties.print(ConfigurationProperties.java:66) - p:maxtime= 180
[INFO ] fr.inria.astor.core.setup.ConfigurationProperties.print(ConfigurationProperties.java:66) - p:evosuitejar= ./lib/evosuite-master-1.0.4-SNAPSHOT.jar
[INFO ] fr.inria.astor.core.setup.ConfigurationProperties.print(ConfigurationProperties.java:66) - p:commandTrunk= 50000
[INFO ] fr.inria.astor.core.setup.ConfigurationProperties.print(ConfigurationProperties.java:66) - p:faultlocalization= fr.inria.astor.core.faultlocalization.GZoltarFaultLocalization
[INFO ] fr.inria.astor.core.setup.ConfigurationProperties.print(ConfigurationProperties.java:66) - p:maxsuspcandidates= 1000
[INFO ] fr.inria.astor.core.setup.ConfigurationProperties.print(ConfigurationProperties.java:66) - p:mode= statement
[INFO ] fr.inria.astor.core.setup.ConfigurationProperties.print(ConfigurationProperties.java:66) - p:learningdir= ../../out/learningdir/Closure/46/b/
[INFO ] fr.inria.astor.core.setup.ConfigurationProperties.print(ConfigurationProperties.java:66) - p:jvm4evosuitetestexecution= /usr/local/jdk1.7.0_80/bin/
[INFO ] fr.inria.astor.core.setup.ConfigurationProperties.print(ConfigurationProperties.java:66) - p:filterfaultlocalization= true
[INFO ] fr.inria.astor.core.setup.ConfigurationProperties.print(ConfigurationProperties.java:66) - p:mutationrate= 1 
[INFO ] fr.inria.astor.core.setup.ConfigurationProperties.print(ConfigurationProperties.java:66) - p:pathToMVNRepository= 
[INFO ] fr.inria.astor.core.setup.ConfigurationProperties.print(ConfigurationProperties.java:66) - p:resourcesfolder= /src/main/resources:/src/test/resources:
[INFO ] fr.inria.astor.core.setup.ConfigurationProperties.print(ConfigurationProperties.java:66) - p:timezone= America/New_York
[INFO ] fr.inria.astor.core.setup.ConfigurationProperties.print(ConfigurationProperties.java:66) - p:classestoinstrument= com.google.javascript.rhino.jstype.StringType:com.google.javascript.rhino.Node:com.google.javascript.rhino.jstype.NumberType:com.google.javascript.rhino.jstype.PrototypeObjectType:com.google.javascript.rhino.jstype.TemplateType:com.google.javascript.rhino.jstype.JSTypeRegistry:com.google.javascript.rhino.SimpleErrorReporter:com.google.javascript.rhino.jstype.ObjectType:com.google.javascript.rhino.jstype.FunctionType:com.google.javascript.rhino.jstype.RecordTypeBuilder:com.google.javascript.rhino.jstype.JSType:com.google.javascript.rhino.jstype.UnresolvedTypeExpression:com.google.javascript.rhino.jstype.NoType:com.google.javascript.rhino.jstype.UnionTypeBuilder:com.google.javascript.rhino.jstype.AllType:com.google.javascript.rhino.jstype.ValueType:com.google.javascript.rhino.ErrorReporter:com.google.javascript.rhino.jstype.JSTypeNative:com.google.javascript.rhino.jstype.StaticScope:com.google.javascript.rhino.jstype.TernaryValue:com.google.javascript.rhino.jstype.SimpleSlot:com.google.javascript.rhino.JSTypeExpression:com.google.javascript.rhino.jstype.NamedType:com.google.javascript.rhino.jstype.StaticSlot:com.google.javascript.rhino.jstype.RecordType:com.google.javascript.rhino.jstype.NoResolvedType:com.google.javascript.rhino.jstype.InstanceObjectType:com.google.javascript.rhino.jstype.FunctionBuilder:com.google.javascript.rhino.jstype.StaticReference:com.google.javascript.rhino.jstype.IndexedType:com.google.javascript.rhino.jstype.VoidType:com.google.javascript.rhino.jstype.UnknownType:com.google.javascript.rhino.jstype.ErrorFunctionType:com.google.javascript.rhino.jstype.EnumElementType:com.google.javascript.rhino.jstype.NoObjectType:com.google.javascript.rhino.jstype.NullType:com.google.javascript.rhino.jstype.EnumType:com.google.javascript.rhino.jstype.ArrowType:com.google.javascript.rhino.jstype.ProxyObjectType:com.google.javascript.rhino.jstype.ParameterizedType:com.google.javascript.rhino.jstype.FunctionParamBuilder:com.google.javascript.rhino.jstype.BooleanType:com.google.javascript.rhino.jstype.UnionType:
[INFO ] fr.inria.astor.core.setup.ConfigurationProperties.print(ConfigurationProperties.java:66) - p:evoRunOnBuggyClass= true
[INFO ] fr.inria.astor.core.setup.ConfigurationProperties.print(ConfigurationProperties.java:66) - p:compiler= fr.inria.astor.core.manipulation.bytecode.compiler.SpoonClassCompiler
[INFO ] fr.inria.astor.core.setup.ConfigurationProperties.print(ConfigurationProperties.java:66) - p:dependenciespath= ../../dat/defects4j/Closure/46/b/lib/ant-launcher.jar:../../dat/defects4j/Closure/46/b/lib/caja-r4314.jar:../../dat/defects4j/Closure/46/b/lib/json.jar:../../dat/defects4j/Closure/46/b/lib/jsr305.jar:../../dat/defects4j/Closure/46/b/lib/args4j.jar:../../dat/defects4j/Closure/46/b/lib/ant.jar:../../dat/defects4j/Closure/46/b/lib/jarjar.jar:../../dat/defects4j/Closure/46/b/lib/junit.jar:../../dat/defects4j/Closure/46/b/lib/guava.jar:../../dat/defects4j/Closure/46/b/lib/protobuf-java.jar:../../dat/defects4j/Closure/46/b/build/lib/rhino1_7R3pre/js.jar:../../dat/defects4j/Closure/46/b/build/lib/rhino.jar:../../dat/defects4j/Closure/46/b/build/classes:../../dat/defects4j/Closure/46/b/build/test
[INFO ] fr.inria.astor.core.setup.ConfigurationProperties.print(ConfigurationProperties.java:66) - p:skipfaultlocalization= false
[INFO ] fr.inria.astor.core.setup.ConfigurationProperties.print(ConfigurationProperties.java:66) - p:packageToInstrument= com.google
[INFO ] fr.inria.astor.core.setup.ConfigurationProperties.print(ConfigurationProperties.java:66) - p:scope= fr.inria.astor.core.loop.spaces.ingredients.scopes.ctscopes.CtGlobalIngredientScope
[INFO ] fr.inria.astor.core.setup.ConfigurationProperties.print(ConfigurationProperties.java:66) - p:transformingredient= false
[INFO ] fr.inria.astor.core.setup.ConfigurationProperties.print(ConfigurationProperties.java:66) - p:fitnessfunction= fr.inria.astor.core.loop.population.TestCaseFitnessFunction
[INFO ] fr.inria.astor.core.setup.ConfigurationProperties.print(ConfigurationProperties.java:66) - p:pvariantfoldername= variant-
[INFO ] fr.inria.astor.core.setup.ConfigurationProperties.print(ConfigurationProperties.java:66) - p:srcjavafolder= src/
[INFO ] fr.inria.astor.core.setup.ConfigurationProperties.print(ConfigurationProperties.java:66) - p:populationcontroller= fr.inria.astor.core.loop.population.TestCaseBasedFitnessPopulationController
[INFO ] fr.inria.astor.core.setup.ConfigurationProperties.print(ConfigurationProperties.java:66) - p:ignoreflakyinfl= false
[INFO ] fr.inria.astor.core.setup.ConfigurationProperties.print(ConfigurationProperties.java:66) - p:applyCrossover= false
[INFO ] fr.inria.astor.core.setup.ConfigurationProperties.print(ConfigurationProperties.java:66) - p:saveall= false
[INFO ] fr.inria.astor.core.setup.ConfigurationProperties.print(ConfigurationProperties.java:66) - p:seed= 2
[INFO ] fr.inria.astor.core.setup.ConfigurationProperties.print(ConfigurationProperties.java:66) - p:resetoperations= false
[INFO ] fr.inria.astor.core.setup.ConfigurationProperties.print(ConfigurationProperties.java:66) - p:location= ../../dat/defects4j/Closure/46/b/
[INFO ] fr.inria.astor.core.setup.ConfigurationProperties.print(ConfigurationProperties.java:66) - p:ingredientstrategy= fr.inria.astor.core.loop.spaces.ingredients.ingredientSearch.CloneIngredientSearchStrategy
[INFO ] fr.inria.astor.core.setup.ConfigurationProperties.print(ConfigurationProperties.java:66) - p:allpoints= false
[INFO ] fr.inria.astor.core.setup.ConfigurationProperties.print(ConfigurationProperties.java:66) - p:bugId= 280
[INFO ] fr.inria.astor.core.setup.ConfigurationProperties.print(ConfigurationProperties.java:66) - p:evosuitetimeout= 120
[INFO ] fr.inria.astor.core.setup.ConfigurationProperties.print(ConfigurationProperties.java:68) - ----------------------------
[INFO ] fr.inria.astor.core.loop.AstorCoreEngine.startEvolution(AstorCoreEngine.java:119) - 
----Starting Solution Search
0-->2com.google.javascript.jscomp.CoalesceVariableNames
1-->2com.google.javascript.jscomp.InlineCostEstimator
2-->2com.google.javascript.jscomp.CheckRequiresForConstructors
3-->2com.google.javascript.jscomp.OptimizeCalls
4-->2com.google.javascript.jscomp.CheckSideEffects
5-->2com.google.javascript.jscomp.SimpleDefinitionFinder
6-->2com.google.javascript.jscomp.graph.Graph
7-->2com.google.javascript.rhino.jstype.StaticScope
8-->2com.google.javascript.rhino.jstype.InstanceObjectType
9-->2com.google.javascript.jscomp.graph.Annotatable
10-->2com.google.javascript.jscomp.parsing.JsDocToken
11-->2com.google.javascript.jscomp.jsonml.TagType
12-->2com.google.javascript.rhino.jstype.SimpleReference
13-->2com.google.javascript.jscomp.JSModule
14-->2com.google.javascript.rhino.jstype.ObjectType
15-->2com.google.javascript.jscomp.AliasKeywords
16-->2com.google.javascript.jscomp.GoogleJsMessageIdGenerator
17-->2com.google.javascript.rhino.jstype.RecordType
18-->2com.google.javascript.jscomp.Tracer
19-->2com.google.javascript.jscomp.PeepholeSimplifyRegExp
20-->2com.google.javascript.jscomp.HotSwapCompilerPass
21-->2com.google.javascript.jscomp.OptimizeParameters
22-->2com.google.javascript.jscomp.CodingConvention
23-->2com.google.javascript.jscomp.MemoizedScopeCreator
24-->2com.google.javascript.jscomp.CheckDebuggerStatement
25-->2com.google.javascript.jscomp.CheckAccessControls
26-->2com.google.javascript.jscomp.ReplaceIdGenerators
27-->2com.google.javascript.jscomp.NameReferenceGraphConstruction
28-->2com.google.javascript.rhino.jstype.ProxyObjectType
29-->2com.google.javascript.jscomp.AnonymousFunctionNamingPolicy
30-->2com.google.debugging.sourcemap.SourceMapGenerator
31-->2com.google.javascript.rhino.InputId
32-->2com.google.javascript.jscomp.RemoveUnusedNames
33-->2com.google.javascript.jscomp.deps.SortedDependencies
34-->2com.google.javascript.rhino.ErrorReporter
35-->2com.google.javascript.rhino.Token
36-->2com.google.javascript.rhino.jstype.ValueType
37-->2com.google.javascript.jscomp.ObjectPropertyStringPostprocess
38-->2com.google.javascript.jscomp.ErrorPass
39-->2com.google.javascript.jscomp.VerboseMessageFormatter
40-->2com.google.javascript.rhino.jstype.BooleanType
41-->2com.google.javascript.jscomp.VariableNameGenerator
42-->2com.google.javascript.jscomp.CssRenamingMap
43-->2com.google.javascript.jscomp.CombinedCompilerPass
44-->2com.google.javascript.jscomp.CollapseVariableDeclarations
45-->2com.google.javascript.jscomp.SuppressDocWarningsGuard
46-->2com.google.javascript.jscomp.jsonml.JsonMLAst
47-->2com.google.debugging.sourcemap.SourceMappingReversable
48-->2com.google.javascript.jscomp.MessageFormatter
49-->2com.google.javascript.jscomp.DotFormatter
50-->2com.google.javascript.rhino.JSDocInfo
51-->2com.google.javascript.jscomp.parsing.Config
52-->2com.google.javascript.jscomp.GoogleCodingConvention
53-->2com.google.debugging.sourcemap.Util
54-->2com.google.javascript.jscomp.Denormalize
55-->2com.google.javascript.jscomp.AliasExternals
56-->2com.google.javascript.rhino.ScriptRuntime
57-->2com.google.javascript.jscomp.StrictModeCheck
58-->2com.google.javascript.jscomp.graph.GraphReachability
59-->2com.google.javascript.jscomp.Result
60-->2com.google.javascript.jscomp.SimpleRegion
61-->2com.google.javascript.jscomp.RemoveUnusedClassProperties
62-->2com.google.javascript.rhino.jstype.EnumElementType
63-->2com.google.javascript.jscomp.CompilerPass
64-->2com.google.javascript.jscomp.CollapseProperties
65-->2com.google.javascript.jscomp.VariableRenamingPolicy
66-->2com.google.javascript.jscomp.RemoveTryCatch
67-->2com.google.javascript.jscomp.CheckLevelLegacy
68-->2com.google.javascript.jscomp.CodeChangeHandler
69-->2com.google.javascript.jscomp.FunctionTypeBuilder
70-->2com.google.javascript.rhino.jstype.SimpleSourceFile
71-->2com.google.javascript.rhino.jstype.EnumType
72-->2com.google.javascript.jscomp.DataFlowAnalysis
73-->2com.google.javascript.jscomp.regex.CharRanges
74-->2com.google.javascript.jscomp.InlineObjectLiterals
75-->2com.google.javascript.jscomp.RescopeGlobalSymbols
76-->2com.google.javascript.jscomp.jsonml.Validator
77-->2com.google.javascript.jscomp.ChainableReverseAbstractInterpreter
78-->2com.google.javascript.jscomp.JSSourceFile
79-->2com.google.javascript.jscomp.CodingConventions
80-->2com.google.javascript.rhino.jstype.StaticReference
81-->2com.google.javascript.jscomp.InlineVariables
82-->2com.google.javascript.jscomp.PreprocessorSymbolTable
83-->2com.google.javascript.jscomp.FindExportableNodes
84-->2com.google.javascript.jscomp.VariableVisibilityAnalysis
85-->2com.google.javascript.jscomp.parsing.JsDocTokenStream
86-->2com.google.javascript.jscomp.GlobalVarReferenceMap
87-->2com.google.javascript.jscomp.graph.LinkedDirectedGraph
88-->2com.google.javascript.jscomp.CrossModuleCodeMotion
89-->2com.google.javascript.jscomp.TypeValidator
90-->2com.google.javascript.jscomp.UnfoldCompoundAssignments
91-->2com.google.javascript.jscomp.OperaCompoundAssignFix
92-->2com.google.javascript.jscomp.graph.UndiGraph
93-->2com.google.javascript.rhino.jstype.NoResolvedType
94-->2com.google.javascript.jscomp.ExpressionDecomposer
95-->2com.google.javascript.jscomp.SimpleFunctionAliasAnalysis
96-->2com.google.javascript.jscomp.ClosureCodeRemoval
97-->2com.google.javascript.jscomp.CustomPassExecutionTime
98-->2com.google.javascript.jscomp.SyntacticScopeCreator
99-->2com.google.javascript.jscomp.GroupVariableDeclarations
100-->2com.google.javascript.jscomp.CheckAccidentalSemicolon
101-->2com.google.javascript.jscomp.graph.GraphColoring
102-->2com.google.javascript.jscomp.FunctionNames
103-->2com.google.javascript.jscomp.NameAnonymousFunctionsMapped
104-->2com.google.javascript.jscomp.JsMessageExtractor
105-->2com.google.debugging.sourcemap.SourceMapping
106-->2com.google.javascript.rhino.jstype.NoType
107-->2com.google.javascript.jscomp.graph.SubGraph
108-->2com.google.javascript.rhino.TokenStream
109-->2com.google.javascript.rhino.jstype.FunctionParamBuilder
110-->2com.google.javascript.jscomp.PeepholeCollectPropertyAssignments
111-->2com.google.javascript.jscomp.ClosureOptimizePrimitives
112-->2com.google.javascript.jscomp.StatementFusion
113-->2com.google.javascript.jscomp.RecordFunctionInformation
114-->2com.google.javascript.jscomp.NodeNameExtractor
115-->2com.google.javascript.jscomp.NameReferenceGraphReport
116-->2com.google.javascript.jscomp.deps.JsFileLineParser
117-->2com.google.javascript.jscomp.InferJSDocInfo
118-->2com.google.javascript.jscomp.ant.AntErrorManager
119-->2com.google.javascript.jscomp.graph.GraphPruner
120-->2com.google.javascript.jscomp.PeepholeOptimizationsPass
121-->2com.google.javascript.jscomp.jsonml.Writer
122-->2com.google.javascript.jscomp.NodeUtil
123-->2com.google.javascript.jscomp.JsMessageVisitor
124-->2com.google.javascript.jscomp.deps.SimpleDependencyInfo
125-->2com.google.javascript.jscomp.AbstractCommandLineRunner
126-->2com.google.javascript.jscomp.RenamePrototypes
127-->2com.google.javascript.jscomp.PassConfig
128-->2com.google.javascript.jscomp.testing.TestErrorReporter
129-->2com.google.javascript.jscomp.NameGenerator
130-->2com.google.javascript.jscomp.OptimizeReturns
131-->2com.google.javascript.jscomp.DefinitionsRemover
132-->2com.google.javascript.jscomp.VariableShadowDeclarationCheck
133-->2com.google.javascript.rhino.jstype.ParameterizedType
134-->2com.google.javascript.jscomp.ReferenceCollectingCallback
135-->2com.google.javascript.rhino.jstype.NullType
136-->2com.google.javascript.jscomp.LightweightMessageFormatter
137-->2com.google.javascript.rhino.jstype.NoObjectType
138-->2com.google.javascript.jscomp.DiagnosticType
139-->2com.google.javascript.jscomp.PrepareAst
140-->2com.google.javascript.jscomp.ExportTestFunctions
141-->2com.google.javascript.jscomp.CompilerInput
142-->2com.google.javascript.jscomp.AbstractCompiler
143-->2com.google.javascript.jscomp.ProcessClosurePrimitives
144-->2com.google.javascript.jscomp.ExploitAssigns
145-->2com.google.javascript.jscomp.deps.JsFileParser
146-->2com.google.javascript.jscomp.ExtractPrototypeMemberDeclarations
147-->2com.google.javascript.jscomp.CrossModuleMethodMotion
148-->2com.google.javascript.jscomp.DiagnosticGroup
149-->2com.google.javascript.jscomp.ant.CompileTask
150-->2com.google.javascript.rhino.jstype.RecordTypeBuilder
151-->2com.google.debugging.sourcemap.SourceMapParseException
152-->2com.google.debugging.sourcemap.SourceMapConsumerFactory
153-->2com.google.javascript.jscomp.FlowSensitiveInlineVariables
154-->2com.google.javascript.rhino.jstype.UnresolvedTypeExpression
155-->2com.google.javascript.jscomp.SpecializationAwareCompilerPass
156-->2com.google.javascript.jscomp.IgnoreCajaProperties
157-->2com.google.javascript.jscomp.ErrorManager
158-->2com.google.javascript.jscomp.RenameVars
159-->2com.google.javascript.rhino.jstype.StaticSlot
160-->2com.google.javascript.jscomp.CheckLevel
161-->2com.google.javascript.rhino.testing.BaseJSTypeTestCase
162-->2com.google.javascript.jscomp.InvocationsCallback
163-->2com.google.javascript.jscomp.deps.DepsGenerator
164-->2com.google.javascript.jscomp.InlineSimpleMethods
165-->2com.google.javascript.jscomp.Region
166-->2com.google.javascript.rhino.IR
167-->2com.google.javascript.rhino.jstype.BooleanLiteralSet
168-->2com.google.javascript.jscomp.NodeIterators
169-->2com.google.javascript.jscomp.DefaultPassConfig
170-->2com.google.javascript.jscomp.Normalize
171-->2com.google.javascript.jscomp.RenameProperties
172-->2com.google.javascript.jscomp.NameAnonymousFunctions
173-->2com.google.javascript.jscomp.GenerateExports
174-->2com.google.javascript.jscomp.DefinitionProvider
175-->2com.google.javascript.rhino.JSDocInfoBuilder
176-->2com.google.javascript.jscomp.FieldCleanupPass
177-->2com.google.javascript.jscomp.JsMessage
178-->2com.google.javascript.jscomp.CheckPathsBetweenNodes
179-->2com.google.javascript.jscomp.StrictWarningsGuard
180-->2com.google.javascript.jscomp.SanityCheck
181-->2com.google.javascript.jscomp.ReplaceMessages
182-->2com.google.javascript.jscomp.MustBeReachingVariableDef
183-->2com.google.javascript.rhino.testing.AbstractStaticScope
184-->2com.google.javascript.rhino.jstype.JSTypeNative
185-->2com.google.javascript.jscomp.graph.UnionFind
186-->2com.google.javascript.rhino.jstype.AllType
187-->2com.google.javascript.jscomp.FunctionInjector
188-->2com.google.javascript.rhino.JSTypeExpression
189-->2com.google.javascript.jscomp.PrintStreamErrorManager
190-->2com.google.javascript.jscomp.WarningLevel
191-->2com.google.javascript.jscomp.jsonml.NodeUtil
192-->2com.google.javascript.jscomp.MakeDeclaredNamesUnique
193-->2com.google.javascript.jscomp.regex.RegExpTree
194-->2com.google.javascript.rhino.jstype.PrototypeObjectType
195-->2com.google.javascript.rhino.jstype.ArrowType
196-->2com.google.javascript.rhino.SimpleErrorReporter
197-->2com.google.javascript.jscomp.deps.JsFunctionParser
198-->2com.google.javascript.jscomp.graph.GraphNode
199-->2com.google.javascript.rhino.jstype.NumberType
200-->2com.google.javascript.jscomp.CodeConsumer
201-->2com.google.javascript.jscomp.jsonml.JsonMLError
202-->2com.google.javascript.jscomp.parsing.JsDocInfoParser
203-->2com.google.javascript.jscomp.PassFactory
204-->2com.google.javascript.jscomp.ClosureReverseAbstractInterpreter
205-->2com.google.debugging.sourcemap.SourceMapSection
206-->2com.google.javascript.jscomp.deps.DepsFileParser
207-->2com.google.javascript.jscomp.TypeInferencePass
208-->2com.google.javascript.jscomp.ControlFlowGraph
209-->2com.google.javascript.jscomp.graph.GraphvizGraph
210-->2com.google.javascript.jscomp.InlineFunctions
211-->2com.google.javascript.rhino.testing.TestErrorReporter
212-->2com.google.javascript.jscomp.GlobalNamespace
213-->2com.google.javascript.jscomp.ClosureCodingConvention
214-->2com.google.javascript.jscomp.ControlStructureCheck
215-->2com.google.javascript.jscomp.VariableReferenceCheck
216-->2com.google.javascript.jscomp.WarningsGuard
217-->2com.google.javascript.jscomp.FunctionArgumentInjector
218-->2com.google.javascript.jscomp.MarkNoSideEffectCalls
219-->2com.google.javascript.jscomp.SourceMap
220-->2com.google.javascript.jscomp.parsing.TypeSafeDispatcher
221-->2com.google.javascript.jscomp.CompilerOptions
222-->2com.google.debugging.sourcemap.SourceMapSupplier
223-->2com.google.javascript.rhino.jstype.TemplateType
224-->2com.google.javascript.rhino.jstype.NamedType
225-->2com.google.javascript.jscomp.ShadowVariables
226-->2com.google.javascript.jscomp.StripCode
227-->2com.google.javascript.jscomp.CheckProvides
228-->2com.google.javascript.jscomp.LiveVariablesAnalysis
229-->2com.google.javascript.jscomp.ReplaceCssNames
230-->2com.google.javascript.jscomp.RhinoErrorReporter
231-->2com.google.javascript.rhino.jstype.UnknownType
232-->2com.google.debugging.sourcemap.Base64VLQ
233-->2com.google.javascript.jscomp.CheckGlobalNames
234-->2com.google.javascript.rhino.jstype.StaticSourceFile
235-->2com.google.javascript.jscomp.EmptyMessageBundle
236-->2com.google.javascript.jscomp.AnalyzeNameReferences
237-->2com.google.javascript.jscomp.TypeInference
238-->2com.google.javascript.jscomp.CheckRegExp
239-->2com.google.javascript.jscomp.testing.SimpleSourceExcerptProvider
240-->2com.google.javascript.jscomp.CheckGlobalThis
241-->2com.google.javascript.jscomp.UnreachableCodeElimination
242-->2com.google.javascript.jscomp.DiagnosticGroupWarningsGuard
243-->2com.google.javascript.jscomp.jsonml.ErrorLevel
244-->2com.google.javascript.jscomp.jsonml.SecureCompiler
245-->2com.google.javascript.jscomp.LineNumberCheck
246-->2com.google.javascript.jscomp.BasicErrorManager
247-->2com.google.javascript.jscomp.PerformanceTracker
248-->2com.google.javascript.rhino.jstype.IndexedType
249-->2com.google.javascript.jscomp.ProcessDefines
250-->2com.google.javascript.jscomp.DeadAssignmentsElimination
251-->2com.google.javascript.jscomp.TypedCodeGenerator
252-->2com.google.javascript.jscomp.ScopedAliases
253-->2com.google.javascript.jscomp.PeepholeFoldConstants
254-->2com.google.javascript.jscomp.ShowByPathWarningsGuard
255-->2com.google.javascript.jscomp.RenameLabels
256-->2com.google.javascript.jscomp.CallGraph
257-->2com.google.javascript.jscomp.Scope
258-->2com.google.javascript.jscomp.AliasStrings
259-->2com.google.javascript.jscomp.SourceInformationAnnotator
260-->2com.google.javascript.jscomp.LatticeElement
261-->2com.google.javascript.jscomp.PeepholeReplaceKnownMethods
262-->2com.google.javascript.jscomp.AbstractPeepholeOptimization
263-->2com.google.javascript.jscomp.jsonml.JsonMLException
264-->2com.google.debugging.sourcemap.SourceMapConsumerV2
265-->2com.google.debugging.sourcemap.SourceMapConsumerV3
266-->2com.google.debugging.sourcemap.SourceMapGeneratorFactory
267-->2com.google.debugging.sourcemap.SourceMapConsumerV1
268-->2com.google.javascript.rhino.testing.MapBasedScope
269-->2com.google.javascript.jscomp.parsing.Annotation
270-->2com.google.javascript.jscomp.AbstractMessageFormatter
271-->2com.google.javascript.jscomp.CreateSyntheticBlocks
272-->2com.google.javascript.jscomp.DefinitionSite
273-->2com.google.javascript.jscomp.ProcessTweaks
274-->2com.google.javascript.jscomp.parsing.IRFactory
275-->2com.google.javascript.jscomp.NameAnalyzer
276-->2com.google.javascript.jscomp.AnonymousFunctionNamingCallback
277-->2com.google.javascript.jscomp.jsonml.Reader
278-->2com.google.javascript.jscomp.JoinOp
279-->2com.google.javascript.jscomp.Strings
280-->2com.google.javascript.jscomp.FunctionToBlockMutator
281-->2com.google.javascript.jscomp.jsonml.TagAttr
282-->2com.google.javascript.jscomp.UseSite
283-->2com.google.javascript.jscomp.OptimizeArgumentsArray
284-->2com.google.debugging.sourcemap.SourceMapFormat
285-->2com.google.javascript.jscomp.graph.FixedPointGraphTraversal
286-->2com.google.javascript.jscomp.deps.PathUtil
287-->2com.google.javascript.jscomp.SemanticReverseAbstractInterpreter
288-->2com.google.javascript.jscomp.PeepholeRemoveDeadCode
289-->2com.google.javascript.jscomp.ReorderConstantExpression
290-->2com.google.javascript.jscomp.LinkedFlowScope
291-->2com.google.javascript.jscomp.graph.LinkedUndirectedGraph
292-->2com.google.debugging.sourcemap.SourceMapGeneratorV2
293-->2com.google.debugging.sourcemap.SourceMapGeneratorV1
294-->2com.google.debugging.sourcemap.SourceMapGeneratorV3
295-->2com.google.javascript.jscomp.MinimizeExitPoints
296-->2com.google.javascript.jscomp.MethodCompilerPass
297-->2com.google.javascript.jscomp.SourceAst
298-->2com.google.javascript.jscomp.MessageBundle
299-->2com.google.javascript.jscomp.CheckUnreachableCode
300-->2com.google.javascript.jscomp.SourceExcerptProvider
301-->2com.google.javascript.jscomp.FunctionRewriter
302-->2com.google.javascript.rhino.SourcePosition
303-->2com.google.javascript.rhino.Node
304-->2com.google.javascript.jscomp.RemoveUnusedVars
305-->2com.google.javascript.jscomp.LoggerErrorManager
306-->2com.google.javascript.jscomp.NodeTraversal
307-->2com.google.javascript.jscomp.ExternExportsPass
308-->2com.google.javascript.jscomp.ComposeWarningsGuard
309-->2com.google.javascript.jscomp.CompilationLevel
310-->2com.google.javascript.jscomp.VariableMap
311-->2com.google.javascript.jscomp.jsonml.JsonMLUtil
312-->2com.google.javascript.jscomp.JsAst
313-->2com.google.javascript.jscomp.parsing.NullErrorReporter
314-->2com.google.javascript.jscomp.ErrorFormat
315-->2com.google.javascript.jscomp.AstParallelizer
316-->2com.google.javascript.jscomp.JsMessageDefinition
317-->2com.google.javascript.jscomp.NameReferenceGraph
318-->2com.google.javascript.jscomp.ConcreteType
319-->2com.google.javascript.jscomp.CheckMissingGetCssName
320-->2com.google.javascript.jscomp.MoveFunctionDeclarations
321-->2com.google.javascript.jscomp.PeepholeSubstituteAlternateSyntax
322-->2com.google.javascript.jscomp.TightenTypes
323-->2com.google.javascript.rhino.jstype.VoidType
324-->2com.google.javascript.jscomp.regex.CaseCanonicalize
325-->2com.google.javascript.rhino.jstype.JSType
326-->2com.google.javascript.jscomp.ConvertToDottedProperties
327-->2com.google.javascript.jscomp.PhaseOptimizer
328-->2com.google.javascript.jscomp.SyntheticAst
329-->2com.google.javascript.jscomp.DiagnosticGroups
330-->2com.google.javascript.jscomp.AstValidator
331-->2com.google.javascript.rhino.jstype.UnionTypeBuilder
332-->2com.google.javascript.jscomp.ScopeCreator
333-->2com.google.javascript.jscomp.CommandLineRunner
334-->2com.google.javascript.jscomp.FlowScope
335-->2com.google.debugging.sourcemap.FilePosition
336-->2com.google.javascript.jscomp.graph.AdjacencyGraph
337-->2com.google.javascript.jscomp.SourceFile
338-->2com.google.debugging.sourcemap.Base64
339-->2com.google.javascript.jscomp.AnalyzePrototypeProperties
340-->2com.google.javascript.jscomp.PropertyRenamingPolicy
341-->2com.google.javascript.jscomp.ChainCalls
342-->2com.google.javascript.rhino.jstype.FunctionBuilder
343-->2com.google.javascript.jscomp.MaybeReachingVariableUse
344-->2com.google.javascript.jscomp.SpecializeModule
345-->2com.google.javascript.rhino.jstype.ErrorFunctionType
346-->2com.google.javascript.rhino.jstype.FunctionType
347-->2com.google.javascript.jscomp.CheckPropertyOrder
348-->2com.google.javascript.jscomp.Compiler
349-->2com.google.javascript.jscomp.TypedScopeCreator
350-->2com.google.javascript.rhino.jstype.TernaryValue
351-->2com.google.javascript.jscomp.JSError
352-->2com.google.javascript.jscomp.DevirtualizePrototypeMethods
353-->2com.google.javascript.jscomp.PureFunctionIdentifier
354-->2com.google.javascript.jscomp.PeepholeFoldWithTypes
355-->2com.google.javascript.jscomp.CheckMissingReturn
356-->2com.google.javascript.jscomp.ParallelCompilerPass
357-->2com.google.javascript.rhino.jstype.UnionType
358-->2com.google.javascript.jscomp.ControlFlowAnalysis
359-->2com.google.javascript.jscomp.jsonml.JsonML
360-->2com.google.javascript.jscomp.CodeGenerator
361-->2com.google.javascript.jscomp.JSModuleGraph
362-->2com.google.javascript.jscomp.GatherRawExports
363-->2com.google.javascript.rhino.jstype.SimpleSlot
364-->2com.google.javascript.jscomp.ObjectPropertyStringPreprocess
365-->2com.google.javascript.jscomp.graph.Annotation
366-->2com.google.javascript.jscomp.AmbiguateProperties
367-->2com.google.javascript.rhino.testing.Asserts
368-->2com.google.javascript.jscomp.XtbMessageBundle
369-->2com.google.javascript.jscomp.AstChangeProxy
370-->2com.google.javascript.jscomp.DisambiguateProperties
371-->2com.google.javascript.jscomp.VarCheck
372-->2com.google.javascript.jscomp.SideEffectsAnalysis
373-->2com.google.javascript.jscomp.ReplaceStrings
374-->2com.google.javascript.rhino.jstype.StringType
375-->2com.google.javascript.jscomp.InstrumentFunctions
376-->2com.google.javascript.rhino.jstype.StaticSymbolTable
377-->2com.google.javascript.rhino.jstype.JSTypeRegistry
378-->2com.google.javascript.jscomp.graph.DiGraph
379-->2com.google.javascript.jscomp.GatherSideEffectSubexpressionsCallback
380-->2com.google.javascript.jscomp.graph.StandardUnionFind
381-->2com.google.debugging.sourcemap.SourceMapConsumer
382-->2com.google.javascript.jscomp.ReverseAbstractInterpreter
383-->2com.google.javascript.jscomp.parsing.ParserRunner
384-->2com.google.javascript.jscomp.ConstCheck
385-->2com.google.debugging.sourcemap.SourceMapLineDecoder
386-->2com.google.javascript.rhino.jstype.Visitor
387-->2com.google.javascript.jscomp.TypeCheck
388-->2com.google.javascript.jscomp.SymbolTable
389-->2com.google.javascript.jscomp.deps.DependencyInfo
390-->2com.google.javascript.jscomp.CollapseAnonymousFunctions
391-->2com.google.javascript.jscomp.RemoveUnusedPrototypeProperties
392-->2com.google.javascript.jscomp.RuntimeTypeCheck
393-->2com.google.javascript.jscomp.CodePrinter
[INFO ] fr.inria.astor.core.validation.executors.JUnitExecutorProcess.execute(JUnitExecutorProcess.java:120) - The Process that runs JUnit test cases had problems: process hasn't exited
[INFO ] fr.inria.astor.core.validation.executors.JUnitExecutorProcess.execute(JUnitExecutorProcess.java:120) - The Process that runs JUnit test cases had problems: process hasn't exited
[INFO ] fr.inria.astor.core.validation.executors.JUnitExecutorProcess.execute(JUnitExecutorProcess.java:120) - The Process that runs JUnit test cases had problems: process hasn't exited
[INFO ] fr.inria.astor.core.validation.executors.JUnitExecutorProcess.execute(JUnitExecutorProcess.java:120) - The Process that runs JUnit test cases had problems: process hasn't exited
[INFO ] fr.inria.astor.core.validation.executors.JUnitExecutorProcess.execute(JUnitExecutorProcess.java:120) - The Process that runs JUnit test cases had problems: process hasn't exited
[INFO ] fr.inria.astor.core.loop.AstorCoreEngine.belowMaxTime(AstorCoreEngine.java:203) - 
 No more time for operating
[INFO ] fr.inria.astor.core.loop.AstorCoreEngine.startEvolution(AstorCoreEngine.java:143) - Time Repair Loop (s): 10863.082
[INFO ] fr.inria.astor.core.loop.AstorCoreEngine.showResults(AstorCoreEngine.java:165) - 
----SUMMARY_EXECUTION---
[INFO ] fr.inria.astor.approaches.jgenprog.JGenProg.showResults(JGenProg.java:332) - 
successful_ing_attempts (#trials 0, totalAttps 0): []
[INFO ] fr.inria.astor.approaches.jgenprog.JGenProg.showResults(JGenProg.java:334) - 
failing_ing_attempts (#trials 724, totalAttps 3185): [1, 212, 1, 3, 1, 11, 11, 2, 2, 1, 2, 1, 1, 1, 1, 2, 1, 2, 2, 1, 6, 2, 1, 1, 3, 1, 1, 3, 2, 1, 10, 1, 6, 1, 1, 1, 2, 8, 2, 1, 2, 1, 2, 2, 1, 2, 20, 1, 1, 2, 1, 1, 2, 2, 2, 1, 1, 6, 1, 1, 1, 2, 2, 1, 1, 2, 1, 1, 5, 1, 4, 2, 2, 2, 1, 3, 1, 1, 6, 1, 2, 1, 2, 1, 5, 2, 1, 2, 4, 2, 1, 1, 2, 3, 3, 3, 1, 1, 1, 2, 1, 1, 1, 1, 1, 11, 2, 4, 3, 1, 1, 2, 2, 1, 1, 2, 24, 1, 1, 1, 6, 2, 1, 1, 1, 1, 2, 2, 1, 3, 3, 2, 1, 1, 3, 1, 2, 1, 4, 11, 7, 2, 6, 1, 2, 2, 2, 1, 6, 2, 2, 1, 1, 1, 1, 1, 1, 1, 3, 1, 4, 6, 1, 2, 3, 7, 1, 3, 2, 1, 3, 255, 1, 1, 2, 2, 3, 1, 3, 1, 2, 3, 2, 1, 1, 1, 20, 1, 2, 1, 6, 2, 6, 5, 1, 11, 1, 2, 1, 1, 2, 1, 1, 3, 2, 1, 1, 2, 122, 3, 1, 4, 2, 1, 1, 1, 1, 1, 7, 1, 2, 3, 1, 2, 1, 1, 1, 1, 2, 2, 2, 2, 3, 2, 1, 6, 1, 6, 1, 1, 1, 6, 1, 3, 3, 1, 2, 1, 94, 3, 1, 1, 2, 3, 2, 1, 9, 1, 2, 1, 2, 7, 1, 2, 1, 1, 3, 1, 1, 1, 1, 3, 1, 1, 1, 1, 1, 7, 1, 2, 1, 17, 3, 1, 6, 1, 8, 1, 2, 1, 2, 2, 1, 1, 3, 2, 1, 1, 1, 1, 1, 3, 1, 2, 2, 2, 3, 1, 3, 1, 24, 1, 2, 1, 6, 1, 1, 1, 5, 2, 2, 2, 2, 2, 1, 1, 6, 1, 1, 3, 1, 2, 1, 2, 1, 1, 8, 6, 1, 3, 1, 1, 2, 7, 1, 2, 1, 7, 3, 1, 1, 1, 1, 1, 1, 20, 2, 2, 2, 1, 3, 1, 2, 1, 1, 1, 2, 6, 2, 1, 1, 1, 1, 5, 1, 2, 2, 6, 1, 2, 3, 1, 10, 3, 1, 3, 10, 6, 3, 1, 13, 2, 1, 2, 2, 1, 1, 2, 1, 3, 3, 1, 1, 14, 3, 2, 1, 2, 1, 5, 1, 3, 1, 6, 2, 3, 78, 6, 1, 1, 25, 1, 2, 1, 1, 1, 1, 1, 1, 2, 2, 1, 6, 3, 1, 17, 3, 1, 1, 2, 1, 1, 2, 5, 1, 2, 1, 1, 3, 1, 7, 1, 1, 1, 1, 6, 1, 1, 2, 5, 6, 1, 1, 7, 1, 27, 2, 10, 1, 6, 6, 2, 1, 1, 1, 1, 6, 1, 5, 1, 1, 2, 1, 1, 3, 2, 3, 1, 3, 43, 1, 1, 1, 3, 11, 2, 1, 7, 3, 3, 2, 2, 1, 1, 1, 2, 2, 4, 1, 1, 1, 3, 5, 1, 2, 1, 1, 4, 1, 1, 1, 4, 2, 3, 1, 2, 3, 1, 2, 1, 1, 2, 1, 1, 27, 1, 3, 1, 2, 1, 4, 1, 2, 1, 1, 2, 1, 2, 3, 8, 1, 1, 1, 3, 1, 1, 5, 2, 3, 11, 1, 6, 1, 3, 2, 6, 3, 1, 1, 6, 1, 3, 2, 1, 2, 1, 1, 1, 10, 3, 1, 7, 1, 3, 1, 1, 1, 2, 5, 3, 1, 1, 1, 2, 1, 1, 2, 4, 3, 3, 3, 2, 1, 2, 118, 3, 7, 2, 1, 1, 1, 2, 2, 4, 3, 1, 6, 1, 1, 1, 2, 7, 1, 131, 10, 7, 1, 3, 1, 1, 1, 3, 20, 1, 3, 2, 1, 1, 1, 1, 4, 1, 3, 1, 2, 1, 2, 11, 1, 1, 7, 1, 1, 3, 3, 5, 2, 61, 1, 1, 1, 1, 2, 1, 3, 1, 6, 1, 2, 1, 3, 1, 10, 1, 6, 1, 27, 1, 6, 1, 1, 123, 6, 2, 1, 2, 1, 2, 1, 1, 2, 3, 1, 3, 1, 3, 1, 1, 1, 1, 1, 1, 6, 1, 1, 7, 1, 43, 3, 1, 7, 3, 2, 1, 1, 2, 2, 7, 6, 3, 7, 7, 1, 1]
[INFO ] fr.inria.astor.approaches.jgenprog.JGenProg.showResults(JGenProg.java:337) - 
total Patch Attempts (0): []
[INFO ] fr.inria.astor.approaches.jgenprog.JGenProg.showResults(JGenProg.java:339) - 
successful_ing_attempts_by_patch: []
[INFO ] fr.inria.astor.approaches.jgenprog.JGenProg.showResults(JGenProg.java:340) - 
failing_ing_attempts_by_patch: [(pv:2,at:1), (pv:3,at:212), (pv:4,at:1), (pv:5,at:3), (pv:6,at:1), (pv:7,at:11), (pv:8,at:11), (pv:9,at:2), (pv:10,at:2), (pv:11,at:1), (pv:12,at:2), (pv:13,at:1), (pv:14,at:1), (pv:15,at:1), (pv:16,at:1), (pv:17,at:2), (pv:18,at:1), (pv:19,at:2), (pv:20,at:2), (pv:21,at:1), (pv:22,at:6), (pv:23,at:2), (pv:24,at:1), (pv:25,at:1), (pv:26,at:3), (pv:27,at:1), (pv:28,at:1), (pv:29,at:3), (pv:30,at:2), (pv:31,at:1), (pv:32,at:10), (pv:33,at:1), (pv:34,at:6), (pv:35,at:1), (pv:36,at:1), (pv:37,at:1), (pv:38,at:2), (pv:39,at:8), (pv:40,at:2), (pv:41,at:1), (pv:42,at:2), (pv:43,at:1), (pv:44,at:2), (pv:45,at:2), (pv:46,at:1), (pv:47,at:2), (pv:48,at:20), (pv:49,at:1), (pv:50,at:1), (pv:51,at:2), (pv:52,at:1), (pv:53,at:1), (pv:54,at:2), (pv:55,at:2), (pv:56,at:2), (pv:57,at:1), (pv:58,at:1), (pv:59,at:6), (pv:60,at:1), (pv:61,at:1), (pv:62,at:1), (pv:63,at:2), (pv:64,at:2), (pv:65,at:1), (pv:66,at:1), (pv:67,at:2), (pv:68,at:1), (pv:69,at:1), (pv:70,at:5), (pv:71,at:1), (pv:72,at:4), (pv:73,at:2), (pv:74,at:2), (pv:75,at:2), (pv:76,at:1), (pv:77,at:3), (pv:78,at:1), (pv:79,at:1), (pv:80,at:6), (pv:81,at:1), (pv:82,at:2), (pv:83,at:1), (pv:84,at:2), (pv:85,at:1), (pv:86,at:5), (pv:87,at:2), (pv:88,at:1), (pv:89,at:2), (pv:90,at:4), (pv:91,at:2), (pv:92,at:1), (pv:93,at:1), (pv:94,at:2), (pv:95,at:3), (pv:96,at:3), (pv:97,at:3), (pv:98,at:1), (pv:99,at:1), (pv:100,at:1), (pv:101,at:2), (pv:102,at:1), (pv:103,at:1), (pv:104,at:1), (pv:105,at:1), (pv:106,at:1), (pv:107,at:11), (pv:108,at:2), (pv:109,at:4), (pv:110,at:3), (pv:111,at:1), (pv:112,at:1), (pv:113,at:2), (pv:114,at:2), (pv:115,at:1), (pv:116,at:1), (pv:117,at:2), (pv:118,at:24), (pv:119,at:1), (pv:120,at:1), (pv:121,at:1), (pv:122,at:6), (pv:123,at:2), (pv:124,at:1), (pv:125,at:1), (pv:126,at:1), (pv:127,at:1), (pv:128,at:2), (pv:129,at:2), (pv:130,at:1), (pv:131,at:3), (pv:132,at:3), (pv:133,at:2), (pv:134,at:1), (pv:135,at:1), (pv:136,at:3), (pv:137,at:1), (pv:138,at:2), (pv:139,at:1), (pv:140,at:4), (pv:141,at:11), (pv:142,at:7), (pv:143,at:2), (pv:144,at:6), (pv:145,at:1), (pv:146,at:2), (pv:147,at:2), (pv:148,at:2), (pv:149,at:1), (pv:150,at:6), (pv:151,at:2), (pv:152,at:2), (pv:153,at:1), (pv:154,at:1), (pv:155,at:1), (pv:156,at:1), (pv:157,at:1), (pv:158,at:1), (pv:159,at:1), (pv:160,at:3), (pv:161,at:1), (pv:162,at:4), (pv:163,at:6), (pv:164,at:1), (pv:165,at:2), (pv:166,at:3), (pv:167,at:7), (pv:168,at:1), (pv:169,at:3), (pv:170,at:2), (pv:171,at:1), (pv:172,at:3), (pv:173,at:255), (pv:174,at:1), (pv:175,at:1), (pv:176,at:2), (pv:177,at:2), (pv:178,at:3), (pv:179,at:1), (pv:180,at:3), (pv:181,at:1), (pv:182,at:2), (pv:183,at:3), (pv:184,at:2), (pv:185,at:1), (pv:186,at:1), (pv:187,at:1), (pv:188,at:20), (pv:189,at:1), (pv:190,at:2), (pv:191,at:1), (pv:192,at:6), (pv:193,at:2), (pv:194,at:6), (pv:195,at:5), (pv:196,at:1), (pv:197,at:11), (pv:198,at:1), (pv:199,at:2), (pv:200,at:1), (pv:201,at:1), (pv:202,at:2), (pv:203,at:1), (pv:204,at:1), (pv:205,at:3), (pv:206,at:2), (pv:207,at:1), (pv:208,at:1), (pv:209,at:2), (pv:210,at:122), (pv:211,at:3), (pv:212,at:1), (pv:213,at:4), (pv:214,at:2), (pv:215,at:1), (pv:216,at:1), (pv:217,at:1), (pv:218,at:1), (pv:219,at:1), (pv:220,at:7), (pv:221,at:1), (pv:222,at:2), (pv:223,at:3), (pv:224,at:1), (pv:225,at:2), (pv:226,at:1), (pv:227,at:1), (pv:228,at:1), (pv:229,at:1), (pv:230,at:2), (pv:231,at:2), (pv:232,at:2), (pv:233,at:2), (pv:234,at:3), (pv:235,at:2), (pv:236,at:1), (pv:237,at:6), (pv:238,at:1), (pv:239,at:6), (pv:240,at:1), (pv:241,at:1), (pv:242,at:1), (pv:243,at:6), (pv:244,at:1), (pv:245,at:3), (pv:246,at:3), (pv:247,at:1), (pv:248,at:2), (pv:249,at:1), (pv:250,at:94), (pv:251,at:3), (pv:252,at:1), (pv:253,at:1), (pv:254,at:2), (pv:255,at:3), (pv:256,at:2), (pv:257,at:1), (pv:258,at:9), (pv:259,at:1), (pv:260,at:2), (pv:261,at:1), (pv:262,at:2), (pv:263,at:7), (pv:264,at:1), (pv:265,at:2), (pv:266,at:1), (pv:267,at:1), (pv:268,at:3), (pv:269,at:1), (pv:270,at:1), (pv:271,at:1), (pv:272,at:1), (pv:273,at:3), (pv:274,at:1), (pv:275,at:1), (pv:276,at:1), (pv:277,at:1), (pv:278,at:1), (pv:279,at:7), (pv:280,at:1), (pv:281,at:2), (pv:282,at:1), (pv:283,at:17), (pv:284,at:3), (pv:285,at:1), (pv:286,at:6), (pv:287,at:1), (pv:288,at:8), (pv:289,at:1), (pv:290,at:2), (pv:291,at:1), (pv:292,at:2), (pv:293,at:2), (pv:294,at:1), (pv:295,at:1), (pv:296,at:3), (pv:297,at:2), (pv:298,at:1), (pv:299,at:1), (pv:300,at:1), (pv:301,at:1), (pv:302,at:1), (pv:303,at:3), (pv:304,at:1), (pv:305,at:2), (pv:306,at:2), (pv:307,at:2), (pv:308,at:3), (pv:309,at:1), (pv:310,at:3), (pv:311,at:1), (pv:312,at:24), (pv:313,at:1), (pv:314,at:2), (pv:315,at:1), (pv:316,at:6), (pv:317,at:1), (pv:318,at:1), (pv:319,at:1), (pv:320,at:5), (pv:321,at:2), (pv:322,at:2), (pv:323,at:2), (pv:324,at:2), (pv:325,at:2), (pv:326,at:1), (pv:327,at:1), (pv:328,at:6), (pv:329,at:1), (pv:330,at:1), (pv:331,at:3), (pv:332,at:1), (pv:333,at:2), (pv:334,at:1), (pv:335,at:2), (pv:336,at:1), (pv:337,at:1), (pv:338,at:8), (pv:339,at:6), (pv:340,at:1), (pv:341,at:3), (pv:342,at:1), (pv:343,at:1), (pv:344,at:2), (pv:345,at:7), (pv:346,at:1), (pv:347,at:2), (pv:348,at:1), (pv:349,at:7), (pv:350,at:3), (pv:351,at:1), (pv:352,at:1), (pv:353,at:1), (pv:354,at:1), (pv:355,at:1), (pv:356,at:1), (pv:357,at:20), (pv:358,at:2), (pv:359,at:2), (pv:360,at:2), (pv:361,at:1), (pv:362,at:3), (pv:363,at:1), (pv:364,at:2), (pv:365,at:1), (pv:366,at:1), (pv:367,at:1), (pv:368,at:2), (pv:369,at:6), (pv:370,at:2), (pv:371,at:1), (pv:372,at:1), (pv:373,at:1), (pv:374,at:1), (pv:375,at:5), (pv:376,at:1), (pv:377,at:2), (pv:378,at:2), (pv:379,at:6), (pv:380,at:1), (pv:381,at:2), (pv:382,at:3), (pv:383,at:1), (pv:384,at:10), (pv:385,at:3), (pv:386,at:1), (pv:387,at:3), (pv:388,at:10), (pv:389,at:6), (pv:390,at:3), (pv:391,at:1), (pv:392,at:13), (pv:393,at:2), (pv:394,at:1), (pv:395,at:2), (pv:396,at:2), (pv:397,at:1), (pv:398,at:1), (pv:399,at:2), (pv:400,at:1), (pv:401,at:3), (pv:402,at:3), (pv:403,at:1), (pv:404,at:1), (pv:405,at:14), (pv:406,at:3), (pv:407,at:2), (pv:408,at:1), (pv:409,at:2), (pv:410,at:1), (pv:411,at:5), (pv:412,at:1), (pv:413,at:3), (pv:414,at:1), (pv:415,at:6), (pv:416,at:2), (pv:417,at:3), (pv:418,at:78), (pv:419,at:6), (pv:420,at:1), (pv:421,at:1), (pv:422,at:25), (pv:423,at:1), (pv:424,at:2), (pv:425,at:1), (pv:426,at:1), (pv:427,at:1), (pv:428,at:1), (pv:429,at:1), (pv:430,at:1), (pv:431,at:2), (pv:432,at:2), (pv:433,at:1), (pv:434,at:6), (pv:435,at:3), (pv:436,at:1), (pv:437,at:17), (pv:438,at:3), (pv:439,at:1), (pv:440,at:1), (pv:441,at:2), (pv:442,at:1), (pv:443,at:1), (pv:444,at:2), (pv:445,at:5), (pv:446,at:1), (pv:447,at:2), (pv:448,at:1), (pv:449,at:1), (pv:450,at:3), (pv:451,at:1), (pv:452,at:7), (pv:453,at:1), (pv:454,at:1), (pv:455,at:1), (pv:456,at:1), (pv:457,at:6), (pv:458,at:1), (pv:459,at:1), (pv:460,at:2), (pv:461,at:5), (pv:462,at:6), (pv:463,at:1), (pv:464,at:1), (pv:465,at:7), (pv:466,at:1), (pv:467,at:27), (pv:468,at:2), (pv:469,at:10), (pv:470,at:1), (pv:471,at:6), (pv:472,at:6), (pv:473,at:2), (pv:474,at:1), (pv:475,at:1), (pv:476,at:1), (pv:477,at:1), (pv:478,at:6), (pv:479,at:1), (pv:480,at:5), (pv:481,at:1), (pv:482,at:1), (pv:483,at:2), (pv:484,at:1), (pv:485,at:1), (pv:486,at:3), (pv:487,at:2), (pv:488,at:3), (pv:489,at:1), (pv:490,at:3), (pv:491,at:43), (pv:492,at:1), (pv:493,at:1), (pv:494,at:1), (pv:495,at:3), (pv:496,at:11), (pv:497,at:2), (pv:498,at:1), (pv:499,at:7), (pv:500,at:3), (pv:501,at:3), (pv:502,at:2), (pv:503,at:2), (pv:504,at:1), (pv:505,at:1), (pv:506,at:1), (pv:507,at:2), (pv:508,at:2), (pv:509,at:4), (pv:510,at:1), (pv:511,at:1), (pv:512,at:1), (pv:513,at:3), (pv:514,at:5), (pv:515,at:1), (pv:516,at:2), (pv:517,at:1), (pv:518,at:1), (pv:519,at:4), (pv:520,at:1), (pv:521,at:1), (pv:522,at:1), (pv:523,at:4), (pv:524,at:2), (pv:525,at:3), (pv:526,at:1), (pv:527,at:2), (pv:528,at:3), (pv:529,at:1), (pv:530,at:2), (pv:531,at:1), (pv:532,at:1), (pv:533,at:2), (pv:534,at:1), (pv:535,at:1), (pv:536,at:27), (pv:537,at:1), (pv:538,at:3), (pv:539,at:1), (pv:540,at:2), (pv:541,at:1), (pv:542,at:4), (pv:543,at:1), (pv:544,at:2), (pv:545,at:1), (pv:546,at:1), (pv:547,at:2), (pv:548,at:1), (pv:549,at:2), (pv:550,at:3), (pv:551,at:8), (pv:552,at:1), (pv:553,at:1), (pv:554,at:1), (pv:555,at:3), (pv:556,at:1), (pv:557,at:1), (pv:558,at:5), (pv:559,at:2), (pv:560,at:3), (pv:561,at:11), (pv:562,at:1), (pv:563,at:6), (pv:564,at:1), (pv:565,at:3), (pv:566,at:2), (pv:567,at:6), (pv:568,at:3), (pv:569,at:1), (pv:570,at:1), (pv:571,at:6), (pv:572,at:1), (pv:573,at:3), (pv:574,at:2), (pv:575,at:1), (pv:576,at:2), (pv:577,at:1), (pv:578,at:1), (pv:579,at:1), (pv:580,at:10), (pv:581,at:3), (pv:582,at:1), (pv:583,at:7), (pv:584,at:1), (pv:585,at:3), (pv:586,at:1), (pv:587,at:1), (pv:588,at:1), (pv:589,at:2), (pv:590,at:5), (pv:591,at:3), (pv:592,at:1), (pv:593,at:1), (pv:594,at:1), (pv:595,at:2), (pv:596,at:1), (pv:597,at:1), (pv:598,at:2), (pv:599,at:4), (pv:600,at:3), (pv:601,at:3), (pv:602,at:3), (pv:603,at:2), (pv:604,at:1), (pv:605,at:2), (pv:606,at:118), (pv:607,at:3), (pv:608,at:7), (pv:609,at:2), (pv:610,at:1), (pv:611,at:1), (pv:612,at:1), (pv:613,at:2), (pv:614,at:2), (pv:615,at:4), (pv:616,at:3), (pv:617,at:1), (pv:618,at:6), (pv:619,at:1), (pv:620,at:1), (pv:621,at:1), (pv:622,at:2), (pv:623,at:7), (pv:624,at:1), (pv:625,at:131), (pv:626,at:10), (pv:627,at:7), (pv:628,at:1), (pv:629,at:3), (pv:630,at:1), (pv:631,at:1), (pv:632,at:1), (pv:633,at:3), (pv:634,at:20), (pv:635,at:1), (pv:636,at:3), (pv:637,at:2), (pv:638,at:1), (pv:639,at:1), (pv:640,at:1), (pv:641,at:1), (pv:642,at:4), (pv:643,at:1), (pv:644,at:3), (pv:645,at:1), (pv:646,at:2), (pv:647,at:1), (pv:648,at:2), (pv:649,at:11), (pv:650,at:1), (pv:651,at:1), (pv:652,at:7), (pv:653,at:1), (pv:654,at:1), (pv:655,at:3), (pv:656,at:3), (pv:657,at:5), (pv:658,at:2), (pv:659,at:61), (pv:660,at:1), (pv:661,at:1), (pv:662,at:1), (pv:663,at:1), (pv:664,at:2), (pv:665,at:1), (pv:666,at:3), (pv:667,at:1), (pv:668,at:6), (pv:669,at:1), (pv:670,at:2), (pv:671,at:1), (pv:672,at:3), (pv:673,at:1), (pv:674,at:10), (pv:675,at:1), (pv:676,at:6), (pv:677,at:1), (pv:678,at:27), (pv:679,at:1), (pv:680,at:6), (pv:681,at:1), (pv:682,at:1), (pv:683,at:123), (pv:684,at:6), (pv:685,at:2), (pv:686,at:1), (pv:687,at:2), (pv:688,at:1), (pv:689,at:2), (pv:690,at:1), (pv:691,at:1), (pv:692,at:2), (pv:693,at:3), (pv:694,at:1), (pv:695,at:3), (pv:696,at:1), (pv:697,at:3), (pv:698,at:1), (pv:699,at:1), (pv:700,at:1), (pv:701,at:1), (pv:702,at:1), (pv:703,at:1), (pv:704,at:6), (pv:705,at:1), (pv:706,at:1), (pv:707,at:7), (pv:708,at:1), (pv:709,at:43), (pv:710,at:3), (pv:711,at:1), (pv:712,at:7), (pv:713,at:3), (pv:714,at:2), (pv:715,at:1), (pv:716,at:1), (pv:717,at:2), (pv:718,at:2), (pv:719,at:7), (pv:720,at:6), (pv:721,at:3), (pv:722,at:7), (pv:723,at:7), (pv:724,at:1), (pv:725,at:1)]
[INFO ] fr.inria.astor.approaches.jgenprog.JGenProg.showResults(JGenProg.java:342) - 
pvariants_with_transformed_ingredients: [(pv:2,at:1), (pv:3,at:212), (pv:4,at:1), (pv:5,at:3), (pv:6,at:1), (pv:7,at:11), (pv:8,at:11), (pv:9,at:2), (pv:10,at:2), (pv:11,at:1), (pv:12,at:2), (pv:13,at:1), (pv:14,at:1), (pv:15,at:1), (pv:16,at:1), (pv:17,at:2), (pv:18,at:1), (pv:19,at:2), (pv:20,at:2), (pv:21,at:1), (pv:22,at:6), (pv:23,at:2), (pv:24,at:1), (pv:25,at:1), (pv:26,at:3), (pv:27,at:1), (pv:28,at:1), (pv:29,at:3), (pv:30,at:2), (pv:31,at:1), (pv:32,at:10), (pv:33,at:1), (pv:34,at:6), (pv:35,at:1), (pv:36,at:1), (pv:37,at:1), (pv:38,at:2), (pv:39,at:8), (pv:40,at:2), (pv:41,at:1), (pv:42,at:2), (pv:43,at:1), (pv:44,at:2), (pv:45,at:2), (pv:46,at:1), (pv:47,at:2), (pv:48,at:20), (pv:49,at:1), (pv:50,at:1), (pv:51,at:2), (pv:52,at:1), (pv:53,at:1), (pv:54,at:2), (pv:55,at:2), (pv:56,at:2), (pv:57,at:1), (pv:58,at:1), (pv:59,at:6), (pv:60,at:1), (pv:61,at:1), (pv:62,at:1), (pv:63,at:2), (pv:64,at:2), (pv:65,at:1), (pv:66,at:1), (pv:67,at:2), (pv:68,at:1), (pv:69,at:1), (pv:70,at:5), (pv:71,at:1), (pv:72,at:4), (pv:73,at:2), (pv:74,at:2), (pv:75,at:2), (pv:76,at:1), (pv:77,at:3), (pv:78,at:1), (pv:79,at:1), (pv:80,at:6), (pv:81,at:1), (pv:82,at:2), (pv:83,at:1), (pv:84,at:2), (pv:85,at:1), (pv:86,at:5), (pv:87,at:2), (pv:88,at:1), (pv:89,at:2), (pv:90,at:4), (pv:91,at:2), (pv:92,at:1), (pv:93,at:1), (pv:94,at:2), (pv:95,at:3), (pv:96,at:3), (pv:97,at:3), (pv:98,at:1), (pv:99,at:1), (pv:100,at:1), (pv:101,at:2), (pv:102,at:1), (pv:103,at:1), (pv:104,at:1), (pv:105,at:1), (pv:106,at:1), (pv:107,at:11), (pv:108,at:2), (pv:109,at:4), (pv:110,at:3), (pv:111,at:1), (pv:112,at:1), (pv:113,at:2), (pv:114,at:2), (pv:115,at:1), (pv:116,at:1), (pv:117,at:2), (pv:118,at:24), (pv:119,at:1), (pv:120,at:1), (pv:121,at:1), (pv:122,at:6), (pv:123,at:2), (pv:124,at:1), (pv:125,at:1), (pv:126,at:1), (pv:127,at:1), (pv:128,at:2), (pv:129,at:2), (pv:130,at:1), (pv:131,at:3), (pv:132,at:3), (pv:133,at:2), (pv:134,at:1), (pv:135,at:1), (pv:136,at:3), (pv:137,at:1), (pv:138,at:2), (pv:139,at:1), (pv:140,at:4), (pv:141,at:11), (pv:142,at:7), (pv:143,at:2), (pv:144,at:6), (pv:145,at:1), (pv:146,at:2), (pv:147,at:2), (pv:148,at:2), (pv:149,at:1), (pv:150,at:6), (pv:151,at:2), (pv:152,at:2), (pv:153,at:1), (pv:154,at:1), (pv:155,at:1), (pv:156,at:1), (pv:157,at:1), (pv:158,at:1), (pv:159,at:1), (pv:160,at:3), (pv:161,at:1), (pv:162,at:4), (pv:163,at:6), (pv:164,at:1), (pv:165,at:2), (pv:166,at:3), (pv:167,at:7), (pv:168,at:1), (pv:169,at:3), (pv:170,at:2), (pv:171,at:1), (pv:172,at:3), (pv:173,at:255), (pv:174,at:1), (pv:175,at:1), (pv:176,at:2), (pv:177,at:2), (pv:178,at:3), (pv:179,at:1), (pv:180,at:3), (pv:181,at:1), (pv:182,at:2), (pv:183,at:3), (pv:184,at:2), (pv:185,at:1), (pv:186,at:1), (pv:187,at:1), (pv:188,at:20), (pv:189,at:1), (pv:190,at:2), (pv:191,at:1), (pv:192,at:6), (pv:193,at:2), (pv:194,at:6), (pv:195,at:5), (pv:196,at:1), (pv:197,at:11), (pv:198,at:1), (pv:199,at:2), (pv:200,at:1), (pv:201,at:1), (pv:202,at:2), (pv:203,at:1), (pv:204,at:1), (pv:205,at:3), (pv:206,at:2), (pv:207,at:1), (pv:208,at:1), (pv:209,at:2), (pv:210,at:122), (pv:211,at:3), (pv:212,at:1), (pv:213,at:4), (pv:214,at:2), (pv:215,at:1), (pv:216,at:1), (pv:217,at:1), (pv:218,at:1), (pv:219,at:1), (pv:220,at:7), (pv:221,at:1), (pv:222,at:2), (pv:223,at:3), (pv:224,at:1), (pv:225,at:2), (pv:226,at:1), (pv:227,at:1), (pv:228,at:1), (pv:229,at:1), (pv:230,at:2), (pv:231,at:2), (pv:232,at:2), (pv:233,at:2), (pv:234,at:3), (pv:235,at:2), (pv:236,at:1), (pv:237,at:6), (pv:238,at:1), (pv:239,at:6), (pv:240,at:1), (pv:241,at:1), (pv:242,at:1), (pv:243,at:6), (pv:244,at:1), (pv:245,at:3), (pv:246,at:3), (pv:247,at:1), (pv:248,at:2), (pv:249,at:1), (pv:250,at:94), (pv:251,at:3), (pv:252,at:1), (pv:253,at:1), (pv:254,at:2), (pv:255,at:3), (pv:256,at:2), (pv:257,at:1), (pv:258,at:9), (pv:259,at:1), (pv:260,at:2), (pv:261,at:1), (pv:262,at:2), (pv:263,at:7), (pv:264,at:1), (pv:265,at:2), (pv:266,at:1), (pv:267,at:1), (pv:268,at:3), (pv:269,at:1), (pv:270,at:1), (pv:271,at:1), (pv:272,at:1), (pv:273,at:3), (pv:274,at:1), (pv:275,at:1), (pv:276,at:1), (pv:277,at:1), (pv:278,at:1), (pv:279,at:7), (pv:280,at:1), (pv:281,at:2), (pv:282,at:1), (pv:283,at:17), (pv:284,at:3), (pv:285,at:1), (pv:286,at:6), (pv:287,at:1), (pv:288,at:8), (pv:289,at:1), (pv:290,at:2), (pv:291,at:1), (pv:292,at:2), (pv:293,at:2), (pv:294,at:1), (pv:295,at:1), (pv:296,at:3), (pv:297,at:2), (pv:298,at:1), (pv:299,at:1), (pv:300,at:1), (pv:301,at:1), (pv:302,at:1), (pv:303,at:3), (pv:304,at:1), (pv:305,at:2), (pv:306,at:2), (pv:307,at:2), (pv:308,at:3), (pv:309,at:1), (pv:310,at:3), (pv:311,at:1), (pv:312,at:24), (pv:313,at:1), (pv:314,at:2), (pv:315,at:1), (pv:316,at:6), (pv:317,at:1), (pv:318,at:1), (pv:319,at:1), (pv:320,at:5), (pv:321,at:2), (pv:322,at:2), (pv:323,at:2), (pv:324,at:2), (pv:325,at:2), (pv:326,at:1), (pv:327,at:1), (pv:328,at:6), (pv:329,at:1), (pv:330,at:1), (pv:331,at:3), (pv:332,at:1), (pv:333,at:2), (pv:334,at:1), (pv:335,at:2), (pv:336,at:1), (pv:337,at:1), (pv:338,at:8), (pv:339,at:6), (pv:340,at:1), (pv:341,at:3), (pv:342,at:1), (pv:343,at:1), (pv:344,at:2), (pv:345,at:7), (pv:346,at:1), (pv:347,at:2), (pv:348,at:1), (pv:349,at:7), (pv:350,at:3), (pv:351,at:1), (pv:352,at:1), (pv:353,at:1), (pv:354,at:1), (pv:355,at:1), (pv:356,at:1), (pv:357,at:20), (pv:358,at:2), (pv:359,at:2), (pv:360,at:2), (pv:361,at:1), (pv:362,at:3), (pv:363,at:1), (pv:364,at:2), (pv:365,at:1), (pv:366,at:1), (pv:367,at:1), (pv:368,at:2), (pv:369,at:6), (pv:370,at:2), (pv:371,at:1), (pv:372,at:1), (pv:373,at:1), (pv:374,at:1), (pv:375,at:5), (pv:376,at:1), (pv:377,at:2), (pv:378,at:2), (pv:379,at:6), (pv:380,at:1), (pv:381,at:2), (pv:382,at:3), (pv:383,at:1), (pv:384,at:10), (pv:385,at:3), (pv:386,at:1), (pv:387,at:3), (pv:388,at:10), (pv:389,at:6), (pv:390,at:3), (pv:391,at:1), (pv:392,at:13), (pv:393,at:2), (pv:394,at:1), (pv:395,at:2), (pv:396,at:2), (pv:397,at:1), (pv:398,at:1), (pv:399,at:2), (pv:400,at:1), (pv:401,at:3), (pv:402,at:3), (pv:403,at:1), (pv:404,at:1), (pv:405,at:14), (pv:406,at:3), (pv:407,at:2), (pv:408,at:1), (pv:409,at:2), (pv:410,at:1), (pv:411,at:5), (pv:412,at:1), (pv:413,at:3), (pv:414,at:1), (pv:415,at:6), (pv:416,at:2), (pv:417,at:3), (pv:418,at:78), (pv:419,at:6), (pv:420,at:1), (pv:421,at:1), (pv:422,at:25), (pv:423,at:1), (pv:424,at:2), (pv:425,at:1), (pv:426,at:1), (pv:427,at:1), (pv:428,at:1), (pv:429,at:1), (pv:430,at:1), (pv:431,at:2), (pv:432,at:2), (pv:433,at:1), (pv:434,at:6), (pv:435,at:3), (pv:436,at:1), (pv:437,at:17), (pv:438,at:3), (pv:439,at:1), (pv:440,at:1), (pv:441,at:2), (pv:442,at:1), (pv:443,at:1), (pv:444,at:2), (pv:445,at:5), (pv:446,at:1), (pv:447,at:2), (pv:448,at:1), (pv:449,at:1), (pv:450,at:3), (pv:451,at:1), (pv:452,at:7), (pv:453,at:1), (pv:454,at:1), (pv:455,at:1), (pv:456,at:1), (pv:457,at:6), (pv:458,at:1), (pv:459,at:1), (pv:460,at:2), (pv:461,at:5), (pv:462,at:6), (pv:463,at:1), (pv:464,at:1), (pv:465,at:7), (pv:466,at:1), (pv:467,at:27), (pv:468,at:2), (pv:469,at:10), (pv:470,at:1), (pv:471,at:6), (pv:472,at:6), (pv:473,at:2), (pv:474,at:1), (pv:475,at:1), (pv:476,at:1), (pv:477,at:1), (pv:478,at:6), (pv:479,at:1), (pv:480,at:5), (pv:481,at:1), (pv:482,at:1), (pv:483,at:2), (pv:484,at:1), (pv:485,at:1), (pv:486,at:3), (pv:487,at:2), (pv:488,at:3), (pv:489,at:1), (pv:490,at:3), (pv:491,at:43), (pv:492,at:1), (pv:493,at:1), (pv:494,at:1), (pv:495,at:3), (pv:496,at:11), (pv:497,at:2), (pv:498,at:1), (pv:499,at:7), (pv:500,at:3), (pv:501,at:3), (pv:502,at:2), (pv:503,at:2), (pv:504,at:1), (pv:505,at:1), (pv:506,at:1), (pv:507,at:2), (pv:508,at:2), (pv:509,at:4), (pv:510,at:1), (pv:511,at:1), (pv:512,at:1), (pv:513,at:3), (pv:514,at:5), (pv:515,at:1), (pv:516,at:2), (pv:517,at:1), (pv:518,at:1), (pv:519,at:4), (pv:520,at:1), (pv:521,at:1), (pv:522,at:1), (pv:523,at:4), (pv:524,at:2), (pv:525,at:3), (pv:526,at:1), (pv:527,at:2), (pv:528,at:3), (pv:529,at:1), (pv:530,at:2), (pv:531,at:1), (pv:532,at:1), (pv:533,at:2), (pv:534,at:1), (pv:535,at:1), (pv:536,at:27), (pv:537,at:1), (pv:538,at:3), (pv:539,at:1), (pv:540,at:2), (pv:541,at:1), (pv:542,at:4), (pv:543,at:1), (pv:544,at:2), (pv:545,at:1), (pv:546,at:1), (pv:547,at:2), (pv:548,at:1), (pv:549,at:2), (pv:550,at:3), (pv:551,at:8), (pv:552,at:1), (pv:553,at:1), (pv:554,at:1), (pv:555,at:3), (pv:556,at:1), (pv:557,at:1), (pv:558,at:5), (pv:559,at:2), (pv:560,at:3), (pv:561,at:11), (pv:562,at:1), (pv:563,at:6), (pv:564,at:1), (pv:565,at:3), (pv:566,at:2), (pv:567,at:6), (pv:568,at:3), (pv:569,at:1), (pv:570,at:1), (pv:571,at:6), (pv:572,at:1), (pv:573,at:3), (pv:574,at:2), (pv:575,at:1), (pv:576,at:2), (pv:577,at:1), (pv:578,at:1), (pv:579,at:1), (pv:580,at:10), (pv:581,at:3), (pv:582,at:1), (pv:583,at:7), (pv:584,at:1), (pv:585,at:3), (pv:586,at:1), (pv:587,at:1), (pv:588,at:1), (pv:589,at:2), (pv:590,at:5), (pv:591,at:3), (pv:592,at:1), (pv:593,at:1), (pv:594,at:1), (pv:595,at:2), (pv:596,at:1), (pv:597,at:1), (pv:598,at:2), (pv:599,at:4), (pv:600,at:3), (pv:601,at:3), (pv:602,at:3), (pv:603,at:2), (pv:604,at:1), (pv:605,at:2), (pv:606,at:118), (pv:607,at:3), (pv:608,at:7), (pv:609,at:2), (pv:610,at:1), (pv:611,at:1), (pv:612,at:1), (pv:613,at:2), (pv:614,at:2), (pv:615,at:4), (pv:616,at:3), (pv:617,at:1), (pv:618,at:6), (pv:619,at:1), (pv:620,at:1), (pv:621,at:1), (pv:622,at:2), (pv:623,at:7), (pv:624,at:1), (pv:625,at:131), (pv:626,at:10), (pv:627,at:7), (pv:628,at:1), (pv:629,at:3), (pv:630,at:1), (pv:631,at:1), (pv:632,at:1), (pv:633,at:3), (pv:634,at:20), (pv:635,at:1), (pv:636,at:3), (pv:637,at:2), (pv:638,at:1), (pv:639,at:1), (pv:640,at:1), (pv:641,at:1), (pv:642,at:4), (pv:643,at:1), (pv:644,at:3), (pv:645,at:1), (pv:646,at:2), (pv:647,at:1), (pv:648,at:2), (pv:649,at:11), (pv:650,at:1), (pv:651,at:1), (pv:652,at:7), (pv:653,at:1), (pv:654,at:1), (pv:655,at:3), (pv:656,at:3), (pv:657,at:5), (pv:658,at:2), (pv:659,at:61), (pv:660,at:1), (pv:661,at:1), (pv:662,at:1), (pv:663,at:1), (pv:664,at:2), (pv:665,at:1), (pv:666,at:3), (pv:667,at:1), (pv:668,at:6), (pv:669,at:1), (pv:670,at:2), (pv:671,at:1), (pv:672,at:3), (pv:673,at:1), (pv:674,at:10), (pv:675,at:1), (pv:676,at:6), (pv:677,at:1), (pv:678,at:27), (pv:679,at:1), (pv:680,at:6), (pv:681,at:1), (pv:682,at:1), (pv:683,at:123), (pv:684,at:6), (pv:685,at:2), (pv:686,at:1), (pv:687,at:2), (pv:688,at:1), (pv:689,at:2), (pv:690,at:1), (pv:691,at:1), (pv:692,at:2), (pv:693,at:3), (pv:694,at:1), (pv:695,at:3), (pv:696,at:1), (pv:697,at:3), (pv:698,at:1), (pv:699,at:1), (pv:700,at:1), (pv:701,at:1), (pv:702,at:1), (pv:703,at:1), (pv:704,at:6), (pv:705,at:1), (pv:706,at:1), (pv:707,at:7), (pv:708,at:1), (pv:709,at:43), (pv:710,at:3), (pv:711,at:1), (pv:712,at:7), (pv:713,at:3), (pv:714,at:2), (pv:715,at:1), (pv:716,at:1), (pv:717,at:2), (pv:718,at:2), (pv:719,at:7), (pv:720,at:6), (pv:721,at:3), (pv:722,at:7), (pv:723,at:7), (pv:724,at:1), (pv:725,at:1)]
[INFO ] fr.inria.main.evolution.AstorMain.run(AstorMain.java:163) - Time Total(s): 11896.795
