Warning: no access to tty (Bad file descriptor).
Thus no job control in this shell.
tput: No value for $TERM and no -T specified
Node: wh50.sciclone.wm.edu
2017-03-26 18:32:09,026 INFO main - command line arguments: [-out  /local/scr/mtufano/Time/8/b/random-package-embeddings/1  -jvm4testexecution  /usr/local/jdk1.7.0_80/bin/  -loglevel  INFO  -maxgen  1000000  -population  1  -maxtime  180  -timezone  America/New_York  -customop  fr.inria.astor.approaches.jgenprog.operators.InsertAfterOp:fr.inria.astor.approaches.jgenprog.operators.InsertBeforeOp:fr.inria.astor.approaches.jgenprog.operators.ReplaceOp  -seed  1  -javacompliancelevel  5  -package  org.joda  -binjavafolder  target/classes/  -bintestfolder  target/test-classes/  -srcjavafolder  src/main/java/  -srctestfolder  src/test/java/  -learningdir  ../../out/learningdir/Time/8/b/  -location  ../../dat/defects4j/Time/8/b/  -failing  org.joda.time.TestDateTimeZone  -dependencies  ../../dat/libs/Time/joda-convert-1.2.jar  -scope  fr.inria.astor.core.loop.spaces.ingredients.scopes.ctscopes.CtPackageIngredientScope  -ingredientstrategy  fr.inria.astor.core.loop.spaces.ingredients.ingredientSearch.EfficientIngredientStrategy  -transformingredient  -classestoinstrument  org.joda.time.tz.FixedDateTimeZone:org.joda.time.field.FieldUtils:org.joda.time.format.FormatUtils:org.joda.time.format.DateTimeParserBucket:org.joda.time.ReadableInstant:org.joda.time.format.DateTimeParser:org.joda.time.IllegalInstantException:org.joda.time.DateTimeField:org.joda.time.tz.Provider:org.joda.time.format.DateTimePrinter:org.joda.time.tz.DateTimeZoneBuilder:org.joda.time.format.DateTimeFormatter:org.joda.time.DateTimeZone:org.joda.time.DateTimeUtils:org.joda.time.chrono.ISOChronology:org.joda.time.DurationField:org.joda.time.chrono.BaseChronology:org.joda.time.tz.CachedDateTimeZone:org.joda.time.IllegalFieldValueException:org.joda.time.chrono.AssembledChronology:org.joda.time.field.UnsupportedDateTimeField:org.joda.time.tz.DefaultNameProvider:org.joda.time.ReadableInterval:org.joda.time.field.UnsupportedDurationField:org.joda.time.Chronology:org.joda.time.format.DateTimeFormatterBuilder:org.joda.time.JodaTimePermission:org.joda.time.tz.NameProvider:org.joda.time.tz.ZoneInfoProvider:  -regressiontestcases4fl  org.joda.time.TestAbstractPartial:org.joda.time.TestBasePartial:org.joda.time.TestBaseSingleFieldPeriod:org.joda.time.TestChronology:org.joda.time.TestDateMidnight_Basics:org.joda.time.TestDateMidnight_Constructors:org.joda.time.TestDateMidnight_Properties:org.joda.time.TestDateTimeComparator:org.joda.time.TestDateTimeFieldType:org.joda.time.TestDateTimeUtils:org.joda.time.TestDateTimeZone:org.joda.time.TestDateTimeZoneCutover:org.joda.time.TestDateTime_Basics:org.joda.time.TestDateTime_Constructors:org.joda.time.TestDateTime_Properties:org.joda.time.TestDays:org.joda.time.TestDurationField:org.joda.time.TestDurationFieldType:org.joda.time.TestDuration_Basics:org.joda.time.TestDuration_Constructors:org.joda.time.TestHours:org.joda.time.TestIllegalFieldValueException:org.joda.time.TestInstant_Basics:org.joda.time.TestInstant_Constructors:org.joda.time.TestInterval_Basics:org.joda.time.TestInterval_Constructors:org.joda.time.TestLocalDateTime_Basics:org.joda.time.TestLocalDateTime_Constructors:org.joda.time.TestLocalDateTime_Properties:org.joda.time.TestLocalDate_Basics:org.joda.time.TestLocalDate_Constructors:org.joda.time.TestLocalDate_Properties:org.joda.time.TestLocalTime_Basics:org.joda.time.TestLocalTime_Constructors:org.joda.time.TestLocalTime_Properties:org.joda.time.TestMinutes:org.joda.time.TestMonthDay_Basics:org.joda.time.TestMonthDay_Constructors:org.joda.time.TestMonthDay_Properties:org.joda.time.TestMonths:org.joda.time.TestMutableDateTime_Adds:org.joda.time.TestMutableDateTime_Basics:org.joda.time.TestMutableDateTime_Constructors:org.joda.time.TestMutableDateTime_Properties:org.joda.time.TestMutableDateTime_Sets:org.joda.time.TestMutableInterval_Basics:org.joda.time.TestMutableInterval_Constructors:org.joda.time.TestMutableInterval_Updates:org.joda.time.TestMutablePeriod_Basics:org.joda.time.TestMutablePeriod_Constructors:org.joda.time.TestMutablePeriod_Updates:org.joda.time.TestPartial_Basics:org.joda.time.TestPartial_Constructors:org.joda.time.TestPartial_Match:org.joda.time.TestPartial_Properties:org.joda.time.TestPeriodType:org.joda.time.TestPeriod_Basics:org.joda.time.TestPeriod_Constructors:org.joda.time.TestSeconds:org.joda.time.TestSerialization:org.joda.time.TestStringConvert:org.joda.time.TestTimeOfDay_Basics:org.joda.time.TestTimeOfDay_Constructors:org.joda.time.TestTimeOfDay_Properties:org.joda.time.TestWeeks:org.joda.time.TestYearMonthDay_Basics:org.joda.time.TestYearMonthDay_Constructors:org.joda.time.TestYearMonthDay_Properties:org.joda.time.TestYearMonth_Basics:org.joda.time.TestYearMonth_Constructors:org.joda.time.TestYearMonth_Properties:org.joda.time.TestYears:org.joda.time.chrono.TestBuddhistChronology:org.joda.time.chrono.TestCopticChronology:org.joda.time.chrono.TestEthiopicChronology:org.joda.time.chrono.TestGJChronology:org.joda.time.chrono.TestGregorianChronology:org.joda.time.chrono.TestISOChronology:org.joda.time.chrono.TestIslamicChronology:org.joda.time.chrono.TestJulianChronology:org.joda.time.chrono.TestLenientChronology:org.joda.time.convert.TestCalendarConverter:org.joda.time.convert.TestConverterManager:org.joda.time.convert.TestDateConverter:org.joda.time.convert.TestLongConverter:org.joda.time.convert.TestNullConverter:org.joda.time.convert.TestReadableDurationConverter:org.joda.time.convert.TestReadableInstantConverter:org.joda.time.convert.TestReadableIntervalConverter:org.joda.time.convert.TestReadablePartialConverter:org.joda.time.convert.TestReadablePeriodConverter:org.joda.time.convert.TestStringConverter:org.joda.time.field.TestBaseDateTimeField:org.joda.time.field.TestMillisDurationField:org.joda.time.field.TestOffsetDateTimeField:org.joda.time.field.TestPreciseDateTimeField:org.joda.time.field.TestPreciseDurationDateTimeField:org.joda.time.field.TestPreciseDurationField:org.joda.time.field.TestScaledDurationField:org.joda.time.field.TestUnsupportedDateTimeField:org.joda.time.format.TestDateTimeFormat:org.joda.time.format.TestDateTimeFormatStyle:org.joda.time.format.TestDateTimeFormatter:org.joda.time.format.TestDateTimeFormatterBuilder:org.joda.time.format.TestISODateTimeFormat:org.joda.time.format.TestISODateTimeFormatParsing:org.joda.time.format.TestISODateTimeFormat_Fields:org.joda.time.format.TestISOPeriodFormat:org.joda.time.format.TestISOPeriodFormatParsing:org.joda.time.format.TestPeriodFormat:org.joda.time.format.TestPeriodFormatParsing:org.joda.time.format.TestPeriodFormatter:org.joda.time.format.TestPeriodFormatterBuilder:org.joda.time.format.TestTextFields:org.joda.time.tz.TestBuilder:org.joda.time.tz.TestCachedDateTimeZone:org.joda.time.tz.TestCompiler:org.joda.time.tz.TestFixedDateTimeZone:org.joda.time.tz.TestUTCProvider:]
2017-03-26 18:32:09,856 INFO main - building model: /local/scr/mtufano/Time/8/b/random-package-embeddings/1/AstorMain-b//src//default, compliance level: 5
2017-03-26 18:32:09,996 INFO main - Classpath for building SpoonModel [/sciclone/data20/mtufano/deeprepair/bin/eval/../../dat/libs/Time/joda-convert-1.2.jar]
2017-03-26 18:32:18,408 INFO main - -Executing Gzoltar classpath: /local/scr/mtufano/Time/8/b/random-package-embeddings/1/AstorMain-b//bin//default from 119 classes with test cases
2017-03-26 18:32:18,408 INFO fr.inria.astor.core.faultlocalization.GZoltarFaultLocalization - Gzoltar fault localization: min susp value parameter: 0.1
2017-03-26 18:32:19,390 INFO fr.inria.astor.core.faultlocalization.GZoltarFaultLocalization - -gz-Adding classpath: [/local/scr/mtufano/Time/8/b/random-package-embeddings/1/AstorMain-b//bin//default, /sciclone/data20/mtufano/deeprepair/bin/eval/../../dat/libs/Time/joda-convert-1.2.jar]
2017-03-26 18:32:33,851 INFO fr.inria.astor.core.faultlocalization.GZoltarFaultLocalization - Test failt: org.joda.time.format.TestDateTimeFormatter#testZoneShortNameNearTransition
2017-03-26 18:32:33,851 INFO fr.inria.astor.core.faultlocalization.GZoltarFaultLocalization - Test failt: org.joda.time.format.TestDateTimeFormatter#testZoneNameNearTransition
2017-03-26 18:32:33,856 INFO fr.inria.astor.core.faultlocalization.GZoltarFaultLocalization - Test failt: org.joda.time.format.TestDateTimeFormatterBuilder#test_printParseLongName
2017-03-26 18:32:33,856 INFO fr.inria.astor.core.faultlocalization.GZoltarFaultLocalization - Test failt: org.joda.time.format.TestDateTimeFormatterBuilder#test_printParseShortNameWithAutoLookup
2017-03-26 18:32:33,856 INFO fr.inria.astor.core.faultlocalization.GZoltarFaultLocalization - Test failt: org.joda.time.format.TestDateTimeFormatterBuilder#test_printParseLongNameWithLookup
2017-03-26 18:32:33,856 INFO fr.inria.astor.core.faultlocalization.GZoltarFaultLocalization - Test failt: org.joda.time.format.TestDateTimeFormatterBuilder#test_printParseShortNameWithLookup
2017-03-26 18:32:33,856 INFO fr.inria.astor.core.faultlocalization.GZoltarFaultLocalization - Test failt: org.joda.time.format.TestDateTimeFormatterBuilder#test_printParseShortName
2017-03-26 18:32:33,856 INFO fr.inria.astor.core.faultlocalization.GZoltarFaultLocalization - Test failt: org.joda.time.format.TestDateTimeFormatStyle#testForStyle_fullDateTime
2017-03-26 18:32:33,857 INFO fr.inria.astor.core.faultlocalization.GZoltarFaultLocalization - Test failt: org.joda.time.format.TestDateTimeFormatStyle#testForStyle_mediumLongDateTime
2017-03-26 18:32:33,857 INFO fr.inria.astor.core.faultlocalization.GZoltarFaultLocalization - Test failt: org.joda.time.format.TestDateTimeFormatStyle#testForStyle_fullTime
2017-03-26 18:32:33,857 INFO fr.inria.astor.core.faultlocalization.GZoltarFaultLocalization - Test failt: org.joda.time.format.TestDateTimeFormatStyle#testForStyle_shortLongDateTime
2017-03-26 18:32:33,857 INFO fr.inria.astor.core.faultlocalization.GZoltarFaultLocalization - Test failt: org.joda.time.format.TestDateTimeFormatStyle#testForStyle_longTime
2017-03-26 18:32:33,857 INFO fr.inria.astor.core.faultlocalization.GZoltarFaultLocalization - Test failt: org.joda.time.format.TestDateTimeFormatStyle#testForStyle_mediumFullDateTime
2017-03-26 18:32:33,857 INFO fr.inria.astor.core.faultlocalization.GZoltarFaultLocalization - Test failt: org.joda.time.format.TestDateTimeFormatStyle#testForStyle_shortFullDateTime
2017-03-26 18:32:33,857 INFO fr.inria.astor.core.faultlocalization.GZoltarFaultLocalization - Test failt: org.joda.time.format.TestDateTimeFormatStyle#testForStyle_longDateTime
2017-03-26 18:32:33,857 INFO fr.inria.astor.core.faultlocalization.GZoltarFaultLocalization - Test failt: org.joda.time.format.TestDateTimeFormat#testFormat_zoneText
2017-03-26 18:32:33,857 INFO fr.inria.astor.core.faultlocalization.GZoltarFaultLocalization - Test failt: org.joda.time.format.TestDateTimeFormat#testFormat_zoneLongText
2017-03-26 18:32:33,858 INFO fr.inria.astor.core.faultlocalization.GZoltarFaultLocalization - Test failt: org.joda.time.TestDateTimeZone#testGetName_berlin
2017-03-26 18:32:33,858 INFO fr.inria.astor.core.faultlocalization.GZoltarFaultLocalization - Test failt: org.joda.time.TestDateTimeZone#testGetShortName
2017-03-26 18:32:33,858 INFO fr.inria.astor.core.faultlocalization.GZoltarFaultLocalization - Test failt: org.joda.time.TestDateTimeZone#testGetName
2017-03-26 18:32:33,858 INFO fr.inria.astor.core.faultlocalization.GZoltarFaultLocalization - Test failt: org.joda.time.TestDateTimeZone#testForOffsetHoursMinutes_int_int
2017-03-26 18:32:33,859 INFO fr.inria.astor.core.faultlocalization.GZoltarFaultLocalization - Test failt: org.joda.time.TestDateTimeZone#testGetShortName_berlin
2017-03-26 18:32:33,861 INFO fr.inria.astor.core.faultlocalization.GZoltarFaultLocalization - Gzoltar Test Result Total:3950, fails: 22, GZoltar suspicious 10096
2017-03-26 18:32:33,905 INFO fr.inria.astor.core.faultlocalization.GZoltarFaultLocalization - Gzoltar found: 651 with susp > 0.1, we consider: 651
2017-03-26 18:32:33,906 INFO main - 
---- Initial suspicious size: 651
2017-03-26 18:32:34,312 INFO main - -any mod point created for suspicious Candidate [className=org.joda.time.format.DateTimeFormatterBuilder$TimeZoneName, methodName=org.joda.time.format.DateTimeFormatterBuilder$TimeZoneName{printTo(Ljava/lang/StringBuffer;JLorg/joda/time/Chronology;ILorg/joda/time/DateTimeZone;Ljava/util/Locale;)V 0.0, lineNumber=2490, susp=0.8790490729915326]
2017-03-26 18:32:34,496 INFO main - -any mod point created for suspicious Candidate [className=org.joda.time.format.DateTimeFormatterBuilder$TimeZoneName, methodName=org.joda.time.format.DateTimeFormatterBuilder$TimeZoneName{print(JLorg/joda/time/DateTimeZone;Ljava/util/Locale;)Ljava/lang/String; 0.0, lineNumber=2506, susp=0.7687061147858074]
2017-03-26 18:32:34,694 INFO main - -any mod point created for suspicious Candidate [className=org.joda.time.format.DateTimeFormat, methodName=org.joda.time.format.DateTimeFormat{parsePatternTo(Lorg/joda/time/format/DateTimeFormatterBuilder;Ljava/lang/String;)V 0.0, lineNumber=533, susp=0.7385489458759964]
2017-03-26 18:32:34,749 INFO main - -any mod point created for suspicious Candidate [className=org.joda.time.format.DateTimeFormat, methodName=org.joda.time.format.DateTimeFormat{parsePatternTo(Lorg/joda/time/format/DateTimeFormatterBuilder;Ljava/lang/String;)V 0.0, lineNumber=538, susp=0.674199862463242]
2017-03-26 18:32:34,784 INFO main - -any mod point created for suspicious Candidate [className=org.joda.time.format.DateTimeFormat, methodName=org.joda.time.format.DateTimeFormat{parsePatternTo(Lorg/joda/time/format/DateTimeFormatterBuilder;Ljava/lang/String;)V 0.0, lineNumber=511, susp=0.5330017908890261]
2017-03-26 18:32:34,794 INFO main - -any mod point created for suspicious Candidate [className=org.joda.time.format.DateTimeFormat, methodName=org.joda.time.format.DateTimeFormat{parsePatternTo(Lorg/joda/time/format/DateTimeFormatterBuilder;Ljava/lang/String;)V 0.0, lineNumber=512, susp=0.5330017908890261]
2017-03-26 18:32:34,798 INFO main - -any mod point created for suspicious Candidate [className=org.joda.time.format.DateTimeFormat, methodName=org.joda.time.format.DateTimeFormat{parsePatternTo(Lorg/joda/time/format/DateTimeFormatterBuilder;Ljava/lang/String;)V 0.0, lineNumber=508, susp=0.48769206657176634]
2017-03-26 18:32:34,800 INFO main - -any mod point created for suspicious Candidate [className=org.joda.time.format.DateTimeFormat, methodName=org.joda.time.format.DateTimeFormat{parsePatternTo(Lorg/joda/time/format/DateTimeFormatterBuilder;Ljava/lang/String;)V 0.0, lineNumber=509, susp=0.48769206657176634]
2017-03-26 18:32:34,803 INFO main - -any mod point created for suspicious Candidate [className=org.joda.time.format.DateTimeFormat, methodName=org.joda.time.format.DateTimeFormat{parsePatternTo(Lorg/joda/time/format/DateTimeFormatterBuilder;Ljava/lang/String;)V 0.0, lineNumber=499, susp=0.4767312946227961]
2017-03-26 18:32:34,804 INFO main - -any mod point created for suspicious Candidate [className=org.joda.time.format.DateTimeFormat, methodName=org.joda.time.format.DateTimeFormat{parsePatternTo(Lorg/joda/time/format/DateTimeFormatterBuilder;Ljava/lang/String;)V 0.0, lineNumber=500, susp=0.4767312946227961]
2017-03-26 18:32:34,956 INFO main - -any mod point created for suspicious Candidate [className=org.joda.time.format.DateTimeFormatterBuilder$TimeZoneName, methodName=org.joda.time.format.DateTimeFormatterBuilder$TimeZoneName{print(JLorg/joda/time/DateTimeZone;Ljava/util/Locale;)Ljava/lang/String; 0.0, lineNumber=2504, susp=0.42640143271122083]
2017-03-26 18:32:34,964 INFO main - -any mod point created for suspicious Candidate [className=org.joda.time.format.DateTimeFormat$StyleFormatter, methodName=org.joda.time.format.DateTimeFormat$StyleFormatter{getPattern(Ljava/util/Locale;)Ljava/lang/String; 0.0, lineNumber=842, susp=0.40451991747794525]
2017-03-26 18:32:34,983 INFO main - -any mod point created for suspicious Candidate [className=org.joda.time.format.DateTimeFormat, methodName=org.joda.time.format.DateTimeFormat{parseToken(Ljava/lang/String;[I)Ljava/lang/String; 0.0, lineNumber=593, susp=0.40201512610368484]
2017-03-26 18:32:35,023 INFO main - -any mod point created for suspicious Candidate [className=org.joda.time.format.DateTimeFormat$StyleFormatter, methodName=org.joda.time.format.DateTimeFormat$StyleFormatter{printTo(Ljava/lang/StringBuffer;JLorg/joda/time/Chronology;ILorg/joda/time/DateTimeZone;Ljava/util/Locale;)V 0.0, lineNumber=789, susp=0.40201512610368484]
2017-03-26 18:32:35,207 INFO main - -any mod point created for suspicious Candidate [className=org.joda.time.format.DateTimeFormat$StyleFormatter, methodName=org.joda.time.format.DateTimeFormat$StyleFormatter{getFormatter(Ljava/util/Locale;)Lorg/joda/time/format/DateTimeFormatter; 0.0, lineNumber=828, susp=0.40201512610368484]
2017-03-26 18:32:35,418 INFO main - -any mod point created for suspicious Candidate [className=org.joda.time.format.DateTimeFormat, methodName=org.joda.time.format.DateTimeFormat{createFormatterForStyleIndex(II)Lorg/joda/time/format/DateTimeFormatter; 0.0, lineNumber=736, susp=0.40201512610368484]
2017-03-26 18:32:35,422 INFO main - -any mod point created for suspicious Candidate [className=org.joda.time.format.DateTimeFormat, methodName=org.joda.time.format.DateTimeFormat{parsePatternTo(Lorg/joda/time/format/DateTimeFormatterBuilder;Ljava/lang/String;)V 0.0, lineNumber=549, susp=0.3997513431667695]
2017-03-26 18:32:35,425 INFO main - -any mod point created for suspicious Candidate [className=org.joda.time.format.DateTimeFormat, methodName=org.joda.time.format.DateTimeFormat{parsePatternTo(Lorg/joda/time/format/DateTimeFormatterBuilder;Ljava/lang/String;)V 0.0, lineNumber=550, susp=0.3997513431667695]
2017-03-26 18:32:35,497 INFO main - -any mod point created for suspicious Candidate [className=org.joda.time.format.DateTimeFormat, methodName=org.joda.time.format.DateTimeFormat{parsePatternTo(Lorg/joda/time/format/DateTimeFormatterBuilder;Ljava/lang/String;)V 0.0, lineNumber=490, susp=0.3881029321172459]
2017-03-26 18:32:35,498 INFO main - -any mod point created for suspicious Candidate [className=org.joda.time.format.DateTimeFormat, methodName=org.joda.time.format.DateTimeFormat{parsePatternTo(Lorg/joda/time/format/DateTimeFormatterBuilder;Ljava/lang/String;)V 0.0, lineNumber=491, susp=0.3881029321172459]
2017-03-26 18:32:35,540 INFO main - -any mod point created for suspicious Candidate [className=org.joda.time.format.DateTimeFormat, methodName=org.joda.time.format.DateTimeFormat{selectStyle(C)I 0.0, lineNumber=755, susp=0.38138503569823695]
2017-03-26 18:32:35,542 INFO main - -any mod point created for suspicious Candidate [className=org.joda.time.format.DateTimeFormat, methodName=org.joda.time.format.DateTimeFormat{selectStyle(C)I 0.0, lineNumber=753, susp=0.38138503569823695]
2017-03-26 18:32:35,548 INFO main - -any mod point created for suspicious Candidate [className=org.joda.time.format.DateTimeFormat, methodName=org.joda.time.format.DateTimeFormat{parsePatternTo(Lorg/joda/time/format/DateTimeFormatterBuilder;Ljava/lang/String;)V 0.0, lineNumber=424, susp=0.3737237234744448]
2017-03-26 18:32:35,771 INFO main - -any mod point created for suspicious Candidate [className=org.joda.time.format.DateTimeFormat, methodName=org.joda.time.format.DateTimeFormat{parsePatternTo(Lorg/joda/time/format/DateTimeFormatterBuilder;Ljava/lang/String;)V 0.0, lineNumber=563, susp=0.3718568433708361]
2017-03-26 18:32:35,777 INFO main - -any mod point created for suspicious Candidate [className=org.joda.time.format.DateTimeFormat, methodName=org.joda.time.format.DateTimeFormat{parsePatternTo(Lorg/joda/time/format/DateTimeFormatterBuilder;Ljava/lang/String;)V 0.0, lineNumber=470, susp=0.37080992435478316]
2017-03-26 18:32:35,779 INFO main - -any mod point created for suspicious Candidate [className=org.joda.time.format.DateTimeFormat, methodName=org.joda.time.format.DateTimeFormat{parsePatternTo(Lorg/joda/time/format/DateTimeFormatterBuilder;Ljava/lang/String;)V 0.0, lineNumber=471, susp=0.37080992435478316]
2017-03-26 18:32:36,032 INFO main - -any mod point created for suspicious Candidate [className=org.joda.time.format.DateTimeFormat, methodName=org.joda.time.format.DateTimeFormat{parsePatternTo(Lorg/joda/time/format/DateTimeFormatterBuilder;Ljava/lang/String;)V 0.0, lineNumber=479, susp=0.3671086215711883]
2017-03-26 18:32:36,057 INFO main - -any mod point created for suspicious Candidate [className=org.joda.time.format.DateTimeFormat, methodName=org.joda.time.format.DateTimeFormat{parsePatternTo(Lorg/joda/time/format/DateTimeFormatterBuilder;Ljava/lang/String;)V 0.0, lineNumber=477, susp=0.3535533905932738]
2017-03-26 18:32:36,209 INFO main - -any mod point created for suspicious Candidate [className=org.joda.time.format.DateTimeFormat, methodName=org.joda.time.format.DateTimeFormat{parsePatternTo(Lorg/joda/time/format/DateTimeFormatterBuilder;Ljava/lang/String;)V 0.0, lineNumber=488, susp=0.29261523994305977]
2017-03-26 18:32:36,245 INFO main - -any mod point created for suspicious Candidate [className=org.joda.time.format.DateTimeFormat, methodName=org.joda.time.format.DateTimeFormat{appendPatternTo(Lorg/joda/time/format/DateTimeFormatterBuilder;Ljava/lang/String;)V 0.0, lineNumber=378, susp=0.2585438449975096]
2017-03-26 18:32:36,305 INFO main - -any mod point created for suspicious Candidate [className=org.joda.time.format.DateTimeFormat, methodName=org.joda.time.format.DateTimeFormat{parsePatternTo(Lorg/joda/time/format/DateTimeFormatterBuilder;Ljava/lang/String;)V 0.0, lineNumber=557, susp=0.22019275302527214]
2017-03-26 18:32:36,493 INFO main - -any mod point created for suspicious Candidate [className=org.joda.time.format.DateTimeFormat$StyleFormatter, methodName=org.joda.time.format.DateTimeFormat$StyleFormatter{getPattern(Ljava/util/Locale;)Ljava/lang/String; 0.0, lineNumber=839, susp=0.21320071635561041]
2017-03-26 18:32:36,498 INFO main - -any mod point created for suspicious Candidate [className=org.joda.time.format.DateTimeFormat$StyleFormatter, methodName=org.joda.time.format.DateTimeFormat$StyleFormatter{getPattern(Ljava/util/Locale;)Ljava/lang/String; 0.0, lineNumber=840, susp=0.21320071635561041]
2017-03-26 18:32:37,131 INFO main - -any mod point created for suspicious Candidate [className=org.joda.time.format.DateTimeFormatterBuilder, methodName=org.joda.time.format.DateTimeFormatterBuilder{appendLiteral(Ljava/lang/String;)Lorg/joda/time/format/DateTimeFormatterBuilder; 0.0, lineNumber=417, susp=0.20683507599800766]
2017-03-26 18:32:37,142 INFO main - -any mod point created for suspicious Candidate [className=org.joda.time.format.DateTimeFormatterBuilder$StringLiteral, methodName=org.joda.time.format.DateTimeFormatterBuilder$StringLiteral{printTo(Ljava/lang/StringBuffer;JLorg/joda/time/Chronology;ILorg/joda/time/DateTimeZone;Ljava/util/Locale;)V 0.0, lineNumber=1282, susp=0.20683507599800766]
2017-03-26 18:32:37,758 INFO main - -any mod point created for suspicious Candidate [className=org.joda.time.format.DateTimeFormatterBuilder$Composite, methodName=org.joda.time.format.DateTimeFormatterBuilder$Composite{decompose(Ljava/util/List;Ljava/util/List;Ljava/util/List;)V 0.0, lineNumber=2775, susp=0.20145574100634506]
2017-03-26 18:32:37,797 INFO main - -any mod point created for suspicious Candidate [className=org.joda.time.format.DateTimeFormat, methodName=org.joda.time.format.DateTimeFormat{createFormatterForPattern(Ljava/lang/String;)Lorg/joda/time/format/DateTimeFormatter; 0.0, lineNumber=687, susp=0.19977814746360806]
2017-03-26 18:32:37,837 INFO main - -any mod point created for suspicious Candidate [className=org.joda.time.format.FormatUtils, methodName=org.joda.time.format.FormatUtils{appendPaddedInteger(Ljava/lang/StringBuffer;II)V 0.0, lineNumber=92, susp=0.19277490023901495]
2017-03-26 18:32:37,857 INFO main - -any mod point created for suspicious Candidate [className=org.joda.time.format.DateTimeFormat, methodName=org.joda.time.format.DateTimeFormat{parsePatternTo(Lorg/joda/time/format/DateTimeFormatterBuilder;Ljava/lang/String;)V 0.0, lineNumber=514, susp=0.19069251784911848]
2017-03-26 18:32:37,858 INFO main - -any mod point created for suspicious Candidate [className=org.joda.time.format.DateTimeFormat, methodName=org.joda.time.format.DateTimeFormat{parsePatternTo(Lorg/joda/time/format/DateTimeFormatterBuilder;Ljava/lang/String;)V 0.0, lineNumber=515, susp=0.19069251784911848]
2017-03-26 18:32:37,864 INFO main - -any mod point created for suspicious Candidate [className=org.joda.time.format.FormatUtils, methodName=org.joda.time.format.FormatUtils{appendPaddedInteger(Ljava/lang/StringBuffer;II)V 0.0, lineNumber=78, susp=0.1881544522515954]
2017-03-26 18:32:37,891 INFO main - -any mod point created for suspicious Candidate [className=org.joda.time.format.DateTimeFormatterBuilder$CharacterLiteral, methodName=org.joda.time.format.DateTimeFormatterBuilder$CharacterLiteral{printTo(Ljava/lang/StringBuffer;JLorg/joda/time/Chronology;ILorg/joda/time/DateTimeZone;Ljava/util/Locale;)V 0.0, lineNumber=1219, susp=0.17770142712650677]
2017-03-26 18:32:38,066 INFO main - -any mod point created for suspicious Candidate [className=org.joda.time.format.DateTimeFormatterBuilder$Composite, methodName=org.joda.time.format.DateTimeFormatterBuilder$Composite{printTo(Ljava/lang/StringBuffer;JLorg/joda/time/Chronology;ILorg/joda/time/DateTimeZone;Ljava/util/Locale;)V 0.0, lineNumber=2674, susp=0.1768532054475018]
2017-03-26 18:32:38,093 INFO main - -any mod point created for suspicious Candidate [className=org.joda.time.format.DateTimeFormatterBuilder$PaddedNumber, methodName=org.joda.time.format.DateTimeFormatterBuilder$PaddedNumber{printTo(Ljava/lang/StringBuffer;JLorg/joda/time/Chronology;ILorg/joda/time/DateTimeZone;Ljava/util/Locale;)V 0.0, lineNumber=1479, susp=0.1768532054475018]
2017-03-26 18:32:38,096 INFO main - -any mod point created for suspicious Candidate [className=org.joda.time.format.DateTimeFormatterBuilder$PaddedNumber, methodName=org.joda.time.format.DateTimeFormatterBuilder$PaddedNumber{printTo(Ljava/lang/StringBuffer;JLorg/joda/time/Chronology;ILorg/joda/time/DateTimeZone;Ljava/util/Locale;)V 0.0, lineNumber=1480, susp=0.1768532054475018]
2017-03-26 18:32:38,105 INFO main - -any mod point created for suspicious Candidate [className=org.joda.time.format.DateTimeFormatter, methodName=org.joda.time.format.DateTimeFormatter{printTo(Ljava/lang/StringBuffer;Lorg/joda/time/ReadableInstant;)V 0.0, lineNumber=463, susp=0.17601701539454873]
2017-03-26 18:32:38,116 INFO main - -any mod point created for suspicious Candidate [className=org.joda.time.format.DateTimeFormatter, methodName=org.joda.time.format.DateTimeFormatter{printTo(Ljava/lang/StringBuffer;JLorg/joda/time/Chronology;)V 0.0, lineNumber=633, susp=0.17458179154917294]
2017-03-26 18:32:38,131 INFO main - -any mod point created for suspicious Candidate [className=org.joda.time.format.DateTimeFormat, methodName=org.joda.time.format.DateTimeFormat{selectStyle(C)I 0.0, lineNumber=751, susp=0.16116459280507606]
2017-03-26 18:32:38,133 INFO main - -any mod point created for suspicious Candidate [className=org.joda.time.format.DateTimeFormat, methodName=org.joda.time.format.DateTimeFormat{selectStyle(C)I 0.0, lineNumber=749, susp=0.16116459280507606]
2017-03-26 18:32:38,198 INFO main - -any mod point created for suspicious Candidate [className=org.joda.time.format.DateTimeFormatterBuilder$TwoDigitYear, methodName=org.joda.time.format.DateTimeFormatterBuilder$TwoDigitYear{printTo(Ljava/lang/StringBuffer;JLorg/joda/time/Chronology;ILorg/joda/time/DateTimeZone;Ljava/util/Locale;)V 0.0, lineNumber=1684, susp=0.15075567228888181]
2017-03-26 18:32:38,250 INFO main - -any mod point created for suspicious Candidate [className=org.joda.time.format.DateTimeFormat, methodName=org.joda.time.format.DateTimeFormat{selectStyle(C)I 0.0, lineNumber=757, susp=0.1421338109037403]
2017-03-26 18:32:38,412 INFO main - -any mod point created for suspicious Candidate [className=org.joda.time.format.DateTimeFormat, methodName=org.joda.time.format.DateTimeFormat{parsePatternTo(Lorg/joda/time/format/DateTimeFormatterBuilder;Ljava/lang/String;)V 0.0, lineNumber=448, susp=0.13483997249264842]
2017-03-26 18:32:38,440 INFO main - -any mod point created for suspicious Candidate [className=org.joda.time.DateTimeFieldType$StandardDateTimeFieldType, methodName=org.joda.time.DateTimeFieldType$StandardDateTimeFieldType{getField(Lorg/joda/time/Chronology;)Lorg/joda/time/DateTimeField; 0.0, lineNumber=520, susp=0.13104089885114942]
2017-03-26 18:32:38,488 INFO main - -any mod point created for suspicious Candidate [className=org.joda.time.DateTimeFieldType$StandardDateTimeFieldType, methodName=org.joda.time.DateTimeFieldType$StandardDateTimeFieldType{getField(Lorg/joda/time/Chronology;)Lorg/joda/time/DateTimeField; 0.0, lineNumber=516, susp=0.12878787878787878]
2017-03-26 18:32:38,507 INFO main - -any mod point created for suspicious Candidate [className=org.joda.time.format.DateTimeFormat, methodName=org.joda.time.format.DateTimeFormat{parsePatternTo(Lorg/joda/time/format/DateTimeFormatterBuilder;Ljava/lang/String;)V 0.0, lineNumber=451, susp=0.128564869306645]
2017-03-26 18:32:38,629 INFO main - -any mod point created for suspicious Candidate [className=org.joda.time.format.DateTimeFormatterBuilder$TextField, methodName=org.joda.time.format.DateTimeFormatterBuilder$TextField{printTo(Ljava/lang/StringBuffer;JLorg/joda/time/Chronology;ILorg/joda/time/DateTimeZone;Ljava/util/Locale;)V 0.0, lineNumber=1770, susp=0.12060453783110543]
2017-03-26 18:32:38,633 INFO main - -any mod point created for suspicious Candidate [className=org.joda.time.format.DateTimeFormatterBuilder$TextField, methodName=org.joda.time.format.DateTimeFormatterBuilder$TextField{printTo(Ljava/lang/StringBuffer;JLorg/joda/time/Chronology;ILorg/joda/time/DateTimeZone;Ljava/util/Locale;)V 0.0, lineNumber=1771, susp=0.12060453783110543]
2017-03-26 18:32:38,648 INFO main - -any mod point created for suspicious Candidate [className=org.joda.time.chrono.GregorianChronology, methodName=org.joda.time.chrono.GregorianChronology{getDateTimeMillis(IIIIIII)J 0.0, lineNumber=45, susp=0.12014809376583732]
2017-03-26 18:32:38,698 INFO main - -any mod point created for suspicious Candidate [className=org.joda.time.DateTimeFieldType$StandardDateTimeFieldType, methodName=org.joda.time.DateTimeFieldType$StandardDateTimeFieldType{getField(Lorg/joda/time/Chronology;)Lorg/joda/time/DateTimeField; 0.0, lineNumber=498, susp=0.11788024002411215]
2017-03-26 18:32:38,764 INFO main - -any mod point created for suspicious Candidate [className=org.joda.time.tz.DateTimeZoneBuilder$DSTZone, methodName=org.joda.time.tz.DateTimeZoneBuilder$DSTZone{findMatchingRecurrence(J)Lorg/joda/time/tz/DateTimeZoneBuilder$Recurrence; 0.0, lineNumber=1319, susp=0.11629129983033297]
2017-03-26 18:32:38,883 INFO main - -any mod point created for suspicious Candidate [className=org.joda.time.tz.DateTimeZoneBuilder$DSTZone, methodName=org.joda.time.tz.DateTimeZoneBuilder$DSTZone{findMatchingRecurrence(J)Lorg/joda/time/tz/DateTimeZoneBuilder$Recurrence; 0.0, lineNumber=1330, susp=0.11581371547232744]
2017-03-26 18:32:39,042 INFO main - -any mod point created for suspicious Candidate [className=org.joda.time.tz.DateTimeZoneBuilder$OfYear, methodName=org.joda.time.tz.DateTimeZoneBuilder$OfYear{setDayOfMonthNext(Lorg/joda/time/Chronology;J)J 0.0, lineNumber=682, susp=0.11396057645963795]
2017-03-26 18:32:39,057 INFO main - -any mod point created for suspicious Candidate [className=org.joda.time.DateTimeFieldType$StandardDateTimeFieldType, methodName=org.joda.time.DateTimeFieldType$StandardDateTimeFieldType{getField(Lorg/joda/time/Chronology;)Lorg/joda/time/DateTimeField; 0.0, lineNumber=496, susp=0.11356469137213082]
2017-03-26 18:32:39,079 INFO main - -any mod point created for suspicious Candidate [className=org.joda.time.DateTimeFieldType$StandardDateTimeFieldType, methodName=org.joda.time.DateTimeFieldType$StandardDateTimeFieldType{getField(Lorg/joda/time/Chronology;)Lorg/joda/time/DateTimeField; 0.0, lineNumber=492, susp=0.11271506828161927]
2017-03-26 18:32:39,420 INFO main - -any mod point created for suspicious Candidate [className=org.joda.time.tz.DateTimeZoneBuilder$DSTZone, methodName=org.joda.time.tz.DateTimeZoneBuilder$DSTZone{previousTransition(J)J 0.0, lineNumber=1262, susp=0.10604944824604037]
2017-03-26 18:32:39,576 INFO main - -any mod point created for suspicious Candidate [className=org.joda.time.tz.DateTimeZoneBuilder$DSTZone, methodName=org.joda.time.tz.DateTimeZoneBuilder$DSTZone{previousTransition(J)J 0.0, lineNumber=1277, susp=0.10604944824604037]
2017-03-26 18:32:39,700 INFO main - -any mod point created for suspicious Candidate [className=org.joda.time.tz.DateTimeZoneBuilder$OfYear, methodName=org.joda.time.tz.DateTimeZoneBuilder$OfYear{setDayOfMonthPrevious(Lorg/joda/time/Chronology;J)J 0.0, lineNumber=701, susp=0.10604944824604037]
2017-03-26 18:32:39,731 INFO main - -any mod point created for suspicious Candidate [className=org.joda.time.field.FieldUtils, methodName=org.joda.time.field.FieldUtils{verifyValueBounds(Lorg/joda/time/DateTimeFieldType;III)V 0.0, lineNumber=240, susp=0.10441047163093312]
2017-03-26 18:32:39,919 INFO main - Total suspicious from FL: 651,  584
2017-03-26 18:32:39,919 INFO main - Total ModPoint created: 584
2017-03-26 18:32:39,920 INFO main - Creating program variant #1, [Variant id: 1, #gens: 584, #ops: 0, parent:-]
2017-03-26 18:32:57,045 INFO fr.inria.astor.core.setup.ConfigurationProperties - ----------------------------
2017-03-26 18:32:57,045 INFO fr.inria.astor.core.setup.ConfigurationProperties - ---Configuration properties:---Execution values
2017-03-26 18:32:57,045 INFO fr.inria.astor.core.setup.ConfigurationProperties - p:lastJUnitVersion= ./examples/libs/junit-4.11.jar
2017-03-26 18:32:57,045 INFO fr.inria.astor.core.setup.ConfigurationProperties - p:alternativecompliancelevel= 4
2017-03-26 18:32:57,045 INFO fr.inria.astor.core.setup.ConfigurationProperties - p:ignoredTestCases= 
2017-03-26 18:32:57,045 INFO fr.inria.astor.core.setup.ConfigurationProperties - p:workingDirectory= /local/scr/mtufano/Time/8/b/random-package-embeddings/1
2017-03-26 18:32:57,045 INFO fr.inria.astor.core.setup.ConfigurationProperties - p:manipulatesuper= false
2017-03-26 18:32:57,045 INFO fr.inria.astor.core.setup.ConfigurationProperties - p:validation= process
2017-03-26 18:32:57,045 INFO fr.inria.astor.core.setup.ConfigurationProperties - p:jvm4testexecution= /usr/local/jdk1.7.0_80/bin/
2017-03-26 18:32:57,045 INFO fr.inria.astor.core.setup.ConfigurationProperties - p:binjavafolder= target/classes/
2017-03-26 18:32:57,045 INFO fr.inria.astor.core.setup.ConfigurationProperties - p:evosuiteresultfolder= evosuite
2017-03-26 18:32:57,045 INFO fr.inria.astor.core.setup.ConfigurationProperties - p:flthreshold= 0.1
2017-03-26 18:32:57,045 INFO fr.inria.astor.core.setup.ConfigurationProperties - p:regressionforfaultlocalization= true
2017-03-26 18:32:57,045 INFO fr.inria.astor.core.setup.ConfigurationProperties - p:tmax2= 960000
2017-03-26 18:32:57,045 INFO fr.inria.astor.core.setup.ConfigurationProperties - p:tmax1= 120000
2017-03-26 18:32:57,045 INFO fr.inria.astor.core.setup.ConfigurationProperties - p:probagenmutation= false
2017-03-26 18:32:57,046 INFO fr.inria.astor.core.setup.ConfigurationProperties - p:srctestfolder= src/test/java/
2017-03-26 18:32:57,046 INFO fr.inria.astor.core.setup.ConfigurationProperties - p:customop= fr.inria.astor.approaches.jgenprog.operators.InsertAfterOp:fr.inria.astor.approaches.jgenprog.operators.InsertBeforeOp:fr.inria.astor.approaches.jgenprog.operators.ReplaceOp
2017-03-26 18:32:57,046 INFO fr.inria.astor.core.setup.ConfigurationProperties - p:forceExecuteRegression= false
2017-03-26 18:32:57,046 INFO fr.inria.astor.core.setup.ConfigurationProperties - p:clusteringfilename= clustering.csv
2017-03-26 18:32:57,046 INFO fr.inria.astor.core.setup.ConfigurationProperties - p:failing= org.joda.time.TestDateTimeZone
2017-03-26 18:32:57,046 INFO fr.inria.astor.core.setup.ConfigurationProperties - p:evo_buggy_class= true
2017-03-26 18:32:57,046 INFO fr.inria.astor.core.setup.ConfigurationProperties - p:numberExecutions= 1
2017-03-26 18:32:57,046 INFO fr.inria.astor.core.setup.ConfigurationProperties - p:evo_affected_by_op= true
2017-03-26 18:32:57,046 INFO fr.inria.astor.core.setup.ConfigurationProperties - p:population= 1
2017-03-26 18:32:57,046 INFO fr.inria.astor.core.setup.ConfigurationProperties - p:clonegranularity= types
2017-03-26 18:32:57,046 INFO fr.inria.astor.core.setup.ConfigurationProperties - p:regressiontestcases4fl= org.joda.time.TestAbstractPartial:org.joda.time.TestBasePartial:org.joda.time.TestBaseSingleFieldPeriod:org.joda.time.TestChronology:org.joda.time.TestDateMidnight_Basics:org.joda.time.TestDateMidnight_Constructors:org.joda.time.TestDateMidnight_Properties:org.joda.time.TestDateTimeComparator:org.joda.time.TestDateTimeFieldType:org.joda.time.TestDateTimeUtils:org.joda.time.TestDateTimeZone:org.joda.time.TestDateTimeZoneCutover:org.joda.time.TestDateTime_Basics:org.joda.time.TestDateTime_Constructors:org.joda.time.TestDateTime_Properties:org.joda.time.TestDays:org.joda.time.TestDurationField:org.joda.time.TestDurationFieldType:org.joda.time.TestDuration_Basics:org.joda.time.TestDuration_Constructors:org.joda.time.TestHours:org.joda.time.TestIllegalFieldValueException:org.joda.time.TestInstant_Basics:org.joda.time.TestInstant_Constructors:org.joda.time.TestInterval_Basics:org.joda.time.TestInterval_Constructors:org.joda.time.TestLocalDateTime_Basics:org.joda.time.TestLocalDateTime_Constructors:org.joda.time.TestLocalDateTime_Properties:org.joda.time.TestLocalDate_Basics:org.joda.time.TestLocalDate_Constructors:org.joda.time.TestLocalDate_Properties:org.joda.time.TestLocalTime_Basics:org.joda.time.TestLocalTime_Constructors:org.joda.time.TestLocalTime_Properties:org.joda.time.TestMinutes:org.joda.time.TestMonthDay_Basics:org.joda.time.TestMonthDay_Constructors:org.joda.time.TestMonthDay_Properties:org.joda.time.TestMonths:org.joda.time.TestMutableDateTime_Adds:org.joda.time.TestMutableDateTime_Basics:org.joda.time.TestMutableDateTime_Constructors:org.joda.time.TestMutableDateTime_Properties:org.joda.time.TestMutableDateTime_Sets:org.joda.time.TestMutableInterval_Basics:org.joda.time.TestMutableInterval_Constructors:org.joda.time.TestMutableInterval_Updates:org.joda.time.TestMutablePeriod_Basics:org.joda.time.TestMutablePeriod_Constructors:org.joda.time.TestMutablePeriod_Updates:org.joda.time.TestPartial_Basics:org.joda.time.TestPartial_Constructors:org.joda.time.TestPartial_Match:org.joda.time.TestPartial_Properties:org.joda.time.TestPeriodType:org.joda.time.TestPeriod_Basics:org.joda.time.TestPeriod_Constructors:org.joda.time.TestSeconds:org.joda.time.TestSerialization:org.joda.time.TestStringConvert:org.joda.time.TestTimeOfDay_Basics:org.joda.time.TestTimeOfDay_Constructors:org.joda.time.TestTimeOfDay_Properties:org.joda.time.TestWeeks:org.joda.time.TestYearMonthDay_Basics:org.joda.time.TestYearMonthDay_Constructors:org.joda.time.TestYearMonthDay_Properties:org.joda.time.TestYearMonth_Basics:org.joda.time.TestYearMonth_Constructors:org.joda.time.TestYearMonth_Properties:org.joda.time.TestYears:org.joda.time.chrono.TestBuddhistChronology:org.joda.time.chrono.TestCopticChronology:org.joda.time.chrono.TestEthiopicChronology:org.joda.time.chrono.TestGJChronology:org.joda.time.chrono.TestGregorianChronology:org.joda.time.chrono.TestISOChronology:org.joda.time.chrono.TestIslamicChronology:org.joda.time.chrono.TestJulianChronology:org.joda.time.chrono.TestLenientChronology:org.joda.time.convert.TestCalendarConverter:org.joda.time.convert.TestConverterManager:org.joda.time.convert.TestDateConverter:org.joda.time.convert.TestLongConverter:org.joda.time.convert.TestNullConverter:org.joda.time.convert.TestReadableDurationConverter:org.joda.time.convert.TestReadableInstantConverter:org.joda.time.convert.TestReadableIntervalConverter:org.joda.time.convert.TestReadablePartialConverter:org.joda.time.convert.TestReadablePeriodConverter:org.joda.time.convert.TestStringConverter:org.joda.time.field.TestBaseDateTimeField:org.joda.time.field.TestMillisDurationField:org.joda.time.field.TestOffsetDateTimeField:org.joda.time.field.TestPreciseDateTimeField:org.joda.time.field.TestPreciseDurationDateTimeField:org.joda.time.field.TestPreciseDurationField:org.joda.time.field.TestScaledDurationField:org.joda.time.field.TestUnsupportedDateTimeField:org.joda.time.format.TestDateTimeFormat:org.joda.time.format.TestDateTimeFormatStyle:org.joda.time.format.TestDateTimeFormatter:org.joda.time.format.TestDateTimeFormatterBuilder:org.joda.time.format.TestISODateTimeFormat:org.joda.time.format.TestISODateTimeFormatParsing:org.joda.time.format.TestISODateTimeFormat_Fields:org.joda.time.format.TestISOPeriodFormat:org.joda.time.format.TestISOPeriodFormatParsing:org.joda.time.format.TestPeriodFormat:org.joda.time.format.TestPeriodFormatParsing:org.joda.time.format.TestPeriodFormatter:org.joda.time.format.TestPeriodFormatterBuilder:org.joda.time.format.TestTextFields:org.joda.time.tz.TestBuilder:org.joda.time.tz.TestCachedDateTimeZone:org.joda.time.tz.TestCompiler:org.joda.time.tz.TestFixedDateTimeZone:org.joda.time.tz.TestUTCProvider:
2017-03-26 18:32:57,046 INFO fr.inria.astor.core.setup.ConfigurationProperties - p:savesolution= true
2017-03-26 18:32:57,046 INFO fr.inria.astor.core.setup.ConfigurationProperties - p:javacompliancelevel= 5
2017-03-26 18:32:57,046 INFO fr.inria.astor.core.setup.ConfigurationProperties - p:uniqueoptogen= false
2017-03-26 18:32:57,046 INFO fr.inria.astor.core.setup.ConfigurationProperties - p:projectIdentifier= 
2017-03-26 18:32:57,046 INFO fr.inria.astor.core.setup.ConfigurationProperties - p:modificationpointnavigation= weight
2017-03-26 18:32:57,046 INFO fr.inria.astor.core.setup.ConfigurationProperties - p:stopfirst= false
2017-03-26 18:32:57,046 INFO fr.inria.astor.core.setup.ConfigurationProperties - p:multipointmodification= false
2017-03-26 18:32:57,046 INFO fr.inria.astor.core.setup.ConfigurationProperties - p:elementsToMutate= 10
2017-03-26 18:32:57,046 INFO fr.inria.astor.core.setup.ConfigurationProperties - p:evoDSE= false
2017-03-26 18:32:57,046 INFO fr.inria.astor.core.setup.ConfigurationProperties - p:bintestfolder= target/test-classes/
2017-03-26 18:32:57,046 INFO fr.inria.astor.core.setup.ConfigurationProperties - p:testbystep= false
2017-03-26 18:32:57,046 INFO fr.inria.astor.core.setup.ConfigurationProperties - p:version-location= ./math-version/
2017-03-26 18:32:57,047 INFO fr.inria.astor.core.setup.ConfigurationProperties - p:reintroduce= parents
2017-03-26 18:32:57,047 INFO fr.inria.astor.core.setup.ConfigurationProperties - p:maxGeneration= 1000000
2017-03-26 18:32:57,047 INFO fr.inria.astor.core.setup.ConfigurationProperties - p:maxtime= 180
2017-03-26 18:32:57,047 INFO fr.inria.astor.core.setup.ConfigurationProperties - p:evosuitejar= ./lib/evosuite-master-1.0.4-SNAPSHOT.jar
2017-03-26 18:32:57,047 INFO fr.inria.astor.core.setup.ConfigurationProperties - p:commandTrunk= 50000
2017-03-26 18:32:57,047 INFO fr.inria.astor.core.setup.ConfigurationProperties - p:faultlocalization= fr.inria.astor.core.faultlocalization.GZoltarFaultLocalization
2017-03-26 18:32:57,047 INFO fr.inria.astor.core.setup.ConfigurationProperties - p:maxsuspcandidates= 1000
2017-03-26 18:32:57,047 INFO fr.inria.astor.core.setup.ConfigurationProperties - p:mode= statement
2017-03-26 18:32:57,047 INFO fr.inria.astor.core.setup.ConfigurationProperties - p:learningdir= ../../out/learningdir/Time/8/b/
2017-03-26 18:32:57,047 INFO fr.inria.astor.core.setup.ConfigurationProperties - p:jvm4evosuitetestexecution= /usr/local/jdk1.7.0_80/bin/
2017-03-26 18:32:57,047 INFO fr.inria.astor.core.setup.ConfigurationProperties - p:filterfaultlocalization= true
2017-03-26 18:32:57,047 INFO fr.inria.astor.core.setup.ConfigurationProperties - p:mutationrate= 1 
2017-03-26 18:32:57,047 INFO fr.inria.astor.core.setup.ConfigurationProperties - p:pathToMVNRepository= 
2017-03-26 18:32:57,047 INFO fr.inria.astor.core.setup.ConfigurationProperties - p:resourcesfolder= /src/main/resources:/src/test/resources:
2017-03-26 18:32:57,047 INFO fr.inria.astor.core.setup.ConfigurationProperties - p:timezone= America/New_York
2017-03-26 18:32:57,047 INFO fr.inria.astor.core.setup.ConfigurationProperties - p:classestoinstrument= org.joda.time.tz.FixedDateTimeZone:org.joda.time.field.FieldUtils:org.joda.time.format.FormatUtils:org.joda.time.format.DateTimeParserBucket:org.joda.time.ReadableInstant:org.joda.time.format.DateTimeParser:org.joda.time.IllegalInstantException:org.joda.time.DateTimeField:org.joda.time.tz.Provider:org.joda.time.format.DateTimePrinter:org.joda.time.tz.DateTimeZoneBuilder:org.joda.time.format.DateTimeFormatter:org.joda.time.DateTimeZone:org.joda.time.DateTimeUtils:org.joda.time.chrono.ISOChronology:org.joda.time.DurationField:org.joda.time.chrono.BaseChronology:org.joda.time.tz.CachedDateTimeZone:org.joda.time.IllegalFieldValueException:org.joda.time.chrono.AssembledChronology:org.joda.time.field.UnsupportedDateTimeField:org.joda.time.tz.DefaultNameProvider:org.joda.time.ReadableInterval:org.joda.time.field.UnsupportedDurationField:org.joda.time.Chronology:org.joda.time.format.DateTimeFormatterBuilder:org.joda.time.JodaTimePermission:org.joda.time.tz.NameProvider:org.joda.time.tz.ZoneInfoProvider:
2017-03-26 18:32:57,047 INFO fr.inria.astor.core.setup.ConfigurationProperties - p:evoRunOnBuggyClass= true
2017-03-26 18:32:57,047 INFO fr.inria.astor.core.setup.ConfigurationProperties - p:compiler= fr.inria.astor.core.manipulation.bytecode.compiler.SpoonClassCompiler
2017-03-26 18:32:57,047 INFO fr.inria.astor.core.setup.ConfigurationProperties - p:dependenciespath= ../../dat/libs/Time/joda-convert-1.2.jar
2017-03-26 18:32:57,047 INFO fr.inria.astor.core.setup.ConfigurationProperties - p:skipfaultlocalization= false
2017-03-26 18:32:57,047 INFO fr.inria.astor.core.setup.ConfigurationProperties - p:packageToInstrument= org.joda
2017-03-26 18:32:57,047 INFO fr.inria.astor.core.setup.ConfigurationProperties - p:scope= fr.inria.astor.core.loop.spaces.ingredients.scopes.ctscopes.CtPackageIngredientScope
2017-03-26 18:32:57,047 INFO fr.inria.astor.core.setup.ConfigurationProperties - p:transformingredient= true
2017-03-26 18:32:57,047 INFO fr.inria.astor.core.setup.ConfigurationProperties - p:fitnessfunction= fr.inria.astor.core.loop.population.TestCaseFitnessFunction
2017-03-26 18:32:57,047 INFO fr.inria.astor.core.setup.ConfigurationProperties - p:pvariantfoldername= variant-
2017-03-26 18:32:57,047 INFO fr.inria.astor.core.setup.ConfigurationProperties - p:srcjavafolder= src/main/java/
2017-03-26 18:32:57,047 INFO fr.inria.astor.core.setup.ConfigurationProperties - p:populationcontroller= fr.inria.astor.core.loop.population.TestCaseBasedFitnessPopulationController
2017-03-26 18:32:57,048 INFO fr.inria.astor.core.setup.ConfigurationProperties - p:ignoreflakyinfl= false
2017-03-26 18:32:57,048 INFO fr.inria.astor.core.setup.ConfigurationProperties - p:applyCrossover= false
2017-03-26 18:32:57,048 INFO fr.inria.astor.core.setup.ConfigurationProperties - p:saveall= false
2017-03-26 18:32:57,048 INFO fr.inria.astor.core.setup.ConfigurationProperties - p:seed= 1
2017-03-26 18:32:57,048 INFO fr.inria.astor.core.setup.ConfigurationProperties - p:resetoperations= false
2017-03-26 18:32:57,048 INFO fr.inria.astor.core.setup.ConfigurationProperties - p:location= ../../dat/defects4j/Time/8/b/
2017-03-26 18:32:57,048 INFO fr.inria.astor.core.setup.ConfigurationProperties - p:ingredientstrategy= fr.inria.astor.core.loop.spaces.ingredients.ingredientSearch.EfficientIngredientStrategy
2017-03-26 18:32:57,048 INFO fr.inria.astor.core.setup.ConfigurationProperties - p:allpoints= false
2017-03-26 18:32:57,048 INFO fr.inria.astor.core.setup.ConfigurationProperties - p:bugId= 280
2017-03-26 18:32:57,048 INFO fr.inria.astor.core.setup.ConfigurationProperties - p:evosuitetimeout= 120
2017-03-26 18:32:57,048 INFO fr.inria.astor.core.setup.ConfigurationProperties - ----------------------------
2017-03-26 18:32:57,048 INFO main - 
----Starting Solution Search
2017-03-26 19:25:09,316 INFO main - The Process that runs JUnit test cases had problems: process hasn't exited
2017-03-26 19:48:17,176 INFO main - The Process that runs JUnit test cases had problems: process hasn't exited
2017-03-26 21:34:01,057 INFO main - 
 No more time for operating
2017-03-26 21:34:01,057 INFO main - Time Repair Loop (s): 10864.009
2017-03-26 21:34:01,057 INFO main - 
----SUMMARY_EXECUTION---
2017-03-26 21:34:01,163 INFO main - 
successful_ing_attempts (#trials 0, totalAttps 0): []
2017-03-26 21:34:01,165 INFO main - 
failing_ing_attempts (#trials 712, totalAttps 3732): [2, 1, 1, 4, 4, 6, 28, 1, 4, 5, 1, 1, 2, 1, 7, 3, 5, 8, 2, 1, 16, 3, 3, 10, 1, 4, 6, 4, 5, 4, 1, 1, 16, 5, 7, 4, 4, 1, 13, 2, 1, 1, 7, 3, 7, 3, 5, 1, 2, 1, 13, 2, 3, 1, 17, 6, 1, 8, 11, 5, 6, 3, 15, 1, 17, 2, 1, 1, 3, 3, 3, 2, 11, 4, 1, 7, 10, 5, 1, 7, 1, 6, 3, 6, 1, 2, 12, 5, 2, 12, 1, 1, 17, 8, 8, 2, 7, 2, 3, 2, 4, 29, 1, 1, 2, 26, 17, 1, 1, 3, 6, 2, 1, 1, 3, 3, 3, 4, 6, 2, 1, 3, 4, 2, 2, 2, 40, 15, 2, 8, 2, 4, 1, 3, 1, 2, 2, 1, 4, 1, 1, 4, 3, 1, 1, 6, 7, 5, 9, 7, 19, 6, 1, 2, 4, 4, 4, 19, 4, 1, 1, 3, 8, 15, 8, 7, 1, 5, 3, 6, 5, 2, 7, 1, 12, 1, 1, 1, 25, 9, 2, 2, 2, 1, 1, 1, 1, 9, 6, 9, 4, 1, 3, 7, 5, 5, 14, 3, 1, 4, 7, 5, 1, 54, 2, 10, 5, 1, 1, 2, 3, 1, 2, 1, 4, 4, 3, 4, 1, 3, 3, 2, 4, 1, 4, 2, 5, 70, 2, 2, 3, 2, 2, 9, 3, 10, 17, 1, 2, 12, 1, 7, 1, 1, 9, 10, 3, 6, 1, 28, 5, 1, 8, 2, 2, 10, 5, 8, 28, 1, 2, 1, 13, 10, 6, 4, 6, 2, 4, 1, 3, 14, 1, 3, 12, 1, 2, 2, 4, 2, 33, 1, 6, 4, 6, 10, 3, 2, 3, 4, 1, 1, 17, 3, 5, 2, 14, 1, 2, 2, 1, 1, 1, 1, 6, 9, 19, 1, 28, 3, 2, 1, 5, 2, 1, 1, 3, 2, 5, 3, 3, 2, 5, 2, 2, 16, 4, 2, 2, 13, 6, 8, 1, 2, 3, 11, 4, 1, 2, 6, 2, 8, 1, 7, 2, 12, 2, 5, 4, 6, 2, 4, 1, 4, 1, 2, 1, 4, 10, 1, 10, 23, 2, 6, 2, 5, 3, 31, 1, 1, 3, 14, 1, 6, 3, 6, 3, 3, 3, 1, 3, 2, 1, 2, 6, 3, 1, 7, 1, 3, 5, 5, 6, 3, 3, 2, 8, 16, 5, 4, 7, 6, 1, 2, 14, 4, 1, 7, 31, 1, 5, 5, 7, 35, 4, 11, 6, 2, 2, 3, 5, 1, 2, 2, 4, 4, 2, 3, 4, 18, 3, 1, 1, 1, 2, 3, 1, 46, 2, 3, 2, 1, 1, 2, 1, 3, 1, 5, 4, 1, 4, 1, 14, 2, 1, 6, 7, 2, 1, 8, 3, 2, 5, 6, 1, 3, 1, 1, 3, 54, 2, 2, 1, 2, 5, 23, 5, 9, 2, 1, 13, 1, 7, 1, 22, 12, 1, 4, 3, 1, 9, 2, 4, 26, 1, 1, 4, 1, 1, 2, 11, 10, 1, 3, 5, 5, 55, 2, 8, 4, 1, 2, 1, 2, 5, 3, 4, 3, 12, 4, 1, 5, 1, 2, 7, 6, 3, 2, 2, 6, 5, 2, 2, 6, 9, 1, 49, 4, 31, 9, 1, 2, 20, 1, 16, 10, 3, 2, 9, 2, 1, 1, 12, 2, 5, 4, 3, 7, 1, 4, 3, 3, 3, 5, 4, 3, 5, 1, 1, 1, 1, 2, 20, 4, 12, 2, 4, 1, 2, 1, 8, 9, 2, 5, 9, 7, 1, 4, 2, 1, 18, 1, 5, 5, 1, 4, 2, 5, 3, 5, 11, 4, 7, 3, 21, 1, 2, 2, 1, 2, 2, 5, 1, 1, 1, 3, 2, 15, 5, 1, 2, 3, 10, 8, 4, 1, 8, 2, 1, 1, 8, 1, 8, 3, 1, 5, 7, 14, 1, 1, 2, 2, 1, 4, 3, 1, 4, 1, 5, 2, 2, 5, 1, 1, 2, 3, 1, 4, 1, 1, 7, 3, 14, 4, 1, 3, 9, 5, 2, 1, 1, 34, 1, 1, 1, 4, 1, 2, 1, 3, 1, 5, 7, 1, 2, 2, 3, 1, 1, 2, 1, 18, 4, 2, 14, 3, 9, 6, 2, 3, 4, 1, 7, 2, 2, 4, 3, 7, 7, 4, 2, 1]
2017-03-26 21:34:01,165 INFO main - 
total Patch Attempts (0): []
2017-03-26 21:34:01,165 INFO main - 
successful_ing_attempts_by_patch: []
2017-03-26 21:34:01,165 INFO main - 
failing_ing_attempts_by_patch: [(pv:2,at:2), (pv:3,at:1), (pv:4,at:1), (pv:5,at:4), (pv:6,at:4), (pv:7,at:6), (pv:8,at:28), (pv:9,at:1), (pv:10,at:4), (pv:11,at:5), (pv:12,at:1), (pv:13,at:1), (pv:14,at:2), (pv:15,at:1), (pv:16,at:7), (pv:17,at:3), (pv:18,at:5), (pv:19,at:8), (pv:20,at:2), (pv:21,at:1), (pv:22,at:16), (pv:23,at:3), (pv:24,at:3), (pv:25,at:10), (pv:26,at:1), (pv:27,at:4), (pv:28,at:6), (pv:29,at:4), (pv:30,at:5), (pv:31,at:4), (pv:32,at:1), (pv:33,at:1), (pv:34,at:16), (pv:35,at:5), (pv:36,at:7), (pv:37,at:4), (pv:38,at:4), (pv:39,at:1), (pv:40,at:13), (pv:41,at:2), (pv:42,at:1), (pv:43,at:1), (pv:44,at:7), (pv:45,at:3), (pv:46,at:7), (pv:47,at:3), (pv:48,at:5), (pv:49,at:1), (pv:50,at:2), (pv:51,at:1), (pv:52,at:13), (pv:53,at:2), (pv:54,at:3), (pv:55,at:1), (pv:56,at:17), (pv:57,at:6), (pv:58,at:1), (pv:59,at:8), (pv:60,at:11), (pv:61,at:5), (pv:62,at:6), (pv:63,at:3), (pv:64,at:15), (pv:65,at:1), (pv:66,at:17), (pv:67,at:2), (pv:68,at:1), (pv:69,at:1), (pv:70,at:3), (pv:71,at:3), (pv:72,at:3), (pv:73,at:2), (pv:74,at:11), (pv:75,at:4), (pv:76,at:1), (pv:77,at:7), (pv:78,at:10), (pv:79,at:5), (pv:80,at:1), (pv:81,at:7), (pv:82,at:1), (pv:83,at:6), (pv:84,at:3), (pv:85,at:6), (pv:86,at:1), (pv:87,at:2), (pv:88,at:12), (pv:89,at:5), (pv:90,at:2), (pv:91,at:12), (pv:92,at:1), (pv:93,at:1), (pv:94,at:17), (pv:95,at:8), (pv:96,at:8), (pv:97,at:2), (pv:98,at:7), (pv:99,at:2), (pv:100,at:3), (pv:101,at:2), (pv:102,at:4), (pv:103,at:29), (pv:104,at:1), (pv:105,at:1), (pv:106,at:2), (pv:107,at:26), (pv:108,at:17), (pv:109,at:1), (pv:110,at:1), (pv:111,at:3), (pv:112,at:6), (pv:113,at:2), (pv:114,at:1), (pv:115,at:1), (pv:116,at:3), (pv:117,at:3), (pv:118,at:3), (pv:119,at:4), (pv:120,at:6), (pv:121,at:2), (pv:122,at:1), (pv:123,at:3), (pv:124,at:4), (pv:125,at:2), (pv:126,at:2), (pv:127,at:2), (pv:128,at:40), (pv:129,at:15), (pv:130,at:2), (pv:131,at:8), (pv:132,at:2), (pv:133,at:4), (pv:134,at:1), (pv:135,at:3), (pv:136,at:1), (pv:137,at:2), (pv:138,at:2), (pv:139,at:1), (pv:140,at:4), (pv:141,at:1), (pv:142,at:1), (pv:143,at:4), (pv:144,at:3), (pv:145,at:1), (pv:146,at:1), (pv:147,at:6), (pv:148,at:7), (pv:149,at:5), (pv:150,at:9), (pv:151,at:7), (pv:152,at:19), (pv:153,at:6), (pv:154,at:1), (pv:155,at:2), (pv:156,at:4), (pv:157,at:4), (pv:158,at:4), (pv:159,at:19), (pv:160,at:4), (pv:161,at:1), (pv:162,at:1), (pv:163,at:3), (pv:164,at:8), (pv:165,at:15), (pv:166,at:8), (pv:167,at:7), (pv:168,at:1), (pv:169,at:5), (pv:170,at:3), (pv:171,at:6), (pv:172,at:5), (pv:173,at:2), (pv:174,at:7), (pv:175,at:1), (pv:176,at:12), (pv:177,at:1), (pv:178,at:1), (pv:179,at:1), (pv:180,at:25), (pv:181,at:9), (pv:182,at:2), (pv:183,at:2), (pv:184,at:2), (pv:185,at:1), (pv:186,at:1), (pv:187,at:1), (pv:188,at:1), (pv:189,at:9), (pv:190,at:6), (pv:191,at:9), (pv:192,at:4), (pv:193,at:1), (pv:194,at:3), (pv:195,at:7), (pv:196,at:5), (pv:197,at:5), (pv:198,at:14), (pv:199,at:3), (pv:200,at:1), (pv:201,at:4), (pv:202,at:7), (pv:203,at:5), (pv:204,at:1), (pv:205,at:54), (pv:206,at:2), (pv:207,at:10), (pv:208,at:5), (pv:209,at:1), (pv:210,at:1), (pv:211,at:2), (pv:212,at:3), (pv:213,at:1), (pv:214,at:2), (pv:215,at:1), (pv:216,at:4), (pv:217,at:4), (pv:218,at:3), (pv:219,at:4), (pv:220,at:1), (pv:221,at:3), (pv:222,at:3), (pv:223,at:2), (pv:224,at:4), (pv:225,at:1), (pv:226,at:4), (pv:227,at:2), (pv:228,at:5), (pv:229,at:70), (pv:230,at:2), (pv:231,at:2), (pv:232,at:3), (pv:233,at:2), (pv:234,at:2), (pv:235,at:9), (pv:236,at:3), (pv:237,at:10), (pv:238,at:17), (pv:239,at:1), (pv:240,at:2), (pv:241,at:12), (pv:242,at:1), (pv:243,at:7), (pv:244,at:1), (pv:245,at:1), (pv:246,at:9), (pv:247,at:10), (pv:248,at:3), (pv:249,at:6), (pv:250,at:1), (pv:251,at:28), (pv:252,at:5), (pv:253,at:1), (pv:254,at:8), (pv:255,at:2), (pv:256,at:2), (pv:257,at:10), (pv:258,at:5), (pv:259,at:8), (pv:260,at:28), (pv:261,at:1), (pv:262,at:2), (pv:263,at:1), (pv:264,at:13), (pv:265,at:10), (pv:266,at:6), (pv:267,at:4), (pv:268,at:6), (pv:269,at:2), (pv:270,at:4), (pv:271,at:1), (pv:272,at:3), (pv:273,at:14), (pv:274,at:1), (pv:275,at:3), (pv:276,at:12), (pv:277,at:1), (pv:278,at:2), (pv:279,at:2), (pv:280,at:4), (pv:281,at:2), (pv:282,at:33), (pv:283,at:1), (pv:284,at:6), (pv:285,at:4), (pv:286,at:6), (pv:287,at:10), (pv:288,at:3), (pv:289,at:2), (pv:290,at:3), (pv:291,at:4), (pv:292,at:1), (pv:293,at:1), (pv:294,at:17), (pv:295,at:3), (pv:296,at:5), (pv:297,at:2), (pv:298,at:14), (pv:299,at:1), (pv:300,at:2), (pv:301,at:2), (pv:302,at:1), (pv:303,at:1), (pv:304,at:1), (pv:305,at:1), (pv:306,at:6), (pv:307,at:9), (pv:308,at:19), (pv:309,at:1), (pv:310,at:28), (pv:311,at:3), (pv:312,at:2), (pv:313,at:1), (pv:314,at:5), (pv:315,at:2), (pv:316,at:1), (pv:317,at:1), (pv:318,at:3), (pv:319,at:2), (pv:320,at:5), (pv:321,at:3), (pv:322,at:3), (pv:323,at:2), (pv:324,at:5), (pv:325,at:2), (pv:326,at:2), (pv:327,at:16), (pv:328,at:4), (pv:329,at:2), (pv:330,at:2), (pv:331,at:13), (pv:332,at:6), (pv:333,at:8), (pv:334,at:1), (pv:335,at:2), (pv:336,at:3), (pv:337,at:11), (pv:338,at:4), (pv:339,at:1), (pv:340,at:2), (pv:341,at:6), (pv:342,at:2), (pv:343,at:8), (pv:344,at:1), (pv:345,at:7), (pv:346,at:2), (pv:347,at:12), (pv:348,at:2), (pv:349,at:5), (pv:350,at:4), (pv:351,at:6), (pv:352,at:2), (pv:353,at:4), (pv:354,at:1), (pv:355,at:4), (pv:356,at:1), (pv:357,at:2), (pv:358,at:1), (pv:359,at:4), (pv:360,at:10), (pv:361,at:1), (pv:362,at:10), (pv:363,at:23), (pv:364,at:2), (pv:365,at:6), (pv:366,at:2), (pv:367,at:5), (pv:368,at:3), (pv:369,at:31), (pv:370,at:1), (pv:371,at:1), (pv:372,at:3), (pv:373,at:14), (pv:374,at:1), (pv:375,at:6), (pv:376,at:3), (pv:377,at:6), (pv:378,at:3), (pv:379,at:3), (pv:380,at:3), (pv:381,at:1), (pv:382,at:3), (pv:383,at:2), (pv:384,at:1), (pv:385,at:2), (pv:386,at:6), (pv:387,at:3), (pv:388,at:1), (pv:389,at:7), (pv:390,at:1), (pv:391,at:3), (pv:392,at:5), (pv:393,at:5), (pv:394,at:6), (pv:395,at:3), (pv:396,at:3), (pv:397,at:2), (pv:398,at:8), (pv:399,at:16), (pv:400,at:5), (pv:401,at:4), (pv:402,at:7), (pv:403,at:6), (pv:404,at:1), (pv:405,at:2), (pv:406,at:14), (pv:407,at:4), (pv:408,at:1), (pv:409,at:7), (pv:410,at:31), (pv:411,at:1), (pv:412,at:5), (pv:413,at:5), (pv:414,at:7), (pv:415,at:35), (pv:416,at:4), (pv:417,at:11), (pv:418,at:6), (pv:419,at:2), (pv:420,at:2), (pv:421,at:3), (pv:422,at:5), (pv:423,at:1), (pv:424,at:2), (pv:425,at:2), (pv:426,at:4), (pv:427,at:4), (pv:428,at:2), (pv:429,at:3), (pv:430,at:4), (pv:431,at:18), (pv:432,at:3), (pv:433,at:1), (pv:434,at:1), (pv:435,at:1), (pv:436,at:2), (pv:437,at:3), (pv:438,at:1), (pv:439,at:46), (pv:440,at:2), (pv:441,at:3), (pv:442,at:2), (pv:443,at:1), (pv:444,at:1), (pv:445,at:2), (pv:446,at:1), (pv:447,at:3), (pv:448,at:1), (pv:449,at:5), (pv:450,at:4), (pv:451,at:1), (pv:452,at:4), (pv:453,at:1), (pv:454,at:14), (pv:455,at:2), (pv:456,at:1), (pv:457,at:6), (pv:458,at:7), (pv:459,at:2), (pv:460,at:1), (pv:461,at:8), (pv:462,at:3), (pv:463,at:2), (pv:464,at:5), (pv:465,at:6), (pv:466,at:1), (pv:467,at:3), (pv:468,at:1), (pv:469,at:1), (pv:470,at:3), (pv:471,at:54), (pv:472,at:2), (pv:473,at:2), (pv:474,at:1), (pv:475,at:2), (pv:476,at:5), (pv:477,at:23), (pv:478,at:5), (pv:479,at:9), (pv:480,at:2), (pv:481,at:1), (pv:482,at:13), (pv:483,at:1), (pv:484,at:7), (pv:485,at:1), (pv:486,at:22), (pv:487,at:12), (pv:488,at:1), (pv:489,at:4), (pv:490,at:3), (pv:491,at:1), (pv:492,at:9), (pv:493,at:2), (pv:494,at:4), (pv:495,at:26), (pv:496,at:1), (pv:497,at:1), (pv:498,at:4), (pv:499,at:1), (pv:500,at:1), (pv:501,at:2), (pv:502,at:11), (pv:503,at:10), (pv:504,at:1), (pv:505,at:3), (pv:506,at:5), (pv:507,at:5), (pv:508,at:55), (pv:509,at:2), (pv:510,at:8), (pv:511,at:4), (pv:512,at:1), (pv:513,at:2), (pv:514,at:1), (pv:515,at:2), (pv:516,at:5), (pv:517,at:3), (pv:518,at:4), (pv:519,at:3), (pv:520,at:12), (pv:521,at:4), (pv:522,at:1), (pv:523,at:5), (pv:524,at:1), (pv:525,at:2), (pv:526,at:7), (pv:527,at:6), (pv:528,at:3), (pv:529,at:2), (pv:530,at:2), (pv:531,at:6), (pv:532,at:5), (pv:533,at:2), (pv:534,at:2), (pv:535,at:6), (pv:536,at:9), (pv:537,at:1), (pv:538,at:49), (pv:539,at:4), (pv:540,at:31), (pv:541,at:9), (pv:542,at:1), (pv:543,at:2), (pv:544,at:20), (pv:545,at:1), (pv:546,at:16), (pv:547,at:10), (pv:548,at:3), (pv:549,at:2), (pv:550,at:9), (pv:551,at:2), (pv:552,at:1), (pv:553,at:1), (pv:554,at:12), (pv:555,at:2), (pv:556,at:5), (pv:557,at:4), (pv:558,at:3), (pv:559,at:7), (pv:560,at:1), (pv:561,at:4), (pv:562,at:3), (pv:563,at:3), (pv:564,at:3), (pv:565,at:5), (pv:566,at:4), (pv:567,at:3), (pv:568,at:5), (pv:569,at:1), (pv:570,at:1), (pv:571,at:1), (pv:572,at:1), (pv:573,at:2), (pv:574,at:20), (pv:575,at:4), (pv:576,at:12), (pv:577,at:2), (pv:578,at:4), (pv:579,at:1), (pv:580,at:2), (pv:581,at:1), (pv:582,at:8), (pv:583,at:9), (pv:584,at:2), (pv:585,at:5), (pv:586,at:9), (pv:587,at:7), (pv:588,at:1), (pv:589,at:4), (pv:590,at:2), (pv:591,at:1), (pv:592,at:18), (pv:593,at:1), (pv:594,at:5), (pv:595,at:5), (pv:596,at:1), (pv:597,at:4), (pv:598,at:2), (pv:599,at:5), (pv:600,at:3), (pv:601,at:5), (pv:602,at:11), (pv:603,at:4), (pv:604,at:7), (pv:605,at:3), (pv:606,at:21), (pv:607,at:1), (pv:608,at:2), (pv:609,at:2), (pv:610,at:1), (pv:611,at:2), (pv:612,at:2), (pv:613,at:5), (pv:614,at:1), (pv:615,at:1), (pv:616,at:1), (pv:617,at:3), (pv:618,at:2), (pv:619,at:15), (pv:620,at:5), (pv:621,at:1), (pv:622,at:2), (pv:623,at:3), (pv:624,at:10), (pv:625,at:8), (pv:626,at:4), (pv:627,at:1), (pv:628,at:8), (pv:629,at:2), (pv:630,at:1), (pv:631,at:1), (pv:632,at:8), (pv:633,at:1), (pv:634,at:8), (pv:635,at:3), (pv:636,at:1), (pv:637,at:5), (pv:638,at:7), (pv:639,at:14), (pv:640,at:1), (pv:641,at:1), (pv:642,at:2), (pv:643,at:2), (pv:644,at:1), (pv:645,at:4), (pv:646,at:3), (pv:647,at:1), (pv:648,at:4), (pv:649,at:1), (pv:650,at:5), (pv:651,at:2), (pv:652,at:2), (pv:653,at:5), (pv:654,at:1), (pv:655,at:1), (pv:656,at:2), (pv:657,at:3), (pv:658,at:1), (pv:659,at:4), (pv:660,at:1), (pv:661,at:1), (pv:662,at:7), (pv:663,at:3), (pv:664,at:14), (pv:665,at:4), (pv:666,at:1), (pv:667,at:3), (pv:668,at:9), (pv:669,at:5), (pv:670,at:2), (pv:671,at:1), (pv:672,at:1), (pv:673,at:34), (pv:674,at:1), (pv:675,at:1), (pv:676,at:1), (pv:677,at:4), (pv:678,at:1), (pv:679,at:2), (pv:680,at:1), (pv:681,at:3), (pv:682,at:1), (pv:683,at:5), (pv:684,at:7), (pv:685,at:1), (pv:686,at:2), (pv:687,at:2), (pv:688,at:3), (pv:689,at:1), (pv:690,at:1), (pv:691,at:2), (pv:692,at:1), (pv:693,at:18), (pv:694,at:4), (pv:695,at:2), (pv:696,at:14), (pv:697,at:3), (pv:698,at:9), (pv:699,at:6), (pv:700,at:2), (pv:701,at:3), (pv:702,at:4), (pv:703,at:1), (pv:704,at:7), (pv:705,at:2), (pv:706,at:2), (pv:707,at:4), (pv:708,at:3), (pv:709,at:7), (pv:710,at:7), (pv:711,at:4), (pv:712,at:2), (pv:713,at:1)]
2017-03-26 21:34:01,166 INFO main - 
pvariants_with_transformed_ingredients: [(pv:2,at:2), (pv:3,at:1), (pv:4,at:1), (pv:5,at:4), (pv:6,at:4), (pv:7,at:6), (pv:8,at:28), (pv:9,at:1), (pv:10,at:4), (pv:11,at:5), (pv:12,at:1), (pv:13,at:1), (pv:14,at:2), (pv:15,at:1), (pv:16,at:7), (pv:17,at:3), (pv:18,at:5), (pv:19,at:8), (pv:20,at:2), (pv:21,at:1), (pv:22,at:16), (pv:23,at:3), (pv:24,at:3), (pv:25,at:10), (pv:26,at:1), (pv:27,at:4), (pv:28,at:6), (pv:29,at:4), (pv:30,at:5), (pv:31,at:4), (pv:32,at:1), (pv:33,at:1), (pv:34,at:16), (pv:35,at:5), (pv:36,at:7), (pv:37,at:4), (pv:38,at:4), (pv:39,at:1), (pv:40,at:13), (pv:41,at:2), (pv:42,at:1), (pv:43,at:1), (pv:44,at:7), (pv:45,at:3), (pv:46,at:7), (pv:47,at:3), (pv:48,at:5), (pv:49,at:1), (pv:50,at:2), (pv:51,at:1), (pv:52,at:13), (pv:53,at:2), (pv:54,at:3), (pv:55,at:1), (pv:56,at:17), (pv:57,at:6), (pv:58,at:1), (pv:59,at:8), (pv:60,at:11), (pv:61,at:5), (pv:62,at:6), (pv:63,at:3), (pv:64,at:15), (pv:65,at:1), (pv:66,at:17), (pv:67,at:2), (pv:68,at:1), (pv:69,at:1), (pv:70,at:3), (pv:71,at:3), (pv:72,at:3), (pv:73,at:2), (pv:74,at:11), (pv:75,at:4), (pv:76,at:1), (pv:77,at:7), (pv:78,at:10), (pv:79,at:5), (pv:80,at:1), (pv:81,at:7), (pv:82,at:1), (pv:83,at:6), (pv:84,at:3), (pv:85,at:6), (pv:86,at:1), (pv:87,at:2), (pv:88,at:12), (pv:89,at:5), (pv:90,at:2), (pv:91,at:12), (pv:92,at:1), (pv:93,at:1), (pv:94,at:17), (pv:95,at:8), (pv:96,at:8), (pv:97,at:2), (pv:98,at:7), (pv:99,at:2), (pv:100,at:3), (pv:101,at:2), (pv:102,at:4), (pv:103,at:29), (pv:104,at:1), (pv:105,at:1), (pv:106,at:2), (pv:107,at:26), (pv:108,at:17), (pv:109,at:1), (pv:110,at:1), (pv:111,at:3), (pv:112,at:6), (pv:113,at:2), (pv:114,at:1), (pv:115,at:1), (pv:116,at:3), (pv:117,at:3), (pv:118,at:3), (pv:119,at:4), (pv:120,at:6), (pv:121,at:2), (pv:122,at:1), (pv:123,at:3), (pv:124,at:4), (pv:125,at:2), (pv:126,at:2), (pv:127,at:2), (pv:128,at:40), (pv:129,at:15), (pv:130,at:2), (pv:131,at:8), (pv:132,at:2), (pv:133,at:4), (pv:134,at:1), (pv:135,at:3), (pv:136,at:1), (pv:137,at:2), (pv:138,at:2), (pv:139,at:1), (pv:140,at:4), (pv:141,at:1), (pv:142,at:1), (pv:143,at:4), (pv:144,at:3), (pv:145,at:1), (pv:146,at:1), (pv:147,at:6), (pv:148,at:7), (pv:149,at:5), (pv:150,at:9), (pv:151,at:7), (pv:152,at:19), (pv:153,at:6), (pv:154,at:1), (pv:155,at:2), (pv:156,at:4), (pv:157,at:4), (pv:158,at:4), (pv:159,at:19), (pv:160,at:4), (pv:161,at:1), (pv:162,at:1), (pv:163,at:3), (pv:164,at:8), (pv:165,at:15), (pv:166,at:8), (pv:167,at:7), (pv:168,at:1), (pv:169,at:5), (pv:170,at:3), (pv:171,at:6), (pv:172,at:5), (pv:173,at:2), (pv:174,at:7), (pv:175,at:1), (pv:176,at:12), (pv:177,at:1), (pv:178,at:1), (pv:179,at:1), (pv:180,at:25), (pv:181,at:9), (pv:182,at:2), (pv:183,at:2), (pv:184,at:2), (pv:185,at:1), (pv:186,at:1), (pv:187,at:1), (pv:188,at:1), (pv:189,at:9), (pv:190,at:6), (pv:191,at:9), (pv:192,at:4), (pv:193,at:1), (pv:194,at:3), (pv:195,at:7), (pv:196,at:5), (pv:197,at:5), (pv:198,at:14), (pv:199,at:3), (pv:200,at:1), (pv:201,at:4), (pv:202,at:7), (pv:203,at:5), (pv:204,at:1), (pv:205,at:54), (pv:206,at:2), (pv:207,at:10), (pv:208,at:5), (pv:209,at:1), (pv:210,at:1), (pv:211,at:2), (pv:212,at:3), (pv:213,at:1), (pv:214,at:2), (pv:215,at:1), (pv:216,at:4), (pv:217,at:4), (pv:218,at:3), (pv:219,at:4), (pv:220,at:1), (pv:221,at:3), (pv:222,at:3), (pv:223,at:2), (pv:224,at:4), (pv:225,at:1), (pv:226,at:4), (pv:227,at:2), (pv:228,at:5), (pv:229,at:70), (pv:230,at:2), (pv:231,at:2), (pv:232,at:3), (pv:233,at:2), (pv:234,at:2), (pv:235,at:9), (pv:236,at:3), (pv:237,at:10), (pv:238,at:17), (pv:239,at:1), (pv:240,at:2), (pv:241,at:12), (pv:242,at:1), (pv:243,at:7), (pv:244,at:1), (pv:245,at:1), (pv:246,at:9), (pv:247,at:10), (pv:248,at:3), (pv:249,at:6), (pv:250,at:1), (pv:251,at:28), (pv:252,at:5), (pv:253,at:1), (pv:254,at:8), (pv:255,at:2), (pv:256,at:2), (pv:257,at:10), (pv:258,at:5), (pv:259,at:8), (pv:260,at:28), (pv:261,at:1), (pv:262,at:2), (pv:263,at:1), (pv:264,at:13), (pv:265,at:10), (pv:266,at:6), (pv:267,at:4), (pv:268,at:6), (pv:269,at:2), (pv:270,at:4), (pv:271,at:1), (pv:272,at:3), (pv:273,at:14), (pv:274,at:1), (pv:275,at:3), (pv:276,at:12), (pv:277,at:1), (pv:278,at:2), (pv:279,at:2), (pv:280,at:4), (pv:281,at:2), (pv:282,at:33), (pv:283,at:1), (pv:284,at:6), (pv:285,at:4), (pv:286,at:6), (pv:287,at:10), (pv:288,at:3), (pv:289,at:2), (pv:290,at:3), (pv:291,at:4), (pv:292,at:1), (pv:293,at:1), (pv:294,at:17), (pv:295,at:3), (pv:296,at:5), (pv:297,at:2), (pv:298,at:14), (pv:299,at:1), (pv:300,at:2), (pv:301,at:2), (pv:302,at:1), (pv:303,at:1), (pv:304,at:1), (pv:305,at:1), (pv:306,at:6), (pv:307,at:9), (pv:308,at:19), (pv:309,at:1), (pv:310,at:28), (pv:311,at:3), (pv:312,at:2), (pv:313,at:1), (pv:314,at:5), (pv:315,at:2), (pv:316,at:1), (pv:317,at:1), (pv:318,at:3), (pv:319,at:2), (pv:320,at:5), (pv:321,at:3), (pv:322,at:3), (pv:323,at:2), (pv:324,at:5), (pv:325,at:2), (pv:326,at:2), (pv:327,at:16), (pv:328,at:4), (pv:329,at:2), (pv:330,at:2), (pv:331,at:13), (pv:332,at:6), (pv:333,at:8), (pv:334,at:1), (pv:335,at:2), (pv:336,at:3), (pv:337,at:11), (pv:338,at:4), (pv:339,at:1), (pv:340,at:2), (pv:341,at:6), (pv:342,at:2), (pv:343,at:8), (pv:344,at:1), (pv:345,at:7), (pv:346,at:2), (pv:347,at:12), (pv:348,at:2), (pv:349,at:5), (pv:350,at:4), (pv:351,at:6), (pv:352,at:2), (pv:353,at:4), (pv:354,at:1), (pv:355,at:4), (pv:356,at:1), (pv:357,at:2), (pv:358,at:1), (pv:359,at:4), (pv:360,at:10), (pv:361,at:1), (pv:362,at:10), (pv:363,at:23), (pv:364,at:2), (pv:365,at:6), (pv:366,at:2), (pv:367,at:5), (pv:368,at:3), (pv:369,at:31), (pv:370,at:1), (pv:371,at:1), (pv:372,at:3), (pv:373,at:14), (pv:374,at:1), (pv:375,at:6), (pv:376,at:3), (pv:377,at:6), (pv:378,at:3), (pv:379,at:3), (pv:380,at:3), (pv:381,at:1), (pv:382,at:3), (pv:383,at:2), (pv:384,at:1), (pv:385,at:2), (pv:386,at:6), (pv:387,at:3), (pv:388,at:1), (pv:389,at:7), (pv:390,at:1), (pv:391,at:3), (pv:392,at:5), (pv:393,at:5), (pv:394,at:6), (pv:395,at:3), (pv:396,at:3), (pv:397,at:2), (pv:398,at:8), (pv:399,at:16), (pv:400,at:5), (pv:401,at:4), (pv:402,at:7), (pv:403,at:6), (pv:404,at:1), (pv:405,at:2), (pv:406,at:14), (pv:407,at:4), (pv:408,at:1), (pv:409,at:7), (pv:410,at:31), (pv:411,at:1), (pv:412,at:5), (pv:413,at:5), (pv:414,at:7), (pv:415,at:35), (pv:416,at:4), (pv:417,at:11), (pv:418,at:6), (pv:419,at:2), (pv:420,at:2), (pv:421,at:3), (pv:422,at:5), (pv:423,at:1), (pv:424,at:2), (pv:425,at:2), (pv:426,at:4), (pv:427,at:4), (pv:428,at:2), (pv:429,at:3), (pv:430,at:4), (pv:431,at:18), (pv:432,at:3), (pv:433,at:1), (pv:434,at:1), (pv:435,at:1), (pv:436,at:2), (pv:437,at:3), (pv:438,at:1), (pv:439,at:46), (pv:440,at:2), (pv:441,at:3), (pv:442,at:2), (pv:443,at:1), (pv:444,at:1), (pv:445,at:2), (pv:446,at:1), (pv:447,at:3), (pv:448,at:1), (pv:449,at:5), (pv:450,at:4), (pv:451,at:1), (pv:452,at:4), (pv:453,at:1), (pv:454,at:14), (pv:455,at:2), (pv:456,at:1), (pv:457,at:6), (pv:458,at:7), (pv:459,at:2), (pv:460,at:1), (pv:461,at:8), (pv:462,at:3), (pv:463,at:2), (pv:464,at:5), (pv:465,at:6), (pv:466,at:1), (pv:467,at:3), (pv:468,at:1), (pv:469,at:1), (pv:470,at:3), (pv:471,at:54), (pv:472,at:2), (pv:473,at:2), (pv:474,at:1), (pv:475,at:2), (pv:476,at:5), (pv:477,at:23), (pv:478,at:5), (pv:479,at:9), (pv:480,at:2), (pv:481,at:1), (pv:482,at:13), (pv:483,at:1), (pv:484,at:7), (pv:485,at:1), (pv:486,at:22), (pv:487,at:12), (pv:488,at:1), (pv:489,at:4), (pv:490,at:3), (pv:491,at:1), (pv:492,at:9), (pv:493,at:2), (pv:494,at:4), (pv:495,at:26), (pv:496,at:1), (pv:497,at:1), (pv:498,at:4), (pv:499,at:1), (pv:500,at:1), (pv:501,at:2), (pv:502,at:11), (pv:503,at:10), (pv:504,at:1), (pv:505,at:3), (pv:506,at:5), (pv:507,at:5), (pv:508,at:55), (pv:509,at:2), (pv:510,at:8), (pv:511,at:4), (pv:512,at:1), (pv:513,at:2), (pv:514,at:1), (pv:515,at:2), (pv:516,at:5), (pv:517,at:3), (pv:518,at:4), (pv:519,at:3), (pv:520,at:12), (pv:521,at:4), (pv:522,at:1), (pv:523,at:5), (pv:524,at:1), (pv:525,at:2), (pv:526,at:7), (pv:527,at:6), (pv:528,at:3), (pv:529,at:2), (pv:530,at:2), (pv:531,at:6), (pv:532,at:5), (pv:533,at:2), (pv:534,at:2), (pv:535,at:6), (pv:536,at:9), (pv:537,at:1), (pv:538,at:49), (pv:539,at:4), (pv:540,at:31), (pv:541,at:9), (pv:542,at:1), (pv:543,at:2), (pv:544,at:20), (pv:545,at:1), (pv:546,at:16), (pv:547,at:10), (pv:548,at:3), (pv:549,at:2), (pv:550,at:9), (pv:551,at:2), (pv:552,at:1), (pv:553,at:1), (pv:554,at:12), (pv:555,at:2), (pv:556,at:5), (pv:557,at:4), (pv:558,at:3), (pv:559,at:7), (pv:560,at:1), (pv:561,at:4), (pv:562,at:3), (pv:563,at:3), (pv:564,at:3), (pv:565,at:5), (pv:566,at:4), (pv:567,at:3), (pv:568,at:5), (pv:569,at:1), (pv:570,at:1), (pv:571,at:1), (pv:572,at:1), (pv:573,at:2), (pv:574,at:20), (pv:575,at:4), (pv:576,at:12), (pv:577,at:2), (pv:578,at:4), (pv:579,at:1), (pv:580,at:2), (pv:581,at:1), (pv:582,at:8), (pv:583,at:9), (pv:584,at:2), (pv:585,at:5), (pv:586,at:9), (pv:587,at:7), (pv:588,at:1), (pv:589,at:4), (pv:590,at:2), (pv:591,at:1), (pv:592,at:18), (pv:593,at:1), (pv:594,at:5), (pv:595,at:5), (pv:596,at:1), (pv:597,at:4), (pv:598,at:2), (pv:599,at:5), (pv:600,at:3), (pv:601,at:5), (pv:602,at:11), (pv:603,at:4), (pv:604,at:7), (pv:605,at:3), (pv:606,at:21), (pv:607,at:1), (pv:608,at:2), (pv:609,at:2), (pv:610,at:1), (pv:611,at:2), (pv:612,at:2), (pv:613,at:5), (pv:614,at:1), (pv:615,at:1), (pv:616,at:1), (pv:617,at:3), (pv:618,at:2), (pv:619,at:15), (pv:620,at:5), (pv:621,at:1), (pv:622,at:2), (pv:623,at:3), (pv:624,at:10), (pv:625,at:8), (pv:626,at:4), (pv:627,at:1), (pv:628,at:8), (pv:629,at:2), (pv:630,at:1), (pv:631,at:1), (pv:632,at:8), (pv:633,at:1), (pv:634,at:8), (pv:635,at:3), (pv:636,at:1), (pv:637,at:5), (pv:638,at:7), (pv:639,at:14), (pv:640,at:1), (pv:641,at:1), (pv:642,at:2), (pv:643,at:2), (pv:644,at:1), (pv:645,at:4), (pv:646,at:3), (pv:647,at:1), (pv:648,at:4), (pv:649,at:1), (pv:650,at:5), (pv:651,at:2), (pv:652,at:2), (pv:653,at:5), (pv:654,at:1), (pv:655,at:1), (pv:656,at:2), (pv:657,at:3), (pv:658,at:1), (pv:659,at:4), (pv:660,at:1), (pv:661,at:1), (pv:662,at:7), (pv:663,at:3), (pv:664,at:14), (pv:665,at:4), (pv:666,at:1), (pv:667,at:3), (pv:668,at:9), (pv:669,at:5), (pv:670,at:2), (pv:671,at:1), (pv:672,at:1), (pv:673,at:34), (pv:674,at:1), (pv:675,at:1), (pv:676,at:1), (pv:677,at:4), (pv:678,at:1), (pv:679,at:2), (pv:680,at:1), (pv:681,at:3), (pv:682,at:1), (pv:683,at:5), (pv:684,at:7), (pv:685,at:1), (pv:686,at:2), (pv:687,at:2), (pv:688,at:3), (pv:689,at:1), (pv:690,at:1), (pv:691,at:2), (pv:692,at:1), (pv:693,at:18), (pv:694,at:4), (pv:695,at:2), (pv:696,at:14), (pv:697,at:3), (pv:698,at:9), (pv:699,at:6), (pv:700,at:2), (pv:701,at:3), (pv:702,at:4), (pv:703,at:1), (pv:704,at:7), (pv:705,at:2), (pv:706,at:2), (pv:707,at:4), (pv:708,at:3), (pv:709,at:7), (pv:710,at:7), (pv:711,at:4), (pv:712,at:2), (pv:713,at:1)]
2017-03-26 21:34:01,210 INFO fr.inria.main.evolution.AstorMain - Time Total(s): 10912.176
