Warning: no access to tty (Bad file descriptor).
Thus no job control in this shell.
tput: No value for $TERM and no -T specified
Node: wh28.sciclone.wm.edu
[INFO ] fr.inria.main.AbstractMain.processArguments(AbstractMain.java:295) - command line arguments: [-out  /local/scr/mtufano/Time/11/b/similar-package-types-default/2  -jvm4testexecution  /usr/local/jdk1.7.0_80/bin/  -loglevel  INFO  -maxVarCombination  1000  -maxgen  1000000  -population  1  -maxtime  180  -timezone  America/New_York  -customop  fr.inria.astor.approaches.jgenprog.operators.InsertAfterOp:fr.inria.astor.approaches.jgenprog.operators.InsertBeforeOp:fr.inria.astor.approaches.jgenprog.operators.ReplaceOp  -seed  2  -javacompliancelevel  5  -package  org.joda  -binjavafolder  target/classes/  -bintestfolder  target/test-classes/  -srcjavafolder  src/main/java/  -srctestfolder  src/test/java/  -learningdir  ../../out/learningdir/Time/11/b/  -location  ../../dat/defects4j/Time/11/b/  -failing  org.joda.time.tz.TestCompiler  -dependencies  ../../dat/libs/Time/joda-convert-1.2.jar  -scope  fr.inria.astor.core.loop.spaces.ingredients.scopes.ctscopes.CtPackageIngredientScope  -ingredientstrategy  fr.inria.astor.core.loop.spaces.ingredients.ingredientSearch.CloneIngredientSearchStrategy  -clonegranularity  spoon.reflect.declaration.CtType  -classestoinstrument  org.joda.time.tz.FixedDateTimeZone:org.joda.time.ReadablePeriod:org.joda.time.field.RemainderDateTimeField:org.joda.time.field.PreciseDateTimeField:org.joda.time.field.FieldUtils:org.joda.time.field.DividedDateTimeField:org.joda.time.ReadableInstant:org.joda.time.field.DecoratedDurationField:org.joda.time.IllegalInstantException:org.joda.time.field.OffsetDateTimeField:org.joda.time.DateTimeField:org.joda.time.base.BasePeriod:org.joda.time.chrono.BasicMonthOfYearDateTimeField:org.joda.time.chrono.BasicWeekOfWeekyearDateTimeField:org.joda.time.base.AbstractPeriod:org.joda.time.tz.Provider:org.joda.time.DateTimeFieldType:org.joda.time.PeriodType:org.joda.time.field.ScaledDurationField:org.joda.time.tz.DateTimeZoneBuilder:org.joda.time.chrono.GJMonthOfYearDateTimeField:org.joda.time.field.ImpreciseDateTimeField:org.joda.time.chrono.GJEraDateTimeField:org.joda.time.DateTimeZone:org.joda.time.field.BaseDateTimeField:org.joda.time.DateTimeUtils:org.joda.time.chrono.BasicGJChronology:org.joda.time.chrono.ISOYearOfEraDateTimeField:org.joda.time.chrono.ISOChronology:org.joda.time.DurationField:org.joda.time.field.DecoratedDateTimeField:org.joda.time.chrono.BaseChronology:org.joda.time.chrono.GJYearOfEraDateTimeField:org.joda.time.tz.CachedDateTimeZone:org.joda.time.field.MillisDurationField:org.joda.time.chrono.GJDayOfWeekDateTimeField:org.joda.time.field.PreciseDurationDateTimeField:org.joda.time.chrono.BasicDayOfYearDateTimeField:org.joda.time.IllegalFieldValueException:org.joda.time.chrono.GregorianChronology:org.joda.time.ReadWritableInstant:org.joda.time.chrono.AssembledChronology:org.joda.time.DurationFieldType:org.joda.time.field.UnsupportedDateTimeField:org.joda.time.tz.DefaultNameProvider:org.joda.time.field.BaseDurationField:org.joda.time.ReadableInterval:org.joda.time.chrono.BasicChronology:org.joda.time.field.UnsupportedDurationField:org.joda.time.Chronology:org.joda.time.chrono.BasicYearDateTimeField:org.joda.time.chrono.BasicDayOfMonthDateTimeField:org.joda.time.JodaTimePermission:org.joda.time.tz.ZoneInfoCompiler:org.joda.time.chrono.BasicWeekyearDateTimeField:org.joda.time.tz.NameProvider:org.joda.time.Period:org.joda.time.field.ZeroIsMaxDateTimeField:org.joda.time.chrono.ZonedChronology:org.joda.time.field.PreciseDurationField:org.joda.time.chrono.LenientChronology:org.joda.time.tz.ZoneInfoProvider:  -regressiontestcases4fl  org.joda.time.tz.TestCompiler:]
[INFO ] fr.inria.astor.core.manipulation.MutationSupporter.buildModel(MutationSupporter.java:76) - building model: /local/scr/mtufano/Time/11/b/similar-package-types-default/2/AstorMain-b//src//default, compliance level: 5
[INFO ] fr.inria.astor.core.manipulation.MutationSupporter.buildModel(MutationSupporter.java:85) - Classpath for building SpoonModel [/sciclone/data20/mtufano/deeprepair/bin/eval/../../dat/libs/Time/joda-convert-1.2.jar]
[INFO ] fr.inria.astor.core.setup.ProjectRepairFacade.calculateSuspicious(ProjectRepairFacade.java:215) - -Executing Gzoltar classpath: /local/scr/mtufano/Time/11/b/similar-package-types-default/2/AstorMain-b//bin//default from 1 classes with test cases
[INFO ] fr.inria.astor.core.faultlocalization.GZoltarFaultLocalization.searchSuspicious(GZoltarFaultLocalization.java:37) - Gzoltar fault localization: min susp value parameter: 0.1
[INFO ] fr.inria.astor.core.faultlocalization.GZoltarFaultLocalization.searchSuspicious(GZoltarFaultLocalization.java:57) - -gz-Adding classpath: [/local/scr/mtufano/Time/11/b/similar-package-types-default/2/AstorMain-b//bin//default, /sciclone/data20/mtufano/deeprepair/bin/eval/../../dat/libs/Time/joda-convert-1.2.jar]
[INFO ] fr.inria.astor.core.faultlocalization.GZoltarFaultLocalization.searchSuspicious(GZoltarFaultLocalization.java:76) - Test failt: org.joda.time.tz.TestCompiler#testDateTimeZoneBuilder
[INFO ] fr.inria.astor.core.faultlocalization.GZoltarFaultLocalization.searchSuspicious(GZoltarFaultLocalization.java:81) - Gzoltar Test Result Total:8, fails: 1, GZoltar suspicious 2350
[INFO ] fr.inria.astor.core.faultlocalization.GZoltarFaultLocalization.searchSuspicious(GZoltarFaultLocalization.java:123) - Gzoltar found: 453 with susp > 0.1, we consider: 453
[INFO ] fr.inria.astor.approaches.jgenprog.JGenProg.initPopulation(JGenProg.java:80) - 
---- Initial suspicious size: 453
[INFO ] fr.inria.astor.core.loop.population.ProgramVariantFactory.createProgramInstance(ProgramVariantFactory.java:126) - -any mod point created for suspicious Candidate [className=org.joda.time.chrono.ISOChronology, methodName=org.joda.time.chrono.ISOChronology{getInstance(Lorg/joda/time/DateTimeZone;)Lorg/joda/time/chrono/ISOChronology; 0.0, lineNumber=110, susp=0.7071067811865475]
[INFO ] fr.inria.astor.core.loop.population.ProgramVariantFactory.createProgramInstance(ProgramVariantFactory.java:126) - -any mod point created for suspicious Candidate [className=org.joda.time.tz.DateTimeZoneBuilder$RuleSet, methodName=org.joda.time.tz.DateTimeZoneBuilder$RuleSet{setStandardOffset(I)V 0.0, lineNumber=986, susp=0.7071067811865475]
[INFO ] fr.inria.astor.core.loop.population.ProgramVariantFactory.createProgramInstance(ProgramVariantFactory.java:126) - -any mod point created for suspicious Candidate [className=org.joda.time.tz.DateTimeZoneBuilder$RuleSet, methodName=org.joda.time.tz.DateTimeZoneBuilder$RuleSet{addRule(Lorg/joda/time/tz/DateTimeZoneBuilder$Rule;)V 0.0, lineNumber=997, susp=0.7071067811865475]
[INFO ] fr.inria.astor.core.loop.population.ProgramVariantFactory.createProgramInstance(ProgramVariantFactory.java:126) - -any mod point created for suspicious Candidate [className=org.joda.time.tz.DateTimeZoneBuilder$RuleSet, methodName=org.joda.time.tz.DateTimeZoneBuilder$RuleSet{firstTransition(J)Lorg/joda/time/tz/DateTimeZoneBuilder$Transition; 0.0, lineNumber=1047, susp=0.7071067811865475]
[INFO ] fr.inria.astor.core.loop.population.ProgramVariantFactory.createProgramInstance(ProgramVariantFactory.java:126) - -any mod point created for suspicious Candidate [className=org.joda.time.tz.DateTimeZoneBuilder$RuleSet, methodName=org.joda.time.tz.DateTimeZoneBuilder$RuleSet{nextTransition(JI)Lorg/joda/time/tz/DateTimeZoneBuilder$Transition; 0.0, lineNumber=1103, susp=0.7071067811865475]
[INFO ] fr.inria.astor.core.loop.population.ProgramVariantFactory.createProgramInstance(ProgramVariantFactory.java:126) - -any mod point created for suspicious Candidate [className=org.joda.time.tz.DateTimeZoneBuilder$OfYear, methodName=org.joda.time.tz.DateTimeZoneBuilder$OfYear{setDayOfMonthNext(Lorg/joda/time/Chronology;J)J 0.0, lineNumber=682, susp=0.7071067811865475]
[INFO ] fr.inria.astor.core.loop.population.ProgramVariantFactory.createProgramInstance(ProgramVariantFactory.java:126) - -any mod point created for suspicious Candidate [className=org.joda.time.DurationFieldType$StandardDurationFieldType, methodName=org.joda.time.DurationFieldType$StandardDurationFieldType{getField(Lorg/joda/time/Chronology;)Lorg/joda/time/DurationField; 0.0, lineNumber=292, susp=0.7071067811865475]
[INFO ] fr.inria.astor.core.loop.population.ProgramVariantFactory.createProgramInstance(ProgramVariantFactory.java:126) - -any mod point created for suspicious Candidate [className=org.joda.time.DurationFieldType$StandardDurationFieldType, methodName=org.joda.time.DurationFieldType$StandardDurationFieldType{getField(Lorg/joda/time/Chronology;)Lorg/joda/time/DurationField; 0.0, lineNumber=294, susp=0.7071067811865475]
[INFO ] fr.inria.astor.core.loop.population.ProgramVariantFactory.createProgramInstance(ProgramVariantFactory.java:126) - -any mod point created for suspicious Candidate [className=org.joda.time.DurationFieldType$StandardDurationFieldType, methodName=org.joda.time.DurationFieldType$StandardDurationFieldType{getField(Lorg/joda/time/Chronology;)Lorg/joda/time/DurationField; 0.0, lineNumber=298, susp=0.7071067811865475]
[INFO ] fr.inria.astor.core.loop.population.ProgramVariantFactory.createProgramInstance(ProgramVariantFactory.java:126) - -any mod point created for suspicious Candidate [className=org.joda.time.field.FieldUtils, methodName=org.joda.time.field.FieldUtils{verifyValueBounds(Lorg/joda/time/DateTimeField;III)V 0.0, lineNumber=222, susp=0.5]
[INFO ] fr.inria.astor.core.loop.population.ProgramVariantFactory.createProgramInstance(ProgramVariantFactory.java:126) - -any mod point created for suspicious Candidate [className=org.joda.time.DateTimeZone, methodName=org.joda.time.DateTimeZone{setDefault(Lorg/joda/time/DateTimeZone;)V 0.0, lineNumber=183, susp=0.35355339059327373]
[INFO ] fr.inria.astor.core.loop.population.ProgramVariantFactory.createProgramInstance(ProgramVariantFactory.java:126) - -any mod point created for suspicious Candidate [className=org.joda.time.DateTimeZone, methodName=org.joda.time.DateTimeZone{setDefault(Lorg/joda/time/DateTimeZone;)V 0.0, lineNumber=184, susp=0.35355339059327373]
[INFO ] fr.inria.astor.core.loop.population.ProgramVariantFactory.createProgramInstance(ProgramVariantFactory.java:130) - Total suspicious from FL: 453,  442
[INFO ] fr.inria.astor.core.loop.population.ProgramVariantFactory.createProgramInstance(ProgramVariantFactory.java:138) - Total ModPoint created: 442
[INFO ] fr.inria.astor.core.loop.population.ProgramVariantFactory.createInitialPopulation(ProgramVariantFactory.java:82) - Creating program variant #1, [Variant id: 1, #gens: 442, #ops: 0, parent:-]
[INFO ] fr.inria.astor.core.setup.ConfigurationProperties.print(ConfigurationProperties.java:63) - ----------------------------
[INFO ] fr.inria.astor.core.setup.ConfigurationProperties.print(ConfigurationProperties.java:64) - ---Configuration properties:---Execution values
[INFO ] fr.inria.astor.core.setup.ConfigurationProperties.print(ConfigurationProperties.java:66) - p:lastJUnitVersion= ./examples/libs/junit-4.11.jar
[INFO ] fr.inria.astor.core.setup.ConfigurationProperties.print(ConfigurationProperties.java:66) - p:alternativecompliancelevel= 4
[INFO ] fr.inria.astor.core.setup.ConfigurationProperties.print(ConfigurationProperties.java:66) - p:ignoredTestCases= 
[INFO ] fr.inria.astor.core.setup.ConfigurationProperties.print(ConfigurationProperties.java:66) - p:workingDirectory= /local/scr/mtufano/Time/11/b/similar-package-types-default/2
[INFO ] fr.inria.astor.core.setup.ConfigurationProperties.print(ConfigurationProperties.java:66) - p:manipulatesuper= false
[INFO ] fr.inria.astor.core.setup.ConfigurationProperties.print(ConfigurationProperties.java:66) - p:validation= process
[INFO ] fr.inria.astor.core.setup.ConfigurationProperties.print(ConfigurationProperties.java:66) - p:jvm4testexecution= /usr/local/jdk1.7.0_80/bin/
[INFO ] fr.inria.astor.core.setup.ConfigurationProperties.print(ConfigurationProperties.java:66) - p:binjavafolder= target/classes/
[INFO ] fr.inria.astor.core.setup.ConfigurationProperties.print(ConfigurationProperties.java:66) - p:evosuiteresultfolder= evosuite
[INFO ] fr.inria.astor.core.setup.ConfigurationProperties.print(ConfigurationProperties.java:66) - p:flthreshold= 0.1
[INFO ] fr.inria.astor.core.setup.ConfigurationProperties.print(ConfigurationProperties.java:66) - p:regressionforfaultlocalization= true
[INFO ] fr.inria.astor.core.setup.ConfigurationProperties.print(ConfigurationProperties.java:66) - p:tmax2= 960000
[INFO ] fr.inria.astor.core.setup.ConfigurationProperties.print(ConfigurationProperties.java:66) - p:tmax1= 120000
[INFO ] fr.inria.astor.core.setup.ConfigurationProperties.print(ConfigurationProperties.java:66) - p:probagenmutation= false
[INFO ] fr.inria.astor.core.setup.ConfigurationProperties.print(ConfigurationProperties.java:66) - p:srctestfolder= src/test/java/
[INFO ] fr.inria.astor.core.setup.ConfigurationProperties.print(ConfigurationProperties.java:66) - p:customop= fr.inria.astor.approaches.jgenprog.operators.InsertAfterOp:fr.inria.astor.approaches.jgenprog.operators.InsertBeforeOp:fr.inria.astor.approaches.jgenprog.operators.ReplaceOp
[INFO ] fr.inria.astor.core.setup.ConfigurationProperties.print(ConfigurationProperties.java:66) - p:forceExecuteRegression= false
[INFO ] fr.inria.astor.core.setup.ConfigurationProperties.print(ConfigurationProperties.java:66) - p:clusteringfilename= clustering.csv
[INFO ] fr.inria.astor.core.setup.ConfigurationProperties.print(ConfigurationProperties.java:66) - p:failing= org.joda.time.tz.TestCompiler
[INFO ] fr.inria.astor.core.setup.ConfigurationProperties.print(ConfigurationProperties.java:66) - p:evo_buggy_class= true
[INFO ] fr.inria.astor.core.setup.ConfigurationProperties.print(ConfigurationProperties.java:66) - p:numberExecutions= 1
[INFO ] fr.inria.astor.core.setup.ConfigurationProperties.print(ConfigurationProperties.java:66) - p:evo_affected_by_op= true
[INFO ] fr.inria.astor.core.setup.ConfigurationProperties.print(ConfigurationProperties.java:66) - p:population= 1
[INFO ] fr.inria.astor.core.setup.ConfigurationProperties.print(ConfigurationProperties.java:66) - p:clonegranularity= spoon.reflect.declaration.CtType
[INFO ] fr.inria.astor.core.setup.ConfigurationProperties.print(ConfigurationProperties.java:66) - p:regressiontestcases4fl= org.joda.time.tz.TestCompiler:
[INFO ] fr.inria.astor.core.setup.ConfigurationProperties.print(ConfigurationProperties.java:66) - p:savesolution= true
[INFO ] fr.inria.astor.core.setup.ConfigurationProperties.print(ConfigurationProperties.java:66) - p:javacompliancelevel= 5
[INFO ] fr.inria.astor.core.setup.ConfigurationProperties.print(ConfigurationProperties.java:66) - p:uniqueoptogen= false
[INFO ] fr.inria.astor.core.setup.ConfigurationProperties.print(ConfigurationProperties.java:66) - p:projectIdentifier= 
[INFO ] fr.inria.astor.core.setup.ConfigurationProperties.print(ConfigurationProperties.java:66) - p:modificationpointnavigation= weight
[INFO ] fr.inria.astor.core.setup.ConfigurationProperties.print(ConfigurationProperties.java:66) - p:stopfirst= false
[INFO ] fr.inria.astor.core.setup.ConfigurationProperties.print(ConfigurationProperties.java:66) - p:multipointmodification= false
[INFO ] fr.inria.astor.core.setup.ConfigurationProperties.print(ConfigurationProperties.java:66) - p:elementsToMutate= 10
[INFO ] fr.inria.astor.core.setup.ConfigurationProperties.print(ConfigurationProperties.java:66) - p:evoDSE= false
[INFO ] fr.inria.astor.core.setup.ConfigurationProperties.print(ConfigurationProperties.java:66) - p:bintestfolder= target/test-classes/
[INFO ] fr.inria.astor.core.setup.ConfigurationProperties.print(ConfigurationProperties.java:66) - p:testbystep= false
[INFO ] fr.inria.astor.core.setup.ConfigurationProperties.print(ConfigurationProperties.java:66) - p:version-location= ./math-version/
[INFO ] fr.inria.astor.core.setup.ConfigurationProperties.print(ConfigurationProperties.java:66) - p:reintroduce= PARENTS
[INFO ] fr.inria.astor.core.setup.ConfigurationProperties.print(ConfigurationProperties.java:66) - p:maxGeneration= 1000000
[INFO ] fr.inria.astor.core.setup.ConfigurationProperties.print(ConfigurationProperties.java:66) - p:maxVarCombination= 1000
[INFO ] fr.inria.astor.core.setup.ConfigurationProperties.print(ConfigurationProperties.java:66) - p:maxtime= 180
[INFO ] fr.inria.astor.core.setup.ConfigurationProperties.print(ConfigurationProperties.java:66) - p:evosuitejar= ./lib/evosuite-master-1.0.4-SNAPSHOT.jar
[INFO ] fr.inria.astor.core.setup.ConfigurationProperties.print(ConfigurationProperties.java:66) - p:commandTrunk= 50000
[INFO ] fr.inria.astor.core.setup.ConfigurationProperties.print(ConfigurationProperties.java:66) - p:faultlocalization= fr.inria.astor.core.faultlocalization.GZoltarFaultLocalization
[INFO ] fr.inria.astor.core.setup.ConfigurationProperties.print(ConfigurationProperties.java:66) - p:maxsuspcandidates= 1000
[INFO ] fr.inria.astor.core.setup.ConfigurationProperties.print(ConfigurationProperties.java:66) - p:mode= statement
[INFO ] fr.inria.astor.core.setup.ConfigurationProperties.print(ConfigurationProperties.java:66) - p:learningdir= ../../out/learningdir/Time/11/b/
[INFO ] fr.inria.astor.core.setup.ConfigurationProperties.print(ConfigurationProperties.java:66) - p:jvm4evosuitetestexecution= /usr/local/jdk1.7.0_80/bin/
[INFO ] fr.inria.astor.core.setup.ConfigurationProperties.print(ConfigurationProperties.java:66) - p:filterfaultlocalization= true
[INFO ] fr.inria.astor.core.setup.ConfigurationProperties.print(ConfigurationProperties.java:66) - p:mutationrate= 1 
[INFO ] fr.inria.astor.core.setup.ConfigurationProperties.print(ConfigurationProperties.java:66) - p:pathToMVNRepository= 
[INFO ] fr.inria.astor.core.setup.ConfigurationProperties.print(ConfigurationProperties.java:66) - p:resourcesfolder= /src/main/resources:/src/test/resources:
[INFO ] fr.inria.astor.core.setup.ConfigurationProperties.print(ConfigurationProperties.java:66) - p:timezone= America/New_York
[INFO ] fr.inria.astor.core.setup.ConfigurationProperties.print(ConfigurationProperties.java:66) - p:classestoinstrument= org.joda.time.tz.FixedDateTimeZone:org.joda.time.ReadablePeriod:org.joda.time.field.RemainderDateTimeField:org.joda.time.field.PreciseDateTimeField:org.joda.time.field.FieldUtils:org.joda.time.field.DividedDateTimeField:org.joda.time.ReadableInstant:org.joda.time.field.DecoratedDurationField:org.joda.time.IllegalInstantException:org.joda.time.field.OffsetDateTimeField:org.joda.time.DateTimeField:org.joda.time.base.BasePeriod:org.joda.time.chrono.BasicMonthOfYearDateTimeField:org.joda.time.chrono.BasicWeekOfWeekyearDateTimeField:org.joda.time.base.AbstractPeriod:org.joda.time.tz.Provider:org.joda.time.DateTimeFieldType:org.joda.time.PeriodType:org.joda.time.field.ScaledDurationField:org.joda.time.tz.DateTimeZoneBuilder:org.joda.time.chrono.GJMonthOfYearDateTimeField:org.joda.time.field.ImpreciseDateTimeField:org.joda.time.chrono.GJEraDateTimeField:org.joda.time.DateTimeZone:org.joda.time.field.BaseDateTimeField:org.joda.time.DateTimeUtils:org.joda.time.chrono.BasicGJChronology:org.joda.time.chrono.ISOYearOfEraDateTimeField:org.joda.time.chrono.ISOChronology:org.joda.time.DurationField:org.joda.time.field.DecoratedDateTimeField:org.joda.time.chrono.BaseChronology:org.joda.time.chrono.GJYearOfEraDateTimeField:org.joda.time.tz.CachedDateTimeZone:org.joda.time.field.MillisDurationField:org.joda.time.chrono.GJDayOfWeekDateTimeField:org.joda.time.field.PreciseDurationDateTimeField:org.joda.time.chrono.BasicDayOfYearDateTimeField:org.joda.time.IllegalFieldValueException:org.joda.time.chrono.GregorianChronology:org.joda.time.ReadWritableInstant:org.joda.time.chrono.AssembledChronology:org.joda.time.DurationFieldType:org.joda.time.field.UnsupportedDateTimeField:org.joda.time.tz.DefaultNameProvider:org.joda.time.field.BaseDurationField:org.joda.time.ReadableInterval:org.joda.time.chrono.BasicChronology:org.joda.time.field.UnsupportedDurationField:org.joda.time.Chronology:org.joda.time.chrono.BasicYearDateTimeField:org.joda.time.chrono.BasicDayOfMonthDateTimeField:org.joda.time.JodaTimePermission:org.joda.time.tz.ZoneInfoCompiler:org.joda.time.chrono.BasicWeekyearDateTimeField:org.joda.time.tz.NameProvider:org.joda.time.Period:org.joda.time.field.ZeroIsMaxDateTimeField:org.joda.time.chrono.ZonedChronology:org.joda.time.field.PreciseDurationField:org.joda.time.chrono.LenientChronology:org.joda.time.tz.ZoneInfoProvider:
[INFO ] fr.inria.astor.core.setup.ConfigurationProperties.print(ConfigurationProperties.java:66) - p:evoRunOnBuggyClass= true
[INFO ] fr.inria.astor.core.setup.ConfigurationProperties.print(ConfigurationProperties.java:66) - p:compiler= fr.inria.astor.core.manipulation.bytecode.compiler.SpoonClassCompiler
[INFO ] fr.inria.astor.core.setup.ConfigurationProperties.print(ConfigurationProperties.java:66) - p:dependenciespath= ../../dat/libs/Time/joda-convert-1.2.jar
[INFO ] fr.inria.astor.core.setup.ConfigurationProperties.print(ConfigurationProperties.java:66) - p:skipfaultlocalization= false
[INFO ] fr.inria.astor.core.setup.ConfigurationProperties.print(ConfigurationProperties.java:66) - p:packageToInstrument= org.joda
[INFO ] fr.inria.astor.core.setup.ConfigurationProperties.print(ConfigurationProperties.java:66) - p:scope= fr.inria.astor.core.loop.spaces.ingredients.scopes.ctscopes.CtPackageIngredientScope
[INFO ] fr.inria.astor.core.setup.ConfigurationProperties.print(ConfigurationProperties.java:66) - p:transformingredient= false
[INFO ] fr.inria.astor.core.setup.ConfigurationProperties.print(ConfigurationProperties.java:66) - p:fitnessfunction= fr.inria.astor.core.loop.population.TestCaseFitnessFunction
[INFO ] fr.inria.astor.core.setup.ConfigurationProperties.print(ConfigurationProperties.java:66) - p:pvariantfoldername= variant-
[INFO ] fr.inria.astor.core.setup.ConfigurationProperties.print(ConfigurationProperties.java:66) - p:srcjavafolder= src/main/java/
[INFO ] fr.inria.astor.core.setup.ConfigurationProperties.print(ConfigurationProperties.java:66) - p:populationcontroller= fr.inria.astor.core.loop.population.TestCaseBasedFitnessPopulationController
[INFO ] fr.inria.astor.core.setup.ConfigurationProperties.print(ConfigurationProperties.java:66) - p:ignoreflakyinfl= false
[INFO ] fr.inria.astor.core.setup.ConfigurationProperties.print(ConfigurationProperties.java:66) - p:applyCrossover= false
[INFO ] fr.inria.astor.core.setup.ConfigurationProperties.print(ConfigurationProperties.java:66) - p:saveall= false
[INFO ] fr.inria.astor.core.setup.ConfigurationProperties.print(ConfigurationProperties.java:66) - p:seed= 2
[INFO ] fr.inria.astor.core.setup.ConfigurationProperties.print(ConfigurationProperties.java:66) - p:resetoperations= false
[INFO ] fr.inria.astor.core.setup.ConfigurationProperties.print(ConfigurationProperties.java:66) - p:location= ../../dat/defects4j/Time/11/b/
[INFO ] fr.inria.astor.core.setup.ConfigurationProperties.print(ConfigurationProperties.java:66) - p:ingredientstrategy= fr.inria.astor.core.loop.spaces.ingredients.ingredientSearch.CloneIngredientSearchStrategy
[INFO ] fr.inria.astor.core.setup.ConfigurationProperties.print(ConfigurationProperties.java:66) - p:allpoints= false
[INFO ] fr.inria.astor.core.setup.ConfigurationProperties.print(ConfigurationProperties.java:66) - p:bugId= 280
[INFO ] fr.inria.astor.core.setup.ConfigurationProperties.print(ConfigurationProperties.java:66) - p:evosuitetimeout= 120
[INFO ] fr.inria.astor.core.setup.ConfigurationProperties.print(ConfigurationProperties.java:68) - ----------------------------
[INFO ] fr.inria.astor.core.loop.AstorCoreEngine.startEvolution(AstorCoreEngine.java:119) - 
----Starting Solution Search
0-->2org.joda.time.DateTimeZone
1-->2org.joda.time.convert.ReadablePartialConverter
2-->2org.joda.time.convert.Converter
3-->2org.joda.time.chrono.GJYearOfEraDateTimeField
4-->2org.joda.time.convert.PartialConverter
5-->2org.joda.time.Seconds
6-->2org.joda.time.field.RemainderDateTimeField
7-->2org.joda.time.JodaTimePermission
8-->2org.joda.time.chrono.BasicWeekOfWeekyearDateTimeField
9-->2org.joda.time.field.AbstractPartialFieldProperty
10-->2org.joda.time.field.StrictDateTimeField
11-->2org.joda.time.DateTimeFieldType
12-->2org.joda.time.ReadableInterval
13-->2org.joda.time.field.UnsupportedDurationField
14-->2org.joda.time.field.LenientDateTimeField
15-->2org.joda.time.DateTimeComparator
16-->2org.joda.time.ReadWritableInterval
17-->2org.joda.time.base.AbstractDateTime
18-->2org.joda.time.field.SkipUndoDateTimeField
19-->2org.joda.time.convert.AbstractConverter
20-->2org.joda.time.format.PeriodFormatterBuilder
21-->2org.joda.time.format.DateTimePrinter
22-->2org.joda.time.chrono.ISOChronology
23-->2org.joda.time.base.BaseLocal
24-->2org.joda.time.field.DelegatedDateTimeField
25-->2org.joda.time.chrono.LenientChronology
26-->2org.joda.time.chrono.BasicChronology
27-->2org.joda.time.chrono.BasicYearDateTimeField
28-->2org.joda.time.field.DividedDateTimeField
29-->2org.joda.time.convert.DateConverter
30-->2org.joda.time.chrono.ZonedChronology
31-->2org.joda.time.field.ZeroIsMaxDateTimeField
32-->2org.joda.time.field.BaseDateTimeField
33-->2org.joda.time.format.DateTimeFormatterBuilder
34-->2org.joda.time.chrono.EthiopicChronology
35-->2org.joda.time.base.BaseInterval
36-->2org.joda.time.Duration
37-->2org.joda.time.format.FormatUtils
38-->2org.joda.time.PeriodType
39-->2org.joda.time.format.PeriodFormatter
40-->2org.joda.time.field.MillisDurationField
41-->2org.joda.time.Interval
42-->2org.joda.time.chrono.GJChronology
43-->2org.joda.time.convert.LongConverter
44-->2org.joda.time.chrono.IslamicChronology
45-->2org.joda.time.base.AbstractInstant
46-->2org.joda.time.chrono.BasicFixedMonthChronology
47-->2org.joda.time.tz.DateTimeZoneBuilder
48-->2org.joda.time.format.DateTimeParserBucket
49-->2org.joda.time.field.UnsupportedDateTimeField
50-->2org.joda.time.chrono.ISOYearOfEraDateTimeField
51-->2org.joda.time.field.ScaledDurationField
52-->2org.joda.time.ReadWritablePeriod
53-->2org.joda.time.convert.ConverterSet
54-->2org.joda.time.MonthDay
55-->2org.joda.time.field.PreciseDurationDateTimeField
56-->2org.joda.time.MutablePeriod
57-->2org.joda.time.LocalDateTime
58-->2org.joda.time.MutableDateTime
59-->2org.joda.time.tz.FixedDateTimeZone
60-->2org.joda.time.format.PeriodPrinter
61-->2org.joda.time.convert.IntervalConverter
62-->2org.joda.time.tz.CachedDateTimeZone
63-->2org.joda.time.field.PreciseDateTimeField
64-->2org.joda.time.ReadableDateTime
65-->2org.joda.time.chrono.GJLocaleSymbols
66-->2org.joda.time.format.PeriodParser
67-->2org.joda.time.convert.ReadableDurationConverter
68-->2org.joda.time.DateMidnight
69-->2org.joda.time.base.BaseDuration
70-->2org.joda.time.Months
71-->2org.joda.time.field.DecoratedDateTimeField
72-->2org.joda.time.YearMonthDay
73-->2org.joda.time.format.DateTimeParser
74-->2org.joda.time.YearMonth
75-->2org.joda.time.convert.DurationConverter
76-->2org.joda.time.convert.ReadablePeriodConverter
77-->2org.joda.time.field.OffsetDateTimeField
78-->2org.joda.time.Years
79-->2org.joda.time.chrono.GJMonthOfYearDateTimeField
80-->2org.joda.time.convert.ReadableIntervalConverter
81-->2org.joda.time.chrono.BasicWeekyearDateTimeField
82-->2org.joda.time.Days
83-->2org.joda.time.DateTimeField
84-->2org.joda.time.field.FieldUtils
85-->2org.joda.time.chrono.BasicSingleEraDateTimeField
86-->2org.joda.time.format.DateTimeFormat
87-->2org.joda.time.Partial
88-->2org.joda.time.format.ISODateTimeFormat
89-->2org.joda.time.field.SkipDateTimeField
90-->2org.joda.time.chrono.LimitChronology
91-->2org.joda.time.tz.UTCProvider
92-->2org.joda.time.base.AbstractPeriod
93-->2org.joda.time.ReadableInstant
94-->2org.joda.time.chrono.GJDayOfWeekDateTimeField
95-->2org.joda.time.base.BaseSingleFieldPeriod
96-->2org.joda.time.IllegalInstantException
97-->2org.joda.time.IllegalFieldValueException
98-->2org.joda.time.convert.NullConverter
99-->2org.joda.time.tz.ZoneInfoCompiler
100-->2org.joda.time.tz.DefaultNameProvider
101-->2org.joda.time.tz.Provider
102-->2org.joda.time.ReadablePeriod
103-->2org.joda.time.chrono.GregorianChronology
104-->2org.joda.time.DurationFieldType
105-->2org.joda.time.ReadWritableInstant
106-->2org.joda.time.MutableInterval
107-->2org.joda.time.convert.ConverterManager
108-->2org.joda.time.tz.NameProvider
109-->2org.joda.time.Minutes
110-->2org.joda.time.chrono.BasicMonthOfYearDateTimeField
111-->2org.joda.time.base.BasePartial
112-->2org.joda.time.base.AbstractPartial
113-->2org.joda.time.DateTimeUtils
114-->2org.joda.time.base.BaseDateTime
115-->2org.joda.time.base.AbstractDuration
116-->2org.joda.time.LocalTime
117-->2org.joda.time.Hours
118-->2org.joda.time.base.AbstractInterval
119-->2org.joda.time.convert.StringConverter
120-->2org.joda.time.convert.ReadableInstantConverter
121-->2org.joda.time.base.BasePeriod
122-->2org.joda.time.field.DecoratedDurationField
123-->2org.joda.time.convert.InstantConverter
124-->2org.joda.time.chrono.AssembledChronology
125-->2org.joda.time.chrono.StrictChronology
126-->2org.joda.time.TimeOfDay
127-->2org.joda.time.format.ISOPeriodFormat
128-->2org.joda.time.chrono.GJEraDateTimeField
129-->2org.joda.time.tz.ZoneInfoProvider
130-->2org.joda.time.chrono.BaseChronology
131-->2org.joda.time.chrono.JulianChronology
132-->2org.joda.time.chrono.CopticChronology
133-->2org.joda.time.field.ImpreciseDateTimeField
134-->2org.joda.time.field.PreciseDurationField
135-->2org.joda.time.Period
136-->2org.joda.time.ReadableDuration
137-->2org.joda.time.chrono.BasicGJChronology
138-->2org.joda.time.DurationField
139-->2org.joda.time.format.PeriodFormat
140-->2org.joda.time.format.DateTimeFormatter
141-->2org.joda.time.Weeks
142-->2org.joda.time.DateTime
143-->2org.joda.time.Chronology
144-->2org.joda.time.field.DelegatedDurationField
145-->2org.joda.time.field.AbstractReadableInstantFieldProperty
146-->2org.joda.time.LocalDate
147-->2org.joda.time.ReadWritableDateTime
148-->2org.joda.time.convert.PeriodConverter
149-->2org.joda.time.chrono.BasicDayOfMonthDateTimeField
150-->2org.joda.time.Instant
151-->2org.joda.time.convert.CalendarConverter
152-->2org.joda.time.ReadablePartial
153-->2org.joda.time.chrono.BasicDayOfYearDateTimeField
154-->2org.joda.time.field.BaseDurationField
155-->2org.joda.time.DateTimeConstants
156-->2org.joda.time.chrono.BuddhistChronology
[INFO ] fr.inria.astor.core.validation.executors.JUnitExecutorProcess.execute(JUnitExecutorProcess.java:120) - The Process that runs JUnit test cases had problems: process hasn't exited
[INFO ] fr.inria.astor.core.loop.AstorCoreEngine.belowMaxTime(AstorCoreEngine.java:203) - 
 No more time for operating
[INFO ] fr.inria.astor.core.loop.AstorCoreEngine.startEvolution(AstorCoreEngine.java:143) - Time Repair Loop (s): 10876.339
[INFO ] fr.inria.astor.core.loop.AstorCoreEngine.showResults(AstorCoreEngine.java:165) - 
----SUMMARY_EXECUTION---
[INFO ] fr.inria.astor.approaches.jgenprog.JGenProg.showResults(JGenProg.java:332) - 
successful_ing_attempts (#trials 0, totalAttps 0): []
[INFO ] fr.inria.astor.approaches.jgenprog.JGenProg.showResults(JGenProg.java:334) - 
failing_ing_attempts (#trials 1124, totalAttps 8750): [8, 1, 1, 1, 1, 6, 6, 1, 1, 1, 1, 8, 8, 1, 8, 1, 8, 8, 1, 1, 8, 1, 4, 1, 22, 8, 1, 1, 13, 63, 63, 2, 8, 1, 9, 42, 8, 6, 3, 1, 3, 8, 1, 6, 1, 8, 42, 1, 6, 1, 8, 1, 16, 5, 1, 6, 1, 1, 1, 1, 1, 8, 9, 2, 8, 3, 8, 8, 22, 1, 7, 5, 8, 1, 8, 1, 8, 1, 16, 16, 3, 8, 1, 8, 2, 2, 8, 1, 16, 9, 8, 1, 6, 3, 49, 2, 2, 8, 1, 1, 9, 9, 1, 3, 2, 1, 12, 32, 8, 70, 9, 1, 8, 8, 1, 6, 23, 8, 1, 2, 1, 2, 6, 1, 1, 8, 8, 6, 2, 5, 3, 6, 8, 12, 6, 54, 8, 1, 2, 9, 2, 8, 1, 2, 8, 8, 49, 8, 12, 8, 8, 16, 1, 38, 8, 6, 2, 7, 8, 8, 1, 1, 1, 1, 81, 8, 2, 1, 2, 2, 3, 7, 8, 8, 8, 1, 1, 8, 9, 6, 16, 8, 1, 1, 2, 12, 2, 1, 6, 8, 8, 8, 1, 9, 1, 1, 8, 8, 8, 8, 8, 1, 1, 1, 1, 38, 1, 8, 28, 8, 6, 9, 8, 8, 8, 99, 1, 8, 1, 1, 1, 8, 1, 3, 1, 9, 12, 1, 1, 1, 8, 2, 6, 1, 8, 1, 1, 1, 79, 1, 2, 6, 1, 1, 1, 1, 1, 6, 6, 1, 16, 8, 1, 2, 2, 1, 8, 1, 8, 16, 2, 2, 8, 2, 8, 8, 2, 3, 2, 1, 8, 2, 1, 1, 1, 1, 6, 8, 1, 8, 8, 5, 1, 8, 1, 1, 2, 8, 9, 8, 22, 1, 1, 2, 29, 8, 1, 9, 2, 8, 9, 11, 1, 16, 32, 1, 1, 1, 8, 8, 8, 2, 6, 1, 16, 1, 3, 8, 1, 1, 1, 4, 2, 2, 1, 3, 8, 8, 8, 1, 8, 1, 1, 1, 1, 9, 1, 1, 6, 8, 2, 8, 2, 1, 1, 1, 18, 1, 8, 8, 16, 8, 8, 2, 8, 1, 3, 8, 6, 8, 8, 8, 16, 3, 1, 16, 8, 1, 1, 4, 12, 1, 3, 6, 8, 3, 1, 1, 8, 1, 1, 1, 1, 6, 8, 1, 1, 3, 1, 1, 1, 1, 9, 8, 37, 1, 2, 6, 9, 1, 1, 8, 2, 1, 1, 1, 8, 1, 8, 2, 2, 8, 6, 1, 2, 1, 11, 2, 2, 1, 79, 2, 16, 2, 1, 1, 8, 6, 55, 1, 2, 4, 1, 6, 1, 16, 1, 2, 8, 8, 15, 1, 1, 5, 1, 1, 2, 8, 1, 2, 1, 16, 1, 2, 8, 35, 1, 8, 1, 3, 10, 1, 8, 2, 1, 9, 28, 2, 2, 17, 3, 2, 6, 1, 6, 8, 8, 16, 8, 1, 1, 9, 8, 22, 78, 2, 16, 4, 16, 1, 8, 16, 8, 1, 1, 1, 11, 59, 8, 8, 16, 2, 8, 1, 16, 1, 1, 1, 1, 1, 1, 1, 8, 1, 8, 28, 8, 1, 1, 1, 3, 1, 1, 7, 8, 8, 16, 2, 2, 8, 2, 8, 1, 2, 8, 6, 5, 2, 1, 1, 1, 1, 1, 1, 8, 1, 3, 1, 3, 16, 2, 16, 6, 12, 9, 6, 41, 106, 9, 1, 3, 2, 1, 6, 8, 2, 1, 16, 1, 3, 1, 2, 8, 2, 11, 2, 1, 5, 3, 6, 3, 1, 6, 16, 8, 145, 2, 2, 1, 6, 1, 1, 1, 8, 1, 11, 2, 1, 8, 8, 2, 7, 16, 1, 7, 4, 2, 3, 8, 16, 8, 22, 16, 8, 3, 16, 8, 22, 1, 8, 6, 8, 16, 37, 1, 8, 16, 2, 9, 1, 1, 3, 1, 1, 3, 9, 6, 16, 8, 141, 1, 8, 8, 1, 38, 1, 32, 2, 1, 16, 8, 1, 8, 2, 6, 8, 1, 9, 3, 2, 7, 2, 1, 1, 2, 28, 1, 1, 1, 1, 8, 6, 2, 1, 3, 2, 16, 12, 8, 2, 1, 6, 3, 3, 11, 1, 3, 4, 2, 1, 1, 17, 9, 11, 2, 1, 8, 9, 7, 1, 1, 4, 8, 8, 8, 3, 1, 16, 1, 9, 1, 16, 1, 10, 16, 9, 1, 16, 81, 1, 1, 23, 2, 4, 1, 2, 2, 6, 1, 8, 1, 9, 3, 9, 2, 2, 8, 2, 7, 2, 1, 7, 1, 8, 16, 1, 2, 8, 63, 2, 2, 1, 2, 9, 16, 8, 1, 99, 18, 1, 1, 1, 1, 8, 1, 8, 9, 17, 1, 16, 8, 3, 3, 6, 8, 1, 5, 1, 1, 1, 2, 1, 1, 2, 1, 1, 9, 9, 1, 9, 1, 1, 1, 7, 2, 16, 8, 8, 6, 8, 8, 7, 7, 16, 1, 2, 1, 9, 16, 1, 6, 16, 1, 1, 2, 1, 22, 8, 8, 8, 35, 8, 18, 16, 1, 1, 7, 8, 8, 1, 2, 2, 16, 7, 1, 1, 8, 3, 16, 6, 16, 2, 2, 1, 6, 16, 8, 1, 2, 3, 1, 22, 2, 1, 4, 1, 1, 1, 1, 2, 2, 1, 1, 1, 8, 6, 16, 3, 134, 2, 1, 3, 8, 22, 9, 16, 3, 1, 1, 3, 12, 16, 1, 1, 2, 9, 7, 1, 16, 1, 1, 1, 1, 14, 1, 9, 1, 1, 8, 16, 13, 1, 8, 1, 5, 1, 1, 5, 3, 1, 16, 6, 4, 1, 13, 9, 1, 6, 3, 1, 255, 8, 8, 7, 16, 2, 1, 16, 1, 7, 16, 1, 8, 2, 8, 1, 16, 9, 42, 2, 16, 8, 16, 2, 2, 1, 12, 9, 9, 1, 42, 9, 6, 9, 8, 14, 2, 1, 22, 10, 3, 8, 1, 2, 1, 1, 3, 3, 1, 29, 1, 1, 11, 1, 3, 1, 49, 1, 1, 1, 2, 1, 16, 9, 1, 6, 1, 1, 1, 16, 16, 8, 1, 9, 2, 1, 2, 16, 1, 1, 1, 1, 16, 1, 1, 1, 13, 1, 1, 1, 8, 8, 1, 16, 1, 4, 1, 9, 2, 145, 3, 8, 7, 1, 16, 1, 12, 1, 1, 1, 7, 1, 6, 1, 11, 2, 11, 1, 1, 3, 1, 2, 1, 1, 9, 4, 8, 16, 2, 17, 2, 16, 6, 8, 16, 8, 1, 1, 8, 6, 8, 5, 145, 1, 3, 5, 1, 1, 1, 1, 8, 23, 6, 1, 2, 3, 2, 2, 58, 16, 1, 1, 1, 9, 3, 1, 2, 14, 2, 7, 16, 8, 1, 6, 1, 4, 7, 3, 3, 1, 2, 14, 2, 8, 1, 1, 1, 1, 1, 3, 6, 1, 1, 60, 1, 9, 1, 16, 1, 8, 1, 16, 3, 50]
[INFO ] fr.inria.astor.approaches.jgenprog.JGenProg.showResults(JGenProg.java:337) - 
total Patch Attempts (0): []
[INFO ] fr.inria.astor.approaches.jgenprog.JGenProg.showResults(JGenProg.java:339) - 
successful_ing_attempts_by_patch: []
[INFO ] fr.inria.astor.approaches.jgenprog.JGenProg.showResults(JGenProg.java:340) - 
failing_ing_attempts_by_patch: [(pv:2,at:8), (pv:3,at:1), (pv:4,at:1), (pv:5,at:1), (pv:6,at:1), (pv:7,at:6), (pv:8,at:6), (pv:9,at:1), (pv:10,at:1), (pv:11,at:1), (pv:12,at:1), (pv:13,at:8), (pv:14,at:8), (pv:15,at:1), (pv:16,at:8), (pv:17,at:1), (pv:18,at:8), (pv:19,at:8), (pv:20,at:1), (pv:21,at:1), (pv:22,at:8), (pv:23,at:1), (pv:24,at:4), (pv:25,at:1), (pv:26,at:22), (pv:27,at:8), (pv:28,at:1), (pv:29,at:1), (pv:30,at:13), (pv:31,at:63), (pv:32,at:63), (pv:33,at:2), (pv:34,at:8), (pv:35,at:1), (pv:36,at:9), (pv:37,at:42), (pv:38,at:8), (pv:39,at:6), (pv:40,at:3), (pv:41,at:1), (pv:42,at:3), (pv:43,at:8), (pv:44,at:1), (pv:45,at:6), (pv:46,at:1), (pv:47,at:8), (pv:48,at:42), (pv:49,at:1), (pv:50,at:6), (pv:51,at:1), (pv:52,at:8), (pv:53,at:1), (pv:54,at:16), (pv:55,at:5), (pv:56,at:1), (pv:57,at:6), (pv:58,at:1), (pv:59,at:1), (pv:60,at:1), (pv:61,at:1), (pv:62,at:1), (pv:63,at:8), (pv:64,at:9), (pv:65,at:2), (pv:66,at:8), (pv:67,at:3), (pv:68,at:8), (pv:69,at:8), (pv:70,at:22), (pv:71,at:1), (pv:72,at:7), (pv:73,at:5), (pv:74,at:8), (pv:75,at:1), (pv:76,at:8), (pv:77,at:1), (pv:78,at:8), (pv:79,at:1), (pv:80,at:16), (pv:81,at:16), (pv:82,at:3), (pv:83,at:8), (pv:84,at:1), (pv:85,at:8), (pv:86,at:2), (pv:87,at:2), (pv:88,at:8), (pv:89,at:1), (pv:90,at:16), (pv:91,at:9), (pv:92,at:8), (pv:93,at:1), (pv:94,at:6), (pv:95,at:3), (pv:96,at:49), (pv:97,at:2), (pv:98,at:2), (pv:99,at:8), (pv:100,at:1), (pv:101,at:1), (pv:102,at:9), (pv:103,at:9), (pv:104,at:1), (pv:105,at:3), (pv:106,at:2), (pv:107,at:1), (pv:108,at:12), (pv:109,at:32), (pv:110,at:8), (pv:111,at:70), (pv:112,at:9), (pv:113,at:1), (pv:114,at:8), (pv:115,at:8), (pv:116,at:1), (pv:117,at:6), (pv:118,at:23), (pv:119,at:8), (pv:120,at:1), (pv:121,at:2), (pv:122,at:1), (pv:123,at:2), (pv:124,at:6), (pv:125,at:1), (pv:126,at:1), (pv:127,at:8), (pv:128,at:8), (pv:129,at:6), (pv:130,at:2), (pv:131,at:5), (pv:132,at:3), (pv:133,at:6), (pv:134,at:8), (pv:135,at:12), (pv:136,at:6), (pv:137,at:54), (pv:138,at:8), (pv:139,at:1), (pv:140,at:2), (pv:141,at:9), (pv:142,at:2), (pv:143,at:8), (pv:144,at:1), (pv:145,at:2), (pv:146,at:8), (pv:147,at:8), (pv:148,at:49), (pv:149,at:8), (pv:150,at:12), (pv:151,at:8), (pv:152,at:8), (pv:153,at:16), (pv:154,at:1), (pv:155,at:38), (pv:156,at:8), (pv:157,at:6), (pv:158,at:2), (pv:159,at:7), (pv:160,at:8), (pv:161,at:8), (pv:162,at:1), (pv:163,at:1), (pv:164,at:1), (pv:165,at:1), (pv:166,at:81), (pv:167,at:8), (pv:168,at:2), (pv:169,at:1), (pv:170,at:2), (pv:171,at:2), (pv:172,at:3), (pv:173,at:7), (pv:174,at:8), (pv:175,at:8), (pv:176,at:8), (pv:177,at:1), (pv:178,at:1), (pv:179,at:8), (pv:180,at:9), (pv:181,at:6), (pv:182,at:16), (pv:183,at:8), (pv:184,at:1), (pv:185,at:1), (pv:186,at:2), (pv:187,at:12), (pv:188,at:2), (pv:189,at:1), (pv:190,at:6), (pv:191,at:8), (pv:192,at:8), (pv:193,at:8), (pv:194,at:1), (pv:195,at:9), (pv:196,at:1), (pv:197,at:1), (pv:198,at:8), (pv:199,at:8), (pv:200,at:8), (pv:201,at:8), (pv:202,at:8), (pv:203,at:1), (pv:204,at:1), (pv:205,at:1), (pv:206,at:1), (pv:207,at:38), (pv:208,at:1), (pv:209,at:8), (pv:210,at:28), (pv:211,at:8), (pv:212,at:6), (pv:213,at:9), (pv:214,at:8), (pv:215,at:8), (pv:216,at:8), (pv:217,at:99), (pv:218,at:1), (pv:219,at:8), (pv:220,at:1), (pv:221,at:1), (pv:222,at:1), (pv:223,at:8), (pv:224,at:1), (pv:225,at:3), (pv:226,at:1), (pv:227,at:9), (pv:228,at:12), (pv:229,at:1), (pv:230,at:1), (pv:231,at:1), (pv:232,at:8), (pv:233,at:2), (pv:234,at:6), (pv:235,at:1), (pv:236,at:8), (pv:237,at:1), (pv:238,at:1), (pv:239,at:1), (pv:240,at:79), (pv:241,at:1), (pv:242,at:2), (pv:243,at:6), (pv:244,at:1), (pv:245,at:1), (pv:246,at:1), (pv:247,at:1), (pv:248,at:1), (pv:249,at:6), (pv:250,at:6), (pv:251,at:1), (pv:252,at:16), (pv:253,at:8), (pv:254,at:1), (pv:255,at:2), (pv:256,at:2), (pv:257,at:1), (pv:258,at:8), (pv:259,at:1), (pv:260,at:8), (pv:261,at:16), (pv:262,at:2), (pv:263,at:2), (pv:264,at:8), (pv:265,at:2), (pv:266,at:8), (pv:267,at:8), (pv:268,at:2), (pv:269,at:3), (pv:270,at:2), (pv:271,at:1), (pv:272,at:8), (pv:273,at:2), (pv:274,at:1), (pv:275,at:1), (pv:276,at:1), (pv:277,at:1), (pv:278,at:6), (pv:279,at:8), (pv:280,at:1), (pv:281,at:8), (pv:282,at:8), (pv:283,at:5), (pv:284,at:1), (pv:285,at:8), (pv:286,at:1), (pv:287,at:1), (pv:288,at:2), (pv:289,at:8), (pv:290,at:9), (pv:291,at:8), (pv:292,at:22), (pv:293,at:1), (pv:294,at:1), (pv:295,at:2), (pv:296,at:29), (pv:297,at:8), (pv:298,at:1), (pv:299,at:9), (pv:300,at:2), (pv:301,at:8), (pv:302,at:9), (pv:303,at:11), (pv:304,at:1), (pv:305,at:16), (pv:306,at:32), (pv:307,at:1), (pv:308,at:1), (pv:309,at:1), (pv:310,at:8), (pv:311,at:8), (pv:312,at:8), (pv:313,at:2), (pv:314,at:6), (pv:315,at:1), (pv:316,at:16), (pv:317,at:1), (pv:318,at:3), (pv:319,at:8), (pv:320,at:1), (pv:321,at:1), (pv:322,at:1), (pv:323,at:4), (pv:324,at:2), (pv:325,at:2), (pv:326,at:1), (pv:327,at:3), (pv:328,at:8), (pv:329,at:8), (pv:330,at:8), (pv:331,at:1), (pv:332,at:8), (pv:333,at:1), (pv:334,at:1), (pv:335,at:1), (pv:336,at:1), (pv:337,at:9), (pv:338,at:1), (pv:339,at:1), (pv:340,at:6), (pv:341,at:8), (pv:342,at:2), (pv:343,at:8), (pv:344,at:2), (pv:345,at:1), (pv:346,at:1), (pv:347,at:1), (pv:348,at:18), (pv:349,at:1), (pv:350,at:8), (pv:351,at:8), (pv:352,at:16), (pv:353,at:8), (pv:354,at:8), (pv:355,at:2), (pv:356,at:8), (pv:357,at:1), (pv:358,at:3), (pv:359,at:8), (pv:360,at:6), (pv:361,at:8), (pv:362,at:8), (pv:363,at:8), (pv:364,at:16), (pv:365,at:3), (pv:366,at:1), (pv:367,at:16), (pv:368,at:8), (pv:369,at:1), (pv:370,at:1), (pv:371,at:4), (pv:372,at:12), (pv:373,at:1), (pv:374,at:3), (pv:375,at:6), (pv:376,at:8), (pv:377,at:3), (pv:378,at:1), (pv:379,at:1), (pv:380,at:8), (pv:381,at:1), (pv:382,at:1), (pv:383,at:1), (pv:384,at:1), (pv:385,at:6), (pv:386,at:8), (pv:387,at:1), (pv:388,at:1), (pv:389,at:3), (pv:390,at:1), (pv:391,at:1), (pv:392,at:1), (pv:393,at:1), (pv:394,at:9), (pv:395,at:8), (pv:396,at:37), (pv:397,at:1), (pv:398,at:2), (pv:399,at:6), (pv:400,at:9), (pv:401,at:1), (pv:402,at:1), (pv:403,at:8), (pv:404,at:2), (pv:405,at:1), (pv:406,at:1), (pv:407,at:1), (pv:408,at:8), (pv:409,at:1), (pv:410,at:8), (pv:411,at:2), (pv:412,at:2), (pv:413,at:8), (pv:414,at:6), (pv:415,at:1), (pv:416,at:2), (pv:417,at:1), (pv:418,at:11), (pv:419,at:2), (pv:420,at:2), (pv:421,at:1), (pv:422,at:79), (pv:423,at:2), (pv:424,at:16), (pv:425,at:2), (pv:426,at:1), (pv:427,at:1), (pv:428,at:8), (pv:429,at:6), (pv:430,at:55), (pv:431,at:1), (pv:432,at:2), (pv:433,at:4), (pv:434,at:1), (pv:435,at:6), (pv:436,at:1), (pv:437,at:16), (pv:438,at:1), (pv:439,at:2), (pv:440,at:8), (pv:441,at:8), (pv:442,at:15), (pv:443,at:1), (pv:444,at:1), (pv:445,at:5), (pv:446,at:1), (pv:447,at:1), (pv:448,at:2), (pv:449,at:8), (pv:450,at:1), (pv:451,at:2), (pv:452,at:1), (pv:453,at:16), (pv:454,at:1), (pv:455,at:2), (pv:456,at:8), (pv:457,at:35), (pv:458,at:1), (pv:459,at:8), (pv:460,at:1), (pv:461,at:3), (pv:462,at:10), (pv:463,at:1), (pv:464,at:8), (pv:465,at:2), (pv:466,at:1), (pv:467,at:9), (pv:468,at:28), (pv:469,at:2), (pv:470,at:2), (pv:471,at:17), (pv:472,at:3), (pv:473,at:2), (pv:474,at:6), (pv:475,at:1), (pv:476,at:6), (pv:477,at:8), (pv:478,at:8), (pv:479,at:16), (pv:480,at:8), (pv:481,at:1), (pv:482,at:1), (pv:483,at:9), (pv:484,at:8), (pv:485,at:22), (pv:486,at:78), (pv:487,at:2), (pv:488,at:16), (pv:489,at:4), (pv:490,at:16), (pv:491,at:1), (pv:492,at:8), (pv:493,at:16), (pv:494,at:8), (pv:495,at:1), (pv:496,at:1), (pv:497,at:1), (pv:498,at:11), (pv:499,at:59), (pv:500,at:8), (pv:501,at:8), (pv:502,at:16), (pv:503,at:2), (pv:504,at:8), (pv:505,at:1), (pv:506,at:16), (pv:507,at:1), (pv:508,at:1), (pv:509,at:1), (pv:510,at:1), (pv:511,at:1), (pv:512,at:1), (pv:513,at:1), (pv:514,at:8), (pv:515,at:1), (pv:516,at:8), (pv:517,at:28), (pv:518,at:8), (pv:519,at:1), (pv:520,at:1), (pv:521,at:1), (pv:522,at:3), (pv:523,at:1), (pv:524,at:1), (pv:525,at:7), (pv:526,at:8), (pv:527,at:8), (pv:528,at:16), (pv:529,at:2), (pv:530,at:2), (pv:531,at:8), (pv:532,at:2), (pv:533,at:8), (pv:534,at:1), (pv:535,at:2), (pv:536,at:8), (pv:537,at:6), (pv:538,at:5), (pv:539,at:2), (pv:540,at:1), (pv:541,at:1), (pv:542,at:1), (pv:543,at:1), (pv:544,at:1), (pv:545,at:1), (pv:546,at:8), (pv:547,at:1), (pv:548,at:3), (pv:549,at:1), (pv:550,at:3), (pv:551,at:16), (pv:552,at:2), (pv:553,at:16), (pv:554,at:6), (pv:555,at:12), (pv:556,at:9), (pv:557,at:6), (pv:558,at:41), (pv:559,at:106), (pv:560,at:9), (pv:561,at:1), (pv:562,at:3), (pv:563,at:2), (pv:564,at:1), (pv:565,at:6), (pv:566,at:8), (pv:567,at:2), (pv:568,at:1), (pv:569,at:16), (pv:570,at:1), (pv:571,at:3), (pv:572,at:1), (pv:573,at:2), (pv:574,at:8), (pv:575,at:2), (pv:576,at:11), (pv:577,at:2), (pv:578,at:1), (pv:579,at:5), (pv:580,at:3), (pv:581,at:6), (pv:582,at:3), (pv:583,at:1), (pv:584,at:6), (pv:585,at:16), (pv:586,at:8), (pv:587,at:145), (pv:588,at:2), (pv:589,at:2), (pv:590,at:1), (pv:591,at:6), (pv:592,at:1), (pv:593,at:1), (pv:594,at:1), (pv:595,at:8), (pv:596,at:1), (pv:597,at:11), (pv:598,at:2), (pv:599,at:1), (pv:600,at:8), (pv:601,at:8), (pv:602,at:2), (pv:603,at:7), (pv:604,at:16), (pv:605,at:1), (pv:606,at:7), (pv:607,at:4), (pv:608,at:2), (pv:609,at:3), (pv:610,at:8), (pv:611,at:16), (pv:612,at:8), (pv:613,at:22), (pv:614,at:16), (pv:615,at:8), (pv:616,at:3), (pv:617,at:16), (pv:618,at:8), (pv:619,at:22), (pv:620,at:1), (pv:621,at:8), (pv:622,at:6), (pv:623,at:8), (pv:624,at:16), (pv:625,at:37), (pv:626,at:1), (pv:627,at:8), (pv:628,at:16), (pv:629,at:2), (pv:630,at:9), (pv:631,at:1), (pv:632,at:1), (pv:633,at:3), (pv:634,at:1), (pv:635,at:1), (pv:636,at:3), (pv:637,at:9), (pv:638,at:6), (pv:639,at:16), (pv:640,at:8), (pv:641,at:141), (pv:642,at:1), (pv:643,at:8), (pv:644,at:8), (pv:645,at:1), (pv:646,at:38), (pv:647,at:1), (pv:648,at:32), (pv:649,at:2), (pv:650,at:1), (pv:651,at:16), (pv:652,at:8), (pv:653,at:1), (pv:654,at:8), (pv:655,at:2), (pv:656,at:6), (pv:657,at:8), (pv:658,at:1), (pv:659,at:9), (pv:660,at:3), (pv:661,at:2), (pv:662,at:7), (pv:663,at:2), (pv:664,at:1), (pv:665,at:1), (pv:666,at:2), (pv:667,at:28), (pv:668,at:1), (pv:669,at:1), (pv:670,at:1), (pv:671,at:1), (pv:672,at:8), (pv:673,at:6), (pv:674,at:2), (pv:675,at:1), (pv:676,at:3), (pv:677,at:2), (pv:678,at:16), (pv:679,at:12), (pv:680,at:8), (pv:681,at:2), (pv:682,at:1), (pv:683,at:6), (pv:684,at:3), (pv:685,at:3), (pv:686,at:11), (pv:687,at:1), (pv:688,at:3), (pv:689,at:4), (pv:690,at:2), (pv:691,at:1), (pv:692,at:1), (pv:693,at:17), (pv:694,at:9), (pv:695,at:11), (pv:696,at:2), (pv:697,at:1), (pv:698,at:8), (pv:699,at:9), (pv:700,at:7), (pv:701,at:1), (pv:702,at:1), (pv:703,at:4), (pv:704,at:8), (pv:705,at:8), (pv:706,at:8), (pv:707,at:3), (pv:708,at:1), (pv:709,at:16), (pv:710,at:1), (pv:711,at:9), (pv:712,at:1), (pv:713,at:16), (pv:714,at:1), (pv:715,at:10), (pv:716,at:16), (pv:717,at:9), (pv:718,at:1), (pv:719,at:16), (pv:720,at:81), (pv:721,at:1), (pv:722,at:1), (pv:723,at:23), (pv:724,at:2), (pv:725,at:4), (pv:726,at:1), (pv:727,at:2), (pv:728,at:2), (pv:729,at:6), (pv:730,at:1), (pv:731,at:8), (pv:732,at:1), (pv:733,at:9), (pv:734,at:3), (pv:735,at:9), (pv:736,at:2), (pv:737,at:2), (pv:738,at:8), (pv:739,at:2), (pv:740,at:7), (pv:741,at:2), (pv:742,at:1), (pv:743,at:7), (pv:744,at:1), (pv:745,at:8), (pv:746,at:16), (pv:747,at:1), (pv:748,at:2), (pv:749,at:8), (pv:750,at:63), (pv:751,at:2), (pv:752,at:2), (pv:753,at:1), (pv:754,at:2), (pv:755,at:9), (pv:756,at:16), (pv:757,at:8), (pv:758,at:1), (pv:759,at:99), (pv:760,at:18), (pv:761,at:1), (pv:762,at:1), (pv:763,at:1), (pv:764,at:1), (pv:765,at:8), (pv:766,at:1), (pv:767,at:8), (pv:768,at:9), (pv:769,at:17), (pv:770,at:1), (pv:771,at:16), (pv:772,at:8), (pv:773,at:3), (pv:774,at:3), (pv:775,at:6), (pv:776,at:8), (pv:777,at:1), (pv:778,at:5), (pv:779,at:1), (pv:780,at:1), (pv:781,at:1), (pv:782,at:2), (pv:783,at:1), (pv:784,at:1), (pv:785,at:2), (pv:786,at:1), (pv:787,at:1), (pv:788,at:9), (pv:789,at:9), (pv:790,at:1), (pv:791,at:9), (pv:792,at:1), (pv:793,at:1), (pv:794,at:1), (pv:795,at:7), (pv:796,at:2), (pv:797,at:16), (pv:798,at:8), (pv:799,at:8), (pv:800,at:6), (pv:801,at:8), (pv:802,at:8), (pv:803,at:7), (pv:804,at:7), (pv:805,at:16), (pv:806,at:1), (pv:807,at:2), (pv:808,at:1), (pv:809,at:9), (pv:810,at:16), (pv:811,at:1), (pv:812,at:6), (pv:813,at:16), (pv:814,at:1), (pv:815,at:1), (pv:816,at:2), (pv:817,at:1), (pv:818,at:22), (pv:819,at:8), (pv:820,at:8), (pv:821,at:8), (pv:822,at:35), (pv:823,at:8), (pv:824,at:18), (pv:825,at:16), (pv:826,at:1), (pv:827,at:1), (pv:828,at:7), (pv:829,at:8), (pv:830,at:8), (pv:831,at:1), (pv:832,at:2), (pv:833,at:2), (pv:834,at:16), (pv:835,at:7), (pv:836,at:1), (pv:837,at:1), (pv:838,at:8), (pv:839,at:3), (pv:840,at:16), (pv:841,at:6), (pv:842,at:16), (pv:843,at:2), (pv:844,at:2), (pv:845,at:1), (pv:846,at:6), (pv:847,at:16), (pv:848,at:8), (pv:849,at:1), (pv:850,at:2), (pv:851,at:3), (pv:852,at:1), (pv:853,at:22), (pv:854,at:2), (pv:855,at:1), (pv:856,at:4), (pv:857,at:1), (pv:858,at:1), (pv:859,at:1), (pv:860,at:1), (pv:861,at:2), (pv:862,at:2), (pv:863,at:1), (pv:864,at:1), (pv:865,at:1), (pv:866,at:8), (pv:867,at:6), (pv:868,at:16), (pv:869,at:3), (pv:870,at:134), (pv:871,at:2), (pv:872,at:1), (pv:873,at:3), (pv:874,at:8), (pv:875,at:22), (pv:876,at:9), (pv:877,at:16), (pv:878,at:3), (pv:879,at:1), (pv:880,at:1), (pv:881,at:3), (pv:882,at:12), (pv:883,at:16), (pv:884,at:1), (pv:885,at:1), (pv:886,at:2), (pv:887,at:9), (pv:888,at:7), (pv:889,at:1), (pv:890,at:16), (pv:891,at:1), (pv:892,at:1), (pv:893,at:1), (pv:894,at:1), (pv:895,at:14), (pv:896,at:1), (pv:897,at:9), (pv:898,at:1), (pv:899,at:1), (pv:900,at:8), (pv:901,at:16), (pv:902,at:13), (pv:903,at:1), (pv:904,at:8), (pv:905,at:1), (pv:906,at:5), (pv:907,at:1), (pv:908,at:1), (pv:909,at:5), (pv:910,at:3), (pv:911,at:1), (pv:912,at:16), (pv:913,at:6), (pv:914,at:4), (pv:915,at:1), (pv:916,at:13), (pv:917,at:9), (pv:918,at:1), (pv:919,at:6), (pv:920,at:3), (pv:921,at:1), (pv:922,at:255), (pv:923,at:8), (pv:924,at:8), (pv:925,at:7), (pv:926,at:16), (pv:927,at:2), (pv:928,at:1), (pv:929,at:16), (pv:930,at:1), (pv:931,at:7), (pv:932,at:16), (pv:933,at:1), (pv:934,at:8), (pv:935,at:2), (pv:936,at:8), (pv:937,at:1), (pv:938,at:16), (pv:939,at:9), (pv:940,at:42), (pv:941,at:2), (pv:942,at:16), (pv:943,at:8), (pv:944,at:16), (pv:945,at:2), (pv:946,at:2), (pv:947,at:1), (pv:948,at:12), (pv:949,at:9), (pv:950,at:9), (pv:951,at:1), (pv:952,at:42), (pv:953,at:9), (pv:954,at:6), (pv:955,at:9), (pv:956,at:8), (pv:957,at:14), (pv:958,at:2), (pv:959,at:1), (pv:960,at:22), (pv:961,at:10), (pv:962,at:3), (pv:963,at:8), (pv:964,at:1), (pv:965,at:2), (pv:966,at:1), (pv:967,at:1), (pv:968,at:3), (pv:969,at:3), (pv:970,at:1), (pv:971,at:29), (pv:972,at:1), (pv:973,at:1), (pv:974,at:11), (pv:975,at:1), (pv:976,at:3), (pv:977,at:1), (pv:978,at:49), (pv:979,at:1), (pv:980,at:1), (pv:981,at:1), (pv:982,at:2), (pv:983,at:1), (pv:984,at:16), (pv:985,at:9), (pv:986,at:1), (pv:987,at:6), (pv:988,at:1), (pv:989,at:1), (pv:990,at:1), (pv:991,at:16), (pv:992,at:16), (pv:993,at:8), (pv:994,at:1), (pv:995,at:9), (pv:996,at:2), (pv:997,at:1), (pv:998,at:2), (pv:999,at:16), (pv:1000,at:1), (pv:1001,at:1), (pv:1002,at:1), (pv:1003,at:1), (pv:1004,at:16), (pv:1005,at:1), (pv:1006,at:1), (pv:1007,at:1), (pv:1008,at:13), (pv:1009,at:1), (pv:1010,at:1), (pv:1011,at:1), (pv:1012,at:8), (pv:1013,at:8), (pv:1014,at:1), (pv:1015,at:16), (pv:1016,at:1), (pv:1017,at:4), (pv:1018,at:1), (pv:1019,at:9), (pv:1020,at:2), (pv:1021,at:145), (pv:1022,at:3), (pv:1023,at:8), (pv:1024,at:7), (pv:1025,at:1), (pv:1026,at:16), (pv:1027,at:1), (pv:1028,at:12), (pv:1029,at:1), (pv:1030,at:1), (pv:1031,at:1), (pv:1032,at:7), (pv:1033,at:1), (pv:1034,at:6), (pv:1035,at:1), (pv:1036,at:11), (pv:1037,at:2), (pv:1038,at:11), (pv:1039,at:1), (pv:1040,at:1), (pv:1041,at:3), (pv:1042,at:1), (pv:1043,at:2), (pv:1044,at:1), (pv:1045,at:1), (pv:1046,at:9), (pv:1047,at:4), (pv:1048,at:8), (pv:1049,at:16), (pv:1050,at:2), (pv:1051,at:17), (pv:1052,at:2), (pv:1053,at:16), (pv:1054,at:6), (pv:1055,at:8), (pv:1056,at:16), (pv:1057,at:8), (pv:1058,at:1), (pv:1059,at:1), (pv:1060,at:8), (pv:1061,at:6), (pv:1062,at:8), (pv:1063,at:5), (pv:1064,at:145), (pv:1065,at:1), (pv:1066,at:3), (pv:1067,at:5), (pv:1068,at:1), (pv:1069,at:1), (pv:1070,at:1), (pv:1071,at:1), (pv:1072,at:8), (pv:1073,at:23), (pv:1074,at:6), (pv:1075,at:1), (pv:1076,at:2), (pv:1077,at:3), (pv:1078,at:2), (pv:1079,at:2), (pv:1080,at:58), (pv:1081,at:16), (pv:1082,at:1), (pv:1083,at:1), (pv:1084,at:1), (pv:1085,at:9), (pv:1086,at:3), (pv:1087,at:1), (pv:1088,at:2), (pv:1089,at:14), (pv:1090,at:2), (pv:1091,at:7), (pv:1092,at:16), (pv:1093,at:8), (pv:1094,at:1), (pv:1095,at:6), (pv:1096,at:1), (pv:1097,at:4), (pv:1098,at:7), (pv:1099,at:3), (pv:1100,at:3), (pv:1101,at:1), (pv:1102,at:2), (pv:1103,at:14), (pv:1104,at:2), (pv:1105,at:8), (pv:1106,at:1), (pv:1107,at:1), (pv:1108,at:1), (pv:1109,at:1), (pv:1110,at:1), (pv:1111,at:3), (pv:1112,at:6), (pv:1113,at:1), (pv:1114,at:1), (pv:1115,at:60), (pv:1116,at:1), (pv:1117,at:9), (pv:1118,at:1), (pv:1119,at:16), (pv:1120,at:1), (pv:1121,at:8), (pv:1122,at:1), (pv:1123,at:16), (pv:1124,at:3), (pv:1125,at:50)]
[INFO ] fr.inria.astor.approaches.jgenprog.JGenProg.showResults(JGenProg.java:342) - 
pvariants_with_transformed_ingredients: [(pv:2,at:8), (pv:3,at:1), (pv:4,at:1), (pv:5,at:1), (pv:6,at:1), (pv:7,at:6), (pv:8,at:6), (pv:9,at:1), (pv:10,at:1), (pv:11,at:1), (pv:12,at:1), (pv:13,at:8), (pv:14,at:8), (pv:15,at:1), (pv:16,at:8), (pv:17,at:1), (pv:18,at:8), (pv:19,at:8), (pv:20,at:1), (pv:21,at:1), (pv:22,at:8), (pv:23,at:1), (pv:24,at:4), (pv:25,at:1), (pv:26,at:22), (pv:27,at:8), (pv:28,at:1), (pv:29,at:1), (pv:30,at:13), (pv:31,at:63), (pv:32,at:63), (pv:33,at:2), (pv:34,at:8), (pv:35,at:1), (pv:36,at:9), (pv:37,at:42), (pv:38,at:8), (pv:39,at:6), (pv:40,at:3), (pv:41,at:1), (pv:42,at:3), (pv:43,at:8), (pv:44,at:1), (pv:45,at:6), (pv:46,at:1), (pv:47,at:8), (pv:48,at:42), (pv:49,at:1), (pv:50,at:6), (pv:51,at:1), (pv:52,at:8), (pv:53,at:1), (pv:54,at:16), (pv:55,at:5), (pv:56,at:1), (pv:57,at:6), (pv:58,at:1), (pv:59,at:1), (pv:60,at:1), (pv:61,at:1), (pv:62,at:1), (pv:63,at:8), (pv:64,at:9), (pv:65,at:2), (pv:66,at:8), (pv:67,at:3), (pv:68,at:8), (pv:69,at:8), (pv:70,at:22), (pv:71,at:1), (pv:72,at:7), (pv:73,at:5), (pv:74,at:8), (pv:75,at:1), (pv:76,at:8), (pv:77,at:1), (pv:78,at:8), (pv:79,at:1), (pv:80,at:16), (pv:81,at:16), (pv:82,at:3), (pv:83,at:8), (pv:84,at:1), (pv:85,at:8), (pv:86,at:2), (pv:87,at:2), (pv:88,at:8), (pv:89,at:1), (pv:90,at:16), (pv:91,at:9), (pv:92,at:8), (pv:93,at:1), (pv:94,at:6), (pv:95,at:3), (pv:96,at:49), (pv:97,at:2), (pv:98,at:2), (pv:99,at:8), (pv:100,at:1), (pv:101,at:1), (pv:102,at:9), (pv:103,at:9), (pv:104,at:1), (pv:105,at:3), (pv:106,at:2), (pv:107,at:1), (pv:108,at:12), (pv:109,at:32), (pv:110,at:8), (pv:111,at:70), (pv:112,at:9), (pv:113,at:1), (pv:114,at:8), (pv:115,at:8), (pv:116,at:1), (pv:117,at:6), (pv:118,at:23), (pv:119,at:8), (pv:120,at:1), (pv:121,at:2), (pv:122,at:1), (pv:123,at:2), (pv:124,at:6), (pv:125,at:1), (pv:126,at:1), (pv:127,at:8), (pv:128,at:8), (pv:129,at:6), (pv:130,at:2), (pv:131,at:5), (pv:132,at:3), (pv:133,at:6), (pv:134,at:8), (pv:135,at:12), (pv:136,at:6), (pv:137,at:54), (pv:138,at:8), (pv:139,at:1), (pv:140,at:2), (pv:141,at:9), (pv:142,at:2), (pv:143,at:8), (pv:144,at:1), (pv:145,at:2), (pv:146,at:8), (pv:147,at:8), (pv:148,at:49), (pv:149,at:8), (pv:150,at:12), (pv:151,at:8), (pv:152,at:8), (pv:153,at:16), (pv:154,at:1), (pv:155,at:38), (pv:156,at:8), (pv:157,at:6), (pv:158,at:2), (pv:159,at:7), (pv:160,at:8), (pv:161,at:8), (pv:162,at:1), (pv:163,at:1), (pv:164,at:1), (pv:165,at:1), (pv:166,at:81), (pv:167,at:8), (pv:168,at:2), (pv:169,at:1), (pv:170,at:2), (pv:171,at:2), (pv:172,at:3), (pv:173,at:7), (pv:174,at:8), (pv:175,at:8), (pv:176,at:8), (pv:177,at:1), (pv:178,at:1), (pv:179,at:8), (pv:180,at:9), (pv:181,at:6), (pv:182,at:16), (pv:183,at:8), (pv:184,at:1), (pv:185,at:1), (pv:186,at:2), (pv:187,at:12), (pv:188,at:2), (pv:189,at:1), (pv:190,at:6), (pv:191,at:8), (pv:192,at:8), (pv:193,at:8), (pv:194,at:1), (pv:195,at:9), (pv:196,at:1), (pv:197,at:1), (pv:198,at:8), (pv:199,at:8), (pv:200,at:8), (pv:201,at:8), (pv:202,at:8), (pv:203,at:1), (pv:204,at:1), (pv:205,at:1), (pv:206,at:1), (pv:207,at:38), (pv:208,at:1), (pv:209,at:8), (pv:210,at:28), (pv:211,at:8), (pv:212,at:6), (pv:213,at:9), (pv:214,at:8), (pv:215,at:8), (pv:216,at:8), (pv:217,at:99), (pv:218,at:1), (pv:219,at:8), (pv:220,at:1), (pv:221,at:1), (pv:222,at:1), (pv:223,at:8), (pv:224,at:1), (pv:225,at:3), (pv:226,at:1), (pv:227,at:9), (pv:228,at:12), (pv:229,at:1), (pv:230,at:1), (pv:231,at:1), (pv:232,at:8), (pv:233,at:2), (pv:234,at:6), (pv:235,at:1), (pv:236,at:8), (pv:237,at:1), (pv:238,at:1), (pv:239,at:1), (pv:240,at:79), (pv:241,at:1), (pv:242,at:2), (pv:243,at:6), (pv:244,at:1), (pv:245,at:1), (pv:246,at:1), (pv:247,at:1), (pv:248,at:1), (pv:249,at:6), (pv:250,at:6), (pv:251,at:1), (pv:252,at:16), (pv:253,at:8), (pv:254,at:1), (pv:255,at:2), (pv:256,at:2), (pv:257,at:1), (pv:258,at:8), (pv:259,at:1), (pv:260,at:8), (pv:261,at:16), (pv:262,at:2), (pv:263,at:2), (pv:264,at:8), (pv:265,at:2), (pv:266,at:8), (pv:267,at:8), (pv:268,at:2), (pv:269,at:3), (pv:270,at:2), (pv:271,at:1), (pv:272,at:8), (pv:273,at:2), (pv:274,at:1), (pv:275,at:1), (pv:276,at:1), (pv:277,at:1), (pv:278,at:6), (pv:279,at:8), (pv:280,at:1), (pv:281,at:8), (pv:282,at:8), (pv:283,at:5), (pv:284,at:1), (pv:285,at:8), (pv:286,at:1), (pv:287,at:1), (pv:288,at:2), (pv:289,at:8), (pv:290,at:9), (pv:291,at:8), (pv:292,at:22), (pv:293,at:1), (pv:294,at:1), (pv:295,at:2), (pv:296,at:29), (pv:297,at:8), (pv:298,at:1), (pv:299,at:9), (pv:300,at:2), (pv:301,at:8), (pv:302,at:9), (pv:303,at:11), (pv:304,at:1), (pv:305,at:16), (pv:306,at:32), (pv:307,at:1), (pv:308,at:1), (pv:309,at:1), (pv:310,at:8), (pv:311,at:8), (pv:312,at:8), (pv:313,at:2), (pv:314,at:6), (pv:315,at:1), (pv:316,at:16), (pv:317,at:1), (pv:318,at:3), (pv:319,at:8), (pv:320,at:1), (pv:321,at:1), (pv:322,at:1), (pv:323,at:4), (pv:324,at:2), (pv:325,at:2), (pv:326,at:1), (pv:327,at:3), (pv:328,at:8), (pv:329,at:8), (pv:330,at:8), (pv:331,at:1), (pv:332,at:8), (pv:333,at:1), (pv:334,at:1), (pv:335,at:1), (pv:336,at:1), (pv:337,at:9), (pv:338,at:1), (pv:339,at:1), (pv:340,at:6), (pv:341,at:8), (pv:342,at:2), (pv:343,at:8), (pv:344,at:2), (pv:345,at:1), (pv:346,at:1), (pv:347,at:1), (pv:348,at:18), (pv:349,at:1), (pv:350,at:8), (pv:351,at:8), (pv:352,at:16), (pv:353,at:8), (pv:354,at:8), (pv:355,at:2), (pv:356,at:8), (pv:357,at:1), (pv:358,at:3), (pv:359,at:8), (pv:360,at:6), (pv:361,at:8), (pv:362,at:8), (pv:363,at:8), (pv:364,at:16), (pv:365,at:3), (pv:366,at:1), (pv:367,at:16), (pv:368,at:8), (pv:369,at:1), (pv:370,at:1), (pv:371,at:4), (pv:372,at:12), (pv:373,at:1), (pv:374,at:3), (pv:375,at:6), (pv:376,at:8), (pv:377,at:3), (pv:378,at:1), (pv:379,at:1), (pv:380,at:8), (pv:381,at:1), (pv:382,at:1), (pv:383,at:1), (pv:384,at:1), (pv:385,at:6), (pv:386,at:8), (pv:387,at:1), (pv:388,at:1), (pv:389,at:3), (pv:390,at:1), (pv:391,at:1), (pv:392,at:1), (pv:393,at:1), (pv:394,at:9), (pv:395,at:8), (pv:396,at:37), (pv:397,at:1), (pv:398,at:2), (pv:399,at:6), (pv:400,at:9), (pv:401,at:1), (pv:402,at:1), (pv:403,at:8), (pv:404,at:2), (pv:405,at:1), (pv:406,at:1), (pv:407,at:1), (pv:408,at:8), (pv:409,at:1), (pv:410,at:8), (pv:411,at:2), (pv:412,at:2), (pv:413,at:8), (pv:414,at:6), (pv:415,at:1), (pv:416,at:2), (pv:417,at:1), (pv:418,at:11), (pv:419,at:2), (pv:420,at:2), (pv:421,at:1), (pv:422,at:79), (pv:423,at:2), (pv:424,at:16), (pv:425,at:2), (pv:426,at:1), (pv:427,at:1), (pv:428,at:8), (pv:429,at:6), (pv:430,at:55), (pv:431,at:1), (pv:432,at:2), (pv:433,at:4), (pv:434,at:1), (pv:435,at:6), (pv:436,at:1), (pv:437,at:16), (pv:438,at:1), (pv:439,at:2), (pv:440,at:8), (pv:441,at:8), (pv:442,at:15), (pv:443,at:1), (pv:444,at:1), (pv:445,at:5), (pv:446,at:1), (pv:447,at:1), (pv:448,at:2), (pv:449,at:8), (pv:450,at:1), (pv:451,at:2), (pv:452,at:1), (pv:453,at:16), (pv:454,at:1), (pv:455,at:2), (pv:456,at:8), (pv:457,at:35), (pv:458,at:1), (pv:459,at:8), (pv:460,at:1), (pv:461,at:3), (pv:462,at:10), (pv:463,at:1), (pv:464,at:8), (pv:465,at:2), (pv:466,at:1), (pv:467,at:9), (pv:468,at:28), (pv:469,at:2), (pv:470,at:2), (pv:471,at:17), (pv:472,at:3), (pv:473,at:2), (pv:474,at:6), (pv:475,at:1), (pv:476,at:6), (pv:477,at:8), (pv:478,at:8), (pv:479,at:16), (pv:480,at:8), (pv:481,at:1), (pv:482,at:1), (pv:483,at:9), (pv:484,at:8), (pv:485,at:22), (pv:486,at:78), (pv:487,at:2), (pv:488,at:16), (pv:489,at:4), (pv:490,at:16), (pv:491,at:1), (pv:492,at:8), (pv:493,at:16), (pv:494,at:8), (pv:495,at:1), (pv:496,at:1), (pv:497,at:1), (pv:498,at:11), (pv:499,at:59), (pv:500,at:8), (pv:501,at:8), (pv:502,at:16), (pv:503,at:2), (pv:504,at:8), (pv:505,at:1), (pv:506,at:16), (pv:507,at:1), (pv:508,at:1), (pv:509,at:1), (pv:510,at:1), (pv:511,at:1), (pv:512,at:1), (pv:513,at:1), (pv:514,at:8), (pv:515,at:1), (pv:516,at:8), (pv:517,at:28), (pv:518,at:8), (pv:519,at:1), (pv:520,at:1), (pv:521,at:1), (pv:522,at:3), (pv:523,at:1), (pv:524,at:1), (pv:525,at:7), (pv:526,at:8), (pv:527,at:8), (pv:528,at:16), (pv:529,at:2), (pv:530,at:2), (pv:531,at:8), (pv:532,at:2), (pv:533,at:8), (pv:534,at:1), (pv:535,at:2), (pv:536,at:8), (pv:537,at:6), (pv:538,at:5), (pv:539,at:2), (pv:540,at:1), (pv:541,at:1), (pv:542,at:1), (pv:543,at:1), (pv:544,at:1), (pv:545,at:1), (pv:546,at:8), (pv:547,at:1), (pv:548,at:3), (pv:549,at:1), (pv:550,at:3), (pv:551,at:16), (pv:552,at:2), (pv:553,at:16), (pv:554,at:6), (pv:555,at:12), (pv:556,at:9), (pv:557,at:6), (pv:558,at:41), (pv:559,at:106), (pv:560,at:9), (pv:561,at:1), (pv:562,at:3), (pv:563,at:2), (pv:564,at:1), (pv:565,at:6), (pv:566,at:8), (pv:567,at:2), (pv:568,at:1), (pv:569,at:16), (pv:570,at:1), (pv:571,at:3), (pv:572,at:1), (pv:573,at:2), (pv:574,at:8), (pv:575,at:2), (pv:576,at:11), (pv:577,at:2), (pv:578,at:1), (pv:579,at:5), (pv:580,at:3), (pv:581,at:6), (pv:582,at:3), (pv:583,at:1), (pv:584,at:6), (pv:585,at:16), (pv:586,at:8), (pv:587,at:145), (pv:588,at:2), (pv:589,at:2), (pv:590,at:1), (pv:591,at:6), (pv:592,at:1), (pv:593,at:1), (pv:594,at:1), (pv:595,at:8), (pv:596,at:1), (pv:597,at:11), (pv:598,at:2), (pv:599,at:1), (pv:600,at:8), (pv:601,at:8), (pv:602,at:2), (pv:603,at:7), (pv:604,at:16), (pv:605,at:1), (pv:606,at:7), (pv:607,at:4), (pv:608,at:2), (pv:609,at:3), (pv:610,at:8), (pv:611,at:16), (pv:612,at:8), (pv:613,at:22), (pv:614,at:16), (pv:615,at:8), (pv:616,at:3), (pv:617,at:16), (pv:618,at:8), (pv:619,at:22), (pv:620,at:1), (pv:621,at:8), (pv:622,at:6), (pv:623,at:8), (pv:624,at:16), (pv:625,at:37), (pv:626,at:1), (pv:627,at:8), (pv:628,at:16), (pv:629,at:2), (pv:630,at:9), (pv:631,at:1), (pv:632,at:1), (pv:633,at:3), (pv:634,at:1), (pv:635,at:1), (pv:636,at:3), (pv:637,at:9), (pv:638,at:6), (pv:639,at:16), (pv:640,at:8), (pv:641,at:141), (pv:642,at:1), (pv:643,at:8), (pv:644,at:8), (pv:645,at:1), (pv:646,at:38), (pv:647,at:1), (pv:648,at:32), (pv:649,at:2), (pv:650,at:1), (pv:651,at:16), (pv:652,at:8), (pv:653,at:1), (pv:654,at:8), (pv:655,at:2), (pv:656,at:6), (pv:657,at:8), (pv:658,at:1), (pv:659,at:9), (pv:660,at:3), (pv:661,at:2), (pv:662,at:7), (pv:663,at:2), (pv:664,at:1), (pv:665,at:1), (pv:666,at:2), (pv:667,at:28), (pv:668,at:1), (pv:669,at:1), (pv:670,at:1), (pv:671,at:1), (pv:672,at:8), (pv:673,at:6), (pv:674,at:2), (pv:675,at:1), (pv:676,at:3), (pv:677,at:2), (pv:678,at:16), (pv:679,at:12), (pv:680,at:8), (pv:681,at:2), (pv:682,at:1), (pv:683,at:6), (pv:684,at:3), (pv:685,at:3), (pv:686,at:11), (pv:687,at:1), (pv:688,at:3), (pv:689,at:4), (pv:690,at:2), (pv:691,at:1), (pv:692,at:1), (pv:693,at:17), (pv:694,at:9), (pv:695,at:11), (pv:696,at:2), (pv:697,at:1), (pv:698,at:8), (pv:699,at:9), (pv:700,at:7), (pv:701,at:1), (pv:702,at:1), (pv:703,at:4), (pv:704,at:8), (pv:705,at:8), (pv:706,at:8), (pv:707,at:3), (pv:708,at:1), (pv:709,at:16), (pv:710,at:1), (pv:711,at:9), (pv:712,at:1), (pv:713,at:16), (pv:714,at:1), (pv:715,at:10), (pv:716,at:16), (pv:717,at:9), (pv:718,at:1), (pv:719,at:16), (pv:720,at:81), (pv:721,at:1), (pv:722,at:1), (pv:723,at:23), (pv:724,at:2), (pv:725,at:4), (pv:726,at:1), (pv:727,at:2), (pv:728,at:2), (pv:729,at:6), (pv:730,at:1), (pv:731,at:8), (pv:732,at:1), (pv:733,at:9), (pv:734,at:3), (pv:735,at:9), (pv:736,at:2), (pv:737,at:2), (pv:738,at:8), (pv:739,at:2), (pv:740,at:7), (pv:741,at:2), (pv:742,at:1), (pv:743,at:7), (pv:744,at:1), (pv:745,at:8), (pv:746,at:16), (pv:747,at:1), (pv:748,at:2), (pv:749,at:8), (pv:750,at:63), (pv:751,at:2), (pv:752,at:2), (pv:753,at:1), (pv:754,at:2), (pv:755,at:9), (pv:756,at:16), (pv:757,at:8), (pv:758,at:1), (pv:759,at:99), (pv:760,at:18), (pv:761,at:1), (pv:762,at:1), (pv:763,at:1), (pv:764,at:1), (pv:765,at:8), (pv:766,at:1), (pv:767,at:8), (pv:768,at:9), (pv:769,at:17), (pv:770,at:1), (pv:771,at:16), (pv:772,at:8), (pv:773,at:3), (pv:774,at:3), (pv:775,at:6), (pv:776,at:8), (pv:777,at:1), (pv:778,at:5), (pv:779,at:1), (pv:780,at:1), (pv:781,at:1), (pv:782,at:2), (pv:783,at:1), (pv:784,at:1), (pv:785,at:2), (pv:786,at:1), (pv:787,at:1), (pv:788,at:9), (pv:789,at:9), (pv:790,at:1), (pv:791,at:9), (pv:792,at:1), (pv:793,at:1), (pv:794,at:1), (pv:795,at:7), (pv:796,at:2), (pv:797,at:16), (pv:798,at:8), (pv:799,at:8), (pv:800,at:6), (pv:801,at:8), (pv:802,at:8), (pv:803,at:7), (pv:804,at:7), (pv:805,at:16), (pv:806,at:1), (pv:807,at:2), (pv:808,at:1), (pv:809,at:9), (pv:810,at:16), (pv:811,at:1), (pv:812,at:6), (pv:813,at:16), (pv:814,at:1), (pv:815,at:1), (pv:816,at:2), (pv:817,at:1), (pv:818,at:22), (pv:819,at:8), (pv:820,at:8), (pv:821,at:8), (pv:822,at:35), (pv:823,at:8), (pv:824,at:18), (pv:825,at:16), (pv:826,at:1), (pv:827,at:1), (pv:828,at:7), (pv:829,at:8), (pv:830,at:8), (pv:831,at:1), (pv:832,at:2), (pv:833,at:2), (pv:834,at:16), (pv:835,at:7), (pv:836,at:1), (pv:837,at:1), (pv:838,at:8), (pv:839,at:3), (pv:840,at:16), (pv:841,at:6), (pv:842,at:16), (pv:843,at:2), (pv:844,at:2), (pv:845,at:1), (pv:846,at:6), (pv:847,at:16), (pv:848,at:8), (pv:849,at:1), (pv:850,at:2), (pv:851,at:3), (pv:852,at:1), (pv:853,at:22), (pv:854,at:2), (pv:855,at:1), (pv:856,at:4), (pv:857,at:1), (pv:858,at:1), (pv:859,at:1), (pv:860,at:1), (pv:861,at:2), (pv:862,at:2), (pv:863,at:1), (pv:864,at:1), (pv:865,at:1), (pv:866,at:8), (pv:867,at:6), (pv:868,at:16), (pv:869,at:3), (pv:870,at:134), (pv:871,at:2), (pv:872,at:1), (pv:873,at:3), (pv:874,at:8), (pv:875,at:22), (pv:876,at:9), (pv:877,at:16), (pv:878,at:3), (pv:879,at:1), (pv:880,at:1), (pv:881,at:3), (pv:882,at:12), (pv:883,at:16), (pv:884,at:1), (pv:885,at:1), (pv:886,at:2), (pv:887,at:9), (pv:888,at:7), (pv:889,at:1), (pv:890,at:16), (pv:891,at:1), (pv:892,at:1), (pv:893,at:1), (pv:894,at:1), (pv:895,at:14), (pv:896,at:1), (pv:897,at:9), (pv:898,at:1), (pv:899,at:1), (pv:900,at:8), (pv:901,at:16), (pv:902,at:13), (pv:903,at:1), (pv:904,at:8), (pv:905,at:1), (pv:906,at:5), (pv:907,at:1), (pv:908,at:1), (pv:909,at:5), (pv:910,at:3), (pv:911,at:1), (pv:912,at:16), (pv:913,at:6), (pv:914,at:4), (pv:915,at:1), (pv:916,at:13), (pv:917,at:9), (pv:918,at:1), (pv:919,at:6), (pv:920,at:3), (pv:921,at:1), (pv:922,at:255), (pv:923,at:8), (pv:924,at:8), (pv:925,at:7), (pv:926,at:16), (pv:927,at:2), (pv:928,at:1), (pv:929,at:16), (pv:930,at:1), (pv:931,at:7), (pv:932,at:16), (pv:933,at:1), (pv:934,at:8), (pv:935,at:2), (pv:936,at:8), (pv:937,at:1), (pv:938,at:16), (pv:939,at:9), (pv:940,at:42), (pv:941,at:2), (pv:942,at:16), (pv:943,at:8), (pv:944,at:16), (pv:945,at:2), (pv:946,at:2), (pv:947,at:1), (pv:948,at:12), (pv:949,at:9), (pv:950,at:9), (pv:951,at:1), (pv:952,at:42), (pv:953,at:9), (pv:954,at:6), (pv:955,at:9), (pv:956,at:8), (pv:957,at:14), (pv:958,at:2), (pv:959,at:1), (pv:960,at:22), (pv:961,at:10), (pv:962,at:3), (pv:963,at:8), (pv:964,at:1), (pv:965,at:2), (pv:966,at:1), (pv:967,at:1), (pv:968,at:3), (pv:969,at:3), (pv:970,at:1), (pv:971,at:29), (pv:972,at:1), (pv:973,at:1), (pv:974,at:11), (pv:975,at:1), (pv:976,at:3), (pv:977,at:1), (pv:978,at:49), (pv:979,at:1), (pv:980,at:1), (pv:981,at:1), (pv:982,at:2), (pv:983,at:1), (pv:984,at:16), (pv:985,at:9), (pv:986,at:1), (pv:987,at:6), (pv:988,at:1), (pv:989,at:1), (pv:990,at:1), (pv:991,at:16), (pv:992,at:16), (pv:993,at:8), (pv:994,at:1), (pv:995,at:9), (pv:996,at:2), (pv:997,at:1), (pv:998,at:2), (pv:999,at:16), (pv:1000,at:1), (pv:1001,at:1), (pv:1002,at:1), (pv:1003,at:1), (pv:1004,at:16), (pv:1005,at:1), (pv:1006,at:1), (pv:1007,at:1), (pv:1008,at:13), (pv:1009,at:1), (pv:1010,at:1), (pv:1011,at:1), (pv:1012,at:8), (pv:1013,at:8), (pv:1014,at:1), (pv:1015,at:16), (pv:1016,at:1), (pv:1017,at:4), (pv:1018,at:1), (pv:1019,at:9), (pv:1020,at:2), (pv:1021,at:145), (pv:1022,at:3), (pv:1023,at:8), (pv:1024,at:7), (pv:1025,at:1), (pv:1026,at:16), (pv:1027,at:1), (pv:1028,at:12), (pv:1029,at:1), (pv:1030,at:1), (pv:1031,at:1), (pv:1032,at:7), (pv:1033,at:1), (pv:1034,at:6), (pv:1035,at:1), (pv:1036,at:11), (pv:1037,at:2), (pv:1038,at:11), (pv:1039,at:1), (pv:1040,at:1), (pv:1041,at:3), (pv:1042,at:1), (pv:1043,at:2), (pv:1044,at:1), (pv:1045,at:1), (pv:1046,at:9), (pv:1047,at:4), (pv:1048,at:8), (pv:1049,at:16), (pv:1050,at:2), (pv:1051,at:17), (pv:1052,at:2), (pv:1053,at:16), (pv:1054,at:6), (pv:1055,at:8), (pv:1056,at:16), (pv:1057,at:8), (pv:1058,at:1), (pv:1059,at:1), (pv:1060,at:8), (pv:1061,at:6), (pv:1062,at:8), (pv:1063,at:5), (pv:1064,at:145), (pv:1065,at:1), (pv:1066,at:3), (pv:1067,at:5), (pv:1068,at:1), (pv:1069,at:1), (pv:1070,at:1), (pv:1071,at:1), (pv:1072,at:8), (pv:1073,at:23), (pv:1074,at:6), (pv:1075,at:1), (pv:1076,at:2), (pv:1077,at:3), (pv:1078,at:2), (pv:1079,at:2), (pv:1080,at:58), (pv:1081,at:16), (pv:1082,at:1), (pv:1083,at:1), (pv:1084,at:1), (pv:1085,at:9), (pv:1086,at:3), (pv:1087,at:1), (pv:1088,at:2), (pv:1089,at:14), (pv:1090,at:2), (pv:1091,at:7), (pv:1092,at:16), (pv:1093,at:8), (pv:1094,at:1), (pv:1095,at:6), (pv:1096,at:1), (pv:1097,at:4), (pv:1098,at:7), (pv:1099,at:3), (pv:1100,at:3), (pv:1101,at:1), (pv:1102,at:2), (pv:1103,at:14), (pv:1104,at:2), (pv:1105,at:8), (pv:1106,at:1), (pv:1107,at:1), (pv:1108,at:1), (pv:1109,at:1), (pv:1110,at:1), (pv:1111,at:3), (pv:1112,at:6), (pv:1113,at:1), (pv:1114,at:1), (pv:1115,at:60), (pv:1116,at:1), (pv:1117,at:9), (pv:1118,at:1), (pv:1119,at:16), (pv:1120,at:1), (pv:1121,at:8), (pv:1122,at:1), (pv:1123,at:16), (pv:1124,at:3), (pv:1125,at:50)]
[INFO ] fr.inria.main.evolution.AstorMain.run(AstorMain.java:163) - Time Total(s): 10911.345
